0    31    127  163    31    0    12    32    10   32   61    128    64    30    31    27    27    88    0    121   144    228    36 
1    31    127  163    31    0    12    32    10   32   61    128    64    30    31    27    27    88    0    121   144    228    36 
2    31    127  163    31    0    12    32    10   32   61    128    64    30    31    27    27    88    0    121   144    228    36 
3    31    127  163    31    0    12    32    10   32   61    128    64    30    31    27    27    88    0    121   144    228    36 
4    31    127  163    31    0    12    32    10   32   61    128    64    30    31    27    27    88    0    121   144    228    36 
5    31    127  163    31    0    12    32    10   32   61    128    64    30    31    27    27    88    0    121   144    228    36 
6    31    127  163    31    0    12    32    10   32   61    128    64    30    31    27    27    88    0    121   144    228    36 
7    31    127  163    31    0    12    32    20   32   61    128    64    30    31    27    27    88    0    121   144    228    36 
8    31    127  163    31    0    12    32    10   32   61    128    64    30    31    27    27    88    0    121   144    228    36 
9    31    127  163    31    0    12    32    10   32   61    128    64    30    31    27    27    88    0    121   144    228    36 
10    31    127  163    31    0    12    32    10   32   61    128    64    30    31    27    27    88    0    121   144    228    36 
11    31    127  163    31    0    12    32    10   32   61    128    64    30    31    27    27    88    0    121   144    228    36 
12    31    127  163    31    0    12    32    10   32   61    128    64    30    31    27    27    88    0    121   144    228    36 
13    31    127  163    31    0    12    32    10   32   61    128    64    30    31    27    27    88    0    121   144    228    36 
14    31    127  163    31    0    12    32    30   32   61    128    64    30    31    27    27    88    0    121   144    228    36 
15    31    127  163    31    0    12    32    20   32   61    128    64    30    31    27    27    88    0    121   144    228    36 
16    31    127  163    31    0    12    32    10   32   61    128    64    30    31    27    27    88    0    121   144    228    36 
17    31    127  163    31    0    12    32    10   32   61    128    64    30    31    27    27    88    0    121   144    228    36 
18    31    127  163    31    0    12    32    10   32   61    128    64    30    31    27    27    88    0    121   144    228    36 
19    31    127  163    31    0    12    32    10   32   61    128    64    30    31    27    27    88    0    121   144    228    36 
20    31    127  163    31    0    12    32    10   32   61    128    64    30    31    27    27    88    0    121   144    228    36 
21    31    127  163    31    0    12    32    10   32   61    128    64    30    31    27    27    88    0    121   144    228    36 
22    31    127  163    31    0    12    32    10   32   61    128    64    30    31    27    27    88    0    121   144    228    36 
23    31    127  163    31    0    12    32    20   32   61    128    64    30    31    27    27    88    0    121   144    228    36 
24    31    127  163    31    0    12    32    10   32   61    128    64    30    31    27    27    88    0    121   144    228    36 
25    31    127  163    31    0    12    32    10   32   61    128    64    30    31    27    27    88    0    121   144    228    36 
26    31    127  163    31    0    12    32    10   32   61    128    64    30    31    27    27    88    0    121   144    228    36 
27    31    127  163    31    0    12    32    10   32   61    128    64    30    31    27    27    88    0    121   144    228    36 
28    31    127  163    31    0    12    32    10   32   61    128    64    30    31    27    27    88    0    121   144    228    36 
29    31    127  163    31    0    12    32    10   32   61    128    64    30    31    27    27    88    0    121   144    228    36 
30    31    127  163    31    0    12    32    10   32   61    128    64    30    31    27    27    88    0    121   144    228    36 
31    31    127  163    31    0    12    32    20   32   61    128    64    30    31    27    27    88    0    121   144    228    36 
