# TRIM CALIBRATION    FEB2_3_1    pulse_ampl_min=20    pulse_ampl_max=85    pulse_ampl_fast=15
#
ch:   0      99   99  101  103  114  115  116   98  123   98  101  104  105  128  124  129  100  101  112  102  120  115  115   91  119  105  108  119  129  123  102    0
ch:   1     118  122  113  117  120  117  112  117  130  124  104  128  114  125  125  117  102  112  130  135  104  117  117  118  117  121  118  115  116  120  117    0
ch:   2     119  123  108  103  111  132  113  116  102  107  126  120  112  117  103  108  128  104  102  118  123  103  112  118  100  119  123  114  105  107  101    0
ch:   3     100  108  117  109  111  118  129  116  119  105  122  119  106  110  124  112  117  102  117  107  119  117  103  118  118  122  115  101  114  112  123    0
ch:   4     120  119  120  127  123  107  117  113  130  116  111  100  106  115  126  114  122  106  102  110  123  120  102  107  120  121  124  118  117  108  119    0
ch:   5     117  113  114  119  111  122  117  119  119  119  106  117  115  125  116  119  122  109  117  102  129  118  114  115  121  120  123  109  117  124  120    0
ch:   6     100  107  109  117  104  122  112  107  123  124  105  130  119  118  119  120  118  120  125  114  102  114  115  122  117  109  107  111  123  107  116    0
ch:   7     116  118  123  115  124  119  117  115  102  113  117  120  115  122  117  108  124  114  121  101  130  116  117  112  131  126  120  102  115  108  119    0
ch:   8     107  117  106  119  124  103  112  101  126  116  133  113  103  123  116  123  131  125  119  104  114  126  102  134  131  127  105  124  107  123  123    0
ch:   9     116  114  115  122  117  113  125  126  118  127  106  115  120  119  117  129  118  122  119  124  120  120  112  118  123  123  105  130  121  117  126    0
ch:  10     101  111  116  123  117  115  117  114  115  122  120  116  109  101  116  106  112  112  118  113  115  121  131  124  107  125  116  105  109  125  104    0
ch:  11     105  116  112  114  120  115  126  121  124  124  126  107  122  128  126  130  112  127  118  115  117  111  126  128  127  120  117  119  116  129  116    0
ch:  12     107  102  103  113  114  118  124  122  114  125  127  112  117  125  117  106  118  117  116  117  129  123  118  118   93  119  124  104  119  114  116    0
ch:  13     101  119  115  112  100  119  105  123  114  117  116  118  119  119  107  123  118  118  121  103  113  107  121  126  122  122  120  118  117  120  111    0
ch:  14     122  112  109  124  123  122  120  120  117  115  125  132  116  121  124  128  143  117  116  128  118  129  121  115  114  105  105  109  108  108  123    0
ch:  15     108  101  108  111  117  125  130  131  125  118  117  109  126  130  131  108  117  113  119  120  123  121  116  123  131  129  118  111  117  122  109    0
ch:  16     114  105  118  105  118  115  125  130  119  120  119  123  116  128  119  121  107  123  118  122  108  125  115  107  114  140  121  105  116  100  106    0
ch:  17     115  114  106  119  122  119  106  117  116  112  120  122  120  106  129  123  121  123  110  115  121  106  119  116  123  119  123  120  125  116  101    0
ch:  18      93  107  104  122  112  115  113  121  125  109  139  115  107  116  129  108  132   99  128  128  118  118  115  118  117  112  127  112  114  124  121    0
ch:  19     108  121  113  128  119  108  119  129  114  134  129  128  127  126  123  121  122  123  135  127  120  120  114  115  119  126  121  107  124  117  117    0
ch:  20     106   98  125  109  107  122  132  118  135  121  124  127  126  126  133  128  114  123  107  102  119  114  115  127  111  127  119  105  114  117  122    0
ch:  21     105  116  116  117  113  112  130  124  131  123  116  123  126  112  119  135  104  120  121  116  121  107  127  123  128  122  129  124  116  130  104    0
ch:  22     116  104  108  123  110  104  119  124  112  127  114  131  124  114  115  135  115  100  120  114  130  119  113  117  118  123  126  119   98  117  103    0
ch:  23      89  117  119  119  113  121  122  123  116  107  124  124  118  132  123  121  114  117  126  117  142  111  111  126  119  123  122  137  122  116  114    0
ch:  24     100  119  119  106  114  122  119  123  122  122  120  108  118  119  117  119  123  137  125  116  134  123  116  116  123  124  114  122  107  121  113    0
ch:  25     105  120  121  118  100  111  122  123  127  119  134  122  111  132  114  129  130  124  132  119  119  116  127  111  125  109  131  120  120  119  125    0
ch:  26     120  119  102  122  115  119  116  119  124  130  118  110  125  117  134  115  121  125  129  110  121  126  122  130  124  120  118  122  125  107  121    0
ch:  27     113  114  106  118  105  127  105  122  127  127  126  125  116  121  124  127  124  128  123  119  122  122  118  127  118  121  123  119  104  118  124    0
ch:  28     105  124  119  107  119  123  119  120  120  121  153  132  119  119  119  131  124  117  130  138  118  132  114  103  119  119  118  119  122  118  123    0
ch:  29     106  104  121  123  119  128  124  124  113  123  127  117  119  120  116  107  117  129  119  117  122  130  121  120  124  133  134  141  130  116  120    0
ch:  30     121  113  115  117  118  124  125  121  119  106  122  116  115  120  105  125  118  135  127  126  126  127  130  117  123  128  113  127  122  127  116    5
ch:  31     106  101  115  116  116  116  121  122  121  119  123  125  128  123  121  130  121  121  123  123  118  113  121  106  128  126  120  125  117  117  141    9
ch:  32     105  100  104  106  120  106  122  117  120  121  121  129  120  119  122  111  118  118  118  142  122  123  123  124  129  127  119  113  123  131  125    4
ch:  33     116  109  115  106  109  121  112  119  127  116  121  123  124  121  135  114  140  122  134  119  115  110  131  115  125  115  121  115  120  127  107    0
ch:  34     102  101  114  115  114  124  119  117  121  120  118  125  103  117  121  118  121  123  132  120  118  120  120  120  118  127  123  113  107  119  124   11
ch:  35     108  101  117  129  118  127  119  115  124  121  130  122  132  112  122  120  124  127  135  124  131  120  132  122  118  120  127  125  118  113  123    4
ch:  36     110  104  111  115  126  129  117  120  118  120  121  125  121  118  119  125  110  120  115  140  113  131  117  129  124  131  119  115  126  118  117    0
ch:  37     105  115  102  120  125  111  121  121  140  120  138  120  115  116  131  130  122  118  119  114  134  123  107  122  118  120  119  115  122  120  119    0
ch:  38     104  115  119  117  125  118  117  125  116  126  122  120  132  121  119  124  125  103  121  118  125  132  122  123  116  120  117  138  126  148  120    0
ch:  39     110  101  118  104  129  118  123  121  119  124  111  128  118  118  123  141  128  127  130  118  136  118  129  134  121  126  126  123  127  135  127    0
ch:  40     103  116  113  118  120  131  118  125  117  124  119  120  124  105  120  118  118  155   99  135  136  123  120  133  120  132  119  125  116  120  121    4
ch:  41     114  107  110  118  108  112  116  119  120  133  127  118  115  122  121  125  137  118  123  107  129  120  131  123  135  119  116  121  121  146  128    0
ch:  42     116  112  112  119  105  118  121  131  130  124  120  117  122  137  115  123  137  115  121  123  121  130  119  109  123  132  101  137  129  114  110    0
ch:  43     107  118  108  115  130  118  117  117  123  121  124  123  116  131  129  118  136  121  112  106  123  127  123  142  116  116  142  123  129  122  126    3
ch:  44      91  115  113  118  119  115  123  123  124  129  124  115  129  117  129  115  122  102  122  121  123  130  125  111  118  112  124  119  131  127  123    8
ch:  45     114  119  122  127  128  116  111  120  119  118  124  120  120  114  122  129  125  130  132  114  118  113  122  119  120  120  114  122  117  123  126    8
ch:  46     107  106  115  101  120  129  127  123  104  126  127  123  118  125  116  119  125  126  123  130  120  121  123  122  126  128  126  120  125   99  121    3
ch:  47      98  114  108  107  113  110  125  124  130  122  126  127  120  128  133  133  127  127  122  122  120  117  120  126  125  124  129  130  116  141  118    0
ch:  48     119  120  119  114  109  115  109  120  118  121  123  120  129  110  120  115  132  118  123  116  115  115  126  108  123  130  119  112  119  103  127   15
ch:  49     118  101  103  121  113  117  118  122  122  136  126  123  121  114  116  118  131  122  116  126  138  121  118  121  119  122  123  121  114  114  118    3
ch:  50     106  117  116  107  119  117  127  122  123  120  124  121  124  118  123  134  114  122  126  112  130  116  127  118  132  132  120  123  114  136  124   12
ch:  51     102  108  125  110  119  120  120  116  130  129  129  119  125  120  127  119  135  131  117  133  142  125  123  122  131  122  120  131  132  130  131    5
ch:  52      97  105  115  107  122  118  125  122  115  132  119  126  123  122  121  136  114  132  126  126  120  119  118  105  135  117  123  129  126  131  129   19
ch:  53     100  106  114  117  121  131  117  120  116  132  127  125  117  123  120  139  128  123  122  129  132  123  134  122  131  125  135  129  135  132  134    5
ch:  54     116  114  104  124  119  116  126  122  129  129  129  125  135  130  120  121  125  125  120  121  136  120  118  123  131  136  125  159  103  134  122   10
ch:  55     100  107  121  123  111  121  119  125  135  136  121  122  144  126  134  121  119  127  122  129  134  117  128  126  118  118  130  115  124  126  118    2
ch:  56     102  115  116  101  123  134  137  121  125  130  126  133  124  126  119  119  127  132  112  121  121  134  129  137  114  115  112  113  122  122  123    7
ch:  57     106  107  106  106  115  131  105  121  115  130  121  127  113  133  112  131  113  127  125  119  122  128  127  106  135  127  133  124  127  123  132    4
ch:  58     120  107  133  121  131  129  132  138  135  132  135  125  136  127  135  136  134  145  131  152  138  148  152  143  145  133  148  140  163  153  159    0
ch:  59     106  114  116  105  120  106  129  118  117  122  126  123  114  123  128  135  132  125  119  121  129  127  114  130  117  129  129  134  118  132  121    0
ch:  60     116  107  105  119  121  121  122  119  121  117  134  127  116  112  116  116  117  127  134  116  115  110  127  128  118  119  124  123  118  128  122    0
ch:  61      93  106  116  118  115  123  121  131  135  120  134  122  120  127  112  122  136  128  126  134  126  124  126  121  123  120  125  133  124  135  131    0
ch:  62     115  117  112  119  118  123  125  121  119  122  124  126  133  130  134  139  121  130  132  119  128  133  119  118  132  154  123  108  123  135  128    2
ch:  63     107  107  105  118  117  117  125  125  109  121  128  129  118  133  136  136  121  128  122  122  133  112  119  132  134  123  123  119  118  125  128    2
ch:  64     109  121  120  115  104  131  120  128  123  127  122  132  125  124  123  126  126  118  135  103  120  119  125  116  124  126  131  124  125  127  124    7
ch:  65     104  106  109  116  100  121  121  132  136  108  112  120  135  113  119  134  131  130  123  133  126  122  126  102  129  122  124  112  123  116  107    0
ch:  66     100  109  101  118  116  109  120  119  122  109  108  124  131  125  122  118  138  127  127  128  115  127  121  118  126  122  124  139  119  128  135    6
ch:  67     115  116  113  116  118  119  121  120  123  120  122  130  126  127  110  133  119  128  137  153  134  126  129  122  135  128  129  119  125  125  131    4
ch:  68     115  114   99  121  107  128  105  119  120  119  126  115  121  114  130  120  120  141  125  125  106  114  112  124  116  114  130  123  138  120  121    0
ch:  69     108  103   99  112  110  122  128  109  125  124  122  122  132  112  123  124  127  131  120  130  134  128  145  129  120  125  132  115  112  119  126    0
ch:  70     115  104  116  118  118  126  127  125  114  124  118  119  118  117  132  122  130  124  119  125  120  126  120  121  123  129  137  117  120  131  121    8
ch:  71     100  118  104  121  121  115  129  120  123  112  119  128  127  121  135  128  135  128  137  130  149  127  114  126  133  122  125  127  132  122  140    0
ch:  72     128  137  128  124  128  128  128  128  128  128  128  128  128  128  128  128  128  128  128  128  128  128  128  128  128  128  128  128  128  128  128    0
ch:  73     108  120  103  114  121  110  122  113  122  138  132  131  128  135  134  130  121  137  137  155  140  141  136  127  128  119  132  129  130  147  128    0
ch:  74     108  114  113  116  117  116  124  112  103  135  140  124  124  130  118  122  122  116  136  134  131  124  122  116  124  131  135  133  118  122  132    8
ch:  75      99   96  103  112  117  108  120  128  131  126  133  122  129  120  129  126  130  144  127  115  124  127  115  114  117  126  130  123  130  130  112    0
ch:  76     118  104  108  115  109  126  130  126  119  116  118  128  124  120  140  128  129  131  124  126  125  132  122  125  124  126  120  128  135  123  129    0
ch:  77     101   97   99  107  121  109  121  136  130  129  137  132  124  134  127  130  131  125  118  116  113  119  124  125  139  143  120  129  129  115  126    0
ch:  78      99  122  109  108  116  125  132  125  129  123  123  120  134  103  124  125  103  122  116  130  122  118  124  120  135  118  124  122  118  114  123    7
ch:  79     101   97  104  104  133  104  121  135  133  128  126  123  119  137  115  138  133  122  129  132  142  122  124  127  131  119  111  136  139  132  149    0
ch:  80      91  107  105  115  119  115  127  113  113  119  122  145  139  134  122  115  120  118  129  118  124  126  118  128  119  110  113  120  133  121  131    0
ch:  81     107  104  118  117  132  128  128  132  120  128  131  122  131  124  132  124  125  130  126  132  116  134  134  123  128  121  123  121  126  118  123    0
ch:  82      90  104  102  116  121  130  127  129  116  124  120  125  135  127  126  124  123  125  110  121  137  118  131  122  137  124  141  101  115  130  118    0
ch:  83     100  104  102  117  111  113  129  130  132  135  111  118  115  118  125  128  122  124  126  124  128  116  132  147  126  128  129  130  120  127  130    0
ch:  84     104  102  106  119  123  118  122  132  129  118  119  121  122  133  126  132  114  118  122  130  127  120  130  124  129  120  129  129  126  128  110    0
ch:  85     100  103  118  124  111  110  106  120  133  128  145  131  129  128  121  120  122  132  128  131  131  128  125  126  134  133  126  133  121  139  118    0
ch:  86     114  104  100  116  115  117  108  128  117  130  113  110  118  119  119  131  120  121  123  121  146  137  139  123  118  128  124  125  134  139  137    0
ch:  87     115  104  115  104  111  117  122  115  109  128  120  114  132  120  119  122  122  124  128  128  121  131  122  128  115  123  136  139  117  119  117    0
ch:  88     107  114  114  122  108  121  102  112  128  125  131  132  132  130  118  143  118  112  122  136  121  122  123  112  121  132  124  120  131  107  119    0
ch:  89      97  106  116  100  115  120  116  115  131  122  115  126  127  129  133  114  119  125  121  141  119  123  117  122  127  127  129  120  130  130  125    0
ch:  90     116  104  118  120  105  131  126  121  121  121  135  122  128  119  117  132  107  128  132  133  139  128  119  124  118  125  119  119  120  136  115    0
ch:  91      99  100  116  107  114  115  121  121  132  116  116  130  133  133  130  121  124  105  120  130  115  134  126  119  121  123  145  144  128  122  144    0
ch:  92     102  104  104  111  121  124  121  117  119  119  125  133  121  128  121  132  128  126  117  119  122  124  124  121  126  120  122  106  118  129  137    0
ch:  93     107  103  107  107  115  123  108  121  122  134  126  121  126  128  124  126  128  123  122  134  127  120  126  131  127  117  130  124  128  124  118    0
ch:  94     107  109  104   99  117  114  132  114  131  115  130  125  118  133  126  121  130  113  106  136  124  116  130  127  119  121  125  117  120  128  129    0
ch:  95      99  117  102  100  117  117  124  118  116  124  140  125  122  118  133  131  124  127  138  129  129  127  126  125  129  125  135  133  135  132  128    0
ch:  96      99  104  117  105  118  118  127  129  129  127  128  121  132  125  133  121  129  125  107  130  132  141  119  125  119  135  120  120  125  119  127    0
ch:  97     102   94  102  104  121  116  136  119  129  131  130  122  135  127  129  132  133  135  147  136  131  125  127  130  129  126  131  131  134  121  132    0
ch:  98     101   91  115  102  110  117  111  116  125  118  117  122  120  120  125  133  118  120  120  130  134  123  124  118  121  124  126  116  128  124  120    0
ch:  99     106  106  106  122  118  117  121  116  114  118  124  130  116  118  136  139  122  130  131  130  120  140  137  125  129  126  109  122  122  133  132    0
ch: 100     115  119  106  133  118  124  122  124  118  120  121  131  118  111  126  121  123  121  124  117  115  129  116  120  123  118  118  129  126  114  131    0
ch: 101     104  100  113  107  117  107  121  117  133  113  119  107  121  129  119  129  135  136  133  131  126  122  133  132  121  112  127  127  120  129  129    0
ch: 102     113  114  116  115  115  115  120  126  120  124  120  119  118  117  128  119  128  120  128  128  119  114  114  126  135  126  137  129  103  117  115    0
ch: 103      97  107  119  105  118  121  120  128  122  130  132  124  122  129  128  128  122  120  118  131  136  120  137  137  129  131  119  130  123  115  124    0
ch: 104     101  108  115  118  120  105  123  116  133  119  121  123  133  115  120  127  118  128  130  136  132  121  123  117  105  118  125  128  113  129  114    0
ch: 105      99  106   93  109  130  112  117  118  116  130  126  122  124  122  136  129  122  124  139  125  132  136  113  125  141  121  124  119  115  104  117    0
ch: 106     107  120  104  117  121  115  124  128  121  132  121  121  128  132  131  114  124  124  136  115  128  137  141  120  114  133  122  114  121  114  118    0
ch: 107     103  103  104  104  107  117  123  112  114  122  126  128  116  130  125  125  129  120  123  125  135  128  156  118  127  138  124  139  122  144  133    0
ch: 108     105  116  116  117  119  118  118  115  117  122  131  117  122  131  138  128  122  124  131  120  122  131  119  132  127  131  121  133  123  124  129    0
ch: 109      98  105  109  115  114  115  115  134  134  129  120  126  120  122  127  128  130  129  109  131  129  124  113  119  119  114  120  119  125  139  131    0
ch: 110     100  110  115  111  102  119  127  122  113  118  121  121  128  113  116  123  132  125  123  119  119  118  122  119  128  125  124  119  128  120  114    0
ch: 111     104  100  116  100  115  119  136  124  126  128  109  116  122  108  119  121  122  114  124  122  134  128  143  134  125  136  116  141  135  122  123    0
ch: 112     103  104  117   88  103  118  116  119  123  106  121  101  114  120  118  119  118  122  124  107  119  122  116  112  126  118  124  122  124  109  129    0
ch: 113      96   91  119   95  102  115  118  118  120  134  133  124  116  120  123  134  137  134  133  134  128  122  135  138  131  125  131  116  156  125  137    0
ch: 114     110  104  118  122  120  129  129  124  113  125  128  111  125  119  119  125  123  126  132  141  118  119  122  117  121  110  128  102  120  135  121    0
ch: 115     104  100  105  116  105  115  118  124  127  129  119  132  127  119  126  115  129  108  128  122  122  125  138  118  127  107  134  129  142  135  132    0
ch: 116     115  115  107  124  119  123  122  127  126  136  131  114  118  129  116  119  121  128  118  122  123  125  116  118  132  111  124  127  131  128  122    0
ch: 117     103   88  107  115  107  116  114  117  131  131  123  111  124  126  132  119  128  121  145  132  124  132  122  115  126  123  132  116  123  153  125    0
ch: 118     100  100  105  107  121  119  115  120  114  123  126  126  118  119  119  125  107  124  119  128  120  116  133  118  129  122  132  123  116  118  128    0
ch: 119     105  106   96  117  104  118  126  116  120  125  126  126  123  120  121  134  125  121  120  126  128  133  116  121  121  133  132  129  125  115  106    0
ch: 120     104  105  123  111  113  129  129  131  123  122  124  118  137  116  114  120  128  127  123  117  112  119  117  122  118  120  118  129  115  116  120    0
ch: 121     104  101  108  103  106  108  124  118  128  126  122  123  136  121  133  116  135  129  141  137  128  133  124  119  131  120  123  121  126  128  119    0
ch: 122      97  119  115  106  128  117  127  120  125  129  123  117  121  118  114  120  135  124  117  123  125  123  133  124  124  115  118  117  115  125  110    0
ch: 123      99   85   99  106  106  105  123  123  137  134  128  124  127  132  106  131  127  128  127  126  125  114  125  128  131  122  126  131  128  119  139    0
ch: 124     101  104  120  110  118  129  142  125  124  127  130  133  131  133  128  126  133  142  130  127  147  143  153  137  138  141  146  136  143  144  147    0
ch: 125     106   91   98  102  112  122  124  122  103  118  131  126  131  123  112  124  117  134  133  131  128  117  119   99  119  121  125  132  121  117  132    0
ch: 126     107  117  106  113  104  114  122  121  111  123  103  113  134  119  114  133  114  125  118  121  121  121  123  125  120  129  122  112  117  135  114    0
ch: 127     105   97  104  116  102  112  121  131  120  135  119  123  120  132  122  136  124  120  139  123  130  124  118  130  124  116  130  119  134  125  134    0
