# TRIM CALIBRATION    FEB2_3_0    pulse_ampl_min=20    pulse_ampl_max=85    pulse_ampl_fast=15
#
ch:   0     121   99  118  125  107  122  129  120  122  118  111  121  127  114  115  125  121  117  123  137  116  120  116  109  116  121  117  119  120  126  118    0
ch:   1     114  121  111  112  109  121  125  117  120  116  120  122  117  116  119  119  117  116  120  118  120  133  126  116  125  118  117  124  124  127  120    0
ch:   2     113  116  114  112  109  120  110  121  105  124  120  120  114  122  108  115  107  115  115  124  122  116  108  108  111  130  118  125  120  109  119    0
ch:   3     107  113  116  123  118  119  119  124  129  119  119  116  117  114  122  121  117  122  122  117  124  132  122  122  121  118  126  111  129  124  110    0
ch:   4     113  118  125  123  123  119  133  118  120  126  127  123  115  129  123  129  127  120  117  124  119  122  117  117  115  118  131  120  110  114  119    0
ch:   5     109  106  120  114  126  115  127  113  120  112  134  117  115  122  120  115  116  122  116  120  125  122  108  117  100  121  122  124  131  134  123    0
ch:   6     114  118  115  116  114  109  123  115  118  111  119  110  128  116  117  113  120  119  118  137  142  113  111  107  111  138  121  112  109  130  116    0
ch:   7     113  113  114  115  118  121  114  128  120  118  119  133  118  121  127  123  120  130  120  118  109  119  130  110  121  121  126  116  119  126  123    0
ch:   8     114  115  116  120  125  127  120  106  118  113  124  117  126  123  113  122  116  124  119  106  115  104  117  119  116  119  104  109  109  126  121    0
ch:   9     122  104  121  118  121  120  121  122  112  121  124  113  124  113  121  121  122  109  119  118  134  116  120  109  119  133  121  116  119  107  127    0
ch:  10     102  115  112  108  114  127  126  122  135  126  105  141  132  125  128  117  121  117  130  124  126  133  113  107  119  107  112  123  119  124  117    0
ch:  11     105  106  119  117  114  118  120  136  107  121  131  131  122  121  133  119  118  122  106  123  132  126  117  120  132  121  128  121  127  123  128    0
ch:  12     104  115  114  131  119  120  124  120  115  117  128  118  124  109  130  120  134  117  116  142  115  112  124  115  115  126  117  130  118  122  122    0
ch:  13     118  124  106  116  120  124  123  119  122  121  120  136  109  118  122  132  123  128  117  130  135  127  118  117  130  126  122  116  115  119  117    0
ch:  14     121  106  123  121  113  118  116  122  121  112  126  127  131  118  121  130  121  117  128  120  128  121  116  122  116  119  118  125  122  105  122    0
ch:  15     116  118  122  122  124  112  123  120  118  136  126  117  127  123  126  122  118  133  120  123  121  119  121  127  119  126  132  119  126  110  127    0
ch:  16     116  116  117  113  132  123  118  120  122  126  132  118  128  119  123  119  107  128  120  125  123  122  140  120  133  119  114  119  120  120  122    0
ch:  17     104  116  115  117  120  123  118  115  111  119  122  120  120  134  124  133  118  110  121  130  122  121  121  123  122  120  130  120  105  120  131    0
ch:  18     115  115  116  130  124  115  119  123  126  137  119  121  125  108  122  119  117  124  122  127  120  124  112  124  124  127  116  115  119  113  119    0
ch:  19     105  105  116  117  120  118  111  124  124  122  119  116  126  125  114  124  122  149  117  123  124  121  114  118  134  122  114  118  131  124  128    0
ch:  20     105  117  106  125  121  116  126  122  120  124  119  122  129  117  122  128  117  124  124  119  127  113  122  128  128  121  119  115  127  114  139    0
ch:  21     104  100  115  121  116  122  129  121  121  128  120  132  128  124  117  132  122  129  127  124  117  130  129  118  106  132  116  121  117  119  117    0
ch:  22     116  106  122  104  125  120  119  123  118  113  120  133  123  140  135  120  130  125  126  122  117  131  123  116  122  129  117  129  120  125  116    0
ch:  23     101  117  115  111  119  120  128  125  122  115  115  119  122  125  135  120  119  116  129  132  131  122  134  146  134  132  139  136  118  129  127    0
ch:  24     104  117  116  104  124  126  129  121  119  134  125  127  125  121  137  124  137  123  115  118  133  122  116  119  113  121  120  132  105  120  123    0
ch:  25     110  121  126  117  117  127  120  122  117  125  135  120  137  129  126  130  124  134  122  118  115  127  120  134  132  120  118  124  130  106  120    0
ch:  26     112  113  115  118  110  126  118  128  119  115  122  112  123  115  111  119  123  124  133  115  112  123  127  130  124  123  127  107  117  122  118    0
ch:  27     112  105  113  113  123  120  120  121  117  132  133  131  128  129  130  116  133  120  119  123  122  118  129  143  123  125  139  114  132  120  135    0
ch:  28     110  114  118  129  130  132  123  128  126  134  119  122  124  118  121  139  126  124  129  128  122  126  122  128  123  126  121  116  131  124  121    0
ch:  29     100  117  117  104  118  116  126  126  126  125  136  130  130  130  114  122  132  119  121  141  120  128  134  119  130  125  122  135  123  134  118    0
ch:  30     104  104  119  114  114  120  128  131  126  112  129  120  129  109  122  124  136  123  125  129  123  117  123  122  110  116  130  119  107  124  128    0
ch:  31     106  101  116  117  121  126  122  121  120  130  126  121  128  137  132  132  121  126  139  134  121  127  128  117  130  137  123  132  120  135  119    0
ch:  32     114  116  120  121  121  108  112  118  122  133  119  128  127  122  131  123  120  134  119  124  125  119  124  117  119  124  130  130  126  122  118    0
ch:  33     108  119  124  115  116  118  122  120  125  131  107  134  123  121  130  117  123  124  135  126  105  122  133  140  128  131  121  121  137  125  134    0
ch:  34     117  121  118  118  118  121  125  132  130  130  124  128  111  136  124  106  130  123  105  134  119  121  126  141  119  124  118  135  127  129  123    0
ch:  35     116  118  115  122  104  118  118  124  120  117  126  135  119  133  131  136  124  131  130  121  131  128  129  128  129  124  132  113  123  122  134    0
ch:  36     105  109  124  117  117  116  117  122  105  120  123  131  117  132  122  113  127  133  127  136  128  123  140  122  110  134  125  128  119  123  113    0
ch:  37     102  116  106  121  114  120  131  120  121  127  126  114  132  120  139  116  120  127  117  127  130  123  134  123  134  117  120  136  121  123  127    0
ch:  38     106  113  115  118  129  116  127  126  116  118  122  117  116  128  128  121  132  122  122  119  136  123  119  105  133  115  119  119  122  135  127    0
ch:  39     106  122  127  116  115  117  116  124  112  119  120  131  119  134  133  135  118  128  131  106  128  140  119  117  123  154  133  138  126  131  128    0
ch:  40     101  104  118  119  124  127  133  116  131  124  127  123  132  120  123  116  128  119  139  113  137  126  123  133  119  126  122  119  122  108  135    2
ch:  41     120  101  103  119  120  116  121  124  120  120  117  131  121  134  137  117  145  120  118  134  122  130  131  127  130  125  134  119  123  128  117    0
ch:  42     116  117  105  112  131  104  124  121  126  124  127  113  122  121  137  134  132  132  121  127  154  128  121  123  119  118  113  129  135  125  108    0
ch:  43     101  110  115  108  117  120  125  133  122  132  124  133  122  127  124  129  119  118  135  136  128  117  136  121  124  116  134  134  131  121  113    0
ch:  44     114  118  112  121  117  121  127  125  124  120  118  125  121  119  121  136  119  127  116  122  113  118  123  127  121  117  133  134  119  117  123    0
ch:  45     104  116  121  114  114  104  116  125  122  121  127  131  122  121  123  124  126  125  130  118  132  123  123  116  133  124  127  133  123  134  120    0
ch:  46     103  106  104   96  117  120  118  131  129  119  117  133  126  120  123  122  127  135  123  118  129  112  129  130  123  133  130  124  125  135  118    2
ch:  47     100  109  106  124  121  112  125  128  129  128  125  127  124  135  136  132  133  116  120  117  120  121  140  129  131  134  127  148  120  133  119    0
ch:  48     104  104  106  120  116  113  114  126  121  126  127  132  117  131  118  124  132  120  126  133  122  122  132  124  120  121  132  116  119  123  113    0
ch:  49     102  113  102  118  117  122  120  126  129  123  119  131  119  129  137  131  117  115  133  127  129  121  129  132  131  138  120  132  115  120  137    0
ch:  50     104  100  107  117  122  132  121  122  117  133  122  117  123  121  111  123  133  130  133  119  133  121  124  130  121  122  123  120  121  114  126    0
ch:  51     114  104  109  118  117  128  122  114  117  131  136  130  132  122  131  124  137  135  120  135  132  134  118  128  113  132  131  124  134  127  123    0
ch:  52     116  100  117  114  117  119  132  119  134  113  123  136  123  121  133  121  137  133  120  137  128  120  126  130  111  136  112  131  126  111  115    0
ch:  53     110  112  107  117  124  128  128  130  121  117  133  122  112  127  137  133  131  118  137  128  133  127  129  136  121  120  133  135  117  119  130    0
ch:  54     108  116  106  105  115  115  122  120  121  122  126  121  122  134  128  129  128  119  128  129  131  131  139  109  133  113  128  121  120  132  128    0
ch:  55     117  104  114  112  106  121  129  126  115  122  131  124  125  132  126  122  131  125  134  139  121  124  127  133  120  136  124  125  133  139  123    0
ch:  56     106  115   99  109  117  117  120  120  133  112  133  130  128  118  132  127  133  128  128  119  125  106  118  136  127  131  120  120  119  136  128    0
ch:  57     102  100  114  104  118  120  122  119  134  133  124  123  121  105  123  119  113  122  138  123  128  123  120  139  132  132  122  121  132  125  123    0
ch:  58     101  115  107  107  130  118  117  130  121  123  132  140  123  132  115  117  121  118  130  132  119  119  133  120  128  125  104  111  124  118  126   10
ch:  59     108   99  116  114  106  121  125  125  121  131  121  127  123  124  126  133  116  127  132  135  136  135  125  124  122  128  122  136  142  132  119    0
ch:  60     111  100  105  118  132  105  116  131  125  121  122  138  128  126  132  121  126  133  125  135  131  123  136  130  127  121  125  128  132  122  118    0
ch:  61      90  102  106  116  121  116  126  118  122  129  121  120  122  149  124  142  119  118  124  133  108  126  123  123  114  124  132  106  123  133  136    0
ch:  62     113  116   99  104  118  108  119  120  121  129  131  118  123  135  119  136  117  128  130  127  116  117  138  123  124  125  121  122  126  125  132    0
ch:  63     108   95  114  105  121  123  118  122  131  126  134  130  126  130  129  123  122  132  123  131  132  134  136  129  140  122  132  119  124  134  127    0
ch:  64     112  101  116  119  118  122  119  120  122  124  121  133  107  116  131  121  124  122  135  152  125  117  127  104  140  111  125  127  115  118  120    0
ch:  65      99  110  118  114  115  120  121  132  136  138  116  120  120  116  120  129  118  132  130  125  152  121  128  131  125  118  133  119  125  129  137    0
ch:  66     104  104  115  119  116  123  121  120  116  115  133  122  134  124  126  130  122  121  124  136  118  134  133  122  129  138  121  122  128  130  123    3
ch:  67     104   90  109  115  116  111  116  122  118  132  132  124  129  129  123  115  132  132  134  125  142  123  133  132  131  130  138  127  131  126  123    0
ch:  68     103  105  108  121  105  123  128  122  119  120  118  128  130  126  130  129  128  123  108  131  135  128  130  107  128  126  125  128  125  118  129    0
ch:  69     102  105  105  103  102  107  116  130  123  122  127  122  115  132  120  122  148  116  133  130  123  120  127  119  133  129  123  131  128  127  124    0
ch:  70     104  104  119  116  118  107  117  126  120  139  133  118  120  147  130  127  121  125  123  127  135  126  121  151  137  144  133  127  117  132  122    4
ch:  71     116  121  113  104  120  116  122  129  123  128  125  134  136  132  145  127  126  145  140  119  135  131  133  138  132  135  120  135  135  138  138    0
ch:  72     100  100  111  116  112  123  129  124  127  116  124  133  127  129  122  126  117  124  127  126  128  118  119  143  127  138  136  113  135  133  129    0
ch:  73     106  104  116  113  117  113  119  116  130  121  119  123  118  134  133  134  135  123  134  128  136  131  129  138  123  132  133  119  125  112  132    0
ch:  74     119  115  117  107  119  129  135  126  135  130  127  116  144  139  121  119  126  135  112  131  120  119  129  121  120  128  122  123  123  125  126    0
ch:  75     104  104  104  104  117  119  115  117  122  127  131  128  122  135  136  132  131  131  136  133  134  139  139  123  134  131  131  137  137  129  118    0
ch:  76     105  102  105  104  114  116  114  123  139  134  123  122  132  125  123  134  155  119  143  144  123  131  137  107  133  146  123  119  122  134  116    0
ch:  77     104  100  120  114  123  118  120  116  121  132  132  133  121  125  139  130  124  123  147  132  134  130  133  136  128  127  136  120  131  128  119    0
ch:  78     106  104  116  107  120  115  117  126  118  120  120  120  132  133  136  134  132  126  128  136  123  114  130  127  124  138  129  114  125  131  114    0
ch:  79     116  102  104  101  115  116  108  135  123  115  135  129  150  132  138  132  125  137  122  133  136  114  124  131  122  132  129  129  134  132  131    0
ch:  80      99   99  117  107  121  114  124  122  121  113  125  123  128  109  130  128  123  120  133  146  127  131  135  129  129  122  118  122  129  122  119    0
ch:  81      97   87  116  121  108  117  110  127  116  110  132  119  119  134  127  130  132  126  132  125  135  133  123  140  119  123  130  116  125  128  132    0
ch:  82     110  106  119  113  119  119  117  117  133  131  129  134  134  129  128  131  149  130  117  137  132  106  121  119  122  140  131  120  135  120  106    0
ch:  83     100  104  107  104  107  117  120  127  134  134  124  127  126  137  120  139  132  137  143  125  129  136  138  129  127  118  128  127  120  122  131    0
ch:  84     102  109  103  117  120  105  117  117  119  121  120  130  127  110  128  125  125  119  120  128  126  138  123  117  127  124  154  128  125  116  121    0
ch:  85      86  104  105  113  121  121  119  108  121  120  121  125  127  127  149  140  138  135  125  125  124  128  121  128  106  123  129  131  123  131  122    0
ch:  86     104  110  116  110  116  115  125  120  119  117  119  131  120  115  133  129  132  129  130  132  130  128  126  120  130  139  132  118  119  116  136    0
ch:  87     104  105  106  114  108  118  117  126  131  123  124  131  130  134  120  129  134  133  133  132  134  138  122  126  131  123  122  144  133  128  120    0
ch:  88     104  104  104  106  125  112  120  120  133  125  124  130  129  121  132  142  119  119  128  137  137  138  122  117  127  114  128  131  120  133  135    0
ch:  89     100  106  100  107  115  119  124  126  118  133  125  126  124  135  154  125  123  142  125  126  130  128  136  129  126  126  128  124  128  118  122    0
ch:  90      92  104  116  116  116  119  120  124  130  128  123  120  118  130  127  127  129  112  125  116  129  129  125  110  134  135  126  130  119  128  120    0
ch:  91     114  105  104  108  115  106  127  117  114  122  131  132  139  123  143  115  128  152  116  128  145  128  149  121  132  135  120  138  129  134  119    0
ch:  92      96  111  105  119  132  130  121  111  121  127  125  128  118  124  126  122  126  137  131  125  126  136  127  137  131  119  129  123  122  135  118    0
ch:  93     100  104  101  107  121  118  116  109  118  129  128  127  124  134  133  122  137  123  118  122  140  123  107  134  124  132  119  129  122  123  126    0
ch:  94     114  104  102  112  120  117  124  125  132  134  148  137  137  121  139  129  122  131  112  124  118  121  129  124  128  139  130  116  112  112  113    0
ch:  95     114  100  107  114  100  122  118  121  121  121  122  124  130  131  131  130  131  119  149  124  130  136  129  128  129  128  124  125  132  130  121    0
ch:  96     116  100  115  107  117  110  120  117  141  121  127  129  125  128  121  133  124  134  120  128  137  111  129  130  132  122  130  135  124  122  117    0
ch:  97     100  105  104  116  107  118  116  128  118  130  121  125  131  137  131  129  135  121  137  131  129  121  140  152  137  130  119  114  132  120  121    0
ch:  98      96  103  116  109  119  118  122  126  116  119  121  128  118  146  126  133  123  125  125  143  125  133  116  121  126  129  135  129  123  140  126    0
ch:  99      97  102  104  118  116  112  117  127  121  124  121  135  122  121  123  129  125  134  131  133  119  128  132  150  130  125  132  123  119  130  143    0
ch: 100     108  118  122  112  116  121  126  125  131  119  131  136  131  123  121  122  131  128  106  127  124  131  130  140  125  118  123  130  120  123  126    0
ch: 101     106  116  104  116  115  116  117  108  110  129  128  128  128  129  129  131  133  129  128  139  115  127  121  152  132  126  111  132  149  131  128    0
ch: 102      92  116  117  106  118  119  121  121  119  118  123  123  117  132  115  139  125  121  136  118  133  137  129  128  122  112  129  120  121  119  124    0
ch: 103     106  114  104  106  101  118  118  131  126  130  135  120  122  131  136  131  135  139  136  147  150  120  125  122  126  117  114  131  124  132  136    0
ch: 104     103  113  104  119  118  116  123  131  122  131  131  141  131  120  120  121  123  134  115  127  131  133  130  129  134  126  122  128  130  123  126    0
ch: 105     101  101  109  104  108  121  119  121  128  128  120  128  121  124  123  127  133  130  132  123  127  133  126  142  132  130  124  123  121  118  125    0
ch: 106     113  114  121  115  119  137  106  124  121  122  135  117  133  134  121  128  126  121  124  117  129  117  115  138  119  117  122  135  125  120  121    0
ch: 107      98  101  103  104  114  117  120  108  121  122  121  130  135  119  126  130  115  133  119  151  135  132  119  117  132  126  135  120  154  131  129    0
ch: 108     105  101  121  107  104  122  118  119  131  127  129  121  133  121  136  123  117  128  142  133  117  134  134  133  132  136  127  134  126  135  116    0
ch: 109     100   96  115  118  116  118  116  127  121  132  120  126  136  127  135  133  130  126  133  123  133  129  119  121  116  125  124  131  129  119  118    0
ch: 110     102  111  106  100  116  118  117  122  121  124  134  123  131  117  120  125  119  119  124  123  132  110  123  115  124  117  122  120  120  127  122    0
ch: 111      98  100  103  114  117  116  125  122  123  117  127  121  118  123  134  119  125  133  145  137  130  123  138  127  136  126  117  127  116  133  133    0
ch: 112     104  101  117  120  114  121  125  121  124  118  124  122  134  123  115  115  121  130  120  126  131  122  117  140  121  116  118  123  126  126  133    0
ch: 113      98   99  101  103  121  113  116  124  131  127  129  130  138  134  135  130  160  125  136  131  130  119  141  134  119  129  118  134  124  141  132    0
ch: 114     107  105  104  109  121  118  127  116  126  135  129  121  124  124  114  120  119  121  120  119  126  115  118  128  131  122  136  133  117  136  124    0
ch: 115     106  102  104  105  120  121  124  121  114  122  135  140  120  130  129  129  120  133  131  120  124  131  136  127  121  122  136  119  142  130  119    0
ch: 116     116  107  112  118  125  123  117  131  130  128  117  127  121  120  122  116  131  121  132  134  113  119  121  119  117  132  117  133  132  117  131    0
ch: 117     103   93  106  117  106  121  111  121  107  119  121  126  129  126  119  137  123  134  117  131  127  123  121  123  121  127  114  119  122  126  121    0
ch: 118      83   95   91  107  103  106  108  107  122  118  120  118  122  123  120  119  117  155  126  132  130  136  119  130  120  127  137  122  121  123  122    0
ch: 119     104  119  114  107  121  105  107  104  115  112  115  120  110  100  119  114  113  114  117  101  107   98  107  114  105  113   88  102  103  113  101   55
ch: 120     109  109  115  118  110  105  110  120  103  113  107  106   99  101  112  120   93  105  106  106  101  100   97  100   94  108   92  105   94  104  103    0
ch: 121     116  118  121  104  118  101  105  113  111  106  114  104  104  116  112  115  106  117  103   98  121  106  116  113  104  100  101  106  103  101  100   41
ch: 122     101  110  117  116  103  105  108  110  100  116  107  118  108  106  114  105  112  105   98  103   98   94   97  100   99  112   99   94   90  103   96    0
ch: 123     107  104  114  121  105  108  107  107  104  120  105  107  106  105  101  118  105  115  110  119  105  102  114  107  104  103  105   94   94   99   89   59
ch: 124      93  113  117  119  107  114  122  113  117  120  105  103  104  101  106  102  100  117  114  104   99   94  106  101   99   97  104   96  103   93   93    0
ch: 125     119  118  120  104  116  107  115  104  116  114  124  105  103  108  101  106  117  104  109  113  103  102  108  105  105  103  100  102  105   99  105    0
ch: 126     107  105  114  123  120  113  107  113  104  113  104  106  108  105  108  106  103   98  113  103  101  115  101   94   93  106  103  102   94   94  103    0
ch: 127     104  116  117  117  108  116  105  117  104  112  105  117  116  104   98  106  115  124  118  107  115  112  117  104  104  105  116  103  107  103  101    0
