# TRIM CALIBRATION    FEB2_4_0    pulse_ampl_min=20    pulse_ampl_max=85    pulse_ampl_fast=15
#
ch:   0     128  128  128  128  128  128   85  103  103   90   91   95  101  111   94  103  121  128  117  123  106  120  128  128  126  133  128  143  128  130  109    0
ch:   1      84   83  100   87   89  104  102   97   87  117  110  107  120  121  120  123  105  121  116  128  128  101  117  122  114  118  128  115  128  133  107    0
ch:   2     128  128   82   87  104  128  102   98  115   97  118  106  117  118  115  128  117  127  113  100  126   86  119  119  121  120  130  115  101  109  130    0
ch:   3     128   84  128   85  101  102  107   99  105  117  115  105  116  130  120  118  110  118  128  128  123  113  126  103  130  118  112  134  112  105  123    0
ch:   4      83   89   96  128   88  128  100  114  104  107   88  118  116  108   98  111  128  107  128  128  134  117  127  118  111   94  113  134  128  122   86    0
ch:   5      84   86   83   88  128   93  105  106  107  112  119  114  127  124  123  122  110  123  119  112  118  104  133  128  121  125  125  119  121  124  120    0
ch:   6     128   83   88   87   87  104   93  102   98  103  101  111  104  112  119  119  121  126  119  128  125  114   98  113  113  101  107  107  128  106  122    0
ch:   7      84  128  100   83   93   90   99   99  105   90  103   97  118  117  119  126  126  120  118  129  123  108  106  108  115  129  108  118  101  105   98    0
ch:   8     128  128   84   93  100  128  102   94  118  103  104  102  113  104  114  122  113  122  128  123  113  124  139  136  133  125  127  122  128  132  131    0
ch:   9      84   89   84   96   88  101   92  105  117  105  106  105  110  110  107  119  113  117  121  100  125  132  121  123  116  124  128  128  133  125  141    0
ch:  10     128   83   88   90   84  106   99   94  101   99  113   99  110  130  111  115  130  113  118  126  129  130  108  111  114  116  116  138  131   99  128    0
ch:  11     128  128   83   91   89   83   98  102  102  105  102  107  117  105  125  109  127  107  122  119  127  135  128  122  121  107  106  134  121  113  144    0
ch:  12     128   83  128   88   88  106  128   88  108  121  106  103  100  102  113  121  119  106  117  125  118  120  113  122  115  125  130  119  128  131  117    0
ch:  13     128   84   87   85   84   83  108  107  114  104  107  105  121  114  120  121  105  115  123  125  122  123  122  105  125  118  117  129  120  121  122    0
ch:  14     128   83  128   87   83   90   88  102  103   88  101   88  107  109  110  127  120   86  122  124  128  128  118  106  123   93  128  116  100  112  131    0
ch:  15      86  128  128   83   90   97   91   90  102   94  102  105  124  111  114  133  133  121  116  119  120  143  119  125  119  117  106  120  119  115  124    0
ch:  16     128  128   83   83   86   96   97   84  104   98  106  109   98  113  121  109  118  125  126  108  106  128  128  117  135  135  136   98  128  104  109    0
ch:  17      83   80   90   82  103   86   87  102  114  104  100  100  116   99  120  117  109  114  116  116  115  113  104  135  135  131  128  141  119  133  141    0
ch:  18     128   84   82  128   88   88   72   92   92   97  112  100  121  118  104  114  118  107  117  105  128  110  118  112  106  116  131  134  103   90  137    0
ch:  19      85   83  128   89   86  103   95   86   90  117  101  114   98  102   92  116  123  130  130  115  117  142  128  113  124  117  140  122  119  108  107    0
ch:  20     107   89   84  106   89  102   91   91  106  105  105  107  123  107  119  129  130  102  128  117  135  108  128  116  114  122  117  117  118  117  128    0
ch:  21     128   83   83   85   85   83   92   98  114   97  103   87  102  105  101  115  106  116  130  103  123  102  122  124  109  128  134  136  123  128  114    0
ch:  22      84  128   81   88  128   90   97   88   91  105  117   97  106  108  114  123  123  122  123  122  128  128  128  128  121  135  109  143  119  109  122    0
ch:  23     128  128  128   88   91   90   88   86  102  101   91   98  112  114  118  121  115  121  113  120  122  134  128  101  127  123  128  131  110  113  129    0
ch:  24     128   83   83   90   90   84   89  103  104  104  105   90  122  109  116  119  136  133  122  120  119  113  142  127  107  131  119  116  129  115  109    0
ch:  25     128  128   83   87  128   86   89  128   93   89  101  104  106  100  120  104  112   97  127  120  118  124  128  124  128  128  128  128  111  113  128    0
ch:  26     128  128  128  128  128  128  128  128  128  128  128  128  128  128  128  128  128  128  128  128  128  128  128  128  128  128  128  128  128  128  128    0
ch:  27     128  128  128  128  128  128  128  128  128  128  128  128  128  128  128  128  128  128  128  128  128  128  128  128  128  128  128  128  128  128  128    0
ch:  28     128  128  128  128  128  128  128  128  128  128  128  128  128  128  128  128  128  128  128  128  128  128  128  128  128  128  128  128  128  128  128    0
ch:  29     128  128  128  128  128  128  128  128  128  128  128  128  128  128  128  128  128  128  128  128  128  128  128  128  128  128  128  128  128  128  128    0
ch:  30     128   85   83   87   86   83   93  104  112  116   94   85  116  119  117  115   99   99  130  132  128  121  116  128  118  140  129  118  131  116  125    0
ch:  31     128  128  128   83   98  101  101   89  100   91   90   88  118  105  118  119  107  123  113  107  122  133  130  128  112  104  117  103  122  129  125    0
ch:  32     128  128  128   83   88  128  128  101   89   99   88  101  102  117  107  113  124  115  120  127  112  128  128  128  125  118  131  126  128  125  120    0
ch:  33     128  128   90  128   87  128   74   84   90   95   91   90  115  104  104  107  119  118  112   97  124  105  122  120  140  132  128  132  142  120  128    0
ch:  34     128  128   82  128   92  128   96   84   95  104  110   88  116  102  115  122  115  104  116  119  121  130  111  122  117  103  104  118  121  110  128    0
ch:  35     128  128  128  128  128  128  128   95  103   91  101   96  113  102  113  114  111  123  123  101  119  123  127  120  124  105  123  126  119  119  105    0
ch:  36     128  128  128   83   88   83   88  102  100   96  104  102   93  101  122  122  121  118  122  117  116  122  127  128  128  122  118  125  128  119   95    0
ch:  37      80  128  128  128   83   87   89   92   89  103   89  106  116  117  125  116  104  119  119  117  114  117  129  139  147  128  128  128  142  120  128    0
ch:  38     128  128  128  128   90  100  128   90   95   93   99   90  102   97   99  116  119  122  116  120  123   90  123  116  114  137  123  129  114  124  128    0
ch:  39     128  128  128  128   84  128   86  102  103   99   92  106  105  105  107  110  113  138  113  119  125  123  139  121  137  148  119  138  129  121  106    0
ch:  40     128  128   83  128   90   85   87   88   95   93  105  103  102  113  127  117  120  115  125  115  119  128  121  117  128  134  127  123  128  135  101    0
ch:  41     128  128  128   83  128   88  128   83  104  104  103   99   95  116  108  100  116  114  113  116  123  124  130  140   97  116  128  145  135  128  128    0
ch:  42     128  128  128  128   97   98  128   87   90   95   87  101  116  111  107  121  115  117  121  115  128  129  128  127  105  118   98  118  109  101  119    0
ch:  43     128  128  128  128  128   83   91   86   91  114  101   91  108  100  128  106  111  130  125  118  123  131  116  122  124  108  124  139  131   97  117    0
ch:  44      86   84   84   93   84  128   87  103   98   90  107   85  107  111  117  121  113  124  117  108  119  123  128  115  137  136  128  113  128  118  116    0
ch:  45     128   82  128  128   84  128   84   90   96   89   91   98  102  106  122  119  118  112  116  111  121  112  119  117  126  128  115  134  144  113  128    0
ch:  46     128  128  128   81   93   88  100   94   87   98  102   97  104  109  122  112  117  122  123  132  128  115  118  118  126  121  101  136  119  121  128    0
ch:  47     128   83  128  128  128  128   87   90   90  103  103  100  105  103  119  103  102   99  115  125  135  120  128  128  128  107  120  122  103  124  113    0
ch:  48     128  128   83   83   84   88   90  108   92   90  108  102  107  106  114  119  106   90  105  130  116  128  119  131  128  113  129  105  128  130   85    0
ch:  49     128   89  128  128  128  102   97   91   87   89   92  109  121  116  107  116  104  107  106  117  134  109  128  133  148  137  128  132  131  124  128    0
ch:  50     128  128   83   89   98   83   89   83  105   87  109   88  107  123  117  122  112  122  125  125  128  115  116  119  133  103  107  116  132  113  128    0
ch:  51     128  128  128   83  128   90   89   88  100   93  104   99  105  119  130  119  103  128  118  134  117  124  127  125  121  134  100  151  121  115  122    0
ch:  52     128  128  128   89   84  128   86   98   85   96  101   94  105  108  110  111  107  118  128  122  117  128  128  114  119  128  138   99  128  119  149    0
ch:  53     128  128  128  128   81   97  128  104   97  100   87  104  108  103  101  116  118  105  102   99  118  108  112  121  135  128  128  133  122  139  128    0
ch:  54     128  128   83   83   83   93   97   83  108  102  111  104  121  104   98  110  116  125  117  120  120  121  134  117  128  137   95  119  137   97  120    0
ch:  55     128   85   82  128  128   85   88  128  104  104   87  104  104  109  107  112  120  129  130  122  129  124  126  127  114  131  130  128  124  132  129    0
ch:  56      89   83  128   95   89   98  128   86   93   86  101   99  104  105  112  116  119  120  120  121  138  128  128  114  123  119  132  124  128  146  104    0
ch:  57     128  128   82   84   87   86   88   91  101   89   89   92  121  113  120  105  118  105  129  119  116  104  125  146  137  128  128  133  140  116  128    0
ch:  58     128   89  128   94  128   88   85   92   91  108  104  104   92  111   87  100  117  116  131  119  116  130  117  123  128  117  112  107  104  104  128    0
ch:  59     128  128  128   83  128   93   92   83   93   98  121   99  100  117  116  117  108  123  123  110  121  129  120  129  113  108  107  122  117  119  108    0
ch:  60     128  128   89  128   86   94   91   91  100  101  103  105  110  108  120  105  117  127  121  129  121  118  128  122  128  114  134  125  139  129  107    0
ch:  61     128  128  128  128   82   83  105   93   93   91  101   99  118  110  106  108  103  120  124  113  122  122  128  110  127  128  128  123  101  120  128    0
ch:  62     128  128  128   88   83   88   82   90   97   84  128  119  104  105  112   92  115   99  121  130  128  127  126  128  128  109  115  133  135  119  128    0
ch:  63     128  128  128  128   84   89  128   83   88   99  102  108   99  105  104  118  127  131  116  129  124  117  123  132  124  104  122  130  125  123  113    0
ch:  64     128   89   91  128  128  128   87  101  101   99  102   99   97  122  124  121  106  105  119  121  108  128  128  128  140  140  118  121  128  139  136    0
ch:  65      85   84  128   81   92   93  128   88   93  102   85   90   91  101  105  104  108  113  119  122  131  114  126   99  138  131  128  140  127  126  128    0
ch:  66      84   84   87  128  128  100   94   83   92   86   97  109  104  109  113  116  119  116  119  128  120  114  130  125  108  128  128  156  134  121  138    0
ch:  67     128  128  128  128   91  128  128   83   97  104  101   83   92  105   92  120  113  122  118  123  116  130  139  123  123  122  154  128  121  119  118    0
ch:  68     128   85  128  128   76   93   78   88  104   92  102  109  105  124  119  113  137  128  118  121  116  128  128  132  132   91  115  132  128  122  108    0
ch:  69     128  128   81   83   81   84   99   89   98  101   99   97  101  105  116  116  112  103  126  118  132  121  128  133  104  106  128  120  123  126  128    0
ch:  70     128  128  128   89   85   89   88   88   91   94   96   96  103  104  119  121  107  100  123  120  128  114  125  117  118  102  107  125   97  103  131    0
ch:  71     128  128  128   87   81   91   92   91   91  104   93  102   85  109  107  124  117  118  139  129  123  129  124  126  129  116  123  124  119  128  127    0
ch:  72     128  128   84   90   84  100   90  106   90  104  100  101  125  109  124  108  127  118  115  130  108  128  129  132  142  127  116  124  128  116  123    0
ch:  73     128  128  128  128  128   98  128   92   91  102  100   89  108  116  119  117  116  113  123  133  122  112  126  144  143  134  128  124  124  115  118    0
ch:  74     128   83   86   85   91  100   89  103   90   88  112  102  101   97  110  110  112  116  121  130  128  124  107  106  125  133  102  137  107   93  134    0
ch:  75     128  128   83   93   89  110   87   89  103   97  104   91   91  105  119  111  110  122  120  132  120  126  132  121  124  133  117  129  119  122  131    0
ch:  76     128  128  128   87   86  128   88   96  104  102   91   98  114  113  100  124  106  104  102  123  115  128  137  128  123  121  137  112  128  121  109    0
ch:  77     128   82   83  128   98  100   73   79   93  100   90  102  117   99  117  124  112  112  120  123  121  128  134  134  141  124  128  126  104  117  128    0
ch:  78     128  128  128  128   83   81   83   84   96   91  103   87  106  110  120  119  112  127  123  117  124  146  124  117  124  124  117  109  132   94  138    0
ch:  79     128  128  128  128  128   83  128   90  106   96  102   99  102  112  103  104  119  107  131  129  135  112  128  124  119  121  119  116  116  121  133    0
ch:  80      83   83  128  128  128   90   83   88   93   90  110  105  110  116  116  125  122  106  128  123  123  104  128   90  128  127  125  135  128  125  103    0
ch:  81     128  128   80   88  128   86   99   90   90  100   96   89  102  116  115  106  111  110  124  123  130  106  141  109  148  153  128  126  127  129  125    0
ch:  82     128   85  128  128   89   83   89   83  105   90  118  103  120  104  115  103  120  118  127  124  116  135  107  115  129  135  127  134  122  143  118    0
ch:  83      84  128   83  128   91  128   91   91  112   93  115   92  108  128  107  118  120  121  131  115  131  127  124  135  121  106  123  119  136   88  110    0
ch:  84     128   88   87   88   87  102   90   88   97  102   99  118  119  101  105  126  119  123  117  124  120  118  131  115  122  125  132  135  128  122  107    0
ch:  85      86  128  128   91  128   89   90   97  103  117  128  103  123  116  115  121  124  103  120  119  128  119  124  126  126  128  128  128  112  121  128    0
ch:  86      82  128   74   89   90   87  103   84   99  108  105  104  105  123  102  120  126  122  117  122  128  137  123  122  141  112  116  123  133  121  118    0
ch:  87     128  128  128   84   87  106   88   91   97  103   99  116  108  106  103  101  116  122  130  118  132  137  118  124  130  131  132  120  114  113  110    0
ch:  88     128   83  128   86   89  101  100   98   99  101  101  113  112  116  117  123  106  109  120  127  110  120  128  113  115  127  138  113  128  143  131    0
ch:  89     128  128  128   85  128  103  107   87   86  105   99   88  117  116  104  109  113  124  124  119  133  116  121  129  128  117  128  124  117  111  124    0
ch:  90     128  128   83   86   84  101   88   99  100   99  102   92  125  119  111  122  120  106  120  124  128  125  111  108  101  118  103  106  128  113  133    0
ch:  91     128  128  128  128   83   85  103   99  103   91  105   91  102  119  115  123  125  119  120  117  130  124  132  121  127  109  124  135  135  120  132    0
ch:  92     128   88  128   83   86  100   84  102   91  102   94  100  105  106  107  121  110  116  125  129  113  128  128  118  128  124  126  130  128  123  115    0
ch:  93     128  128   83   83   83  102   91  102   85   86  102  107  117  109  118  116  115  121  120  116  117  114  128  133  100  122  128  132  108  126  108    0
ch:  94     128   83   84   86  101   91   90   98  106   92   91  120  120  124  105  124  119  125  123  117  128   97  114  124  116  127  115  125  130   99  133    0
ch:  95     128  128  128  128   91   92  102   87  105  101  101  121  114  106  126  125  118  124  120  127  128  127  121  104  129  118  130  138  119  128  133    0
ch:  96     128  128   88   90   91   98   89   96   98  112   94   99  115  119  117  119  112  105  126  124  123  116  131  128  132  131   99  128  150  126  133    0
ch:  97     128  128  128   87   89   91   87  102   88   96   97  107  116  104  108  125  117  115  115  123  134  124  128  112  120  136  128  128  119  129  115    0
ch:  98     128  128   84   90  128   97   91  100  100  106  105  100  115  118  105  107  128  107  121  133  118  129  126  103  103  105   98  155  122  109  128    0
ch:  99      86  128  128  128   86  106  101   98  101   98  108   91  101  113  107  124  123  105  128  116  125  138  124  135  130  130  123  138  116  135  106    0
ch: 100     128   90  128   94   86   91   90   84  104  108  103  107  101   93  103  124  121  118  118  124  131  126  128  128  141  125  127  122  128  144  119    0
ch: 101     128   88  128   83   83   88  103   88   93  100  114   98  119   97  120  115  115  115  123  128  130  122  115  144  144  152  128  126  135  125  155    0
ch: 102     128   88   83   88  100   83  100   90  104  113  102  105   97  127  121  120  109  126  115  130  128  115  132  118  119  104  110  119  123  128  115    0
ch: 103     128   83  128   85  128  103  103  103   99   99  105  102  114  117  121  118  112  123  118  120  123  133  132  130  133  128  124  111  103   93  133    0
ch: 104      83   91   84   90  128   90   87   93   90  102  110  109  116  120  122  103  119  116  121  123  109  128  128  132  116  119  131  132  129  116  119    0
ch: 105      83  128   84   84   98   84  128   86  110   90  110  110  114  122  115  119  120  123  119  117  126  111  128  140  103  138  128  120  105  126  101    0
ch: 106     128  128   81   82   91   91   89   83  104   99  109   98  104  116  107  119  129  122  118  126  130  127  128  129  136  120  105  128  118  127  115    0
ch: 107     128  128  128   81   81   90  104  100   97  104   96  111  104  117  120  127  124  119  128  119  120  126  107  127  126  117  105  126  116  128  104    0
ch: 108     128   91   86   90   85   87   88  103  100  102  101  101  104  120  119  104  118  118  118  139  116  136  117  121  130  114  124  140  152  122  124    0
ch: 109      83   80   86   83   89   86   97   96  100  113  100   93  118  104  115  116  120  112  134  118  122  127  121  121  115  107  128  128  127  115  128    0
ch: 110     128  128   87   91   87   92   99  100   99   96  106  105  109  110  121  130  121  133  122  129  118   90  107  124  134  116  116  145  118  119  119    0
ch: 111     128  128   83  128   86   88   93   88  105   97  104  100  109  121  119  128  121  130  124  132  120  127  117  122  126  107  130  119  127  123  127    0
ch: 112      83  128   84  128  128   88   87  101   93  100  105  101  104  107  117  120  121  108  128  120  118  108  128  120  128  112  113  122  114  141  110    0
ch: 113      83   80  128   85   84   84   90  102  101   93  103   97  114  108  120  118  117  102  123  136  119  119  114  112  128   95  128  124  109  117  106    0
ch: 114     128  128   84   84   83   89   98   93   88  102  104  105  105  105  117  115  119  119  127  121  116  129  128  102  121  146  120  117  115   85  119    0
ch: 115     128   93   89   88   89   92   92   91  101   97  123  106  119  112  115  116  115  125  128  115  124  152  130  124  131  130  140  153  109  123  133    0
ch: 116     128  128   83   83   95   88  102  102  108   99  108  100  109  115  107  114  123  118  117  116  114  132  137  116  132  113  129  116  128  129  102    0
ch: 117     128  128   87   84  128  128   89   86   91   89  100   95  104  105  109  106  118  105  107  121  122  123  125  148  103  107  128  122  126  133  120    0
ch: 118     128  128  128  128  128  128  128  128  128  128  128  128  128  128  128  128  128  128  128   94  128   80   83   91   91  101  105  100  128  102  128    0
ch: 119     121  107  105  117   99  105  101  112  107  111  102  107  105  103  123  118  100   91  104  101  107  101  101  104  103  103  115  106   97  106  104    0
ch: 120     108  120  102  110  101  114  107  101  103  105  104  115  107  102  113  100  101  102  100   96  102   91  101  105   90  105   87   99   96   86   88   25
ch: 121     121   99  105  104  117   98  111  112  111  101  123   99  105  106  104  101   91  105  119  101  106   92  101   93  100  109   99   87  101   99  103    0
ch: 122     105  103  102  103  113  109  116  101  100  100   91   99  103  101  100  112   93  102  101  107  101  103   96   91  106   87   96   90   90   93   93   26
ch: 123     108  116  106  100  114  106  115   99  104  112  115  106  110  116  104  120  105  120  104   88  101  118  103  115   86   92  102  107  101   91  102    0
ch: 124     102  118  105   98  109  118  101  106   99  118  105  105  105   93  100  105  105   96  100  103  103   88  101   90  101  103  109  101   91  104   89   34
ch: 125      99  104  115  107  110  119  110   91  107  106  107  101  104  100  100  100  103   98  102  103  118   93  104   88  107  106  105   89   98   98  101    0
ch: 126      99  106  117  101  102  107  100  103  106  118  124  100   90  106  113  109  104  102  106  102  101  103   90   89   95  116   96  101  104   89   98   45
ch: 127     103  107  128  104  113  110  121  102  101   99  105  104  115   92  103  104  121  117  106  100  103  103  111  104   97  103  100  103   91   92   97   21
