# TRIM CALIBRATION    FEB2_9_0    pulse_ampl_min=20    pulse_ampl_max=85    pulse_ampl_fast=15
#
ch:   0     101  101  116  103  118  117  117  120  128  121  135  118  115  138  111  132  114  125  118  137  116  122  114  134  125  133  116  107  129  117  113    0
ch:   1     128  128  128  128  128  128  128  128  103  128  128  108  109  128  120  128  128  128  119  117  123  128  122  108  128  128  124  113  115  122  128    0
ch:   2     128  128  128  128  128  128  128  128  128  128  112  128  128  122  128  128  128  128  111  119  113  105  121  119  140  111  120  128  117  128  102    0
ch:   3     128  128  128  128  128  128  128  105  128  128   97  128  119  128  116  128  128  137  122  128  130  116  114  112  128  131  128  128  132  128  128    0
ch:   4     128  128  128  128  128  103  128  109  128  109   91  128  128  128  128  114  146  117  106  131  128  128  128  118  128  128  121  128  128  121  128    0
ch:   5     128  128  128  128  128  128  128  128   97  128  104  119  128  128   92  128  128  115  131  135  117  128  126  119  106  128  128  117  104  128  128    0
ch:   6     128  128  128  128  128  128  128  128  128  128  114  128  128  128  128  128  128  104  117  119  118  105  136  128  106  118  128  128  128  128  124    0
ch:   7     128  128  128  128  128  128  128  128  128  128  104  128   99  128  128  135  115  117  117  119  113  115  117  122  128  107  123  126  128  128  128    0
ch:   8     128  128  128  128  128  128  128  128  128  110  106  128  128  128  128  119  128  107  113  116  128  128  128  113  115  128  128  128  128  103  128    0
ch:   9     128  128  128  128  128  128  128  128  106  128  128  128  128  108  101  128  128  133  125  128  128  128  117  113  120  117  131  117  118  128  128    0
ch:  10     128  128  128  128  128  128  128  128  128  128  128  128  128  128  128  141  128  128  118  119  116  121  102  128  128  125  128  128  128  128  107    0
ch:  11     128  128  128  128  128  128  128  128  128  128  128  128  128  128  128  123  128  120  120  115  129  119  128  119  128  119  128  126  128  128  128    0
ch:  12     128  128  128  128  128  128  128  128  102  128   98  128  128  128  128  128  107  100  111  119  128  120  128  128  128  130  122  107  115  128  128    0
ch:  13     107  119  130  119  129  113  138  135  134  145  134  128  140  146  138  159  135  148  138  149  156  163  140  128  153  159  157  158  170  162  175    0
ch:  14     128  128  128  128  128  128  128  128  128  128  104  128  116  128  128  128  128  119  120  116  116  128  117  128  114  128  128  108  128  128  128    0
ch:  15     128  128  128  128  128  128  128  128  128  128  128  128  128  128  128  129  117  128  124  118  128  120  128  137  128  118  130  128  123  128  119    0
ch:  16     128  128  128  128  128  128  128  128  128  101  128  104  128  128  128  128  115  121  118  125  128  119  128  128  128  122  122  128  116  110  128    0
ch:  17     128  128  128  128  128  128  128  128  128  128  128  128  128  107  128  128  128  109  120  117  114  119  114  124  120  131  108  121  118  128  128    0
ch:  18     128  128  128  128  128  128  128  128  128  128  107  128  128  128  128  128  128  112  118  118  128  128  119  116  128  128  128  111  128  128  123    0
ch:  19     128  128  128  128  128  128  128  128  128  128  128  128  128  128  128  128  115  123  116  104  128  128  115  118  122  120  120  128  112  128  128    0
ch:  20     128  128  128  128  128  128  128  128  128  102  105  128  128  128  128  109  100  119  123  107  114  116  111  128  128  124  116  120  128  125  116    0
ch:  21     128  128  128  128  128  128  128  128  128  128  128  128  128  128  128  128  128  119  139  135  105  118  120  116  135  115  121  122  124  124  128    0
ch:  22     128  128   89  103  103  105  128  128  128  128  119  110  104  102  130  115  128  110  118  119  128  103  108  105  128  128  128  128  102  128  128    0
ch:  23     128  128  128  128  128  128  128  128  128  128  128  128  128  128  128  119  128  123  115  128  118  143  115  121  124  120  128  136  133  118  119    0
ch:  24     128  128  128  128  128  128  128  128  128  128   98  128  128  128  128  128  128  105  106  111  104  134  122  119  128  121  148  128  128  128  128    0
ch:  25     128  128  128  128  128  128  128  128  128  128  128  128  128  128  128  128  128  126  131  118  128  128  115  126  135  114  110  128  128  116  128    0
ch:  26     128  128  128  128  128  128  128  128  128  128  128  128  117  128  128  128  123  125  121  129  105  128  131  128  128  128  128  115  128  128  128    0
ch:  27     128  128  128  128  128  128  128  128  128  128  128  128  128  128  104  110  120  129  121  128  115  128  129  121  114  123  117  139  113  125  125    0
ch:  28     128  128  128  128  128  128  128  128  128  128  128  128  128  128  128  115  101  128  114  129  126  114  115  110  128  137  116  128  128  123  128    0
ch:  29     128  128  128  128  128  128  128  128  128  128  128  128  128  128  128  128  128  132  122  108  121  130  128  127  113  137  121  121  117  119  128    0
ch:  30     128  128  128  128  128  128  128  128  128  128  128  128  128  128  128  128  118  122  119  119  125  129  122  121  128  128  121  113  128  128  128    0
ch:  31     128  128  128  128  128  128  128  128  128  128  128  128  128  128  128  109  108  120  112  114  121  118  120  117  135  118  120  116  116  124  121    0
ch:  32     128  128  128  128  128  128  128  128  128  128  128  128  128  128  128  121  128  117  140  122  128  121  126  107  134  121  119  116  128  120  128    0
ch:  33     128  128  128  128  128  128  128  128  128  128  128  128  128  128  128  128  128  115  113  119  124  120  119  120  122  130  118  115  131  114  128    0
ch:  34      91  128  128  128  128  128  128  128  128  128  128  128  128   88  128  105  121  116  121  133  122  128  122  123  128  115  128  120  102  128  128    0
ch:  35     128  128  128  128  128  128  128  128  128  128  128  128  128  128  128  107  120  123  120  128  127  120  119  129  129  120  132  117  133  121  123    0
ch:  36     128  128  128  128  128  128  128  128  128  128  128  128  128  128  128  123  115  128  114  128  134  103  133  128  118  111  135  119  127  124  128    0
ch:  37     128  128  128  128  128  128  128  128  128  128  128  128  128  128  128  128  106  120  126  120  116  119  121  126  126  122  117  123  126  129  128    0
ch:  38     128  128  128  128  128  128  128  128  128  128  128  128  128  100  128  128  112  119  116  128  128  133  123  140  115  128  128  118  132  128  128    0
ch:  39     128  128  128  128  128  128  128  128  128  128  128  128  128  128  128  107  105  128  128  128  122  113  124  115  120  121  120  117  109  116  124    0
ch:  40     128  128  128  128  128  128  128  128  128  128  128  128  128  128  128  128  128  125  138  128  128  119  126  115  128  120  111  115  120  117  128    0
ch:  41     128  128  128  128  128  128  128  128  128  128  128  128  128  128  128  128  128  103  121  123  115  122  133  134  123  129  126  131  127  121  110    0
ch:  42     128  128  128  128  128  128  128  128  128  128  128  128  128  128  128  128  109  128  120  124  128  128  113  127  117  128  115  114  115  128  128    0
ch:  43     128  128  128  128  128  128  128  128  128  128  128  128  128  128  128   97   97  128  110  128  135  128  120  132  122  128  128  124  124  125  133    0
ch:  44     128  128  128  128  128  128  128  128  128  128  128  128  128  128  128  106  116  118  122  118  128  123  117  118  109  128  119  128  115  123  128    0
ch:  45     128  128  128  128  128  128  128  128  128  128  128  128  128  128  128  128  128  128  115  131  128  128  117  122  128  123  119  127  131  117  120    0
ch:  46     128  128  128  128  128  128  128  128  128  128  128  128  128  128  128  108  111  119  128  118  112  128  119  128  128  128  128  119  119  128  120    0
ch:  47     128  128  128  128  128  128  128  128  128  128  128  128  128  128  128  104  107  123  117  129  128  127  119  120  130  126  120  130  129  136  140    0
ch:  48     128  128  128   89  128  128  128  128  128  128  128  128  128  128  128  147  147  128  128  128  128  128  128  128  128  128  128  128  128  128  128    0
ch:  49     128  128  128  128  128  128  128  128  128  128  128  128  128  128  128  128  106  138  122  120  115  126  132  119  114  124  132  121  119  118  125    0
ch:  50     128  128  128  128  128  128  128  128  128  128  128  128  128  128  128  128  119  128  128  131  128  128  117  122  109  128  118  112  123  128  128    0
ch:  51     128  128  128  128  128  128  128  128  128  128  128  128  128  128  128   91   89  128  128  121  133  128  121  127  120  108  123  117  113  123  133    0
ch:  52     128  128  128  128  128  128  128  128  128  128  128  128  128  128  128  106  128  127  143  134  113  127  121  128  117  122  130  118  122  123  119    0
ch:  53     128  128  128  128  128  128  128  128  128  128  128  128  128  128  128  128   83  122  126  123  128  128  128  133  125  115  135  126  124  138  116    0
ch:  54     128  128  128  128  128  128  128  128  128  128  128  128  128  128  128  128  108  128  128  128  136  128  118  130  117  120  114  110  131  128  127    0
ch:  55     128  128  128  128  128  128  128  128  128  128  128  128  128  128  128  128   83  128  128  129  119  128  114  120  131  128  124  125  123  117  130    0
ch:  56     128  128  128  128  128  128  128  128  128  128  128  128  128  128  128  128  128  124  110  118  134  122  116  127  118  113  112  123  124  120  122    0
ch:  57     128  128  128  128  128  128  128  128  128  128  128  128  128  128  128  128   83  119  127  120  128  123  137  126  118  122  137  117  126  141  119    0
ch:  58     128  128  128  128  128  128  128  128  128  128  128  128  128  128  128   99  101  141  119  115  112  128  136  118  128  128  115  119  136  128  115    0
ch:  59     128  128  128  128  128  128  128  128  128  128  128  128  128  128  128  128   89  128  128  127  135  112  125  128  126  128  117  120  131  142  130    0
ch:  60     128  128  128  128  128  128  128  128  128  128  128  128  128  128  128  128  128   94  118  123  116  104  126  125  129  130  114  121  126  127  113    0
ch:  61     128  128  128  128  128  128  128  128  128  128  128  128  128  128  128  128   85  127  130  122  128  132  133  117  117  133  124  138  122  123  122    0
ch:  62     128  128  128  128  128  128  128  128  128  128  128  128  128  128  128  128  112  113  121  133  124  128  117  129  128  109  133  121  120  128  123    0
ch:  63     128  128  128  128  128  128  128  128  128  128  128  128  128  128  128  128  128  125  120  114  135  115  117  136  120  128  122  135  135  116  129    0
ch:  64     128  128  128  128  128  128  128  128  128  128  128  128  128  128  128  128  128  125  123  129  128  121  128  138  120  129  116  118  122  125  111    0
ch:  65     128  103  104  103  128  128  128  116  117  116  127  133  128  131  122  135  126  144  153  138  160  150  149  152  153  128  154  165  167  148  145    0
ch:  66     128  128  128  128  128  128  128  128  128  128  128  128  128  128  128   99  100  118  131  138  122  128  125  121  114  128  114  113  112  128  114    0
ch:  67     128  128  128  128  128  128  128  128  128  128  128  128  128  128  128  128  128  125  123  125  131  123  136  129  124  128  125  123  123  135  134    0
ch:  68     128  128  128  128  128  128  128  128  128  128  128  128  128  128  128  123  128  136  127  136  135  128  127  120  114  149  134  110  117  124  128    0
ch:  69     128  128  128  128  128  128  128  128  128  128  128  128  128  128  128  128  128  130  132  135  128  134  121  128  133  116  138  140  135  120  128    0
ch:  70     128  128  128  128  128  128  128  128  128  128  128  128  128  128  128  128  114  120  116  120  134  128  125  144  119  114  111  118  112  128  128    0
ch:  71     128  128  128  128  128  128  128  128  128  128  128  128  128  128  128  128  128  131  127  122  136  125  121  128  119  118  122  130  133  128  138    0
ch:  72     128  128  128  128  128  128  128  128  128  128  128  128  128  128  128  128  128  124  129  135  128  114  120  122  121  133  116  140  132  120  125    0
ch:  73     128  128  128  128  128  128  128  128  128  128  128  128  128  128  128  128  128  121  117  120  113  118  116  116  126  116  116  123  120  123  119    0
ch:  74     128  128  128  128  128  128  128  128  128  128  128  128  128  128  128  128   87  128  133  115  128  128  124  117  122  122  117  129  114  128  121    0
ch:  75     128  128  128  128  128  128  128  128  128  128  128  128  128  128  128  128  128  133  125  122  142  133  131  120  127  115  127  125  123  120  144    0
ch:  76     128  128  128  128  128  128  128  128  128  128  128  128  128  128  128  111  128  120  122  125  119  134  134  123  120  121  139  118  122  127  114    0
ch:  77     128  128  128  128  128  128  128  128  128  128  128  128  128  128  128  128  128  128  123  138  136  138  109  118  119  120  131  126  128  126  135    0
ch:  78     128  128  128  128  128  128  128  128  128  128  128  128  128  128  128  128  107  128  121  133  120  128  110  122  128  124  122  114  135  128  128    0
ch:  79     128  128  128  128  128  128  128  128  128  128  128  128  128  128  128  128  128  129  134  129  131  136  117  123  123  128  117  123  126  125  128    0
ch:  80     128  128  128  128  128  128  128  128  128  128  128  128  128  128  128  117  128  119  144  122  118  125  136  124  117  108  122  106  139  123  128    0
ch:  81     128  128  128  128  128  128  128  128  128  128  128  128  128  128  128  128  128  101  121  122  105  113  115  121  123  117  123  117  123  115  132    0
ch:  82     128  128  128  128  128  128  128  128  128  128  128  128  128  128  128  100   88  128  129  128  128  128  118  117  123  127  115  127  127  130  123    0
ch:  83     128  128  128  128  128  128  128  128  128  128  128  128  128  128  128  128  128  141  122  125  122  129  127  138  125  128  139  132  129  143  132    0
ch:  84     128  128  128  128  128  128  128  128  128  116  105  128  128  115  128  128   90  140  128  128  128  102  128  128  128  108  128  128  111  128  128    0
ch:  85     128  128  128  128  128  128  128  128  128  128  128  128  128  128  128  128  128  128  135  121  133  129  120  134  116  115  130  120  123  125  123    0
ch:  86     128  128  128  128  128  128  128  128  128  128  128  128  128  128  128  128  121  118  119  118  121  130  119  115  112  128  132  126  115  128  123    0
ch:  87     128  128  128  128  128  128  128  128  128  128  128  128  128  128  128  128  128  128  143  138  123  128  131  129  131  116  130  120  124  130  131    0
ch:  88     128  128  128  128  128  128  128  128  128  128  128  128  128  128  128  103  106  112  127  116  110  119  120  128  123  123  123  108  108  136  128    0
ch:  89     128  128  128  128  128  128  128  128  128  128  128  128  128  128  128  128   79  128  125  128  135  138  117  127  124  137  134  123  120  127  124    0
ch:  90     128  128  128  128  128  128  128  128  128  128  128  128  128  128  128  104  116  128  120  137  118  128  121  119  128  114  120  118  120  128  128    0
ch:  91     128  128  128  128  128  128  128  128  128  128  128  128  128  128  128  128  128  128  119  125  135  142  122  120  129  120  123  123  129  116  132    0
ch:  92     128  128  128  128  128  128  128  128  128  128  128  128  128  128  128  128  128  116  128  110  116  116  123  120  134  109  120  116  115  128  128    0
ch:  93     128  128  128  128  128  128  128  128  128  128  128  128  128  128  128  128  128  128  116  120  135  137  117  111  122  123  133  112  122  120  119    0
ch:  94     128  128  128  128  128  128  128  128  128  128  128  128  128  128  128  128  121  123  128  123  128  128  130  128  128  128  122  113  128  125  128    0
ch:  95     128  128  128  128  128  128  128  128  128  128  128  128  128  128  128  128  128  128  142  126  138  116  131  120  120  129  129  131  132  138  127    0
ch:  96     128  128  128   89  128  128  128  128  128  128  128  128  128  128  128  138  122  128  128  128  128  128  128  128  128  128  128  128  128  128  128    0
ch:  97     128  128  128  128  128  128  128  128  128  128  128  128  128  128  128  116  136  150  145  146  154  134  146  155  156  143  150  170  128  166  158    0
ch:  98     132  137  128  119  133  138  145  134  148  148  132  150  154  147  163  150  168  165  170  167  168  166  128  178  128  178  173  171  177  168  128    0
ch:  99     128  128  128  128  128  128  128  128  128  128  128  128  128  128  128  128  128  128  124  119  132  128  114  133  131  130  119  130  135  138  124    0
ch: 100     128  128  128  128  128  128  128  128  128  128  128  128  128  128  128  128  128  128  122  138  125  117  128  134  133  122  122  111  126  127  146    0
ch: 101     128  128   89  128   89  128  128  128  128  128  128  128  128  128  128  140  138  128  128  128  128  128  128  128  128  128  128  128  128  128  128    0
ch: 102     128  128  128  128  128  128  128  128  128  128  128  128  128  128  128  128  128  128  125  109  133  128  126  138  132  132  110  120  130  122  136    0
ch: 103     128  128  128  128  128  128  128  128  128  128  128  128  128  128  128  128  128  128  132  129  118  114  123  124  123  122  141  129  134  125  129    0
ch: 104     128  128  128  128  128  128  128  128  128  128  128  128  128  128  128  116  108  117  120  135  132  121  120  128  128  111  125  121  128  121  117    0
ch: 105     128  128  128  128  128  128  128  128  128  128  128  128  128  128  128  128  128  128  116  138  115  135  114  114  125  122  135  122  135  123  127    0
ch: 106     128  128  128  128  128  128  128  128  128  128  101  128  101  103  128  128  109  125  128  116  128  128  130  131  120  116  113  125  128  128  119    0
ch: 107     128  128  128  128  128  128  128  128  128  128  128  128  128  128  128  128  128  128  130  134  138  134  119  128  127  129  143  134  123  117  120    0
ch: 108     128  128  128  128  128  128  128  128  128  128  128  128  128  128  128  121  135  128  123  128  136  135  128  121  115  118  128  128  128  128  128    0
ch: 109     128  128  128  128  128  128  128  128  128  128  128  128  128  128  128  128  128  128  125  125  141  135  123  125  109  119  135  117  120  139  135    0
ch: 110     128  128  128  128  128  128  128  128  128  128  128  128  100  128  128  128  115  124  114  120  127  128  121  122  128  128  128  110  131  128  128    0
ch: 111     128  128  128  128  128  128  128  128  128  128  128  128  128  128  128  128  128  128  125  123  138  117  124  138  142  120  131  120  138  116  120    0
ch: 112     128  128  128  128  128  128  128  128  128  128  128  128  128  100  128  128  102  128  150  123  128  125  130  119  128  120  117  128  121  117  128    0
ch: 113     128  128  128  128  128  128  128  128  128  128  128  128  128  128  128  128  128  128  140  119  138  127  116  126  114  138  123  130  131  120  138    0
ch: 114     128  128  128  128  128  128  128  128  128  128  128  128  107  113  128  128  128  128  108  109  131  128  121  138  128  106  121  107  128  128  112    0
ch: 115     128  128  128  128  128  128  128  128  128  128  128  128  128  128  128  128  128  128  120  117  125  130  133  121  119  125  122  129  139  131  107    0
ch: 116     128  128  128  128  128  128  128  128  128  128  128  128  128  128  128  128  139  128  114  119  129  120  134  118  128  128  128  128  112  128  128    0
ch: 117     128  128  128  128  128  128  128  128  128  128  128  128  128  128  128  128  128  128  117  123  116  117  108  118  134  120  125  123  129  124  112    0
ch: 118     128  128  128  128  128  128  128  128  128  128  128  128  128  128  128  128  128  128  114  128  120  112  109  120  106   88   84  123  110  115  102    0
ch: 119     128  128  128  128   97  128  128  128  128  128   88  128  117  128  128  104  128  128   99  110  128  101  105  102  128  111  108  118  114  107  107   25
ch: 120     112  128  102  119  122  126  113  120   88  112   86  128   91  104   81  106  102   91  108  102  128  102  128  128  101  112  105   98  128  101   83    0
ch: 121     128  128  128  128   99   98  128  128   95  128  128  115  124  128  128  128   86  112  128  117  115  128  117   97  102  102   93  107  100  128  102   32
ch: 122     128  128  123  124  128  123   85  128  100  123  116  118  128  128  124   93  128  128   92  128  116   93  113  104  100  128  128   99  128  111  100    0
ch: 123     128  128  128  128   95  128  128  128  128  128   97  128  117  128  128  128   76  112  111   93  128   85  102  114  128  115  102  102  102  102  102   40
ch: 124     102  128  108  125  143   95  139  116  129  117  102  109   91  119  128  105   89  128  128  102  128  100  128  101  104  107  105   99   90  109   99    0
ch: 125     128  128  128  128   85  107  128  128  100  128  128   98  115  128  128  128   72  112  128  102  102  128  104  102  104  102  102  102  107   86  111   56
ch: 126     128  128  120  113  123  117  118  110   84  130  124   93  113  101  117   95  128  108  101  105  107  102   95  105  103  128   98  128  128  128  128    0
ch: 127     128  128  128  128  106  128  128  128  128  128   97  128  101  128  128  128   76  106  111  128  102  111  102  102  128  102   97  111  102  102   93   60
