# TRIM CALIBRATION    FEB2_2_1    pulse_ampl_min=20    pulse_ampl_max=85    pulse_ampl_fast=15
#
ch:   0     128  128  128  128  128  128  128  128  128  128   88  128   89   99   85   90  100  101   94   96  103  128  102  120  128  128  128  131   85  128   94    0
ch:   1     100   98  107  109  105  105  109   99  117  143  120  120  125  102  113  100  123  110  132  120  116  121  119  117  119  120  118  123  114  124  114    0
ch:   2     104  106  109  116  114  104  114  128  120  116  118  129  118  140  119  111  116  117  113  123  113  121  106  115  132  125  117  123  118  123  122    0
ch:   3     101  115  106  105  122  129  121  124  119  115  122  116  120  123  130  120  118  135  121  129  118  125  127  117  129  120  121  116  127  114  133    0
ch:   4     106  105  106  109  108  112  120  119  105  123  125  117  102  116  119  116  112  128  120  139  115  117  120  108  115  121  103  126  127  119  134    0
ch:   5      91   98  101  108  120  118  132  128  102  132  111  114  120  114  125  133  115  107  119  120  122  108  117  119  121  123  118  121  121  118  120    0
ch:   6     104  107  116  107  117  119  117  117  122  115  114  124  115  119  122  130  107  122  121  127  126  118  116  131  111  112  112  109  127  123  115    0
ch:   7     106  104  109   97  112  115  114  114  113  121  115  110  118  119  118  116  118  121  122  124  117  122  128  120  122  117  124  120  112  122  120    0
ch:   8     101  108  101  100  109  116  124  112  123  117  131  117  109  121  123  118  117  103  115  126  116  106  119  117  120  120  117  129  120  123  127    0
ch:   9     115  107  106  107  121  120  133  121  114  117  125  118  115  108  118  113  120  124  126  131  118  114  117  122  135  128  120  123  110  127  112    0
ch:  10     116  108  111  112  115  117  125  110  119  117  111  121  113  122  123  125  121  126  123  116  125  116  107  128  120  123  109  112  129  126  124    0
ch:  11     101  100  114  104  118  110  105  121  129  114  118  117  121  122  122  114  112  133  117  121  108  132  118  116  132  129  116  129  130  130  124    0
ch:  12     104  103  113  103  117  130  118  118  116  123  124  108  120  118  116  110  116  114  107  119  117  118  114  126  121  123  114  137  122  108  106    0
ch:  13     104  116  105  103  122  118  122  118  104  118  105  114  117  127  133  124  132  120  133  114  114  117  126  120  129  135  127  134  121  132  119    0
ch:  14     105  108  113  116  112  108  126  128  116  135  119  110  122  118  121  117  125  109  117  133  114  116  115  122  116  132  115  117  124  116  118    0
ch:  15     112  104  105  122  127  120  116  114  138  113  116  121  126  131  125  134  121  121  118  119  121  119  124  128  122  132  120  126  122  120  117    0
ch:  16     104  117  121  110  118  117  116  113  119  119  119  114  106  122  131  117  111  127  132  125  128  123  128  121  132  122  119  131  119  123  120    0
ch:  17     104  106  113  101  120  121  127  119  129  140  120  122  118  118  110  133  121  117  120  118  120  119  114  123  103  131  135  133  118  118  124    0
ch:  18     112  108  109   97  108  119  118  126  119  116  110  121  120  115  115  121  125  116  111  135  119  119  130  120  132  130  131  127  116  135  120    0
ch:  19     102  121  115  113  105  118  120  125  120  134  117  116  123  119  122  137  115  119  122  120  121  133  134  125  116  122  114  114  120  130  128    0
ch:  20     104  100  102  118  119  116  102  127  123  128  118  116  128  123  116  118  125  126  119  129  121  116  118  128  116  118  108  118  119  129  117    0
ch:  21     120  113   92  112  123  125  111  123  117  123  115  108  120  123  123  122  122  135  121  120  122  113  119  122  142  118  130  129  111  116  137    0
ch:  22     118  112  112  110  112  115  110  137  129  115  134  120  127  109  122  122  125  126  113  123  139  114  125  118  126  134  125  121  113  118  113    0
ch:  23     104   92  107  108  107  130  124  117  111  107  117  117  121  131  121  117  118  116  131  138  110  105  128  130  112  142  126  129  118  123  134    0
ch:  24     103  117  107  102  111  118  108  118  128  111  123  121  134  135  125  111  119  118  133  129  130  103  111  118  118  127  119  123  127  116  120    0
ch:  25      93  103  117  101  103  128  111  111  121  113  122  125  132  103  111  131  142  124  117  118  118  129  125  120  129  145  116  115  118  116  120    0
ch:  26     100  116  111  108  108  106  117  133  119  125  116  118  106  122  121  116  129  128  113  139  118  131  141  118  121  133  112  121  138  119  121    0
ch:  27     112   90  111  100  128  122  132  130  128  115  120  116  124  121  132  132  114  118  140  123  138  114  120  119  115  123  119  124  138  120  118    0
ch:  28     105  105  106  107  112  118  120  121  119  128  116  110  129  125  141  123  120  116  133  125  118  127  120  119  115  132  129  112  113  117  134    0
ch:  29     114  115  128  116  105  125  103  119  104  111  121  102  114  116  114  120  115  133  127  107  106  120  119  123  120  120  117  117  127  116  123    0
ch:  30     110   96  114  111  116  117  122  123  117  123  126  130  123  118  123  120  126  120  136  121  128  111  122  121  122  128  121  120  119  129  125    0
ch:  31      97  110  104  115  115  107  108  117  123  123  122  120  116  138  109  136  131  115  125  123  120  109  140  126  133  107  127  126  131  121  122    0
ch:  32     102  104  111  106  115  112  123  103  112  123  104  128  109  100  133  128  121  126  126  128  132  117  132  118  115  131  122  132  114  116  123    0
ch:  33     100  101  118  109  117  116  116  118  135  123  120  124  135  132  118  123  106  118  123  111  116  118  130  130  119  122  116  117  122  126  118    0
ch:  34      98  116  120  118  121  119  121  120  117  126  121  125  122  117  124  125  139  118  130  131  122  127  121  114  119  120  127  119  131  124  134    0
ch:  35     102   90  109  104  115  105  115  130  123  135  127  116  113  120  116  136  113  114  121  121  126  118  115  112  133  118  122  130  135  149  122    0
ch:  36     109  104  105  116  118  112  115  121  132  121  122  118  114  123  132  122  121  112  111  130  125  134  125  133  127  121  132  126  116  138  122    0
ch:  37      88  101  106  102  116  118  124  116  124  116  125  120  122  120  120  122  115  118  129  124  118  127  135  127  130  142  127  127  120  114  123    0
ch:  38     102  104  112  107  106  107  130  119  120  120  122  123  116  109  117  120  126  133  141  145  122  123  119  146  132  120  123  122  116  135  118    0
ch:  39     101  105  102  106  116  124  116  124  116  123  130  124  110  118  116  117  119  129  130  122  117  119  119  117  116  128  148  129  120  124  136    0
ch:  40      99  103  106  108  104  117  117  123  151  131  129  119  105  118  120  130  118  121  132  129  119  120  130  123  126  121  131  115  132  132  127    0
ch:  41     101   98  105  106  116  117  119  128  117  121  135  117  125  129  112  129  122  126  121  127  126  130  135  118  131  118  121  134  136  134  134    0
ch:  42     106  115  105  108  125   97  119  115  123  115  131  122  122  121  134  132  119  120  129  110  130  120  115  119  115  136  121  132  134  134  120    0
ch:  43     102  100  103  116  107  106  108  111  119  134  125  122  121  117  123  133  114  131  125  121  116  125  120  119  131  129  134  120  123  124  121    0
ch:  44     103  101  106  117  115  119  114  108  128  136  121  132  126  119  115  135  113  127  133  122  123  127  118  121  118  120  128  129  123  119  136    0
ch:  45     101  101   98  119  111  123  130  116  118  130  121  114  125  121  119  117  115  128  120  134  131  116  120  123  125  122  141  117  125  122  130    0
ch:  46     103  108  104  106  120  123  120  119  134  117  114  127  130  116  142  132  131  115  131  133  113  117  113  129  127  128  126  109  122  114  131    0
ch:  47     114   98   96  100  116  114  131  121  126  130  132  118  131  134  117  126  131  133  125  125  127  127  132  141  140  115  131  117  126  141  126    0
ch:  48     101  103   96  119  113  120  117  120  118  132  117  123  117  121  139  119  122  116  121  131  121  115  131  114  121  118  129  131  127  135  139    0
ch:  49     102  106  103  107  104  119  113  117  133  135  119  131  129  120  113  122  121  131  145  133  126  121  135  117  118  137  109  133  123  107  131    0
ch:  50     103  114  107  102  101  116  112  127  119  130  125  142  116  116  121  133  129  130  118  129  121  121  119  129  127  120  131  120  126  122  136    0
ch:  51      98  103   87  107  109  118  107  122  117  121  120  120  122  119  124  118  133  120  128  121  133  154  126  119  133  128  142  118  123  123  131    0
ch:  52      98   88   91  108  105  122  117  135  110  120  133  124  126  110  125  135  127  128  126  115  131  131  133  131  136  122  126  119  127  156  124    0
ch:  53     105   99  105  101  105  105  136  121  124  133  108  135  122  126  121  125  137  125  122  137  120  129  108  129  125  130  136  125  144  133  129    0
ch:  54      91  102   96  107  107  120  112  120  112  113  135  118  133  115  119  126  117  130  118  121  125  121  122  127  131  119  122  128  121  134  115    0
ch:  55     100   84  105  100  115  109  104  112  129  135  116  119  127  110  118  121  125  122  123  135  118  128  131  120  132  118  141  122  132  127  136    0
ch:  56     107  109  108  102  110  122  114  120  118  132  138  127  133  124  127  138  125  121  127  117  117  123  135  133  134  121  132  128  116  128  124    0
ch:  57     100   89   89  101  100  116  106  121  132  120  121  129  114  120  115  106  133  116  122  131  129  122  135  107  138  128  134  125  135  122  127    0
ch:  58      85   97  105  115  119  133  116  116  119  122  125  118  127  124  141  141  140  143  137  119  124  117  130  116  118  124  122  130  117  128  121    0
ch:  59     102  102  106   98  111  119  104  121  121  137  112  123  137  125  136  125  127  125  127  119  120  123  126  129  119  126  117  139  137  122  134    0
ch:  60     101  101   97  108  127  123  132  131  118  118  117  122  120  119  130  116  119  122  132  134  120  134  124  122  138  137  124  123  120  136  143    0
ch:  61     100  106  103  106  115  113  118  123  121  125  134  127  125  119  130  131  125  119  125  120  115  138  140  142  119  123  119  130  127  115  138    0
ch:  62     103   97  104  116  107  112  104  111  123  119  121  122  118  119  135  131  121  122  125  119  124  123  125  126  127  129  116  123  121  120  135    0
ch:  63      88  100   87  103  106  100  118  121  130  115  131  139  130  130  131  140  135  122  121  128  121  124  126  123  120  115  162  124  132  116  126    0
ch:  64     100   90  106  106  108  123  122  119  130  126  106  116  144  120  131  119  129  116  135  119  128  130  127  113   98  123  122  119  119  126  118    0
ch:  65     104  108  115  116  112  118  119  120  119  127  127  116  133  145  131  133  110  129  134  131  128  122  121  129  141  120  122  120  119  131  138    0
ch:  66     104   96  106  113  114  118  116  118  120  127  117  119  127  121  123  120  132  123  117  128  131  128  119  111  127  121  137  122  131  112  122    0
ch:  67      84   92  101   98  102  114  118  119  107  122  121  121  130  121  105  124  132  123  128  123  133  128  146  112  123  142  133  133  127  124  121    0
ch:  68      98  116  107  102  106  120  129  119  119  111  133  129  143  133  136  117  131  124  119  126  126  131  123  131  128  118  156  116  123  125  137    0
ch:  69      97   99  128   97  103  116  106  108  120  134  119  123  127  121  120  120  137  134  129  135  125  122  129  109  132  134  119  135  137  126  107    0
ch:  70     104  107  104  101  115  118  121  113  133  113  123  116  127  114  125  125  129  125  121  133  130  118  135  122  117  137  131  118  132  133  122    0
ch:  71     101   94   93   89  103  113  123  104  117  121  128  123  116  119  117  139  117  109  128  116  142  124  134  130  132  122  121  137  132  121  128    0
ch:  72     104   89  121   98  104  119  129  121  123  125  120  131  117  122  107  109  122  122  133  139  116  119  129  133  123  128  119  120  141  129  124    0
ch:  73     100  107   87   92  108  104  116  119  114  121  120  118  122  116  133  137  141  137  128  127  129  136  123  129  129  138  129  130  124  139  143    0
ch:  74      89  128  104   99  104  117  129  120  122  122  119  135  131  114  121  136  124  125  124  126  135  118  118  146  119  117  122  125  121  125  141    0
ch:  75      96   93  101  104   91  101  126  116  118  124  121  126  123  134  125  135  118  128  128  131  120  124  128  116  115  140  132  135  116  136  123    0
ch:  76      85  108  101  111  124  131  118  126  118  122  124  125  118  114  118  125  131  141  137  120  119  119  121  134  135  147  142  125  132  123  133    0
ch:  77      92   95   90  103  117  106  120  119  119  127  110  125  113  131  119  119  130  122  128  122  131  128  129  128  137  127  135  121  122  127  132    0
ch:  78     100  104  101  102  117  118  123  118  120  108  117  120  116  140  126  132  123  117  120  116  131  132  122  121  124  129  118  112  122  128  119    0
ch:  79      89   86   98   94  100  117  119  119  133  129  126  121  125  157  119  132  122  131  129  138  131  137  129  150  129  124  123  120  114  120  141    0
ch:  80     105  106  114  112  115  106  119  119  133  122  139  121  119  119  134  132  136  144  130  130  133  128  129  143  130  135  118  121  127  133  123    0
ch:  81     100   98   75   89  107  114  113  109  121  123  121  119  117  110  129  139  115  118  137  126  118  128  128  133  123  139  127  119  135  129  123    0
ch:  82      90   90  104  117  119  118  131  121  117  113  121  126  123  120  114  131  136  131  128  119  123  124  123  133  131  113  136  126  122  137  124    0
ch:  83     106  105   96   97   84  108  121  122  123  114  122  140  137  117  125  125  123  134  121  114  121  120  129  119  121  129  131  131  137  123  125    0
ch:  84     102  110  113  102  120  122  121  119  123  127  123  114  117  137  131  127  125  130  127  130  124  105  124  119  124  120  125  121  135  127  113    0
ch:  85      75   87  128  104  103  106  115  120  117  120  123  120  142  120  131  119  133  119  116  144  117  132  127  110  133  135  137  136  130  122  131    0
ch:  86     106  106  116  105  104  116  118  112  123  114  127  122  124  119  119  131  138  131  121  118  132  113  122  117  119  121  131  140  116  139  120    0
ch:  87      98  107   88   89  102  120  117  120  122  114  131  133  113  135  134  124  132  132  137  137  141  132  137  126  146  113  145  130  130  119  120    0
ch:  88      99  103   98  100  101  121  121  135  120  125  132  116  125  122  131  123  119  119  113  121  138  120  118  125  123  124  131  122  131  123  127    0
ch:  89      90  104  101  117   98   90  116  115  117  123  124  122  124  136  119  132  154  123  128  120  131  133  148  131  135  133  124  134  132  131  134    0
ch:  90      92  104  116  104  104  112  106  122  111  128  120  111  116  125  110  137  120  120  137  121  129  140  128  130  125  136  119  119  124  121  128    0
ch:  91      95   98   89  103  106  117  108  113  121  125  129  125  123  130  121  125  130  131  142  134  118  124  130  128  123  137  137  119  127  121  138    0
ch:  92      91  108  104  104  121  107  130  117  134  115  133  120  132  116  124  119  119  127  129  127  123  111  123  128  135  120  115  110  134  120  133    0
ch:  93      91   98   92  100  109   96  121  120  123  117  118  132  137  128  101  134  117  138  117  123  122  122  137  121  130  145  121  125  123  142  134    0
ch:  94     100  104  128  102  102  116  116  122  113  117  131  127  113  121  134  120  118  119  116  126  132  130  120  121  123  119  113  126  128  125  122    0
ch:  95      88   97   87   97   93  114  114  118  127  120  119  122  126  121  121  122  123  132  129  136  118  138  129  140  141  130  130  108  126  130  153    0
ch:  96     101  100   87  102  106  114  121  116  119  107  121  109  117  135  118  122  121  131  128  132  115  133  122  135  123  127  119  125  117  142  131    0
ch:  97     100  128  128   96  108  107  121  111  122  121  120  125  128  126  147  118  120  137  104  124  129  125  127  134  134  135  118  124  142  157  136    0
ch:  98     113  100  102   99  119  107  124  106  119  119  126  116  121  120  132  105  126  136  120  131  116  117  130  119  137  119  119  121  130  132  118    0
ch:  99      97   97   92   87  105  112  118  115  125  129  135  101  121  119  117  128  145  115  128  125  120  129  129  127  129  119  122  153  132  127  132    0
ch: 100     108  103  103  110  117  114  115  129  121  127  118  137  121  119  119  125  125  116  135  104  134  114  129  117  115  135  127  116  124  141  136    0
ch: 101     103  128   95  101  103  108  118  107  117  119  123  127  135  121  122  125  129  124  134  128  139  134  121  121  135  134  127  136  128  129  118    0
ch: 102     103   98  108  106  124  104  121  129  128  126  124  115  126  117  136  138  123  114  119  130  114  148  132  111  128  120  103  121  124  124  140    0
ch: 103      98   96   89   86   89  104  117  115  118  121  126  122  124  112  121  133  116  135  131  135  124  131  123  124  129  119  134  120  123  121  141    0
ch: 104      97   99  108   99  116  114  106  110  128  118  122  120  130  122  133  121  124  121  120  122  136  127  144  123  128  106  113  134  119  115  142    0
ch: 105      89  128   89   91  108  117  125  116  129  109  131  130  158  119  121  122  114  139  126  118  133  121  133  122  133  138  124  136  128  131  128    0
ch: 106      96  112  104  119  110  118  116  113  107  114  113  122  124  122  117  115  115  125  116  117  123  131  135  119  119  131  118  111  127  119  115    0
ch: 107      99   88   86   86  108   97  115  104  116  119  118  135  129  123  136  116  121  126  123  138  128  118  143  126  125  120  120  123  116  117  129    0
ch: 108     110  108  108  106  106  102  118  107  134  126  129  119  122  129  128  129  144  116  104  116  118  125  122  106  118  134  127  131  109  122  127    0
ch: 109      95  128  128   86  121  107  107  119  118  121  130  121  138  117  114  118  120  137  134  133  120  131  128  121  141  127  130  136  119  162  135    0
ch: 110      91  100  116  102  104  121  119  104  123  114  117  116  116  108  123  124  137  132  113  125  132  111  124  121  102  118  115  110  124  123  125    0
ch: 111      74   88   90   89   85  114  123  119  122  118  122  122  131  121  118  120  126  134  128  124  124  121  147  133  143  144  128  105  130  121  125    0
ch: 112     100  107  128  104  117  116  113  134  110  126  118  124  123  125  127  122  123  104  125  119  134  127  123  128  126  127  120  128  128  128  134    0
ch: 113     100  128  128   88  128  108  112  108  134  116  123  102  129  128  132  126  132  116  130  119  113  119  157  136  121  127  133  119  117  120  135    0
ch: 114      89  115  104   92  107  119  116  124  105  112  135  123  119  122  114  118  125  124  115  131  129  105  125  120  123  144  136  120  125  130  128    0
ch: 115      86   84   97   89   98  107  122  116  122  112  132  119  120  132  113  118  133  128  120  119  132  121  123  116  123  130  120  125  134  106  132    0
ch: 116     106   94  102  104  114  116  117  131  124  137  121  131  106  128  112  123  131  104  131  143  120  140  135  128  142  117  119  131  130  126  124    0
ch: 117      99  128   85   90   96   90  115  121  121  126  121  128  118  128  130  128  124  114  124  130  122  118  120  133  124  125  126  126  125  130  136    0
ch: 118      83   97  101  111  117  118  112  125  122  118  115  117  120  129  129  110  136  133  112  113  122  114  117  109  115  115  132  128  119  130  133    0
ch: 119      98   92   95   93   86  108  121  117  110  133  109  125  127  138  132  114  120  127  114  137  137  141  128  122  126  129  134  132  128  114  118    0
ch: 120     101  102  105  120  119  106  118  121  116  119  123  138  128  123  118  116  121  117  147  144  133  125  122  118  119  140  117  146  125  132  118    0
ch: 121      89  128  128  105   99  104  122  107  112  118  121  120  132  134  137  125  128  133  129  128  136  121   98  122  122  122  129  121  125  125  117    0
ch: 122     105   91   92  121  115  115  106  117  119  119  129  112  116  114  119  114  113  126  133  109  125  141  119  137  119  120  118  125  125  134  129    0
ch: 123      96   85   87   90   86  108  118  125  105  123  119  138  119  116  126  120  133  119  119  136  134  114  135  137  146  124  136  127  123  136  114    0
ch: 124     101  103  100  106  116  116  119  118  114  121  113  115  114  139  128  130  125  120  129  119  126  140  132  128  109  135  132  114  134  119  120    0
ch: 125     100  128   88   95   90  106  116  113  119  123  123  116  126  121  128  114  126  122  125  138  116  128  125  122  131  124  116  122  121  128  113    0
ch: 126      90   97  106  104  111  115  115  114  116  123  114  133  101  124  124  117  125  120  118  110  114  133  121  127  133  134  119  138  124  113  122    0
ch: 127      88   92  128   88   90  102  115  117  115  119  116  117  138  131  123  124  136  124  128  138  145  117  135  124  151  136  128  137  128  119  115    0
