# TRIM CALIBRATION    FEB6_4_5    pulse_ampl_min=20    pulse_ampl_max=85    pulse_ampl_fast=15
#
ch:   0     119  107  108  118  113  119  119  128  118  122  117  119  105  111  120  105  105  120  112  116  115  117  105  117  116  119  117  118  117  104  113    0
ch:   1     115  126  118  120  117  118  123  126  106  117  121  129  115  121  114  117  120  116  123  121  118  131  123  114  117  117  123  117  113  119  106    0
ch:   2     121  122  114  117  110  132  124  114  118  115  134  117  114  104  111  107  122  120  120  104  114  105   94  112  107  121  116  118  115  104  108    7
ch:   3     128  128  128  127  116  104  108  123  123  134  118  123  109  131  134  121  117  121  132  116  116  112  116  106  110  115  118  112  102  122  122   17
ch:   4     120  104  108  104  118  118  107  119  108   97  120  107  111  107  120  122  115  115  103  117  105  105  108  107  118  104  103  112  111  103  106    3
ch:   5     122  117  110  116  116  122  113  118  117  123  113  109  107  113  122  113  133  118  121  111  127  105  117  112  115  118  120  104  116  117  109   22
ch:   6     124  131  114  119  118  131  119  113  115  120  120  124  118  116  110  117  107  114  112  104  110  121  118  106  118  104  120  106  109  116  107    9
ch:   7     122  120  121  112  113  123  118  132  119  119  122  113  123  133  120  112  121  122  108  104  113  117  112  118  115  109  122  110  114  112  109   23
ch:   8     132  109  116  119  121  121  119  107  114  116  108  117  119  114  119  121  124  115  118  121  104  117  113  117  120  115  116  104  118  116  117   12
ch:   9     120  125  118  125  117  131  117  117  124  118  122  129  123  121  132  119  129  117  125  104  128  120  115  116  116  114  117  129  121  109  107   29
ch:  10     118  117  124  118  133  125  122  118  121  109  116  118  117  117  120  122  131  104  122  116  122  106  119  100  116  115  119  103  102  118  111   19
ch:  11     126  126  117  120  117  131  105  119  119  116  120  117  124  120  121  113  116  105  119  118  121  116  117  134  123  120  105  118  117  116  108   23
ch:  12     116  117  117  121  115  119  107  118  122  123  120  120  115  116  106  117  115  123  105  110  115  114  108  112  116  115  111  115  122  114  114   15
ch:  13     120  121  115  122  117  120  123  123  119  113  117  120  115  122  118  104  119  115  113  107  117  116  116  115  116  121  100  121  121  116  106   33
ch:  14     116  120  110  118  131  117  115  118  115  117  117  123  111  120  121  121  110  114  118  106  112  118  101  113  107  119  120  110  114  130  117   39
ch:  15     117  119  114  120  122  119  120  119  116  114  120  108  122  118  117  120  122  121  115  117  117  119  115  115  115  119  111  121  123  118  116   43
ch:  16     106  112  122  119  127  114  119  117  117  117  115  118  113  122  116  115  118  120  116  121  118  112  113  104  117  117  108  106  114  115  117   35
ch:  17     122  117  108  134  116  116  118  121  113  121  122  119  121  119  117  124  128  101  117  120  110  121  116  120  108  116  105  116  110  116  119   47
ch:  18     118  117  134  122  118  115  122  119  124  117  123  114  120  113  106  114  122  117  121  120  116  106  102  113  120  118  107  102  115  118  122   29
ch:  19     110  115  120  128  121  117  127  120  116  124  128  125  124  121  115  108  133  127  125  121  114  119  118  115  122  123  123  118  111  116  117   44
ch:  20     113  117  131  118  117  129  112  118  121  115  115  132  120  120  122  108  106  118  111  122  120  127  118  120  118  104  110  113  104  118  118   31
ch:  21     136  117  118  118  120  117  118  106  110  130  108  118  121  122  126  120  131  120  122  112  118  112  110  132  117  115  132  117  109  116  117   48
ch:  22     121  117  131  123  116  120  131  118  120  118  121  118  118  116  116  117  105  121  118  111  125  114  109  123  117  130  121  113  105  120  115   41
ch:  23     121  122  116  116  129  120  117  108  123  103  121  119  117  109  125  122  130  118  121  121  125  118  110  119  103  114  120  117  112  116  113    0
ch:  24     117  116  122  109  120  117  136  133  118  116  110  108  118  118  117  130  131  117  123  104  119  118  114  106  106  120  116  114  125  116  103   31
ch:  25     128  128  121  114  116  134  118  116  119  117  117  123  117  119  120  131  122  120  122  120  117  134  105  119  121  122  116  115  103  115  120    0
ch:  26     111  120  118  109  119  120  120  123  121  119  116  121  118  107  109  123  119  111  121  108  120  110  110  115  119  105  116  101  108  104  114   41
ch:  27     107  120  120  125  118  132  109  119  115  120  114  107  120  120  112  121  121  117  133  118  119  115  112  119  134  116  108  120  117  123  111   56
ch:  28     117  123  125  121  132  132  127  116  127  115  107  117  120  116  121  115  106  132  119  123  112  116  109  108  110  112  110  116  106  115  117   41
ch:  29     107  114  116  130  124  119  118  114  119  122  130  123  118  131  119  121  115  123  120  131  136  120  119  108  115  113  107  121  119  115  117   56
ch:  30     121  112  112  132  116  118  113  117  110  116  122  118  123  121  106  117  113  116  116  106  106  108  113  117  118  107  118  117  110  107   88   45
ch:  31     102  121  114  123  118  113  135  114  122  127  121  123  127  116  116  122  116  120  117  119  117  122  116  114  112  118  110  118  114  111  120    0
ch:  32     115  114  121  119  117  121  121  118  120  114  108  125  123  117  106  119  119  111  133  121  120  104  109  104  113  121  114  115  104  117  110   52
ch:  33     120  128  127  132  124  121  122  120  111  121  121  115  125  120  113  122  122  127  120  121  116  129  116  114  118  114  111  117  114  125  118    0
ch:  34     124  120  117  114  113  127  106  134  117  105  116  106  120  120  123  117  122  115  119  131  121  104  104  106  113  106  111  120  119  116  120   38
ch:  35     108  121  122  115  120  109  117  112  126  123  126  130  117  119  116  119  123  118  120  120  124  117  121  117  124  107  121  114  117  114  108    0
ch:  36     106  117  129  122  112  112  121  115  133  116  122  118  102  122  121  134  120  118  132  114  120  120  117  111  117  109  120  129  116  119  105    0
ch:  37     117  117  119  118  127  121  116  120  123  118  117  121  136  119  127  122  116  117  107  118  117  133  117  123  112  105  118  123  116  114  116    0
ch:  38     117  119  119  120  123  120  131  122  109  127  121  120  117  105  120  113  114  117  120  120  131  102  121  127  111  115  116  116  109  113  111   50
ch:  39     128  114  117  107  106  118  122  121  116  121  120  114  118  118  121  119  121  131  136  123  131  125  114  109  119  121  120  111  118  122  117    0
ch:  40     119  112  128  120  113  117  117  115  119  108  117  110  118  106  121  122  108  116  121  120  106  121  101  117  114  115  118  106  119  107  113    0
ch:  41     125  119  119  117  117  117  135  118  119  115  133  136  113  104  131  133  118  119  122  121  114  116  118  123  118  117  120  120  120  105  126    0
ch:  42     123  134  118  120  117  107  115  123  120  109  116  120  114  116  117  122  118  116  116  125  129  121  121  121  106  109  116  115  108  122  106   60
ch:  43     106  128  104  117  127  118  107  107  131  118  121  130  134  132  119  124  122  115  117  118  121  117  130  132  113  115  117  121  123  121  117    0
ch:  44     120  128  122  112  106  127  125  118  115  122  133  113  109  122  115  118  115  113  122  115  133  120  102  107  116  112  121  118  115  116  103   56
ch:  45     116  125  115  133  117  116  118  119  120  120  121  117  121  122  117  117  122  123  120  116  118  118  123  112  127  118  115  123  109  137  116    0
ch:  46     128  133  124  120  112  115  119  118  131  120  114  123  122  121  106  120  121  125  125  104  105  113  106  121  115  116  118  115  107  115  104   60
ch:  47     120  121  134  110  117  126  118  138  121  118  117  111  115  121  130  129  116  134  125  120  120  116  119  118  113  117  105  106  120  120  115    0
ch:  48     116  117  118  121  117  119  122  121  121  123  122  119  117  105  120  124  123  120  107  119  120  110  122  116  110  121  119  116  109  105  100   46
ch:  49     119  118  124  124  109  128  124  122  121  124  118  119  110  124  121  118  117  107  104  118  118  124  118  113  133  121  117  116  116  111  116    0
ch:  50     113  134  118  120  118  133  118  129  116  118  122  118  116  127  122  121  131  120  116  112  118  134  104  106  119  113  118  103  111  119  107    0
ch:  51     126  120  120  119  117  121  123  114  121  113  129  118  125  121  125  120  121  118  110  134  119  120  117  122  120  121  112  119  119  121  118    0
ch:  52     122  115  109  120  112  128  115  120  113  120  121  117  122  131  113  125  113  131  125  121  105  110  118  118  121  119  118  105  117  118  104    0
ch:  53     128  114  118  119  118  123  122  132  132  125  110  130  120  137  116  121  119  121  116  115  120  123  120  118  120  101  119  106  117  107  113    0
ch:  54     107  121  118  131  116  121  106  116  109  120  117  121  119  124  118  134  114  122  129  106  115  104  105  116  121  111  122  128  106  116  115    0
ch:  55     117  110  118  129  118  119  117  133  119  121  112  121  121  115  130  126  116  134  134  108  121  119  134  122  122  122  111  113  116  117  116    0
ch:  56     116  117  118  123  122  124  116  115  124  121  117  121  104  121  121  118  115  115  112  110  114  105  117  115  107  115  107  104  119  127  119   57
ch:  57     118  119  117  119  118  136  130  121  114  132  112  127  122  118  119  118  122  133  129  119  121  117  118  116  119  104  118  124  112  120  120    0
ch:  58     130  134  120  121  121  115  135  129  117  124  111  118  123  120  115  133  118  117  113  124  116  118  116  116  103  115  106  118  118  111  117    0
ch:  59     132  104  128  121  118  125  122  124  122  129  119  116  118  119  136  135  116  111  133  121  118  121  116  104  136  119  115  117  123  121  121    0
ch:  60     118  118  119  119  130  121  128  114  124  134  122  119  122  133  119  119  124  122  112  117  125  112  116  104  120  116  108  110  116  119  113    0
ch:  61     128  131  130  128  122  116  118  134  129  133  120  115  126  134  130  127  118  123  121  121  121  117  134  128  105  122  116  118  104  123  115    0
ch:  62     131  115  132  118  118  110  117  130  120  124  119  118  132  117  124  122  120  116  117  109  107  107  121  109  111  119  108  127  126  105  122    0
ch:  63     116  120  117  124  131  115  134  135  122  129  121  132  119  123  122  120  118  120  128  120  110  121  107  117  116  115  117  111  121  112  106    0
ch:  64     118  119  134  120  115  118  121  116  121  121  135  125  132  119  117  111  113  113  120  120  117  119  121  130  114  115  120  132  104  116  120    0
ch:  65     132  119  119  119  118  132  121  130  120  121  137  134  131  119  131  134  132  128  120  111  120  119  130  115  128  115  122  118  125  135  125    0
ch:  66     111  118  120  117  131  132  136  121  121  115  115  120  131  102  127  123  122  126  117  116  116  118  121  103  120  120  108  116  123  120  115    0
ch:  67     127  129  130  133  128  141  128  117  127  122  134  120  111  122  121  112  125  133  132  132  120  118  118  111  119  127  118  113  117  121  106    0
ch:  68     117  119  123  116  118  119  121  115  118  115  128  118  131  121  122  118  108  116  119  131  120  118  118  111  107  124  118  109  109  118  107   59
ch:  69     113  120  117  116  119  121  118  107  122  113  120  121  123  122  116  121  117  115  120  120  124  131  113  117  118  119  106  112  107  107  108    0
ch:  70     118  115  127  133  122  132  120  132  123  113  122  121  123  121  122  114  130  109  118  134  122  123  118  107  100  113  120  119  127   98  107    0
ch:  71     121  114  116  117  117  133  130  134  127  124  121  110  132  116  133  126  120  111  117  123  120  112  121  120  122  119  129  115  117  118  110    0
ch:  72     110  114  111  117  121  122  121  115  118  115  114  115  123  125  119  121  104  116  120  118  112  117  119  108  116  116  121  113  118  115  119    0
ch:  73     110  104  119  117  121  103  134  120  132  121  124  116  125  117  117  121  119  122  121  121  118  118  131  111  117  112  117  130  117  118  114    0
ch:  74     121  122  125  123  118  121  124  117  131  121  114  124  118  120  118  104  122  120  113  116  117  110  118  129  108  119  104  117  115  119  115    0
ch:  75     118  122  133  121  129  121  142  130  132  119  129  133  132  117  115  115  121  129  116  119  120  120  118  116  112  115  107  117  122  119  120    0
ch:  76     124  113  130  123  117  134  127  116  108  133  112  118  114  119  120  117  104  104  121  107  123  112  101  111  120  121  122  103  128  116  103    0
ch:  77     128  128  121  120  118  119  114  115  112  121  121  120  121  118  117  117  106  120  122  122  122  115  115  120  126  113  117  118  120  106  118    0
ch:  78     123  110  112  116  132  124  117  123  122  119  117  119  118  118  133  115  123  117  117  111  134  121  113  121  102  116  102  107  114  118  124    0
ch:  79     116  127  117  118  120  118  116  112  115  118  132  121  121  120  109  122  119  119  118  114  117  125  132  122  147  117  114  118  121  115  116    0
ch:  80     128  120  120  114  130  130  119  115  119  116  120  125  119  111  107  109  116  120  106  115  123  116  117  114  110  104  104  121  133  117  110    0
ch:  81     123  132  121  121  134  117  123  118  122  107  107  132  128  106  126  127  122  118  116  121  113  115  119  119  129  134  116  117  115  110  114    0
ch:  82     111  120  114  120  118  132  125  113  120  117  119  120  123  115  130  117  116  121  112  120  121  104  115  113  117  118  121  110  116  107  105    0
ch:  83     118  117  125  133  124  113  118  116  118  120  123  132  121  118  118  119  117  120  120  119  118  131  119  126  113  121  119  115  120  119  116    0
ch:  84     132  124  115  110  118  119  121  133  123  124  131  110  118  116  132  107  117  118  118  120  115  115  114  116  111  116  120  117  113  116  104    0
ch:  85     121  114  122  130  121  134  122  105  119  119  118  127  133  116  125  118  122  131  125  128  125  120  115  122  127  113  119  121  115  119  132    0
ch:  86     116  122  121  118  121  125  106  135  124  110  133  136  131  130  122  121  129  118  119  120  132  119  112  115  104  116  117  113  112  126  123    0
ch:  87     119  132  117  131  117  120  121  126  134  119  120  122  121  120  114  123  116  117  118  129  121  120  131  123  109  123  116  122  121  114  130    0
ch:  88     131  121  121  124  124  128  120  133  124  126  109  132  116  119  114  114  113  120  119  119  105  115  116  119  116  117  119  123  117  114  109    0
ch:  89     120  119  115  120  124  124  110  121  121  121  121  119  132  126  122  106  123  121  114  126  120  131  120  127  117  121  128  115  119  120  122    0
ch:  90     117  123  118  112  131  118  131  105  133  121  118  113  132  120  121  112  121  121  118  118  118  109  107  121  121  107  110  118  118  107  106    0
ch:  91     115  131  122  124  117  111  116  118  129  121  124  110  127  138  116  123  120  117  119  114  106  114  133  117  117  132  118  112  122  117  122    0
ch:  92     122  121  122  119  120  119  130  105  121  121  115  120  122  109  119  128  123  119  118  131  106  119  110  117  119  116  122  102  128  104  115    0
ch:  93     118  131  106  117  121  128  116  118  132  123  132  111  125  122  134  119  130  133  121  118  132  121  129  121  119  120  134  121  117  115  107    0
ch:  94     122  117  120  109  126  116  117  116  121  119  121  116  106  120  116  118  126  115  106  120  111  117  105  120  111  123  119  120  104  108  118    0
ch:  95     106  118  124  130  133  122  119  121  132  126  134  110  125  117  122  120  129  125  119  119  123  115  117  100  112  122  113  129  118  116  110    0
ch:  96     105  116  125  120  112  118  124  136  113  122  123  118  133  120  117  133  123  117  121  119  135  121  118  106  116  116  122  118  119  116  111   44
ch:  97     105  124  120  119  118  132  116  126  121  126  120  120  122  117  131  107  117  117  121  118  120  130  116  116  123  121  107  117  127  114  118    0
ch:  98     118  120  112  132  119  134  130  124  120  132  117  118  117  113  132  131  122  119  112  123  113  123  113  110  118  122  119  115  120  109  106   43
ch:  99     117  126  123  129  124  127  113  130  123  118  119  112  121  122  134  114  121  117  119  117  123  113  116  123  107  117  122  120  124  119  115    0
ch: 100     120  122  120  116  118  132  120  133  122  128  123  125  112  124  128  134  126  120  118  120  119  120  118  122  116  119  119  118  122  126  117   47
ch: 101     118  135  112  122  119  118  133  133  122  113  119  118  127  121  121  118  112  121  121  122  121  123  128  118  112  103  125  120  123  123  118   46
ch: 102     113  121  113  119  123  111  133  132  123  117  131  122  118  105  115  123  118  130  119  109  106  118  112  119  106  126  107  105  116  121  109   45
ch: 103     119  117  107  131  131  105  120  118  112  130  132  114  128  115  123  133  122  118  113  124  125  117  117  117  117  113  132  117  109  121  113   60
ch: 104     117  120  120  110  133  132  113  120  126  115  115  115  122  121  125  135  115  115  122  121  115  121  118  111  106  122  115  106  116  120  106   40
ch: 105     125  121  133  118  125  123  130  124  116  134  133  108  132  131  119  118  148  123  117  127  116  121  127  121  114  123  111  119  120  109  114    0
ch: 106     119  125  127  108  117  121  120  117  115  122  118  113  120  110  120  107  108  115  113  141  123  114  114  112  116  113  112  107  118  109  121   44
ch: 107     116  137  120  121  129  125  122  123  118  131  121  120  124  117  117  123  114  126  122  120  118  109  121  132  118  117  120  116  120  113  121   41
ch: 108     122  118  118  115  119  116  118  127  121  121  115  123  120  118  111  112  120  106  119  123  111  115  115  111  106  111  117  105  116  105  122   36
ch: 109     130  120  129  121  133  113  115  129  117  118  116  115  120  120  120  118  121  123  123  117  117  115  118  113  117  132  116  119  131  112  121   49
ch: 110     118  106  119  129  123  122  111  136  116  117  119  131  112  110  130  116  114  114  118  121  111  117  107  116  108  118  119  119  103  116  106   25
ch: 111     117  133  140  119  120  104  130  122  121  120  119  120  117  118  123  120  121  120  121  141  108  119  118  116  132  120  111  124  113  121  110    0
ch: 112     121  120  123  115  129  121  121  114  121  116  134  121  122  118  106  123  100  117  122  111  121  109  115  122  122  119  103  118  119  111  106   24
ch: 113     106  115  128  118  123  118  109  114  133  132  120  131  115  120  119  122  134  120  115  124  115  115  116  114  113  133  121  115  119  123  105   49
ch: 114     117  122  115  118  104  123  122  123  126  125  113  115  123  118  116  119  130  119  119  115  135  116  118  116  116  107  118  119  107  120  117   28
ch: 115     127  121  134  122  118  131  116  126  136  131  130  114  122  127  121  117  122  118  119  120  120  115  117  122  116  116  115  116  120  123  115   39
ch: 116     118  128  121  115  119  131  117  121  120  133  117  118  118  114  123  107  133  119  108  124  117  109  132  111  114  113  106  116  115  115  111   17
ch: 117     119  128  105  110  131  117  117  120  116  120  120  126  122  119  123  116  121  136  108  121  132  121  121  109  118  114  137  111  115  120  106   38
ch: 118     119  125  120  121  125  121  117  117  120  105  124  119  120  116  115  120  118  118  114  116  117  126  104  108  123  117  118  119  108  104  118   23
ch: 119     119  117  121  132  116  134  120  111  119  113  115  112  114  119  129  134  117  116  121  118  110  118  128  126  118  105  118  115  117  118  115    0
ch: 120     116  124  119  120  135  121  121  107  117  121  116  131  112  111  116  115  118  108  121  122  104  114  125  104  113  122  109  121  116  118  109   19
ch: 121     119  131  130  119  133  119  119  120  121  123  118  119  117  116  120  119  119  134  125  122  116  118  114  134  117  126  116  121  123  120  118   31
ch: 122     119  123  120  116  119  118  121  119  119  119  115  113  117  116  113  118  122  110  120  118  112  118  104  113  109  112  115  118  119  100  114   12
ch: 123     128  127  130  122  123  126  124  128  125  117  133  136  130  107  135  132  120  119  127  118  132  112  115  121  111  115  117  122  130  121  121   16
ch: 124     128  115  132  107  117  129  119  122  120  130  114  119  115  120  122  122  113  123  108  115  118  121  122  110  106  118  121  110  118  115  120   26
ch: 125     122  118  121  116  128  114  119  113  103  118  118  119  129  119  125  118  119  117  118  119  119  114  129  115  122  120  111  119  117  104  112   22
ch: 126     119  113  117  121  115  119  118  132  115  115  114  117  119  119  116  112  114  120  120  121  122  113  115  110  103  115  118  121  106  100  110    8
ch: 127     115  118  128  122  133  138  120  118  146  115  136  126  132  107  125  131  123  130  132  117  130  118  124  118  116  119  122  110  118  119  119   20
