# TRIM CALIBRATION    FEB6_4_2    pulse_ampl_min=20    pulse_ampl_max=85    pulse_ampl_fast=15
#
ch:   0     118  119  102  113  102  106  104  103   99  103  110  104  104  112  114  105  107  100   98  107  119  116  107  104  106  114  104  106  105  106  100    0
ch:   1     109  105  120  120  120  112  104  106  126  119  105  116  114  112  112  106  105  104  118  110  117  108  104  110  112  100  120  104  102  104  104   16
ch:   2     104  113  115  118  119  104  104  113  110  117  106  109  103  113   96  100  115   91  104  114  112   97  109   98  103  109  104   92  112   94  110   16
ch:   3     119  116  107  114  118  116  116  129  102  103  111  118  104  118  105  113  102  120  108  103  105  105  118  114  108   99  104  107  109  104  125   28
ch:   4     127   99  114  106  120  105  107  115  107  118  105  108  104  117  121  105  102  105  105  104  120   91  101   99  108  117  102  101  106  102   99   35
ch:   5     104  119  117  117  101  116  105  121  115  120  117  104  116  117  103  107  112  107  116  118  102  114  103  107  108  111  100  118  105  116  123   41
ch:   6     104  126  104  116  117  114  116  100  118  110  104  112  115  104  112  103  103  112  111  106  107  102  103  114  101  105  100  104  105  100  103   34
ch:   7     117  117  102  112  120  119  105  118  115  110  116  113  117  102  102   99  115  109  110   99  116  114  104  109  114  119  121  115  102  105  115   48
ch:   8     105  114  118  106  113  120  104  102  106  113  120  112  114  111  110  109  108  103  104  107  104  107  108  104  103  100  111  104  107  107  106   34
ch:   9     103  106  101  120  107  118  105  110  106  118  117  106  115  110  107  113  118  118  114  117  106  117  114  120   90  115  103  103  105  115  104    0
ch:  10     100  122  117  103  104  115  113  125  102  114  107  114  116   98  104  108  117  100  100  104  117  105  100  107  101  104  102   97  106  108  117    0
ch:  11     107  115  107  114  116  109  121  119  118  110  104  109  116  118  114  117  118  116  106  105  104  104  117  126  101  109  102  109  111   95  111    0
ch:  12     118  104  108  119  120  103  109  119  118  107  118  103  116  105  116  102  109  118   94  104  111  106  104   92   99  101  109   93  103  103  100   45
ch:  13     114  128  113  116  107  121  109  123  119  113  121  121  112  109  115  109  116  101  113  100  118  101  106  123  121  113  110  104  114  103  106    0
ch:  14     110  112  117  117   91  117  116  116  116  114  100  110  118  101  107  110  112  115  117  104  103  105  116  100  107  113  106  107  104  110  101   43
ch:  15     113  121  105  118  116  114  118  118  112  103  115  108  109  118  106  107  104  110  108  104  113  117  114  118  120  100  101  112  105  103  105    0
ch:  16     114  116  115  117  105  111  106  118  129  107  104  117  108  106  114   99  105  112  113  115  104  104  117  112  105   88   97   97  106   99  112   43
ch:  17     106  102  116  111  117  117  108  123  101  116  117  113  116  111  118  117  105  104  118  117  112  107  121  105  118  112  115  120  106  101  114   51
ch:  18     100  116  114  104  116  114  116  113  119  120  113  112  115  117  112  104  100  103  107  103  100  113  109  107  112  118  115  101  114  102   91   40
ch:  19     111  118  118  105  119  116  117  119  118  110  125  118  126  115  101  117  113  101  122  114  122  110  124  112  119  118  110  118  115  102   95   59
ch:  20     128  108  114  117  118  105  126  115  111  118  117  102  105  113  102  107  103  105  114  106  108  110  102  102  102  105   92  104  116  102   91   43
ch:  21      96  122  105  112  129  120  107  116  127  104   93  112  107  104  115  104  103  106  107  105  100  119  108  104  103  103  108  101  105  112  110   56
ch:  22     116  113   89  116  105  114  116  103  111  122  114  120  102  114  109  117   99   99   97  106  114  112  102  104  103  113   94  112  104  101  101    0
ch:  23     104  116  115  118  116  122  128  110  107  116  115  102  122  116  112  104  113  104  117  111  113  104  107  111  100  112  104  113  106  106  106    0
ch:  24     110  105  110  101  118  105  106  102  119  112  119  111  115  108  103  106  104  105  116  117  106  103  115  117  104  117  107  118   91   90  114   50
ch:  25     114  115  103  117  113  118  121  114  119  108  120  120  112  108  118  114  121  116  119  103  121  100  125  103  115  106  120  104  116  119  103    0
ch:  26     115  120  111  111   90  115  124  111  103  107  104  102  104  112  104  115  108  105  119  111  117  102  102  106  103  105  115  114  102  102   90   30
ch:  27     106  117  120  107  106  114  116  117  109  100  112  107  105  115  117  102  104  108  117  117  110  106  104  109   86  102  114  105  104  106  102    0
ch:  28     123  105  109  111  102  120  116  117  109  107  115  105  117  106  118  120  117  115  111  107  100  109  100  122  106   99  110  102  109  103   99   58
ch:  29     128  116  105  120  117  109  103  120  118  118  112  123   93  124  119  116  105  118  116  117  111  105  113  116  101  102  113   99  105  119   91    0
ch:  30     111  116  111  120  101  112  115  117  109  104  100  116  107  119  117  111  110  112  103  105  110   98  117  117  100  105  117  103  109  105   88    0
ch:  31     113  127  107   99  121  115  110  108  117  106  111  106  117  114  116  115  122  104  113  118  105  115  106  121  110  102  107  102  101   96  105    0
ch:  32     112  116  126  100  105  111  116  116  116  107  112  104  103  114  105  121  103  104  106  112  127  106   90  109  100  113  106  117  107  118  104    0
ch:  33     103  118  114  117  110  104  117  106  122  123  107  116  104  111  114  106  103  115  114  113  113  114  104  113  104  113  113  117  113  100  101    0
ch:  34     100  117  116  117  118  110  110  120  117  107  100  103  117  113   96  109  119  118  114  101  115   99  103  111  111  105  105  100  115  104  105    0
ch:  35     111  112  101  108  115  118  106  107  123  109  117  106  122  114  117  117  109  122  116  105  106  116  105  110  123  114  105  102  107   96  103    0
ch:  36     115  103  120  116  119  104  110  110  104  117  121   99  101  118   93  112  115  117  123   90  107  100  102  104  100  107  115  111   99  104  118    0
ch:  37     111  117  115  111  122  119  119  120  122  114  128  119  105  105   92  103  119  101  107  121  120  106  118  116  125  121  113  115  117  105  115    0
ch:  38     104  116  114  111  119  110  120  108  103  121  112  103  121  104  119  120  102  114  105  105  105  102  106  115  110  117   96  117  104  101  101    0
ch:  39     101  121  122  123  103  119  108  106  117  106  115  118  117  121  105  118  108  116  103  107  113  119  119  116  117  100  108  119   99  104  104    0
ch:  40     126  117  110  122  119  115  105  103  107  115  124  117  116  101  120  115   94  120  103  119   99  103  104  104  104   96  108  110  114  107  100    0
ch:  41     115  103  113  116  112  115  117  115  105  120  117  118  121  110  124  113  121  106  131  112  114  113  121  107  107  100  103  104  100  111  116    0
ch:  42     121  106  128  122  105  100  120  111  108  111  115  103  115  123  115   91  112  108  106  101  113  107  103  107  101  124  116  110  104   94  110    0
ch:  43     106  118  115  120  107  118  102  115  115  116  117  118  112  101  118  116  110  126  118  118  122  117  106  108  118  109  112  109  106  105  102    0
ch:  44     120  124  100  124  101  116  115  122   99  114  109  105  117  124  131  106  114  113  113  109  126  106  117  112  106  116  103  100  105  110  103   57
ch:  45     104  113  118  115  105  110  118  112  118  105  112  103  116  118  116  103  103  104  121  117  121  117  111  118  106  101  118  106  104  116  107    0
ch:  46     119  104  119  116  119  106  112  120  118  123  122  117  121  105  103  104  116  121  106  106  114  118  113   97  102  106  108  101  100  102  103   58
ch:  47     107  120  122  114  119  114  119  115  121  118  117  113  117  107  109  109  121  105  105  122  110  103  111  122  110  106  104  116  107  115  108    0
ch:  48     116  112  112  114  125  119  106  117  103  111  118  118  111   99  118  116  109  114  106  107  100  108   96  123  113   94  100  116  103   90  107    0
ch:  49     116  117  109  116  120  122  116  120  119  116  123  118  119  111  121  114  119  117  132  102  115  100  118  114  120  119  109  114  113  121  107    0
ch:  50     118  126  118  118  119  122  109  112  107  106  117   98  107  122  104  112  118  103  116  115  103  107  105  109  104  113  102  115  101  103  113    0
ch:  51     130  109  121  117  113  118  116  122  113  117  120  116  120  117  131  111  114  116  123  107  121  106  119  104  116  121  117  104   99   94  117    0
ch:  52     111  103  103  106  117  105  121  118  105  108  120  105  126  111  120  118  103  110   99  106  107  115  113  105  104  100  109  106  112  105  105    0
ch:  53     120  104  118  124  123  105  119  119  120  117  122  106  115  123  102  118  118  113  122  107  119  101  122  121  103  109  116  115  110  105  120    0
ch:  54     107  115  116  119  116  113  117  105  116  115  117  105  114  101   87  100  104  110  108  106  112  110  119  107  108  106  116  105  106   87   93   61
ch:  55     113  128  121  117  105  105  118  117  110  105  110  102  114  118  130  122  109  124  118  117  109  102  119  117  117  118  105  107  104  109  105    0
ch:  56     108  110  104  119  115  101  119  105  112  115  112  105  105  113  120  121  104  108   91  106  106  109  101  104  101  104  118  101  103  116   98    0
ch:  57     105  113  111  117  111  119  124  120  117  124  117  120  119  112  119  101  120  115  117  119  104  123  103  105  108  105  107  104  104  100  117    0
ch:  58     102  120  103  117  105  104  115  103  115  112  109  121  104  118  102  127  117  111  119  109  101  103  114  119  101   93  103  104  100  100  106    0
ch:  59     114  125  122  121  112  119  122  104  119  121  115  112  106  109  117  112  115  118  118  106  121  115  115  106  122  103  123  106  117  114  106    0
ch:  60     120  109  118  117  107  123  119  104  107  121  113  106  112  113  114  117  116  116  112  109  104   99  105  113  109  103  102   90  104   93  100    0
ch:  61     103  120  114  111  121  114  107  118  118  119  118  111  100  120  105  118  122  118  120  118  100  116  121  117  106  102  100  120  109  104   91    0
ch:  62     128  104  101  120  116  118  100  121  119  118  107  102  116  107  115  113  102  107  105  101  116   96  119  103  102  107  107  104  119  117  101   56
ch:  63     123  104   92  123  116  120  120  129  116  119  109  111  132  127  116  119  112  117  116  116  107  129  106  108  121  114  120  102  104  113  103    0
ch:  64     103  115  111  110  111  105  113  105  105  117  106  105  101  113  114  112  113  115  107  128  109  103  112   99  106  104  116  107  104  104  107    0
ch:  65     118  121  113  107  106  126  116  117  119  120  129  115  113  118  116  120  103  106  128  122  120  109  119  121  108  116  103  106  104  117  106    0
ch:  66     118  119  112  106  122  118  114  116  110   99  118  105  102  106  120  108  106   86  114  107  112  105  106  121  110  106   87  100  113  116  104    0
ch:  67     119  116  102  110  120  118  118  106  130  115  107  115  116  115  117  119  100  113  107  105  117  117  104  108  117  108  115  115  118  120  110    0
ch:  68     124  104  121  120  118  115  117  117  117  122  108  115  114  126  118  105   97  102  112  110  106  106  106  102  104  110  107  111  117  117  104    0
ch:  69     120  116  123  122  116  111  115  118  118  112  111  111  103  115  119  114  123  106  113  118  118  104  114  104  119  107  109  106  113  107  103   42
ch:  70     105  116  115  113  119  107  112  111  111  117  116  122  110  106  103  116  116  104  106  114  113  117  113  105  117   97  100  107  117  114  109    0
ch:  71     122  105  117  111  119  123  118  113  123  122  103  118  107  118  117  115  112  121  100  109  115   99  107  117  121  107  110  106  100  117  104    0
ch:  72     119  113  114  119  123  111  113  120  119  120   95  104  104  105  104  104  117  102  105  106  116  114  104   99  116  105  113  107  109  108  104   57
ch:  73     114  112  105  116  106  128  109  119  116  112  119  116  116  120  105  118  110  120  107  104  104  123  107  103  115  115  113  108  113  104  100    0
ch:  74     106  107  105  114  118  119  105  119  125  104  110  119  103  110  107  122  118  100  107  102  109  107  111  113  100  104  102  117  118  115   95    0
ch:  75     102  106  106  113  121  114  119  123  124  119  109  105  106  118  118  111  119  106  115  117  118  118  115  128   98  119  108  118  103  107  129    0
ch:  76     120  114  105  119  115  116  118  116  115  100  117  105  103  126  103  108  117  104  117  105  113  102  117   90  115  106  101  106  110  101  100    0
ch:  77     116  128  122  121  120  103  126  121  119  118  129  117  107  118  117  124  108  117  115  100  104  117  114  107  117  106  110  106  115  123  108    0
ch:  78     123  104  117  108  108  117  118  124  115  116  101  112  113  108  105  104  104  117  109  109  101  111  120  111  106   97  102   96  101  101  118    0
ch:  79     128  128  104  113  106  114  120  116  120  118  106  117  104  108  113  114  120  119  116  116  107  120  116  117  106  105  115  124  107  107  113    0
ch:  80     118  116  106  120  121  118  123  105  107  108  116  119  107  111  102  114  119  106  107  106  104  118  105  113  105  118  107  101  111  105  112   42
ch:  81     107  113  122  128  118  120  118  116  105  114  113  114  113  124  116  117  117  104  112  106  124  115  118  115  116  106  105  114  113  105   95    0
ch:  82     119  121  128  127  107  111  118  103  116  104  111  113  119   97  106  114  106  101  110  112  111  101  109   85  120  104  102  105  115   97   97    0
ch:  83     116  115  122  116  115  110  117  120  118  100  126  104  112  112  119  115  105  105  118  116  108  113  102  107  102  116  108   98  114  109  118    0
ch:  84     128  119  125  120  108  118  122  113  118  123  124  123  118  119  117  117  119  118  122  123  122  107  104  117  118  121  129  124  121  126  117    0
ch:  85     128  128  128  128  128  155  149  147  128  128  161  164  128  166  128  128  128  128  128  128  128  128  128  128  128  128  128  128  128  128  128    0
ch:  86     117  113  103  109  119  102  112  106  116  120  110  120  105  116  105  102  104  106  105  114  114  106  109  105  112  108  102  106  103  100  118    0
ch:  87     114  104  128  106  106  115  119  103  115  123  122  120  115  100  117  122  119  105  110  112  113  115  106  118  115  122  116  104  105  120  130    0
ch:  88     117  104  115  100  116  129  117  117  108  120  121  110  114  108  117  100  107  124  115  115  115   99   99  104  120  112  110  110  102  113  102    0
ch:  89     107  117  107  115  121  121  111  111  109  118  107  113  120  117  117  119  106  117  103  110  107  115  102  107   93   97  114   93  115  117  109    0
ch:  90     123  122  114  113  123  117  123  115  102  114  103  104  115  115  110  104  110  113  109  106  117  101  101   96  108  105  105   93  118  104  103   37
ch:  91     105  110  106  112  122  102  116  108  120  114  117  118  119  124  116  118  113  120  117  123  110  121  120  108  119  118  121  115  102  119  101    0
ch:  92     118  116  112  110  112  109  116  114  107  113  117  114  122  117  105  101  103  123  110  104  119  106  115  104  104  103  105  112  100  112  111   55
ch:  93     119  112  104  122  113  120  119  121  124  117  117  118  117  112  112  129  127  114  117  121  123  119  102  119  118  111  108  103  111  103  116    0
ch:  94     119  118  108  104  117  104  119  116  124  112  122  117  111  101  106  115  121  116  126  116  115  106  101  112  105  116  109  104  101  100   91   54
ch:  95     110  112  124  121  121  119  124  121  122  121  125  117  115  105  106  117  122  119  108  119  106  116  102  103  114  104  103  112  107  110  103    0
ch:  96     115  123  114  106  116  117  116  118  106  108  116  105  105  116  126  122  116  113  115  101  104  103  102  102  105  103  104  111  101  106  106   53
ch:  97     128  118  115  118  116  118  117  122  116  127  120  115  118  122  118  117  121  103  121  107  113  121  118  121  106  116  105  106  103   90  106    0
ch:  98     113   98  122  119  117  118  118  115  120  116  118  106  118  125  113  114  122  116  113  118  101  103  106  106  103  108  104  107  116  113  107    0
ch:  99     111  104  122  113  108  107  117  131  102  115  116  118  122  103  116  111  118  113  118  105  117   99  118  119  116  109  103  119  108  117  102    0
ch: 100     115  113  116  118  106  118  118  116  111  110  122  107  117  107  115  105  104  109  103  113  110  108  112  104  120  101  103  115  104  102  102    0
ch: 101     107  128  117  118  114  122  124  104  114  117  122  114  120  106  101  103  122  118  123  113  110  104  120  112  108  112  119  104  105   89   99    0
ch: 102     113  119  116  117  101  115  107  105  116  111  117  102  119  102  106  107  117  114  106  103  101  103  106  101  105  100   87  104  100   99  102   54
ch: 103     107  116  104  117  108  125  123  116  100  120  129  115  117  121  104  115  119  114  118  123  108  115  112  114  108  105  102  103   96  114  110    0
ch: 104     123  111  101  114  121  115  117  116  121  118  118  110  121  115  118  108  103  117  116  106  125  116  118  106   98   90   86  101  110  102  106   47
ch: 105     103  112  118  110  109  118  111  115  105  108  110  106  109  117  119  119  108  117  118  120  104  117  107  115  105  103  104  104   92  117  104    0
ch: 106     107  108  101  107  114  105  116  105  119  114  114  124  106  117   88  114  107   97  106   97  105  116   91  113  106  108  118  102   95  112  102   37
ch: 107     128  116  103  116  118  120  126  117  105  119  117  116  118  119  104  118  129  119  116  119  118  117  115  113  108  111  104  106  117  106  115    0
ch: 108     104  103  125  104  105  115  108  115  119  119  116  114  117  112  114  106  121  115  104  106  120   92  111  103  101  104  101  103  106  113  118   44
ch: 109     118  120  117  118  121  121  116  119  120  117  119  114  116  119  123  120  116  113  124  119  109  108  120  104  107  105  118  107  100  100  114    0
ch: 110     100  103  115  106  117  117  120  118  103  113  105  107  114  102  103  113  105  117  107  116  105   95  102  104  105  106  103  103  114  103  105   28
ch: 111     118  128  117  121  116  115  119  115  114  121  125  116  108  120  120  116  113  120  117  105  118  113  107  104  115  116  104  117  107  103  106   48
ch: 112     119  106  113  102  116  107  116  130  118  103  106  111  116  107  103  115  117  105  101   98  101  106  105  116  110  115  107   99  115   93  101   33
ch: 113     112  114  121  122  119  121  125  118  117  120  117  107  109  114  118  103  125  114  118  118  105  117   90  117  117  105  106  118  100  104  113    0
ch: 114     117  117  108  116  120  112  105  110  107  111  114  115  121  104  106  103  118  123  102  110  101   96  102  102  109  102  114  105   97  113  102   20
ch: 115     110  132  112  116  112  106  131  111  120  120  105  115  113  118  115  109  108  122  103  116  104  109  132  120  104  111  107  109  104  110  114   53
ch: 116     110  116  103  106  121  105  118  124  110  108  123  120  104  116  119  115   96  105  104  114  117  115  104  121  103  106  108  101  116  103  110   21
ch: 117     128  105  105  115  119  123  118  105  118   93  134  111  113  107  106  107  123  107  130  105  117  115  100  109  115  113  119  106  101  119  108   43
ch: 118     117  127  120  118  128  105  100  113  113  104  122  116  113  104  101  106  116  118  106  118  103  111   90  100  112  107  107  107  100  105   98   20
ch: 119     104  104  121  120  120  105  118  102  116  120  117  121  119  107   94  105  112  113  115  109  120  102  108  114  113  115  103  111  119  103  116   35
ch: 120     115  114   94  118  116  117  106  113  108  124  113  116  113  113  104  106  117   94  104  109  108  107  104  106   90  104  105  107  103  103  101   17
ch: 121     108  115  107  118  116  119  119  116  120  115  109  107  118  119  103  105  116  113  111  123  120  114  123  104  101  110  115  107  102  100   96   37
ch: 122     111  117  120  117  115  114  103  100  115  101  104  115  120  102  113  117  121  105  118  102  105  116  104  117  119  106  103  101  100  118  102   20
ch: 123     119  128  123  112  112  121  118  116  119  119  111  122  118  116  121  120  102  103  104  116  123  115  111  110  118  122  115  107  122  113  107   30
ch: 124     117  109  114  111  120  115  111   99  106  104  119  119  116  111  107  102  108  117  110  101  113  119  104  105  107  101  115  100  104  104  103   10
ch: 125     113  114  104  117  117  121  114  131  115  122  110  106  113  121  118  108  106  118  123  103  107  102  113  106  109  110  111  103  105  107  102   31
ch: 126     109  108  113  107  114  119  118  115  120  109  101  117  113  104   99  111  103  115  116  116  118  107   96  114  118  108  104  102   93  105  107   10
ch: 127     116  115  122  118  122  119  116  116  123  118  122  120  125  118  120  116  126  119  117  122  119  115  118  114  123  121  108  118  113  111  108   20
