# TRIM CALIBRATION    FEB6_2_1    pulse_ampl_min=20    pulse_ampl_max=85    pulse_ampl_fast=15
#
ch:   0     116  110  117  127  117  122  115  110  116  121  120  111  114  125  121  125  125  106  116  104  118  118  103  120  112  117  116  116  118  117  114    0
ch:   1     122  118  104  119  119  117  119  103  128  120  124  117  118  108  118  126  118  120  130  124  115  119  115  107  122  123  117  121  119  127  116   19
ch:   2     119  117  118  120  115  102  123  128  119  120  118  119  105  113  124  119  113  131  133  131  114  119  121  106  116  119  102  110  109  117  104    0
ch:   3     118  114  131  118  113  118  116  113  116  121  105  111  105  122  128  123  124  119  128  123  119  120  115  122  126  125  129  124  125  120  115   15
ch:   4     115  115  114  115  118  120  116  121  121  118  118  115  114  119  123  125  118  109  119  117  121  129  120  131  123  118  117  128  118  112  115   15
ch:   5     117  128  128  116  116  109  125  115  118  118  120  117  119  123  120  121  130  117  129  125  117  126  118  126  127  124  130  126  119  129  114   21
ch:   6     115  115  128  108  113  129  111  113  112  122  117  118  105  122  128  120  116  120  123  126  111  123  119  116  118  117  115  116  118  119  127    6
ch:   7     120  123  122  117  118  118  124  116  119  127  119  124  122  112  120  115  124  118  119  124  116  121  109  120  123  123  121  117  130  121  119   21
ch:   8     117  118  113  106  119  131  116  104  120  124  118  114  116  119  123  120  114  123  134  109  105  117  121  124  121  117  115  108  109  106  116   16
ch:   9     116  128  115  118  124  118  118  113  119  123  123  122  114  129  124  119  123  104  124  124  115  126  124  115  127  117  112  107  117  116  112   34
ch:  10     113  116  104  121  118  108  106  118  119  119  119  120  118  116  120  107  119  121  118  116  106  126  119  126  117  119  109  119  116  130  127   21
ch:  11     128  114  105  121  119  119  118  112  116  119  120  117  115  122  121  119  119  121  124  125  123  123  118  130  128  131  131  123  124  119  132   38
ch:  12     120  115  121  109  123  116  125  122  116  127  117  130  116  116  121  103  122  125  112  118  117  107  134  117  116  115  117  119  120  123  116   18
ch:  13     120  116  117  123  123  113  118  118  117  130  119  119  128  120  117  117  120  119  131  102  107  125  119  128  126  130  116  117  122  123  105   49
ch:  14     108  121  117  107  107  117  116  112  123  115  113  122  108  119  118  127  115  120  123  107  130  111  115  118  118  116  117  119  119  118  117   24
ch:  15     120  114  118  116  115  115  122  118  118  118  117  122  130  118  118  130  122  119  105  103  128  127  107  121  113  122  125  124  118  121  121   47
ch:  16     118  104  121  120  121  121  117  118  120  115  118  114  120  117  105  116  113  119  122  122  118  116  121  122  119  122  115  112  115  114  113   25
ch:  17     119  118  126  116  107  122  120  123  114  118  132  121  131  121  118  107  131  115  123  128  120  122  123  121  137  133  125  123  125  122  120   42
ch:  18     116  128  116  116  121  128  122  119  118  115  114  106  131  119  116  118  115  117  119  118  128  117  118  116  118  103  115  118  128  121  106   28
ch:  19     106  116  120  104  113  119  116  106  107  119  115  124  126  125  126  105  129  117  128  125  127  123  122  130  116  120  121  118  120  117  128   38
ch:  20     117  124  116  119  123  121  117  114  117  120  113  118  116  116  121  122  114  118  112  111  118  121  121  117  116  106  122  130  124  105  120   30
ch:  21     106  118  100  108  131  127  122  122  121  123  119  122  126  115  117  118  122  117  128  126  124  122  124  127  128  118  118  122  122  130  123   27
ch:  22     128  128  128  128  128  128  128  128  128  128  128  128  128  128  128  128  128  128  128  128  128  128  128  128  128  128  128  128  128  128  128    0
ch:  23     128  128  128  128  107   98  128  106  103  113  102  120  128  128  115  119  109  110  129  123  129  137  117  124  128  129  120  118  123  116  128   29
ch:  24     125  118  120  110  129  129  117  132  118  120  120  121  129  121  110  115  127  107  125  120  129  121  127  135  112  116  119  130  120  117  106   32
ch:  25     110  113  128  120  107  118  115  124  118  126  130  120  118  127  120  120  121  122  119  119  123  123  125  133  124  119  123  118  124  129  123   60
ch:  26     128  106  117  116  129  106  122  114  116  105  121  118  128  111  119  114  121  119  119  121  120  124  106  118  115  116  114  121  121  117  123   37
ch:  27     128  118  105  113  117  119  115  122  119  120  129  120  123  120  103  123  121  109  121  129  119  118  124  120  123  119  124  119  120  121  127   51
ch:  28     118  114  118  120  117  113  118  116  104  118  125  121  120  121  120  115  117  127  125  117  130  124  125  113  116  122  122  117  105  118  129   36
ch:  29     127  116  114  118  122  115  122  123  131  120  122  117  126  107  119  121  120  128  120  130  118  119  115  118  122  123  125  122  118  121  120   57
ch:  30     120  117  115  124  117  129  113  111  115  116  118  128  111  115  119  123  128  116  119  124  116  125  120  124  109  117  102  114  114  120  114   50
ch:  31     121  115  109  104  125  119  130  121  118  118  120  131  117  118  123  120  118  123  123  116  127  123  128  118  136  134  122  123  114  122  120    0
ch:  32     116  118  128  106  111  124  130  106  117  122  122  118  116  119  117  124  124  125  122  116  104  122  122  115  117  110  124  106  127  120  130   45
ch:  33     121  129  128  118  122  107  119  123  121  128  105  124  123  120  122  127  122  124  124  131  126  122  121  126  117  124  134  131  124  118  129    0
ch:  34     118  124  120  121  116  105  118  121  125  126  124  119  116  108  126  121  119  120  120  104  119  113  114  118  122  123  115  118  115  119  113   40
ch:  35     128  116  120  123  129  107  127  118  128  123  119  116  116  125  116  121  118  114  135  125  127  119  118  129  121  123  119  131  116  132  121    0
ch:  36     123  118  114  116  117  117  115  118  125  121  118  120  126  118  117  134  124  120  117  118  114  121  116  117  120  117  126  118  116  128  123    0
ch:  37     119  107  122  124  118  121  120  101  131  119  121  120  122  118  116  124  134  123  119  120  132  122  127  127  122  125  133  121  131  124  121    0
ch:  38     122  118  121  130  106  118  117  115  118  118  118  117  115  129  119  123  121  127  112  107  124  119  115  116  114  121  118  119  122  118  116   44
ch:  39     118  119  112  128  105  119  116  118  120  122  123  128  126  119  120  117  121  117  122  122  121  121  123  119  136  124  118  123  119  130  119    0
ch:  40     105  111  104  107  116  113  114  120  126  121  116  106  119  120  118  121  117  118  117  118  119  121  127  123  113  123  117  124  123  124  126   57
ch:  41     124  120  104  122  129  127  130  120  126  115  116  126  119  129  123  125  132  116  123  115  118  124  131  119  128  123  128  125  120  116  118    0
ch:  42     128  117  119  130  120  119  118  122  127  119  117  117  122  124  120  117  124  123  126  118  117  113  129  115  116  122  121  120  119  124  123   58
ch:  43     104  118  107  115  122  124  105  110  121  121  128  115  128  127  131  114  134  116  115  123  129  123  122  123  126  115  125  119  124  120  126    0
ch:  44     102  131  118  117  126  118  115  122  122  132  120  112  115  122  123  124  129  132  120  113  121  123  120  116  127  125  132  119  116  128  107    0
ch:  45     126  108  128  114  104  118  127  121  121  103  122  132  122  127  119  121  136  120  113  123  122  131  125  130  117  120  119  121  132  117  119    0
ch:  46     128  124  120  118  119  118  126  120  106  101  131  118  123  115  121  121  119  116  120  119  121  120  123  116  118  118  132  120  124  131  118    0
ch:  47     121  122  116  119  120  120  122  122  123  117  120  127  119  123  133  127  122  119  121  105  121  116  119  124  130  123  124  130  121  123  120    0
ch:  48     103  119  118  117  112  117  118  116  118  120  114  119  123  130  125  127  119  121  116  123  126  118  120  118  119  115  115  125  124  120  120   48
ch:  49     124  116  122  121  119  120  128  117  130  119  123  122  116  129  122  130  125  119  119  125  122  122  124  128  117  119  127  137  124  127  134    0
ch:  50     126  102  118  125  116  122  119  123  119  116  120  118  117  123  116  124  120  116  122  123  121  126  122  120  119  130  130  115  122  117  121   54
ch:  51     128  117  123  119  118  120  115  116  116  132  128  120  118  131  121  123  125  119  118  119  125  123  120  128  118  117  130  117  117  123  128    0
ch:  52     105  118  125  110  117  118  117  131  123  122  118  119  122  119  120  128  121  125  123  126  122  120  119  125  118  124  116  125  124  123  115    0
ch:  53     115  122  128  119  122  105  124  119  109  111  121  119  125  111  121  121  116  116  116  121  131  126  121  126  131  122  113  129  133  129  123    0
ch:  54     114  122  120  118  123  114  123  117  125  119  121  119  123  117  115  124  118  117  129  111  120  128  117  118  117  121  118  122  124  119  123    0
ch:  55     116  122  121  104  120  117  117  125  125  118  124  117  119  125  121  131  132  134  125  129  130  119  120  126  129  119  142  126  131  119  129    0
ch:  56     116  119  118  117  120  117  132  121  120  119  116  115  118  115  121  117  118  106  121  110  123  119  118  120  113  118  132  116  133  114  116   55
ch:  57     120  128  128  124  119  121  118  116  120  121  130  126  129  120  120  123  121  117  130  121  136  122  123  123  118  126  113  131  126  130  123    0
ch:  58     120  121  118  121  114  121  121  130  117  115  120  132  121  122  102  116  123  112  120  105  111  117  119  124  117  115  122  120  107  117  124   60
ch:  59     120  128  123  115  123  118  115  119  128  122  120  113  106  126  121  115  125  126  122  120  127  126  134  138  122  132  121  117  129  134  122    0
ch:  60     106  118  107  121  116  109  118  122  116  129  124  123  118  121  126  121  120  118  111  118  122  120  126  121  127  122  134  117  115  130  134    0
ch:  61     112  118  117  116  115  119  130  129  118  117  116  131  117  133  124  122  122  113  120  125  131  130  121  120  125  122  118  124  123  125  118    0
ch:  62     115  126  119  125  117  104  118  132  122  118  115  116  122  111  118  115  115  123  105  127  125  119  108  121  128  133  112  122  106  114  124    0
ch:  63     119  119  127  129  124  128  122  128  118  125  121  115  121  128  130  127  116  129  127  126  124  116  115  119  125  133  135  127  116  128  136    0
ch:  64     128  125  128  121  127  118  134  127  115  105  128  118  129  114  114  120  120  127  105  122  117  118  124  120  122  122  129  117  121  125  121   57
ch:  65     102  123  118  115  118  119  129  121  122  122  123  129  118  115  131  118  121  120  122  122  124  121  110  124  122  124  118  112  133  106  120    0
ch:  66     124  108  116  129  117  122  120  118  123  121  119  120  119  106  132  125  126  114  121  116  120  121  130  121  114  117  123  122  118  131  116    0
ch:  67     124  116  120  128  112  127  120  122  117  123  131  117  121  120  129  121  117  116  125  123  123  129  133  104  123  123  130  120  119  123  127    0
ch:  68     109  119  118  118  118  105  120  112  120  125  116  122  116  111  130  128  109  116  125  122  117  110  120  118  124  128  127  119  120  126  120   42
ch:  69     115  117  128  122  119  122  119  124  129  121  125  127  122  117  122  130  129  126  134  120  118  122  121  122  121  117  120  121  130  118  121    0
ch:  70     123  131  128  121  124  114  117  128  121  107  124  121  119  113  130  115  123  118  118  124  115  119  121  123  129  118  118  106  119  118  123    0
ch:  71     123  106  124  115  121  125  124  122  122  119  117  118  126  122  123  120  130  118  118  127  128  119  121  128  123  123  131  124  122  119  119    0
ch:  72     115  117  107  116  119  119  116  136  125  121  118  117  132  116  108  120  128  118  115  123  123  123  124  121  119  122  127  138  118  127  123   42
ch:  73     120  129  108  123  122  119  116  119  119  118  120  124  124  121  121  123  128  117  128  126  123  118  121  117  128  125  123  121  112  124  119    0
ch:  74     116  119  119  114  117  120  120  122  131  125  120  118  123  124  121  117  119  117  119  124  121  127  118  123  123  118  122  114  120  119  118   44
ch:  75     124  128  128  118  132  123  117  124  125  121  123  122  133  123  131  123  126  126  126  119  131  119  122  121  125  120  127  118  123  115  118    0
ch:  76     102  117  122  115  119  124  118  128  123  129  124  123  120  116  119  125  105  118  125  122  124  123  128  124  113  109  120  110  127  128  124    0
ch:  77     121  117  123  115  118  117  121  110  122  117  123  128  119  121  123  131  127  130  129  130  118  128  123  124  118  121  122  128  129  132  118    0
ch:  78     106  115  128  117  116  122  117  121  116  105  126  121  121  117  120  121  116  117  131  128  124  131  120  119  116  120  120  121  116  116  122   55
ch:  79     115  134  132  123  134  119  133  128  119  119  133  116  127  124  123  121  126  121  125  121  131  120  128  125  115  127  123  124  120  124  119    0
ch:  80     128  120  121  117  121  118  121  122  121  126  105  119  126  118  114  116  120  125  124  118  129  124  123  115  101  122  121  131  125  130  129   60
ch:  81     128  108  118  118  119  114  114  117  116  124  126  125  114  124  121  125  134  128  115  120  131  120  133  119  123  123  130  134  130  131  134    0
ch:  82     122  121  107  116  118  116  121  117  127  130  124  118  113  122  121  106  122  116  127  120  124  126  116  111  120  122  120  106  117  122  115   41
ch:  83     118  122  116  119  118  127  117  118  116  124  124  127  124  122  119  124  120  129  129  121  123  122  133  128  116  118  124  131  122  123  128    0
ch:  84     117  111  112  113  120  111  129  122  120  123  119  119  120  127  117  122  121  108  124  124  130  130  119  121  129  119  108  123  122  119  121   53
ch:  85     117  121  122  128  121  120  118  133  132  115  122  126  130  128  117  123  128  116  122  125  129  120  130  126  127  117  120  115  136  127  121    0
ch:  86     117  115  117  118  110  118  105  131  125  121  125  119  120  116  106  130  102  117  119  118  118  118  123  117  118  128  126  104  114  117  118   53
ch:  87     122  120  128  116  125  122  123  118  121  136  120  121  121  135  130  120  122  133  121  124  134  116  115  120  121  124  115  131  121  127  122   63
ch:  88     119  117  117  119  121  110  118  124  117  131  135  127  115  121  119  130  120  117  129  122  123  123  113  122  123  118  120  122  122  123  122   44
ch:  89     107  114  105  115  123  119  110  118  123  107  116  128  121  118  132  128  123  125  128  118  122  121  115  119  128  130  114  136  116  118  121   56
ch:  90     112  111  119  120  111  122  107  119  103  129  110  118  119  127  123  124  122  121  120  120  131  110  125  121  118  118  124  119  131  115  121   50
ch:  91     128  126  121  120  109  118  123  126  131  116  118  124  126  131  125  105  121  121  123  127  129  123  116  122  123  130  126  126  131  123  122    0
ch:  92     117  121  119  123  121  121  107  115  121  116  120  120  121  123  121  131  125  116  130  124  121  117  111  107  122  111  118  124  120  132  112   51
ch:  93     115  113  119  110  125  121  118  118  116  126  132  123  126  125  118  120  127  131  135  121  128  121  127  129  132  118  122  118  120  128  135    0
ch:  94     118  107  119  114  108  126  122  106  122  125  126  122  116  122  118  124  116  118  121  128  127  119  116  123  108  110  126  121  123  128  117   35
ch:  95     117  104  125  121  118  122  130  110  126  125  121  125  130  128  130  124  118  129  121  104  125  120  133  125  129  123  130  115  115  121  128    0
ch:  96     118  120  120  127  118  116  124  114  124  116  118  118  131  118  122  133  122  123  121  121  120  111  129  125  107  123  116  118  114  107  117   36
ch:  97     135  128  121  128  119  120  125  122  126  116  124  125  119  122  123  116  125  120  119  117  124  123  131  125  124  124  122  117  122  121  124    0
ch:  98     116  128  128  122  122  114  122  124  117  125  115  117  126  125  122  130  119  115  135  132  120  121  120  118  119  120  107  123  124  122  127   33
ch:  99     116  122  123  119  118  129  121  122  130  112  128  120  122  109  128  105  127  132  117  116  114  121  121  131  125  118  126  126  116  128  122   56
ch: 100     119  101  120  114  117  120  103  125  116  126  125  106  118  116  105  124  113  127  109  119  120  118  119  116  119  117  129  106  116  124  119   40
ch: 101     108  114  121  117  119  104  115  121  126  124  125  123  123  115  120  124  112  129  124  123  120  121  121  124  128  125  133  123  116  118  127   47
ch: 102     130  120  124  128  118  124  118  120  117  120  115  119  123  120  112  129  130  119  123  129  125  112  114  106  129  118  137  117  111  128  122   21
ch: 103     125  105  125  114  121  119  106  121  123  122  124  131  123  129  125  115  115  133  120  131  135  119  117  127  121  125  120  120  128  122  128   39
ch: 104     119  122  131  120  129  118  113  121  115  128  130  115  114  123  128  116  117  121  106  118  128  117  104  126  112  125  118  116  125  107  128   31
ch: 105     122  119  127  113  119  122  123  119  124  118  126  119  107  124  118  122  124  120  120  129  139  120  120  111  123  116  125  114  122  123  117   52
ch: 106     119  113  117  121  121  120  106  114  115  126  130  119  117  119  136  123  121  119  117  121  118  123  117  129  106  114  111  117  119  129  119   24
ch: 107     119  117  108  133  118  113  121  117  130  121  120  113  130  119  123  122  117  117  124  120  119  118  122  122  128  118  128  130  131  121  126   50
ch: 108     116  115  105  120  105  117  122  129  118  116  122  117  123  124  116  111  121  134  118  123  118  113  125  117  121  130  119  126  106  130  127   24
ch: 109     106  107  119  111  106  123  118  122  121  130  122  115  117  121  118  127  123  119  117  117  122  130  106  125  118  130  120  130  128  118  118   44
ch: 110     121  128  104  119  117  123  114  122  120  124  119  121  118  130  118  121  123  123  116  118  112  126  123  125  113  106  119  130  119  120  123   17
ch: 111     104  128  119  122  118  116  121  118  117  119  116  123  129  122  108  118  118  136  123  121  114  132  123  129  135  122  118  123  122  116  122   49
ch: 112     127  111  114  120  117  116  116  128  120  115  128  119  116  130  117  121  131  112  118  115  122  118  117  120  122  122  116  109  123  129  123   12
ch: 113     121  118  111  119  121  107  124  134  121  101  122  108  127  114  123  117  122  119  127  121  123  125  124  128  126  116  116  115  118  121  123   23
ch: 114     117  129  106  119  124  110  118  127  110  119  115  125  124  123  117  131  115  120  121  105  123  109  121  126  123  122  123  122  106  125  123   11
ch: 115     128  121  127  118  117  104  118  117  122  119  129  127  116  135  121  116  122  121  121  118  124  126  120  131  122  130  121  120  123  125  127   25
ch: 116     127  113  114  108  114  128  119  121  113  116  123  106  130  111  119  123  125  104  125  119  122  130  118  118  123  117  116  125  123  126  122    5
ch: 117     123  118  118  127  123  119  119  120  118  126  121  124  120  122  134  120  122  129  104  121  118  129  126  125  122  121  130  121  123  127  124   19
ch: 118     117  123  128  111  115  111  119  116  115  117  118  104  118  116  127  105  113  123  108  119  127  119  125  104  130  131  122  136  114  120  119    3
ch: 119     122  114  120  125  114  123  124  128  126  123  122  121  118  124  134  107  131  122  126  116  122  128  133  129  120  118  124  129  126  116  119   15
ch: 120     113  115  128  115  123  102  112  121  109  127  131  114  122  122  108  107  123  122  119  121  105  124  119  122  118  120  116  117  121  133  115    0
ch: 121     115  121  118  123  120  127  116  122  130  129  120  137  118  125  121  118  121  115  125  119  107  129  119  134  127  124  115  127  120  125  119   10
ch: 122     113  121  126  117  113  118  124  116  112  117  118  118  119  119  117  121  122  114  120  122  105  112  123  119  126  131  133  123  124  126  124    0
ch: 123     122  117  123  122  120  125  112  117  133  120  129  115  121  104  124  121  128  113  120  114  132  123  119  122  118  123  116  128  121  121  125    0
ch: 124     106  112  117  101  122  116  118  126  117  117  117  118  105  122  126  120  131  120  128  116  110  115  111  117  132  115  116  101  120  116  121    0
ch: 125     112  106  128  117  119  117  122  126  119  122  130  127  110  122  116  133  122  123  119  105  123  125  120  118  119  108  109  126  119  122  126    8
ch: 126     122  111  117  126  119  120  118  111  117  120  118  104  111  119  129  117  116  118  117  125  116  121  129  124  108  117  111  129  121  103  116    0
ch: 127     116  127  113  124  124  130  125  124  108  129  122  128  123  137  124  127  121  123  123  121  139  125  131  137  134  119  120  126  131  121  124    0
