# TRIM CALIBRATION    FEB6_7_2    pulse_ampl_min=20    pulse_ampl_max=85    pulse_ampl_fast=15
#
ch:   0     128  111  117  107  105  109  106  106   92  110  113  120  109   90   97  104  104  101  107   99  105  104  104  101   95  102  100  100   98  101  100    0
ch:   1     118  101   98  103  128   97  102  130  109  100  115  117  103  117  110  105  105  105  105  104   98  101  115  107  102  104  104  101  108  115   98    7
ch:   2     103  105  109  118  119  116  105   91  106  111  103  103  105  107  104  105  106   89   99  106  113  101  103   98   89  102  104   90  100   89   98   22
ch:   3     110  105  103  118  100  104  102  104  104  113  122  111  104  102  103  115   98  108  116  107  114  106  107  108  101  104  105  114   87  110  105   23
ch:   4     107  112   99  101  108  100  100  115  104  102  110  100  115   97  105   91  102  105  102   90  101  114   96  105  102   88  105  108   90  100   88   11
ch:   5     128  109  119  105  117  115  108  110  105  108  116  104  105  107  100  114  105  115  100  102  102  107  107  105  104   88  112  101  110   99  100   31
ch:   6     103  117  107  109  101  100  118  105  107  115  103  104  102  101  100  106  109   89  102  102  105  102  100  101  101  100   99  110   90   99  103   11
ch:   7     109  104  107  113  113  102  118  118   99  106  107  114  105   92  107  107  104   99  101  100   92   93  106  107  106   99  108  102  107  101  110   26
ch:   8     128  115  102  103  101  104  106  115  105  103  101  106  102  115   90  105  105  117  106  103  103  103   99  103  117  102   97  106  100  103   88   25
ch:   9     124  104  113  100  107  118   98  114  106  118  112  114  102  106  101  106  115  117  109  110  106  114  101  104  102  101   90  102  113  107  119   38
ch:  10     116  106  102  104   97  107  116  105  105  106  111  111  114  113  114  106  105  103  102  112   99  104  104  103   99   99  108  102  102  110  102   27
ch:  11     103  107  113  102  105  104  110  113  111  111  117  103  101  110  104  100  104  105  104  104  101   98  107  110  112   99  112  104  113  100  100   37
ch:  12      87  105  101  105  103  113  103  108  112  117  108  102  107   89  115  122   93  103  114  113  109  107  105  102  100   99   95   97   98  101   99   30
ch:  13     117  106  104  115  117  102  109  103  117  115  112  106  109  109  104  105   91  106  105  113  100  105  101  107  118  107  107  108  101  102  103   36
ch:  14     105  106   97   97  103   89  115  105  106  105  111  117  103  105  100  110  109  108  100  112  106  103  100  102   87  116   89  105  100  100  106   35
ch:  15     103  109  115  105  104  117  110  105   92  103  119  106  114  116  102  109  118  100  104  115  115   95  107   93  104  101  111  102  115  104  105   40
ch:  16     107  107  106   99  105  111  105  112  111  101  111  113   92  114  106  112  106  107  112  131  116  117  103  100  108   90   99  100  107   93  101   50
ch:  17     107  107  113  116  106  103  114  115  109  101  101  112  119  118  104  105   95   94  117  105  123  100   99  104  115  107   98  112  100  103  104   48
ch:  18     108  103  102  101  103  105  113  106  115  101  106  111  101  102  102   99  106  104  110  104  101  105  106   90  102  104  108   96  105   90  100   43
ch:  19     107  128  105  106  103  100  114  119  107  107  108  104  111  113  119  104  105  104  107  106  114  117  115  104  107  115  108  100  102  101  117    0
ch:  20     106  104   99  118  113  106  101  106  102  105  104  105  107  107  103  116  104  100  107  110  102  116  104  101   99  108  104   91  102   89  109   46
ch:  21     105   99  101  103  104  120  104  111  107  111  111  101  103  115  105  104  102  104  118  107  100  103  110   99  112  104  103  102  102  101   97   56
ch:  22     107  115  111  114  115  115  119   99  115  102  106  104   92  105  104  115   95  107  104   92  117   88  103  106  101  101   92  101  102   89  106   45
ch:  23     115   99  106  109  120  115  112  110  107  107  122  110  115  104  108  110  106  123  114  112  104  100  123  117  104  108  102  107  102  102  111   42
ch:  24     109  109  106  111  101  109  100  106  104  117  111  103  104  101  102  105  117  115  102  117  101   99  106  107  102  107   86   97  109   92   94   55
ch:  25     106  118  100  109  104  116  116  104  118  105  109  119  118  104  121  114  117  107  100  105  106  104  101  111  104  103  101   90  101   98  102    0
ch:  26     121  106  114  104  104  112  104  107  114  113  112  104  104  105  106  101   96  105  106  104  107  100  102  105   88  103  107   91  109  101  105    0
ch:  27     128  129  107  116  105  109  108  100  119  119  100  116  104  100  102  101  119  104  103  112  101  107  120  107  104  105  104  104  105  103  101    0
ch:  28     108  114  115   99  115   99  102  105  107  103  109   89  105  112  106  111  102  105  103  108  101  106   99   98  105   92  104  105  100  102   99   63
ch:  29     105   99  105  106  113  118  118  121  105  110  117  104  117  102  102  101  118  101  113  102  108  110  114  112  102  103  105  105  108  102  103   58
ch:  30     116  115  105  115  112  109  117  110  107  119  115  107  104  107  115  102  105  105  102  101   96  108  104  115   94  102   91  111  101  109   94   50
ch:  31     104  111  113  105  108  117  107  112  120  107  100  105  117  113  117  108  106  105  105   98  104  115  105  105  104  115   99  121  106  109  101    0
ch:  32     113  110  116  103  105  116  108  105  110  114  104  104  115  120  123  103  105   98  108  112  104  100  104  105  101  106  104   91  101  101  109    0
ch:  33     118  109  118  115  107  118  126  119  118  113  113  111   92  113  117  108  115  113  107  109  109  101   98  102  124  106  101   98  109  115   95    0
ch:  34     128  104   93  116  100  115  113   91  113  115  119  114  109  105  106  119  110  117  106  105  104  106  103   96   99  100   94   89  104  103   97   62
ch:  35     101  115  121  118  110  119  114  104  120  117   96  120  117  111  113  113  114  102  107  105  106   92  107  105  104  114  107  104  105  107  102    0
ch:  36     113  101  104  109  113  117  118  117  106  109  111  101  108  102  103  114  115  110  104  101   96  100   98  106  113   96  112   99  105  100   96    0
ch:  37     106  107  110  117  119  119  109  114  113  109  114  101  119  100  100  115  109  109  117  118  111  105  104  108  117  104  120  113   92  100  108   42
ch:  38     112  107  107  113   98  117  118  102  104  107  104   90  116  104   91  111  112   98   90  117  103  100  105  108  100  100   99  104  100   98   91    0
ch:  39     107  112  116  105  106  108  106  102  118  113  112  122  118  115  110  103  104  103  118   96  118  105  104  107  101  104  105  113  100  109  111   42
ch:  40     117  117  118  107  128  116   96  114  124  117  108  104  110  104  115  102  115  118  101  113  104   99  111   96  114  110  115   88   91  100  101   42
ch:  41     105  120  104  119  112  107  120  118  117  111  113  101  116  119  108  117  102  110  109  104  101   99  102  102  104  103  104  106  101  102  103   42
ch:  42      88  104  116  108  131  108  118  105  121  102  121   96  105  115  102  116  101  105  101  108  112  103  104  108  101  104  108  101  115  105   88    0
ch:  43     107  128  106  106  120  104  130  107  113  105  107  106  122  103  114  108  107  103  105  104  117  105  107  119  104   91  118  102   98  105  114    0
ch:  44     128  120  113  116  116  104  116  116  114  106  118  101  101  103  104  100  118  115  101  104  119  100  111   99  100  100  102  116  101  101   96    0
ch:  45     121  119  110  102  113  121  117  116  105  109  122   99  109  113  119  117  110  103  104  109  107  115  106  118  106  103   98  101  104  102  103    0
ch:  46     120  121  119  104  117  121  117  118  117  107   99  103  107  119  107  115  110  110   98  108   98  101  102  102  112   97  104  102  100  103  117    0
ch:  47     122  115  112  118  118   93  110  123  118  116  112  120  105  116  114  110  119  104  115  117  115   90  122  109  101  104  117  117  109  118  104    0
ch:  48     104  117  116  115  103  107  106  109  106  120  105   98  108  114  119  117  104  107  101  106  112  107  107  104  105  105  105   99   99   90  113    0
ch:  49     118  116  102  118  119  106  118  119  120  117  115  100  113  118  104  112  111  106  109  111  104  108  107   98  106  115  106  113  101  104  103    0
ch:  50     114  105  103  107   99  109  105  113  113  114  120  119  114  122  116  107  104  102  104  116  115   95  115  104  104  120  112   90  103  108  100    0
ch:  51     116  123  116  106  114  103  104  105  103  118  105  117  104  112  104  104  114  100  106  118  108  116  107  103  118  107  107  105  114  105  106    0
ch:  52     113  119  108  120  110  102  117  105  115  110  105  113  117  103   93  105  119  104  104  105  106  112  109  112  105   99  100  102  102  104  116   48
ch:  53     105  103  121  117  110  116  115  118  110  105  116  104  112  101  104  101  100  123  100  110  118  107  103  103  105   97  106  105  104  106  101    0
ch:  54     122  111  106  118  113  113  112  118  120  107  104  108   96  121  112  117  114  117  114  119  108  120  100  100   99  103  101  103   95  105  104    0
ch:  55     128  115  112  118  120  117  105  117  113  111  106  117  108  119  113  112  117  118  105  121  115  120  105  102  104  112  111  111  102  106  103    0
ch:  56     118  116  107  106  104  105  104  115  104  113  114  102  107  111  105  105  113  106  115  118  109  102  104  107  104  103   95  106   99  103  107    0
ch:  57     114  115  104  118  113  115  115  118  105  108  119  119  109  114  113  115  114  114  124  118  115  110  118  108  109  100  112  106   91  102  103    0
ch:  58     106   99  112  115  105  117  104   98  112  104  100  106  118  104  116  114  115  107  108  105  104  110   94  104  105  106   99   98  101   99  106   58
ch:  59     103  120  101  116  112  118  117  105  111  105  109  111  115  122  110  108  113  114  117  111  121  107  104  107  119  105  117  117   99  105  119    0
ch:  60     119  106  105  110  118  105  116  106  114  113  115  105  105  111  116  118  102  117  104  109  116  104  103  101  106  102  101  102  100  107   96    0
ch:  61     114  128  115  117  122  112  118  119  125  104  102  103  117  116  117  100  112  108  106  104  109  104  103  104  117  101  103  117  103  117  100    0
ch:  62     112  102  113  112  113  116  116  115  120  119  116  110  114  101  118  112  107  114  105  111  103  112  102   99  106  101  107   94  102   99   99    0
ch:  63     115  120  104  125  101  110   94  108  122  110  115  107  112  116  100  119   99  109  113  106  115  107  111  102  115  114  105  104  105   93  110    0
ch:  64     117  112  113  100  118  110  119  105  114  107  118  105  104  103  106  117  112  109  113  103  116  110  105  107  120  101  109  104   89  102  102    0
ch:  65     109  115  121  107  108  117  114  104  103  119  104  116  122  105  115  100  108  110  100  117  109  104  103  104  101  118  105  106  106  103  104    0
ch:  66     104  119  119  104  105  116  106  111  116  115  119  116  106  115  115  121  100  101  107  118  106  111  100  101  107  110  102  104  106  107  106    0
ch:  67     128  128  128  128  128  128  128  128  128  128  128  128  128  128  128  128  128  128  128  128  128  128  128  128  128  128  128  128  128  128  128    0
ch:  68     117  128  102  118  116  105  111  121  113  102  124  120  122  110  100  117  113  115  112  114  102  104  104  107  106  105  116  103  106  106  104    0
ch:  69     118  120  118  112  115  116  102  113  110  113  107  117  101  119  119  101  107  118  116  104  102  118  105  117  117  102  109  103   99  107  102    0
ch:  70     102  116  120  115  104  118  114  100  120  118  123  117  113  101  102  104  113  105  106  117  100  105  105  105  104  107  109  105  101  104  104   63
ch:  71     109  115  121  104  115  119  116  106  109  115  125  119  114  119  112  118  117  108  121  111  115  100  116  109  112  105  108  106  102  112  102    0
ch:  72     118  121  114  109  107  119  117  108  117  117  118  104  107  120  107  119  104  107  117  113  115  106  107  102  100  115  112  113  105  104  102    0
ch:  73     105  120  112  117  114  112   93  118  105  117  117  106  118  117  104  115  111  106  106  110   96  105  119  102  106  107  103  112  104  102  114    0
ch:  74     106  105  118  117  102  108  107  122  114  113  105  118  115  107  107  111  101  104  105  104  115  110  101  104  106  102  105  104  107  100  102    0
ch:  75     117  115  112  120  117  110  116  105  118  119  121  119  105  115  104  110  117  116  117  118  113  111  105  104  105  115  117  103   97  120  102    0
ch:  76     105  119  120  118  108  107  117  101  105  107  107  104  105  112  114  104  121  105  117  105  103  104  104  104   91  106  104   94  107  111   91    0
ch:  77     112  128  113  108  106  113  104  105  104  125  120  118  120  121  104  114  100  105  106  120  114  118  114  113  103  120   96  104  107  104  107    0
ch:  78     115  124  104  117  112  105  103  105  107  116  117  102  115  106  104  113  112  119  103  104  113  106  101  102  109  117  107  105  100  101  103    0
ch:  79     103  107  105  117  107  108  117  118  119  107  114  118  124  133  115  104  117  102  119  118  103  114  121  108  120  109  122  106  103  100  124    0
ch:  80     105  100  115  106  116  114  100  117  119  118  119  116  101  113  109  112  112  100  109  117  105   99  115  105  104  104   94  102  102  107   99    0
ch:  81     134  128  135  128  132  133  149  150  149  151  155  150  161  159  154  163  169  163  169  128  170  128  128  128  128  128  128  128  128  128  128    0
ch:  82     106  119  115  119  116  113  117  117  104  110  120  119  113  119  102  117  104  104  106  125  112  117  102  117  113  114  113  105  111  106  104   58
ch:  83     115  121  115  105  123  118  120  104  105  113  116  123  118  113  116  110  116  115  113  116  116  117  111  114  103  108  105  113  114  113  113    0
ch:  84     106  105  116  113  122  107  105  112  117  107  117  106  114  104  119  116  116  100  100  123  106  101  108  105  108  112  108  101  101  105   92    0
ch:  85     128  116  107  117  106  118  118  109  108  114  122  120  117  117  117   99  102  118  106  116  117  102  106  114  103  104  106  106  104  113  106    0
ch:  86     102  117  121  115  113  113  117  117  120  121  120  110  107  116  103  107  116  105  106   96  114  114  106  114  118  104  107  105  117   97  103    0
ch:  87     112  106  121  101  115  110  112  120  116  121  115  107  107  118  105  121  114  108  105  123  105  102  101  105  103  106  116   99  110  105  106    0
ch:  88     117  128  118  113  104  108  105  115  123  102  106  119  104  118  118  102  104  115  110  105  104  105  102  115   99  117  105  105  104  102  114    0
ch:  89     118  108  113  106  110  121  115  115  119  120  116  115  121  105  116  110  115  115  119  113  119  100  106  105   93  103  114  107  116  117  113    0
ch:  90     111  104  118  117  109  116  119  107  117  107  124  105  118  105  114  113  106  116  103  106   99  101  112  101  116  114  103  102  117   90  104    0
ch:  91     118  107  122  108  112  110  114  111  114  125  115  106  107  110  106  111  121  104  118  104  132  117  112  112  104  109  117  105   91  100  106    0
ch:  92     102  122  116  128  114  101  102  115  118  125  115  120  112  103  103  118  109  115  103  119  116  101  106  102  101  104  117  106  116  101   97   58
ch:  93     119  104  117  111  120  112  112  118  116  117  115  107  108  110  116  117  113  113  116  107   98  117  109  113  110  116  104  104  106  117  100    0
ch:  94     109  118  106  117  103  115  103  116  122  111  104  115  112  102  113  114  103  117  113  108  105  112  114  103  109   99  100  104  104  105  109   43
ch:  95     116  128  119  122  111  125  117  118  109  115  121  102  111  105  117  106  115  105  105  120  103  112  114  115  112  108  113  109  103  110  107   62
ch:  96     118  103  117  116  108  109  109  103  115  104  105  115  112  127  105  118  101  104  110  112  118  100  104  100  110  108  112  103  101  108  104   57
ch:  97     110  104  123  103  100  106  112  118  111  106  116  103  110  106  114  111  116  107  105  117  118  111  117   99  105  115  111  105  106  119  109   45
ch:  98     128  128  128  128  128  128  128  128  128  128  128  128  128  128  128  128  128  128  128  128  128  128  128  128  128  128  128  128  128  128  128    0
ch:  99     104  117  109  114  120  128  109  119  128  113  116  118  108  117  114  119  120  111  106  118  105  124  103  117  105  120  121  102  116  116   96   22
ch: 100     128  105  118  106  106  105  105  105  105  120  103  119  108  108  101  114  115   96  103  104  114  104   90  106  108  102  105  103  120  101   89   37
ch: 101     102  115  111  115  118  115  111  125  113  126  107  110  117  101  115  100  116  102  114  120  123  113  117  110  106  115  117  105  116  112  100   62
ch: 102     119  104  120  117  107  113  108  107  105  115  116  115  116  116  111  100  108  118  105  103  108  116  104  115  101  110  112  113  103  104  107   41
ch: 103     117  104  118  104  118  105  116  113  124  106  108  113  112  117  104  101  120  123  106  117  105  113  104  108  101  119  104  118  121  118  115   60
ch: 104     108  102  114  105  115  105  109  102  108  115  115  107  114  124  115  105  114  122  105  108  109  115  100  100  107  112  100  106  100  103  102   45
ch: 105     115  108  128  124  115  117  112  119  115  131  112  106  114  100  118  118  121  118  121  107  107  114  117  106  107  119  115  102  110   99  106   53
ch: 106     108  120  116  116  113  112  107  109  120  110  115  120  106  111  117  103  103  105  112  114  106  108  104  108  106  114  105  106  107  101  103   28
ch: 107     128  116  120  113  113  114  115  125  116  109  119  109  116  111  117  117  105  132  114  106  122  105  118  117  119  119  109  113   99  118  101   56
ch: 108     127  120  116  108  102  111  105  111  105  118  103  106  112  104  113  119  118  107  110  112  121  104  101  104  113   92  102  104  101  100   99   38
ch: 109     115  102  112  104  102  116  106  119  109  107  120  112  116  123  133  118  121  122  108  120  113  113   99  106  107  109  102  101  118  115  105   40
ch: 110     118  101  116  114  123  119  114  111  119  129  115  120  118  117  124  117  105  116  107  119  115  106  104  105  107  117  102  101   88  101   99   33
ch: 111     115  101  114  116  111  116  108  113  121  102  112  112  116  122  116  114  105  103  115  109  113  106   97  104  117  107   96  124  107  100  104   39
ch: 112     113  110  117  109  105  113  131  113  123  121   91  104  109  119  114  113  116  119  107  111  115  104  106  104  104  108  105  103  105  110   87   26
ch: 113     104  109  118  105  115  116  116  132  105  121  118  118  118  117  114  122  103  111  113  117  106  118  110  105  121  121  106  104  103  106  114   38
ch: 114     117  110  118  118  104  120  121  106  115  117  118  112   98  107  120  101  114  116  104  117  104  113  114  109  106   94  118  105  104   91  106   26
ch: 115     106  111  114  115  122  119  114  111  117  111  116  119  102  117  121  118  119  107  122  118  119  112  104  113  111  103  114  112  106  119  113   26
ch: 116     108  103  117  131  113  109  101  119  105  125  104   99  111  116  103  103  115  106  115  118  118  115  103  112   89  108  107  106   96   91  107   21
ch: 117     107  106  118  115  115  106  128  121  104  121  107  106  101  120  113  108  110  116  118  121  112  107  106  111  102  106  116  108  108  117  105   26
ch: 118     100  116  108  115  110  108  118  101  116  104  118  115  117   96  116  104  106  117  101  103  115  102  114  115  106  104  103  101  106  104   99   16
ch: 119     118  104  117  114  109   93  115  122  106  109  112  119  123  117  122  116  104  104  105  118  118  104  103  122  107  118  116  110  113  109  108   16
ch: 120     112  116  114  113  108  105  123  103  127  112  120  105  106  101  117  109  113  122  114  121  100  107  113  105  107  103  101  104  103  105  101   12
ch: 121     115  115  120  106  123  119  107  117  109  124  104  112  103  106  101  104  112  114  115  103  100  105  112   98  100  110  111  102  104  112  109   19
ch: 122     106  113  103  115  108  115  123  122  104  118  109  109   90  118  109  117  105  108  117  104   98  105  105  115  101   90  106  102  104  107  116   11
ch: 123     117  103  119  119  132  117  121  118  118  107  104  116  108  118  106  116  104  103  112  110  118  103  117  119  117  106  112  115  113  105   99    8
ch: 124     112  104  122  113  103  117  114  112  108  118  112  115  105  110  104  114  107  116  106  109  112  110  105  107  103  108  119  105  102  102  104    4
ch: 125     117  101  119  103  118  116  118  119  106  115  108  123  101  102  111  128  105  119  116  115  119  104  114  114  119  107  106  118  110  116  115    7
ch: 126     110  115  108  112  105  116  107  115  122  127  116  100  123  108  111  117  111  106  105  102  112  111  112   99  111  105  107   99  101  107  110    5
ch: 127     119  118  118  115  112  116  120  131  106  121  119  116  118  116  123  110  115  116  123  105   99  101  115  119  110  117  108  107  119  123  106    8
