# TRIM CALIBRATION    FEB6_7_3    pulse_ampl_min=20    pulse_ampl_max=85    pulse_ampl_fast=15
#
ch:   0     119  117  112  115  117  132  132  120  121  119  108  121  119  112  118  108  114  126  115  116  113  111  106  108  110  115  104  113  108  119  116    0
ch:   1     120  112  133  122  124  132  118  125  116  120  118  117  131  118  122  121  122  118  127  111  119  118  115  108  115  118  115  111  117  111  118    5
ch:   2     121  123  118  123  133  116  114  103  116  112  106  115  118  112  107  110  118  105  115  118  119  117  116  113  116  120  113  104  107  106  118    0
ch:   3     109  120  113  123  117  120  115  115  132  130  122  114  116  130  119  103  124  129  132  113  121  119  116  123  118  120  121  105  114  110  119    9
ch:   4     118  122  112  119  118  116  117  100  119   99  111  115  117  114  121  119  115  110  123  104  120  107  112  107  117  104  113  121  112  113  116   11
ch:   5     114  119  108  105  120  118  121  119  115  120  117  114  129  118  118  122  111  121  118  125  123  118  126  130  117  116  120  120  117  112  115   13
ch:   6     122  122  115  123  113  117  118  120  118  121  116  122  123  110  113  106  121  105  123  127  121  110  120  107  106  106  111  114  116  119  121    4
ch:   7     114  105  113  121  113  133  116  118  134  122  115  133  123  113  127  121  118  116  112  133  109  110  126  118  110  134  114  129  119  120  113   21
ch:   8     114  116  112  117  104  119  122  122  117  117  120  111  128  115  110  116  116  118  111  108  108  119  116  115  107  130  118  108  114  110  117   12
ch:   9     122  118  112  115  120  104  118  120  120  133  136  123  119  132  122  121  114  120  114  119  117  121  135  123  101  117  108  117  107  120  114   21
ch:  10     119  115  116  110  117  113  107  106  121  135  118  117  107  114  119  101  114  114  119  120  121  115  111  115  114  113  112  106  117  118  110    8
ch:  11     118  128  128  117  131  122  121  115  137  131  116  125  120  127  120  116  121  115  113  124  115  110  118  113  113  114  111  110  112  115  120   18
ch:  12     118  114  117  117  124  120  116  116  120  117  130  121  118  119  108  121  110  107  117  123  121  116  115  107  105  115  116  123  105  117  107   10
ch:  13     128  119  120  121  119  119  118  104  121  120  118  124  122  111  124  123  133  116  133  116  107  114  125  107  118  115  117  111  116  131  125   30
ch:  14     113  121  120  119  129  114  130  106  118  123  104  122  115  122  115  127  117  115  115  118  121  113  104  103  120  111  102  114  119  108  117    8
ch:  15     133  122  119  120  118  116  118  120  131  121  123  117  100  123  120  117  118  119  123  123  116  122  134  110  119  117  121  125  115  122  107   26
ch:  16     116  118  118  114  109  116  122  107  121  118  117  122  116  120  117  115  116  110  128  117  120  112  119  120  117  103  108  117  116  105  116   34
ch:  17     122  117  118  109  121  108  129  130  134  118  123  119  123  121  118  118  121  119  118  117  120  118  121  116  122  122  133  106  119  121  111   38
ch:  18     121  108  119  114  122  120  105  113  121  122  123  111  121  119  106  115  105  132  117  112  117  109  106  112  116  106  106  109  104  118  103   24
ch:  19     129  117  119  108  113  119  116  125  118  124  124  127  116  117  112  114  120  120  121  123  119  116  120  107  130  115  115  119  124  115  114   38
ch:  20     118  134  115  118  123  119  122  118  122  116  116  115  117  110  112  115  131  120  107  133  111  110  107  107  118  111  113  107  117  118  104   38
ch:  21     112  130  119  111  121  112  123  109  117  139  120  118  113  111  114  119  119  112  105  108  114  107  123  112  116  116  122  122  136  118  122   31
ch:  22     116  122  116  122  102  116  116  130  115  118  118  114  131  118  117  115  116  117  119  118  123  114  124  115  110  119  127  113  121  108  121   32
ch:  23     109  120  116  116  118  124  132  128  122  119  130  113  117  121  112  129  120  109  118  119  121  128  115  115  107  118  121  119  104  126  116   31
ch:  24     119  123  131  124  113  130  112  101  126  116  117  127  118  116  120  114  108  108  122  115  108  109  110  119  131  119  109  103  111  115  114   31
ch:  25     118  137  105  120  128  112  131  123  121  106  135  119  115  120  108  118  118  121  119  126  119  102  121  107  111  108  110  117  118  108  131   38
ch:  26     120  121  110  123  122  115  121  104  108  118  115  114  113  117  122  110  121  120  120  121  118  110  131  107  130  121  116  108  114  116  113   42
ch:  27     107  117  121  118  112  117  119  137  117  120  122  122  119  105  117  133  115  122  124  133  119  111  120  117  118  114  107  121  117  109  123    0
ch:  28     102  120  122  115  118  119  121  116  137  105  121  118  124  119  106  119  132  120  117  123  110  110  115  117  108  122  122  120  133  120  108   45
ch:  29     117  119  120  117  123  121  115  115  118  122  123  122  134  121  116  115  122  109  118  121  112  135  117  115  115  120  119  116  112  107  116   60
ch:  30     118  120  109  113  117  133  106  120  115  129  120  118  121  121  122  122  129  117  118  108  117  123  121  112  115  115  107  118  120  106  115   46
ch:  31     120  132  124  126  117  114  120  116  120  119  133  118  117  130  132  119  123  124  118  118  119  119  122  120  105  120  117  106  124  121  119   46
ch:  32     121  116  116  121  122  112  119  115  118  125  116  111  118  116  111  114  113  128  110  113  117  117  110  118  116  119  112  119  115  116  118   32
ch:  33     117  128  119  115  132  127  118  123  125  118  117  110  113  129  117  141  130  120  123  114  120  113  117  115  115  122  112  128  113  115  115   48
ch:  34     132  131  116  114  116  123  116  131  116  115  111  114  117  116  107  117  119  122  115  121  116  104  118  110  112  111  113  120  133  106  111   60
ch:  35     116  115  116  108  117  123  116  122  128  129  117  122  121  123  127  127  118  106  114  117  127  116  117  118  130  121  118  119  114  118  119    0
ch:  36     113  114  123  115  120  129  115  122  115  122  108  110  116  107  121  119  121  117  121  120  119  116  126  128  121  124  121  114  110  109  122   30
ch:  37     118  120  134  130  104  134  119  117  115  115  130  114  122  115  117  115  122  128  115  123  133  115  120  131  116  119  118  118  107  118  119   51
ch:  38     119  106  131  123  121  122  115  119  106  119  132  108  119  125  105  118  124  114  118  115  121  109  109  111  109  122  110  113  118  119  114   44
ch:  39     119  114  111  112  129  105  116  116  118  122  109  118  117  120  120  120  117  115  133  128  113  117  121  130  120  118  107  106  121  118  122   49
ch:  40     111  110  110  133  120  121  121  115  116  118  110  117  120  122  119  118  121  113  114  118  108  116  118  110  122  119  103  106  112  106  115   54
ch:  41     118  128  107  118  116  123  123  130  124  119  118  120  129  120  118  123  118  125  119  131  122  134  120  115  116  120  135  126  114  114  123    0
ch:  42     113  119  118  113  116  127  119  121  131  119  121  119  115  119  108  116  116  118  120  119  108  115  123  120  123  127  106  122  122  116  124   55
ch:  43     116  120  133  129  117  118  117  116  132  110  103  114  117  119  116  121  115  118  129  118  117  114  118  117  119  117  121  114  134  132  104    0
ch:  44     118  111  114  117  118  108  118  115  120  130  122  121  121  121  109  122  107  116  111  131  137  118  110  106  117  118  115  117  112  119  108   49
ch:  45     115  117  122  121  119  118  133  128  112  134  133  122  113  126  121  117  113  115  118  121  119  117  126  118  119  124  116  124  108  121  121   53
ch:  46     129  105  128  124  121  102  119  120  117  121  120  116  120  130  106  114  117  115  106  110  134  118  112  109  109  117  105  110  118  134  117   54
ch:  47     116  117  119  116  120  123  120  119  119  120  135  111  118  119  118  119  106  110  117  117  121  123  119  115  114  138  117  117  116  120  130   52
ch:  48     128  106  119  114  126  123  118  133  115  123  123  118  107  117  119  119  115  114  123  118  116  116  108  119  129  110  117  114  120  107  118   48
ch:  49     115  124  121  119  134  126  111  112  121  105  126  128  138  118  118  114  118  117  131  108  127  119  122  120  118  126  119  117  115  130  115   42
ch:  50     120  118  134  117  135  118  132  118  125  131  113  120  120  132  117  120  120  119  122  120  131  120  123  119  107  113  115  119  122  113  108   59
ch:  51     109  137  123  118  113  110  131  126  125  121  115  119  112  133  122  114  117  121  118  120  120  122  121  123  132  122  118  122  117  130  120    0
ch:  52     118  118  112  117  117  113  122  123  122  118  121  112  120  129  116  110  117  118  123  111  131  122  105  112  118  116  116  111  120  112  112   49
ch:  53     122  115  115  122  118  120  117  118  119  120  117  123  125  123  121  116  115  134  117  116  123  118  132  115  110  119  125  117  121  106  122    0
ch:  54     117  130  122  129  131  120  119  120  121  137  120  132  114  122  115  110  127  129  114  120  119  114  107  117  111  137  116  118  115  131  109   61
ch:  55     122  131  112  113  118  105  116  123  131  112  118  112  115  121  109  121  121  123  119  122  122  115  117  114  115  120  132  116  117  116  120    0
ch:  56     115  115  120  135  118  131  122  119  132  108  111  107  131  110  126  117  120  122  121  120  119  114  117  116  114  123  109  104  116  122  114   53
ch:  57     116  118  113  123  117  116  122  120  121  118  116  118  122  121  113  118  130  122  120  120  115  107  111  117  115  114  118  116  113  116  114    0
ch:  58     115  121  109  125  119  119  120  120  122  123  132  114  118  120  119  118  117  122  127  112  132  111  106  115  120  110  122  112  116  121  108    0
ch:  59     121  107  123  123  128  128  133  118  133  106  120  118  115  118  121  131  121  123  116  119  124  115  127  116  118  120   97  114  117  135  122    0
ch:  60     128  121  117  118  127  116  131  122  130  115  136  116  129  120  117  109  140  114  117  123  122  116  121  115  123  129  122  118  115  106  125    0
ch:  61     111  129  107  121  119  120  107  123  122  119  120  111  130  121  119  114  122  133  120  116  110  119  134  117  128  121  120  114  122  113  115    0
ch:  62     123  115  126  114  130  113  120  123  116  122  117  127  119  122  115  123  117  118  118  118  121  115  110  127  117  105  115  112  116  111  121   59
ch:  63     109  120  124  133  118  117  120  115  129  131  122  123  135  117  118  127  133  114  113  109  122  117  121  118  134  124  118  112  116  135  106    0
ch:  64     126  107  132  128  109  126  120  134  117  119  118  118  114  123  117  120  133  114  113  121  122  112  112  121  120  114  108  103  121  106  116   43
ch:  65     118  127  117  135  110  122  119  117  119  120  132  121  127  117  115  121  118  123  127  121  113  124  128  118  122  115  117  119  112  120  117    0
ch:  66     115  119  130  119  120  118  126  129  125  115  124  119  118  129  106  115  117  114  117  119  120  110  121  123  113  121  120  109  115  117  118   58
ch:  67     136  117  121  134  129  107  123  121  128  120  123  124  113  122  120  118  131  113  122  120  117  120  129  125  120  120  123  119  111  109  115    0
ch:  68     119  110  124  113  109  124  111  119  115  127  120  121  115  133  115  117  120  118  113  122  118  122  119  120  117  106  102  116  116  113  112   56
ch:  69     125  117  128  115  110  116  132  125  117  119  117  120  106  115  118  118  122  132  120  117  117  120  121  130  140  114  113  122  121  118  115    0
ch:  70     116  120  128  116  109  115  130  131  122  116  119  128  123  124  113  120  119  118  124  119  119  119  111  119  113  111  120  116  116  131  119   51
ch:  71     115  115  134  113  128  124  112  123  121  115  121  121  120  120  112  123  115  120  119  116  124  120  118  120  111  123  126  123  123  117  123    0
ch:  72     120  116  117  129  120  124  122  103  121  120  120  115  124  111  118  118  118  121  122  124  127  120  103  121  117  118  116  133  112  122  113   45
ch:  73     128  132  121  110  115  135  125  122  122  132  130  123  128  132  117  108  134  122  123  119  116  136  119  124  121  106  116  123  116  122  119   51
ch:  74     131  108  129  120  134  126  117  121  116  131  115  120  114  118  110  128  110  120  113  118  119  119  129  107  114  119  132  121  105  109  108   59
ch:  75     113  122  118  106  135  117  134  122  127  107  133  131  135  119  114  126  122  131  120  134  117  117  120  118  106  117  105  109  118  117  104   30
ch:  76     121  132  117  120  118  130  118  122  132  122  122  126  116  119  127  120  118  116  121  109  117  117  115  106  118  112  111  107  108  109  113   43
ch:  77     128  128  114  122  118  122  115  125  123  127  119  124  118  130  117  117  132  123  116  123  121  120  121  116  117  115  118  126  121  105  130   61
ch:  78     119  117  120  118  133  123  120  112  116  120  132  124  118  110  118  117  117  128  127  121  131  114  116  121  122  106  116  120  115  118  120   61
ch:  79     118  117  130  129  121  119  121  123  120  122  119  119  121  131  115  120  126  122  120  124  120  119  120  133  127  125  110  105  107  109  121   44
ch:  80     116  122  119  119  117  124  113  119  113  116  120  102  119  122  115  109  119  131  114  120  105  120  110  122  111  133  132  107  114  108  106   43
ch:  81     113  119  123  117  124  121  109  118  131  132  120  126  120  121  119  121  133  114  134  122  118  115  114  119  114  122  115  121  119  116  107    0
ch:  82     116  121  124  109  121  119  118  130  118  125  134  123  123  117  118  115  115  122  117  127  118  119  118  121  118  116  119  113  134  121  122   34
ch:  83     131  123  128  116  121  114  131  117  125  112  132  118  110  129  124  123  116  118  131  115  117  126  116  117  132  116  118  118  115  120  120   51
ch:  84     116  116  121  119  117  120  108  115  117  128  123  116  118  122  111  127  120  130  118  115  120  115  110  114  116  107  119  117  107  120  105   51
ch:  85     125  124  116  114  121  119  112  116  116  117  119  120  132  114  119  118  118  120  119  123  134  115  110  116  115  128  109  121  104  116  119   50
ch:  86     120  118  120  122  132  132  122  131  112  123  122  107  121  119  120  112  116  116  117  132  113  106  117  116  111  122  119  116  120  119  121   46
ch:  87     115  106  117  119  117  132  128  119  131  122  121  120  111  117  125  116  117  111  121  126  119  134  117  120  101  132  113  119  128  114  119   51
ch:  88     122  132  123  113  110  120  122  122  113  133  116  129  120  115  118  120  123  121  119  122  118  120  132  107  117  108  117  111  116  121  117   41
ch:  89     128  121  119  119  121  122  118  116  129  117  118  122  118  117  116  136  116  118  134  122  119  121  117  122  118  106  122  115  104  112  119   58
ch:  90     121  115  121  115  121  111  103  115  112  110  119  122  118  121  110  115  119  116  120  121  115  124  113  109  123  132  122  103  108  116  117   42
ch:  91     121  133  119  118  128  118  118  127  132  124  112  124  127  104  125  130  108  121  119  119  121  121  118  114  117  115  120  127  120  118  122    0
ch:  92     127  117  128  114  123  124  120  132  121  108  115  106  119  112  119  134  118  119  109  128  112  117  119  110  117  125  120  118  108  114  114   33
ch:  93     116  116  128  119  128  131  119  120  132  118  126  110  125  126  132  117  119  112  117  118  115  122  117  105  118  129  130  121  119  114  130   42
ch:  94     101  118  117  119  119  130  132  115  131  133  132  144  137  147  153  154  149  152  150  157  128  155  178  128  128  170  128  128  128  128  128    0
ch:  95     128   90   86   93   98  109   90   88  104  110  101  117  117  112  123  130  101  132  113  135  129  146  137  134  154  149  150  140  128  157  150    0
ch:  96     118  117  126  116  109  121  106  108  117  116  120  121  121  128  122  120  132  115  116  122  120  122  118  120  113  113  110  104  128  115  118   26
ch:  97     114  115  115  121  121  118  117  134  114  121  134  114  121  121  121  109  120  131  123  116  122  119  120  118  118  113  109  123  106  120  118   50
ch:  98     118  127  129  114  117  118  105  119  118  119  119  118  117  128  121  128  116  114  123  119  114  119  116  112  117  117  119  115  125  120  118   30
ch:  99     121  117  128  120  116  122  130  124  118  116  122  114  103  120  119  117  117  118  136  117  119  116  133  122  116  132  115  120  111  128  113   44
ch: 100     127  121  104  104  115  116  133  132  131  119  122  125  120  112  114  114  107  120  120  115  119  127  119  111  123  127  113  106  129  121  112   22
ch: 101     122  122  126  127  131  118  132  117  111  133  123  135  111  115  126  114  118  113  122  117  116  116  118  114  125  116  121  129  133  120  133   46
ch: 102     104  115  123  121  120  134  115  117  119  121  105  123  117  114  117  132  123  120  122  113  117  122  117  110  111  133  114  115  117  118  100   27
ch: 103     117  120  132  116  127  126  115  123  120  119  116  113  134  134  131  121  122  112  133  122  122  130  128  124  118  118  115  114  117  120  121   38
ch: 104     119  119  120  108  120  127  126  131  120  131  111  129  110  119  132  111  122  107  117  116  117  118  124  101  102  116  117  118  114  111  119   21
ch: 105     133  131  121  121  116  108  120  127  113  118  126  110  134  117  138  121  119  111  133  123  128  120  132  116  122  118  122  114  112  113  110   32
ch: 106     115  126  115  110  115  106  117  124  133  123  120  111  115  117  108  124  112  128  119  109  120  115  113  113  110  120  114  112  116  128  121   15
ch: 107     128  118  121  112  124  123  118  116  132  122  121  104  120  117  120  119  134  115  116  120  120  115  120  111  121  124  115  121  120  133  109   30
ch: 108     127  115  120  119  122  132  113  116  119  131  121  110  109  124  117  134  119  109  125  116  125  122  126  106  111  118  121  118  117  119  122    7
ch: 109     119  121  123  119  112  133  120  118  120  131  115  120  122  120  120  121  125  130  120  122  120  121  118  114  119  121  119  117  112  115  127   29
ch: 110     105  111  116  130  135  118  123  121  119  117  116  117  121  117  118  110  105  132  105  117  110  118  121  105  118  100  119  117  123  116  119    6
ch: 111     123  120  120  113  136  116  129  122  122  121  135  120  123  121  120  121  128  118  125  119  123  117  117  131  119  115  119  123  123  131  120   18
ch: 112     122  126  119  116  117  103  112  125  119  122  118  116  105  116  120  122  126  116  118  107  111  110  115  121  118  121  113  104  109  117  122    0
ch: 113     117  109  135  128  118  102  121  117  116  122  125  114  118  124  111  115  124  124  122  126  134  119  120  134  123  116  118  134  122  114  121   15
ch: 114     105  118  118  123  118  119  123  121  115  134  121  130  118  121  113  113  118  103  121  119  118  123  115  115  117  118  116  112  107  107  108   13
ch: 115     122  128  123  117  118  116  120  131  117  125  135  118  115  120  116  120  130  120  112  119  118  118  119  121  113  118  109  120  119  116  116   11
ch: 116     107  121  133  120  119  119  118  133  105  127  106  109  129  121  120  114  111  123  103  122  119  118  112  126  122  117  113  108  106  102  111    5
ch: 117     122  120  121  130  118  124  112  120  125  127  131  128  112  121  126  117  115  117  125  118  122  120  125  115  111  116  111  115  124  117  113    1
ch: 118     117  111  117  117  131  112  114  121  117  122  114  122  112  119  132  112  117  107  127  111  117  116  130  111  109  116  112  113  120  118  112    0
ch: 119     128  119  119  128  112  118  117  123  121  110  118  115  121  116  124  120  120  123  122  121  132  126  118  124  120  115  118  130  117  121  117    8
ch: 120     121  113  125  120  126  118  129  118  133  130  127  118  118  100  116  124  111  114  118  118  117  110  110  118  124  102  120  112  115  110  120    0
ch: 121     125  128  134  123  121  116  113  124  119  124  120  123  118  122  113  133  121  121  120  116  127  124  122  117  121  121  115  131  121  109  115    7
ch: 122     128  116  105  118  121  115  117  125  127  122  118  120  115  116  120  122  119  111  124  132  111  118  113  120  107  111  123  110  113  116  120    0
ch: 123     116  120  119  118  120  125  120  117  121  122  120  119  119  131  131  135  129  122  119  134  122  124  118  122  120  109  103  123  130  109  118    4
ch: 124     132  122  131  118  121  120  111  134  109  113  107  115  118  115  125  109  117  113  121  118  120  122  119  104  116  114  120  134  115  107  116    0
ch: 125     128  123  124  128  120  119  118  126  107  118  119  116  119  121  106  118  121  116  113  119  129  116  122  119  112  110  123  119  121  120  122    0
ch: 126     119  120  114  113  117  102  118  106  117  116  116  133  123  129  105  121  139  122  117  117  121  110  117  119  117  116  114  108  111  117  114    0
ch: 127     106  118  115  121  124  119  131  133  136  121  119  122  121  127  119  118  122  118  134  120  121  119  116  106  133  118  112  122  133  117  114    0
