# TRIM CALIBRATION    FEB6_9_4    pulse_ampl_min=20    pulse_ampl_max=85    pulse_ampl_fast=15
#
ch:   0     115  117  118  118  101  109  115  114  110  123  132  114  115  119  118  104  108  117  109  105  106  117  120  117  105  104  115  103  108  109  114   25
ch:   1     115  116  105  117  119  116  105  114  118  113  118  118   99  119  103  115  112  117  104  106  115  117  116  117  106  106  109  107  119   98  103   25
ch:   2     111  109  121  103  120  102  114  109  105  120  117  112  116  106  119  114  121  112  117  112  104  103   95  107  100  103   90  103  104  105  114   24
ch:   3     123  113  118  110  104  105  104  111  116  118  122  114  105  104  115  116  105  115  108  118  106  102  104  112  123  105  116  122  117  111  117   28
ch:   4     106  125  106  103  107  118  120  118  117  118  106  113  118  119  119  114  118  116  116  104  114  107  106  113  116  113  104  104  105  105  107   18
ch:   5     115  119  118  103  118  104  116  116  117  121  116  106  116  109  109  108  121  130  102  110  120  122  109  104  108  119  111  104   93   99  107   42
ch:   6     120  117  110  101  105  120  119  114  109  117  100  119   97  106  107  116  104  116  103  103  119  113  106  108   92  118  104  118  108  115  113   27
ch:   7     122  118  122  105  102  133  118  116  118  101  108  117  125  104  116  103  101  107  106  114  117  106  116  103  104  105  115  105  120  106  116   40
ch:   8     103  114  114  115  105  122  113  118  105  116  115  115  118  105  117  105   97  110  120  100  117  118  114  119  105  108  104  112  118  102   96   30
ch:   9     116  117  114  118  112  106  116  118  116  105  117  115  122  106  115  131  118  108  123   99  103  102  108  106  121  107  109  118  111  108  109   51
ch:  10     106  103  120  117  100  104  106  113  116  123  116  109  121  105  122  115  111  114  100  110  113  112  114  107  109  104   99  117  110  105  104   36
ch:  11     115  105  115  116  118  132  112  126  104  112  111  106  107  102  113  117  114  119  117  117  121  105  101  116  118  103  116  118  118  106  113   51
ch:  12     117  113  117  117  114   98  115  121  116  117  132  128  107   99  116  119  103  117   91  109  108  117  118  102  103  104  115  115   86  104  105   41
ch:  13     109  118  115  118  118  102  105  114  104  104  118  104  119  112  111  115  107  111  116  102  105  107  113  109  125  117  117  117  105  102  108   51
ch:  14     114  103  109  116  112  116  120  114  120  127  116  105  113  112  104  114  113  112  105  111  107  117  102  117  119  118  101  103  106   97  116   43
ch:  15     131  118  111  127  116  112  102  113  117  111  120  116  106  118  117  121  117  119  118  108  111  123  120  117  122  115  105  119  101  100  112   54
ch:  16     120  119  113  119  111  101  112  109  117  115  102  105  102  120  101  125  117  110  109  111  104  101  115  105  107  114  106  117  106  101  109   39
ch:  17     122  106  119  106  114  123  120  105  112  121  119  104  122  104  113  132  118  124  104  117  108  112  110  122  101   99  110  120  113  111  108   52
ch:  18     117  106  109  117  115  114  114  120  127  104  114  116  111  121  120  117  117  119  105  132  121  110  102  106  106  114  103  104  102  111  101   44
ch:  19     106  117  113  118  107  120  123  115  117  121  108  119  118  111  103  118  118  118  118  120  121  114  103  114  118  104  105  113  105  116  113   42
ch:  20     128  113  108  113  117  103  114  114  103  116  117  111  118  107  108  103  122  105  119  115  107  115  115  118  105  102  115  114  106  107  117   49
ch:  21     107  118  123  104  129  114  119  104  116  119  112  111  110  117  113  122  116  113   91  107  117  131  115  104  117  116  107  105   96  107  104    0
ch:  22     128  128  104  105  114  118  105  118  136  126  117  121  119  106  116  117  119  117  106  119  109  103  115  112  113  104  103  105  117  112  115   47
ch:  23     119  104  125  123  117  115  115  121  125  121  106  117  119  117  122  117  103  114  103  118  120  106  123  121  105  117  118  109  120  132  100   53
ch:  24     117  112  118  107  106  116  118  117  117  121  114  104  109  113  115  109  115  117  109  118  114  103  113  113  101  114  104  115  104  102  107   54
ch:  25     115  100  115  116  119  122  114  119  119  121  111  115  118  117  121  119  115  108  106  117  121  111  120  107  116  101  101  103  115  117  117    0
ch:  26     117  112  103  116  102  121  133  119  117  115  113  112  103  105  120  104  115  116  107  121  109  100  121  113  104  115   91  115   96  121  105   42
ch:  27     111  119  117  120  115  123  128  118  119  112  133  110  115  105  119  112  115  115  127  109  107  104  105  117  115  114  106  100  107  100  115    0
ch:  28     129  114  126  116  120  117  120  119  118  101  122  114  120  116  117  114  106  121  103   99  106  121  117  122  110  116  105  105  110  110  102    0
ch:  29     107  115  118  121  117  121  120  118  120  125  117  116  119  106  105  102  115  118  121  111  116  137  108  119  101  115  105  102  112  105  118    0
ch:  30     119  109  108  116  123  110  104  118  120  114  118  100  103  112  111  120  116  117  101  130  104  116  109  104  104  118  108  109  115  111  107    0
ch:  31     121  124  120  113  119  112  123  116  120  125  118  104  119  116  125  131  111  113  104  111  105   89  106  110  117  105  115  107  119  117  117    0
ch:  32     107  118  119  102  113  102  115  110  106  117  110  118  119  131  114  112  119  111   88  104  107  114  115  105  105  115  106  107   99  109  115    0
ch:  33     103  116  125  122  102  114  120  123  116  104  120  105  116  118  110  112  109  122  113  106  121  120  115  115  115  116  103  108  117  113  101    0
ch:  34     107  120  122  113  118  118  119  131  123  117  116  117  113  115  114  115  111  111  120  118  106  106  118  117  112  109  104  102  106  111  102    0
ch:  35     118  115  117  103  105  116  125  121  120  125  106  124  104  107  114  114  134  129  116  104  121  117  107  126  115  121  105  103  103  104  107    0
ch:  36     128  111   94  119  117  110  120  123  119  116  131  114  118  104  115  121  110  122  115  115  126  113  107  120   99  102  107  122  119  105  112   51
ch:  37     108  118  107  122  111  105  104  131  106  116  121  114  114  115  116  108  114  104  123  116  118  114  105  116  105  116  106  104  120   99   93    0
ch:  38     115  120  121  113  118  105  122  120  119  108  118  112  117  100  116  112  121  114  101  102  108  100  107  118  106  110  103  103  117  108  106    0
ch:  39     122  108  119  117  100  130  120  121  120  114  113  121  119  106  106  123  118  119  115  114  116  112  112  110  118  110  104  116  118   95  108    0
ch:  40     128  120  119  120  116  105  113  130  118  117  113  108  119  122  114  115  119  115  122  123  117  117  105  104  108  103  106  111  110  100  104    0
ch:  41     119  113  116  119  122  116  112  119  104  115  119  110  111  105  114  116  115  120  120  114  115  122  118  115  123  133  102  109  111  122  106    0
ch:  42     118  115  118  115  115  112  110  115  105  124  115  115  109  118  131  121  114  112  112  103  124  115  106  106  115  102  112  102  104  110  105    0
ch:  43     109  118  113  116  121  116  118  132  113  118  116  122  113  114  119  113  102  120  122  121  116  114  118  103  105  115  118  110  119  115  103    0
ch:  44     128  103  118  114  102  104  120  120  119  130  112  115  112  106  113  104  116  123  110  111  114  112  116  114  110  117  107  118  116  121  106    0
ch:  45     111  129  105  110  119  115  131  118  125  115  106  121  116  104  114  122  106  116  120  120  106  108  115  111  110  114  113  114  118  110  112    0
ch:  46     116  128  115  106  118  115  105  120  106  122  120  117  108  117  110  106  108  118  118  121  129  106  101  106  117  103  104  100  105  116  103    0
ch:  47     104  119  113  115  112  130  114  116  120  115  115  121  127  106  106  108  113  126  115  108  109  116  115  107  117  117  119  115  112  115  111    0
ch:  48     110  117  103  115  123  119  121  110  118  120  104  101  117  122  104  107  119  114  123  128  120  112  103  114  104  117  112  102  105  107  116   42
ch:  49     115  115  115  122  105  117  110  119  108  133  120  123  121  117  108  118  108  118  128  118  120  113  114  117  112  119  119  116  116  116  104    0
ch:  50     123  107  111  117  112  118  123  120  117  106  120  113  115  117  119  116  108  117  116  114  118  118  101  122  105  106  107  113  105  111   97    0
ch:  51     115  107  128  118  117  107  120  122  112  111  117  117  118  114  119  119  118  110  116  127  104  115  119  106  121  113  111  112  109  115  118    0
ch:  52     108  119  114  115  105  116  120  113  121  116  117  124  106  105  119  121  110  102  111  120  116  117  104  122  104  113  120  105  104  104  116    0
ch:  53     117  109  119  119  132   98  127  118  114  114  118  114  119  119  114  119  126  110  122  118  117  116  110  114  113  115  112  118  106  103  118    0
ch:  54     115  107  111  124  102  132  119  105  121  118  121  121  119  107  107  119  121  109  119  116  116  110  117  120  116  118  103  106  104  102   91    0
ch:  55     128  134  115  117  114  119  119  121  121  120  112  115  108  123  109  118  105  133  121  120  116  117  111  115  108  110  118  116   87  100  117    0
ch:  56     117  112  124  113  121  117  115  121  116  106   99  122  105  114  123  122  105  131  119   95  114  106  111  115  104  116  105  109  110  116  120    0
ch:  57     123  106  117  104  116  117  111  108  119  119  111  107  119  118  116  123  114  116  109  118  102  113  116  115  109  118  115   98  105  112  117    0
ch:  58     116  121  120  122  116  118  121  114  104  115  120  118  112  121   99  115  124  119  122  103  102  108  116  119  117  104  104  114  106  103  115    0
ch:  59     115  106  113  114  110  117  112  126  106  114  121  119  129  107  111  115  117  117  101  119  121  113  113  111  110  108  104  120  114   92  104    0
ch:  60     104  101  120  120  121  117  108  122  107  115  116  108  108  120  102  117  114  101  112  117  122  108  111  107  105  116   99  120  105  107  114    0
ch:  61     121  105  117  105  118  107  105  126  121  116  125  115  104  116  118  120  117  114  122  119  112  118  120  117  106  114  109  107  105  111  116    0
ch:  62     118  120  115  118  116  115  114  116  113  114  118  114  113  116  121  122  115  118  107  122  122  115  119  105  102  107  104  114  101  105  103    0
ch:  63     117  126  118  122  121  104  117  117  115  122  119  117  115  111  117  114  115  129  119  122  117  116  114  117  118  114  110  119  116  108  117    0
ch:  64     117  128  115  113  112  116  120  106  117  117  117  108  105  120  109  118  102  111   99  111  119  113  116  114  116  115  103  104  115   97   99    0
ch:  65     117  100  119  128  117  105  120  118  120  115  121  117  121  111  115  114  111  115  105  115  123  112  107  131  120  106  112  107  103  111  104    0
ch:  66     117  110  130  116  120  105  121  105  106  118  106  117  118  120  114  117  115  117  116  120  110  117  109  115  106  117  106  120  107  114  113    0
ch:  67     120  128  122  108  118  112  112  116  116  122  121  119  123  105  114  122  116  117  103  104  125  120  113  109  120  106  111  114  117  107  110    0
ch:  68     121  128  113  106  107  111  115  111  110  111  109  114  105  110  108  113  111  103  114  132  108  123  123  119  104  112  101  109  106  110  103    0
ch:  69     107  119  119  107  120  121  109  115  115  109  106  120  108  114  108  119  122  131  108  109  106  114  103  117  107  100  107  107  118  119  109    0
ch:  70     121  107  116  111  103  115  125  105  117  106  121  102  121  112  111  122  125  116  123  105  117  117  107  109  105  108  114  103  111  100  115    0
ch:  71     115  120  120  118  102  111  113  117  119  121  123  120  125  107  132  105  110  115  117  123  117  113  118  117  115  118  105  115  119  119  108    0
ch:  72     114  104  100  117  113  129  111  118  122  119  108  107  119  116  119  118  114  123  109  116  106  120  107   98  111  107  105  104  108  116  111    0
ch:  73     117  112  114  120  119  116  120  119  116  119  122  109  111  117  117  119  118  120  129  117  112  119  120  119  116  106  118  109  124  111  107    0
ch:  74     113  121  111  101  110  115  114  120  115  110  114  105  104  118  126  112  117  117  120  132  120  111  104  109  111  104  109  109  121  118  112    0
ch:  75     109  128  104  127  118  121  116  110   99  126  132  119  103  107  114  117  113  124  116  116  112  117  107  123  112  121  118  107  117  104  111    0
ch:  76     116  107  133  103  117  109  130  104  118  103  115  105  117  111  107  111  104  120  110  106  109  108  104  112  115  103  116  108  114  106  116    0
ch:  77     121  121  122  113  118  124  112  115  122  130  115  101  118  115  114  117  117  117  118  102  118  118  118  120  101  106  112  106  108  105  105    0
ch:  78     106  119  122  113  116  120  116  113  125  118  106  107  116  111  110  114  108  115  109  100  105  119  112  101  108  118  112  109  106  102  102    0
ch:  79     105  116  117  119  117  111  117  118  117  105  121  128  116  118  121  113  105  120  118  134  119  122  112  114  123  119  112  106  119  111  110    0
ch:  80     107  121  111  121  107  114  111  122  115  121  109  114  111  115  107  117  102  114  102  120  115  122  113  118  109  110  103  108  126  102  112    0
ch:  81     109  110  120  111  116  104  112  109  123  104  121  119  112  111  123  114  121  111  108  105  122  108  106  117  109  114  106  116  113  119  104    0
ch:  82     109  128  120  110  120  123  106  115  114  118  109  101  113  122  115  101   94  113  109  120  112  117  100   96  108  102   99  116  112  117  109    0
ch:  83     115  122  128  109  117  119  116  133  123  118  106  122  103  116  117  117  118  109  106  119  116  120  112  114  112  116  116  118  105  115  115    0
ch:  84     105  129  117  113  122  117  111  106  120  104  118  111  116  114  118  105  111  116  114  100  118  117  103  121  114  118  112  104  115  111  105    0
ch:  85     108  120  119  114  110  113  116  115  116  127  119  118  110  117  118  112  116  117  119  123  116  115  117  111  109  114   98  119  106  120  106    0
ch:  86     115  121  117  117  116  113  114  128  118  122  131  106  104  123  108  121  122  119  120  121  107  117   98  113  105  109  102  110  107  117  104   42
ch:  87     117  121   91  122  118  104  114  120  120  103  113  117  115  112  117  112  118  118  126  121  115  121  118  106  120  104  114  109  111  117  110    0
ch:  88     106  118  127  115  119  104  122  105  120  112  118  113  118   92  106  120  106  116  112  114  106  115  109  108  115  108  100  103  111  107  117    0
ch:  89     120  120  128  121  116  122  121  130  120  122  106  120  112  100  115  124  128  116  113  122  107  118  105  125  116  115  115  117  118  118  120    0
ch:  90     122  119  103  105  118  123  123  105  116  117  121  113  117  117  104  120  115  113  110  115  110  100  118  106  117  117  107  106  120  106  110    0
ch:  91     118  104  124  120  113  105  112  103  115  123  105  117  117  115  116  118  120  105  118  110  119  117  107  111  117  113  118  114  115  105  100    0
ch:  92     105  117  110  133  123  113  117  107  121  130  111  120  109  125  114  123  121  129  122  124  111  112  118  118  117  112  105  108  106  118  106    0
ch:  93     115  115  114  106  117  117  122  112  119  110  117  122  115  116  117  130  108  114  106  112  115  115  119  120  122  116  114  115  107  120  112   30
ch:  94     118  105  120  116  125  121  111  116  112  122  115  108  116  116  117  126  115  118  117  116  115  108  103  115  108  105  100  100  112  115  107   53
ch:  95     118  126  132  118  118  116  110  105  123  123  125  132  120  116  123  120  126  111  115  104  117  120  116  133  122  114  116  122  106  117  121    0
ch:  96     133  112  120  121  121  118  110  133  120  106  110  120  107  115  121  113  110  107  110  105  109  109  103  104  107  107  104  110  109  104  111   60
ch:  97     103  132  102  113  117  122  118  124  119  121  115  118  121  119  120  104  117  112  118  127  120  118  110  115  107  118  117  113  115  101  106    0
ch:  98     118  118  118  121  116  114  118  116  122  116  113  122  108  111  109  116  111  105  106  105  112  106  101  112  100  108  114   98  116  110  117   44
ch:  99     107  125  114  115  120  121  121  124  115  104  113  122  116  106  111  123  114  119  120  119  114  107  106  116  104  121  111  118  122  115  113    0
ch: 100     117  104  105  118  113  129  120  122  113  124  118  119  121  115  116  122  112  116  117  124  112  105  106  105  104  103  106  104  104  107  115    0
ch: 101     107  121  110  105  116  116  117  122  127  114  117  117  121  113  117  123  109  119  104  123  107  118  122  120  112  118  118   96  116  107  116    0
ch: 102     105  116  115  115  122  111  116  117  117  110  109  111   99  126  120  107  105  105  116  107  107  116  102  109  117  104  114  104  102  114  109   48
ch: 103     120  119  124  117  133  122  123  103  111  118  117  121  117  115  105  118  125  116  117  104  122  119  119  121  117  114  105  101  118  117  114    0
ch: 104     133  106  116  105  111  114  122  122  118  114  112  120  117  104  115  107  106  117  116  109  120  118  107  117  107  119  113  110  110  101  102    0
ch: 105     110  113  107  118  119  112  128  105  124  118  105  107  109  104  120  107  107  111  127  118  102  113  107  117  120  102  105  113  107  113  103    0
ch: 106     115   98  113  116  107  118  119  111  117  112  117  109  104  108  109  116  119  120  116  113  121  104  111  102  118  101  118  114  102  116  106   51
ch: 107     128  104  111  122  108  119  115  116  122  116  124  121  120  108  112  110  116  127  120  115  109  108  114  108  117  109  110  112  105  116  116   52
ch: 108     119  113  120  115  107  126  116  119  121  116  106  116  117  104  120  112  118  105  117  116  111  101  117  110  111  101  104  108  110  111  102   45
ch: 109     117  113  114  111  119  117  123  117  124  107  118  106  122  117  120  113  119  120  116  108   98  113  107  119  115  117  133  118  106  107  117   53
ch: 110     122  120  115  117  108  121  117  126  104  117  107  121  112  116  112  117  114  117  115  105  118  117  107  125  100  116  101  117  110  114  110   44
ch: 111     103  128  124  115  116  116  103  114  106  118  122  121  123  114  117  118  113  119  109  105  118  118  113  104  110  116  112  116  106  107  102    0
ch: 112     128  118  102  119  117  124  110  114  116  111  119  119  106  105  105  108  121  105  117  103  110  113  117   99  107  109  110  101  102  127  109   28
ch: 113     128  117  104  111  117  123  120  105  123  118  121  116  113  107  118  112  124  128  120  127  113  119  108  103  115  131  106  115  103  107  117   50
ch: 114     106  122  123  121  126   92  117  120  114  105  117  105  117  115  110  102  117  104  113  102  105  104   92  102  109  104  105  106  112  109  117   27
ch: 115     106  119  118  117  120  115  117  122  120  117  117  103  129  108  121  118  119  119  116  114  117  116  116  108  112  110   99  109  105  121  118   50
ch: 116     118  110  115  121  118  104  117  118  119  117  121  106  109  111  114  101  116  116  116  118  116  115  103  109  103  114  104  107   97  106  117   30
ch: 117     117  116  115  124  113  114  109  116  106  121  120  120  119  120  117  105  114  108  117  111  117  114  110  121  110  106  109  106  102  106  102   44
ch: 118     117  118  117  111  117  121  118  117  100  124  122  119  122  120  108  116  113  119  105  100  107  107  106  118  114  101  102  103  102  119  109   32
ch: 119     118  128  132  120  122  117  115  119  108  117  117  102  117  119  115  105  122  111  115  136  119  116  108  119  115  120  108  108  119  113  116   30
ch: 120     110  131  113  119  111  112  117  121  120  113  112  120  104  120  105  104  116  117  118  111  109  105  107  115  104  117  102  105  114  115  110   23
ch: 121     117  111  117  114  117  117  116  112  117  103  116  121  109  109  111  121  122  108  108  116  119  122  114  125  119  110  115  106  102  110  104   46
ch: 122     121  114  118  118  112  113  118  116  117  122  116  106  121  113  100  116  116  108  116  104  119  101  112  117  115  111  115  115   95  113  101   24
ch: 123     107  117  113  117  113  114  104  110  115  117  125  117  105  121  117  117  121  113  120  120  109  107  106  113  123  105  107  109  102  107  109   25
ch: 124     128  128  110  118  112  111  108  119  117  112  120  112  106  104  117  113  117  118  114  101  124  106  109  104  103  114  104  106  126  111  104   24
ch: 125     114  104  117  117  119  118  123  107   98  115  118  113  118  117  120  104  118  120  105  116  114  116  113  115  118  117  122  103  106  116  123   31
ch: 126     112  104  105  116  116  120  106  117  115  107  114  121  108  106  110  113  106  112  105  117  117  100  115  102  118  104  106  104  108  114   99   10
ch: 127     109  125  126  115  119  126  118  120  116  132  119  117  122  128  115  117  118  123  125  117  111  120  115  124  116  112  116  116  108  105  113   33
