# TRIM CALIBRATION    FEB6_2_5    pulse_ampl_min=20    pulse_ampl_max=85    pulse_ampl_fast=15
#
ch:   0     128  109  117  112  113  116  119  100  110  113  112  105  104  109  103   94  111  105   91  116  101  115  105  103  103  108  102  115   98  101  101    0
ch:   1     103  120  113  115  108  104  105  104  116  117  115  103  102  112  117  109  105  113  104  107  111  105  114  105  110  102   96  125  118   93  106    0
ch:   2     109  102  101  115  109  107  110  119  116  115   99  119  107  103  111  106   99  118   99  105  118  101  105  104  114  104  104   96   99   97  100    0
ch:   3     110  118  119  105  105  124  109  109  100  113  115  103  117  122  117  111  107  109  115  114  117  116  104  116  104  107   99  106   96  111  104    0
ch:   4     116  117  103  116  102  110  115  102  115   97  115  107  107  111  102  114  115  105  116  106  106  100  104  108  105  103   90  101  100  109  106    0
ch:   5     116  105  113  117  116  104  113  102  123  121  100  105  105  111   91  105  116  104  117  106  120  115  103  100  111  118  100  105  103  111  100    0
ch:   6     115  115  118  112  116  114  115  105  110  117  112  122  105  116  102  100  110  115  116  106  107   96  102   89  106  103  104  106  110  100  110    0
ch:   7     100  103  108  122  119  117  106  119  107  115  108  122  114  120  115  115  113  115  104  117  115  120  116  104  111  114  115  105  108  102   90    0
ch:   8     110  113  105  111  115  107  103  117  100  120  112  108  104  110  111   94  103  104  103  105  119   90  107   90  101  104  117   96  104  116  104    0
ch:   9     104  115  114  118  120  120  118  121  101  104  109  117  118  115  104  113  107  110  119  123  105  117  106  116  102  104  105  103   97  114  112    0
ch:  10     120  114  100  115  104  118  114  114  101  103  107  108  123  111  104  105  105  106  105  118  120  111  101  117  116  104   96  111  104   88   92    0
ch:  11     140  128  128  128  128  128  140  128  128  128  128  128  128  128  128  128  128  128  128  128  128  128  128  128  128  128  128  128  128  128  128    0
ch:  12     118  118  126  120  135  132  147  149  147  151  141  167  151  155  170  160  161  170  166  128  168  128  128  128  128  128  128  128  128  128  128    0
ch:  13      99   92   91  104  104  107  116  121  120  127  118  128  130  135  132  138  152  151  149  164  128  151  156  166  183  161  165  168  180  169  179    0
ch:  14     117  109  105  120  101  113  112  118  117  102  108  104  120  104  103  103  104  118  122  104  109  114  118  100  103  114  102  103  112  105  108    0
ch:  15     121  106  112  122  125  117  114  117  119  117  117  120  120  104  108  122  116  117  108  118  104  115  115  119  105  101  109   97   98   98  110    4
ch:  16     119  115  104  105  117  109  118  108  118  108  114  120  115  112   93  104  106  113  107  106  116  108  114  116  101  102  103  116  119  105  107    0
ch:  17      93  119  107  107  116  114  116  116  116  109  107  114  110  106  122  112  103  104  125  116  122  101  116  116  112  105  109  106  101  104  104   12
ch:  18     106  106  105  118  106  117  118  121  110  118  113  115  122  122  115  115  104  113   99  112  102  115  100  114  100  103  104  107  104  102   91    0
ch:  19     105  121  108  113  120  101  107  117  116  115  107  108  119  112  104  113  116  110  107  111  119  110  103  111  119   90  109  101  105  117  104   23
ch:  20     117  103  115  105  102  110  116  115  105  121  105  108  123  108  107  104  105  107  119  111  104  107  115  109  105  118  103  101  102  100  105    7
ch:  21     119  111  117  115  120  118  114  108  113  118  106  118  108  114  103  118  104  120  103  107  117  105  105  112  118  114  102  105  101  107  119   20
ch:  22     110  121  104  104  106  102  119  115   98  104  120  104  115  102  111  117  107  101  105  102  122  106  113   88  106  108  105  106  113  100  111    8
ch:  23     114  120  118  115  108  109  115  117  111  111  120  104  108  123  116  123  117  109  106  116  103  105  119  121  101  103  102  120  113  115  104   18
ch:  24     117  106  111  101  116  109  115  101  102  104  118  105  117  104  105  113  102  112  118  117  108  101  117  104  106  102   96  100   96  100   96    0
ch:  25     102  115  108  117  105  107  105  123  114  116  117   99  110  123  108  117  116  107  106  118  120  105  110  114  114  105  117  120  115  102   97   24
ch:  26     117  111  108  111  109  107  113  101  113  104  123  101  116  107  116  110  117  100   98  115  105   96  106  105  111  104  101  113  107  117  100   12
ch:  27     128  114  117  115  120  119  104  117  116  116  116  109  116  113  102  115  111  114  105  115  111  110  104  101  114  115  111  111  103  107  106   32
ch:  28     120  104  102  118  111  122  116  119  105  113  114  107  106  115  109  100  103  117  111  116  104  102  104  102  100  116  104   90  117  102  101   22
ch:  29     109  118  118  107  112  117  119  111  108  116  109  105  113  105  108  104  111  102  108  112  108  115  116  116  123  108  121  104  110   99  103   46
ch:  30     115  107  107  114  118  109  115  113  113  100  108  116  104  123  103  112  105  121  111  105  101  112  105  115  107  106  117  112  104  102   92   16
ch:  31     104  119  114  117  120  103  118  105  127  118  111  106  123  114  119  110  107  113  122  120  119  108  109  118  101  122  117  107  105  114  106   46
ch:  32     116  121  104  114  111  119  118  120  116  115  102  112  106  107  118  110  115  117  117  117  104  112  113  107  105  113  104  113  116  100   95   22
ch:  33     111  117  108  104  113  113  114  117  119  118  118  113  116  105  115  114  121  101  125  110  118  106  119   99  114  120  104  118  107  114  105   47
ch:  34     106  132  116  111  112  117  106  104  119  102  109  105  113  116  116  112   89  104  116  106  116   91  107  118  120  110  106  103  105  109  100   22
ch:  35     113  119  121  116  132  118  105  123  104  104  120  108  110  111  106  108  103  118  120  118  121  107  105  108  108  116  121  116  104  105  102   42
ch:  36     105  103  107  117  107  113  116  118  108  105  127  110  120  106  101  107  118  114  114  112  107  105   99  116  100  101   98  112  119  100   99   38
ch:  37     105  106  115  117  116  116  118  124  118   99  105  112  120  119  123  110  118  110  119  104  105  111  131  115  109  113  111  116  104  110  114   58
ch:  38     107  127  116  122  118  110  106  123  117  118  117  107  119  117  117  101  117  111  107  106  107  111  102  117  109  103  103  109  104  102  102   40
ch:  39     115  119  129  106  121  124  107  124  106  120  104  120  106  115  109  106  117  120  107  104  107  108  119  105  110  103  117  117  110  115  104   58
ch:  40     118  109  108  108  119  113  117  118  102  117  106  109  104  106  107  121  108  109  113  118  114  109  116   99   99  115  124  103  116  118  107   49
ch:  41     116  122  112  116  124  113  121  122  115  119  102  116  111  118  117  113  114  120  118  106  120  110  107  115  101  120  112  117  119  109  108    0
ch:  42     119  107  116  120  122  122  120  122  119  121  116  116   95  114  102  117  106  104  118  115  105  103  104  115  119  109  109  118  110  104  115   54
ch:  43     120  122  105  105  118  116  104  110  120  117  117  103  121  117  117  115  117  105  102  108  115  115   97  102  112  104  104  113  113  113  103    0
ch:  44     118  104  111  116  130  116  107  116  115  108  121  116  123  114  109  117  121  104  118  112  109  115  115  100  114  102  110  102  115  107  112   33
ch:  45     126  110  106  121  116  106  117  119  120  117  113  113  116  113  116  130  118  117  117  115  107  111  102  108  105  117  117  118  112  118  111    0
ch:  46     107  117  118  113  105  116  117  101  118  121  115  117  100  114  115  116   99  116  107  107  107  110  107   98  108  103  122  104  104  109  115   44
ch:  47     113  101  116  115  111  119  118  121  117  120  131  115  118  120  118  124  108  104  108  115  125  106  116  114  113  106  110  109  110  120  104   62
ch:  48     128  116  104  110  120  105  116  116  120  123   99  103  106  106  104  101  113  112  117  107  120  104  118  105  112  119  102  114  114  117  102   53
ch:  49     120  128  114  119  117  107  119  132  101  115  117  104  115  115  105  121  111  120  100  112  119  107   95  110  112  103  116  105  103  117  114   59
ch:  50     118   95  116  110  113  107  114  122  117  128  120  104  112  107  103  113  116  101  118  124  113  103  105  112  114  116  101  106  106  112  102   42
ch:  51     106  119  111  119  118  116  124  118  102  110  123  117  115  120  110  116  117  122  115  115  118  112  102  118  102  115  114  112  102  114  104    0
ch:  52     118  108  108  118  115  122  117  121  103  115  127  103  105  104  118  120  100  113  100  112  110  117  101  100  112  109  103  101  106  102  113   45
ch:  53     126  121  118  117  123  118  112  112  117  105  111  107  126  117  103  121  118  118  117  118  117  120  111  115  102  118  106  110  122  116  115    0
ch:  54     118  121  107  108  121  113  107  120  122  114  111  120  112  115  122  117  102  110  107   99  105  118  122   98  114  116  102  124  103  108  101   34
ch:  55     118  117  107  122  111  113  107  117  123  118  117  105  105  108  103  119  116  112  112  112  107  106  115  123  115  114  109  115  122  114  106    0
ch:  56     119  121  117  107  117  116  103  107  104  116  115  122  105  111  105  114   95  115  110  115  111  113  114  117  102  106  107  109  110  104  112   48
ch:  57     113  128  114  105  106  125  105  119  116  118  119  113  111  116  125  114  104  101  107  120  117  107  104  106  115  117  115  107  116  101  107    0
ch:  58     104  114  105  119  111  114  109  117  131  123   98  115  116  107  102  114  102  120  109  125  114   97  113  109  103  117  107  113  105  100  106   54
ch:  59     106  117  123  117  121  121  120  114  117  120  119  105  122  119  118  112  120   99  104  104  103  114  119  116  108  106  123  117  115  104  113    0
ch:  60     114  104  118  118  118  125  104  121  103  103  116  114  112  106  116  105  118  121  114  117  114  107  107  101  118  118  106   90  115  106  107   54
ch:  61     111  113  117  110  119  119  115  118  121  112  130  118  120  120  119  118  109  118  113  121  117  105  106  114  109  101  115  122  108  105  107    0
ch:  62     110  109  114  114  128  118  121  132  137  139  139  143  141  150  149  150  144  153  160  158  152  149  151  167  169  154  163  166  164  169  163    0
ch:  63     128  128  128  128  128  128  128  128  128  128  170  128  128  128  128  128  128  128  128  128  128  128  128  128  128  128  128  128  128  128  128    0
ch:  64      99  113  117  100  112  123  117  120  117  115  117  103  115  115  119  110  107  114  113  106  119  113  104  102  116  108  105  115  100  114  114   47
ch:  65     104  120  107  130  122  117  114  109  117  104  113  118  131  121  114  111  132  105  106  117  117  108  121  125  110  120   97  124  107  118  103   42
ch:  66     128  115  102  106  115  118  106  105  119  118  121  115  108  104  116  114  114  120  119  122  115  105  103  106  104  114  107  104  102  111  110   37
ch:  67     120  118  105  119  118  122  114  115  111  124  113  115  120  121  123  122  119  104  118  131  107  116  115  115  119  119  117  117  111  106  105    0
ch:  68     111  122  110  105  110  120  117  120  116  115  104  115  105  102  114  119  107  101  115  101  107  119  102  108  115  101  104  108  109  113  116   58
ch:  69     104  123  117  120  120  104  121  112  111  122  118  135  120  112  113  113  108  106  117  120  117  117  118  105  117  120  122  121  112  103  120    0
ch:  70     120  111  107  116  108  124  113  115  115  106  117  122  120  101  116  115  105  107  112  105  116  106  112   99  113  105  120  100  106  107  111   42
ch:  71     115  113  112  114  112  118  117  127  116  108  117  120  109  120  106  126  128  118  111  120  123  123  112  116  123  117  104  121  103  103  108   56
ch:  72     117  115  107  118  118  120  130  121  128  104  119   99  115  117  113  103  115  104  111  125  116  116  103  106  112  103  117  118  111  105  118   40
ch:  73     118  128  110  122  106  105  123  117  120  119  117  122  114  117  112  117  121  115  119  119  116  112  104  114  113  116  116  105  101  115  107    0
ch:  74     111  117  115  113  114  117  117  117  101  123  115  121  122  116  119  120  113  108  118  112  109  110  112  121  121  108  111  108  105  102  102   52
ch:  75     128  117  128  116  104  104  119  109  119  108  119  119  123  120  115  113  119  118  106  116  115  122  118  107  119  123  117  115  103  105  109    0
ch:  76     116  122  115  113  109  106  111  120  106  110  102  102  107  100  118  116  113  110  117  116  104  106  114   93  106  115  103  114  109   98  114   43
ch:  77     128  100  118  112  134  123  134  115  122  120  113  102  117  117  112  110  118  116  115  122  114  108  106  119  105  104  106  116  106  105  117    0
ch:  78     117  117  122  116  116  114  105  114  104  118  122  111  117  118  117  110  114  105  130  103  111  131  108  112  109  101   94  104  106  114  117   42
ch:  79     110  123  118  131  119  117  121  119  106  131  104  118  115  110  119  109  110  115  109  117  112  104  108  106  116  104  116  109  110  117  118    0
ch:  80     113  104  106  104  118  118  117  122  114  121  113  101  123  110  101  103  113  101  116  118  112  104  107  101  105  116  121  105  104  101  113    0
ch:  81     126  104  114  116  122  111  116  111  114  118  123  116  112  104  113  118  101  115  104  108  119  119  117  122  115  111  112  106  118  101  106    0
ch:  82     109  117  120  114  116  122  118  113  115  116  121  113  120  113  122  121  114  106  114  116  107  122  113  103  122  106  105  107   98  109  102   32
ch:  83     127  120  118  114  118  117  114  118  115  113  126  105  106  121  114  111  115  117  110  121  116  107  102  117  105  103  111  123  104  119  116    0
ch:  84     116  108  117  126  118  114  117  115  104  121  102  115  118  101  115  112  118  115  119  105  107  120  117  116  107  108  107  110  116  110  107   28
ch:  85     111  101  115  117  103  107  115  105  118  110  109  112  107  115   99  108  117   96   93  104  104   94  103   89   99  101  103  101  109  101   99    0
ch:  86     104  134  117  114  115  114  120  120  120  113  118  106  101  120  113  117  120  110  115  116  108  109  103  100  102  106  115  115  121  105  115   22
ch:  87     123  108  119  121  118  112  115  105  119  105  114  115  107  117  120  105  112  117  123  106  104  116  118  111  106  104  107  105  100  113   98    0
ch:  88     130  120  120  111  106  105  106  120  113  121  108  119  103  111  121  116  123  106  115  102  103  116  119  102  105  114  118  108   98  104  105   39
ch:  89     122  105  105  121  117  118  119  112  125  117  122  118  120  129  120  119  123  115  103  109  116  114  106  119  116  118  114  110  105  116  116    0
ch:  90     102  111  113  118  121  105  110  122  101  105  113  116  116  121  110  112  115  118  106  106  116  102  103  110  104  102  105  106  113  107  108   45
ch:  91     115  122  104  118  110  119  104  107  134  108  115  116  111  115  121  116  101  108  118  120  116  110  118  118  111  119  102  119  103  115  106    0
ch:  92     125  112  120   99  104  116  125  124  115  121  120  105  107  106  120  116  115  108  120  118  112  101  112  104  116   92  119  103  108  108   97    0
ch:  93     117  114  101  115  114  104  128  116  118  118  119  112  119  104  107  117  112  130  105  117  112  110  113  119  105  113  121  115  118  119  106   57
ch:  94     118  104  122  103  119  124  105  104  119  108  118  120  120  115  124  103  113  106  113  119  112  108  114  107  102  114  105  106  116   90  109   28
ch:  95     122  120  128  108  120  118  118  121  120  121  119  119  131  108  115  121  112  117  117  120  116  105  121  113  107  115  107  117  119  121  109   53
ch:  96     123  102  107  115  120  105  115  103  104  115  109  102  117  111  104   93  103  104  112  103  118  104  117  116  118  118  109  123  104   99  107   34
ch:  97     118  128  104  116  120  120  119  111  117  117  115  123  113  118  126  118  119  120  131  122  125  111  112  105  120  114  115  120  120  120  117   63
ch:  98     119  106  111  109  103  113  106  119  104  108  117  110  108  127  119  116  111  108  118  116  115  112  116  102  107  106  107  105  120  105   96   30
ch:  99     128  128  104  123  120  120  117  116  108  135  119  102  111  105  107  121  104  118  109  104  120  120  112  119  110  114  107  107  117  103  111   45
ch: 100     117  128  110  116  105  102  120  113  117  105  104  117  120  110  119  120  112  104  102  110  109  112  111  118  116  121  115  101  105  110   92   29
ch: 101     117  111  119  115  105  117  114  115  121  101  121  125  120  107  119  109  116  117  119  111  112  118  111  108  118  121  131   98  104  111  104   56
ch: 102     106  117  116  121  109  113  117  125  117  104  119  117  110  122  119  101  116  104  122  117  115   99  108  109  115  112  118   90  118  111  105   25
ch: 103     113  117  101  123  104  112  113  111  116  123  114  118  102  111  123  108  113  118  110  103  120  109  116  121  115  103  115  114  115  107  117   35
ch: 104     118  116  107  118  115  117  109  114  121  115  102  105  109  107  123  104  106  112  104   92  117  105  121  101  115  118  120  114  103  106  101   26
ch: 105     119  120  120  128  109  105  128  133  121  123  124  114  104  119  120  116  119  120  115  107  117  109  114  127  112  117  111  117  113  105  113   55
ch: 106     114  128  117  122  109  109  116  127  105  118  133  107  114  112  121  125  111  107  118  102  122  111  108  105  107  104  114  112  106  114  112   13
ch: 107     113  120  104  115  117  113  117  116  122  118  109  118  121  121  116  116  117  126  119  104  120  103  115  117  115  111  119  122  105  112  119   21
ch: 108     128  111  115  117  114  115  103  107  119  104  120  110  115  120  118  108  106  120  119  108  116  109  114  105  102  112  102  115  118  113  103   18
ch: 109     109  118  119  101  122  102  120  123  110  114  122  119  122  101  120  117  107  124  115  117  116  115  107  103  121  114  110  114  105  116  103   34
ch: 110     115  105  119  118  115  104  110  106  110  110  115  111  104  107  105  105  104  104  112  130  105  104  112  102  118  106   99  109  107  107  116   10
ch: 111     106  123  123  123  114  122  102  116  128  116  120  116  111  113  119  104  113  118  119  113  116  115  109  113  116  119  110  110  105  106  110   36
ch: 112     104  113  104  117  103  118  127  120  118  115  105  118  109  108  116  104  113  116  107  105  117  123  107  104  104  106   95  118  102  105  108    4
ch: 113     122  117  117  102  111  123  115  119  125  104  116  115  117  103  117  117  121  115  109  116  116  116  130  115  115  124  101  117   93  112   97   25
ch: 114     108  105  106  116  114  100  117  117  115  104  104  112  100  106  115  117  111  110  122  105  118  113  101  113  107  110  103  101  103  111  106    9
ch: 115     101  105  116  117  110  104  123  121  105  109  116  117  109  113  105  121  117  113  123  125  117  105  123  107  116  122  119  114  112  118  106   15
ch: 116     118  118  111  117  102  119  118  113  119  116  117  110  102  106  117   99  117  114  118  102  116  105   93   90  107  104  105  121  102  114  106    7
ch: 117     128  114  105  113  114  108  118  117  115  132  106  106  120  119  108  113  115  111  103  103  105  107  115  102  115  110  102  101  107  107  118   15
ch: 118     119  118  109  118  105  105  116  116  113  107  109  112  105  117  114  105  111  116  109  110  107  102  125  110  110  111  117  108  100  108  111    0
ch: 119     104  124  128  109  113  123  116  123  116  114  124  127  116  106  108  120  102  119  114  112  107  114  107  120  105  110  114  105  111  104   99    7
ch: 120     122  118  116  120  100  116  113  118  117  113  118  124  103  124  107  110  107  118  111  102  120  105  104  120  117  104  114  114  104  100  102    0
ch: 121     114  113  103  109  115  113  115  115  105  104  101  117  118  105  115  108  117  104  112  102  106  111  104  107  104  104  100  112   92  104  107    0
ch: 122     116  117  109  105  118  106   99  105  109  115  114  111  103  104  115  109  119  128  107  119  118  117  105  109  104  107   99  106  113  106  110    0
ch: 123     115  104  125  121  105  118  120  121  112  113  104  116  110  104  115  117  112  117  117  113  129  103  110  118  116  126  117  107  104  119  104    3
ch: 124     119  124  115  114  102  115  100  128  114  117  118  103  118   92  106  121  112  104  105  117  117  121  114  110  106  109  102  114  115  117  106    0
ch: 125     132  114  118  110  114  118  118  119  112  120  109  121  129  118  113  122  115  121  105  123  114  110  112  107  118  117  111  109  114  105  105    9
ch: 126     117  120  121  105  114  119  102  108  104  110  113  113  119  118  111  107  115  110  110  107  115  130  109   99  103  121  100  120  115   99  101    0
ch: 127     125  119  121  126  128  118  119  128  114  131  134  125  135  105  118  120  121  135  123  123  136  122  120  118  121  122  117  121  122  121  118    0
