0    31    63    163    31    0    12    32    42    48    60    128    64    30    31    27    27    88    0    121  144    244    36 
1    31    63    163    31    0    12    32    42    48    60    128    64    30    31    27    27    88    0    121  144    244    36 
2    31    63    163    31    0    12    32    42    48    60    128    64    30    31    27    27    88    0    121  144    244    36 
3    31    63    163    31    0    12    32    42    48    60    128    64    30    31    27    27    88    0    121  144    244    36 
4    31    63    163    31    0    12    32    42    48    60    128    64    30    31    27    27    88    0    121  144    244    36 
5    31    63    163    31    0    12    32    42    48    60    128    64    30    31    27    27    88    0    121  144    244    36 
6    31    63    163    31    0    12    32    42    48    60    128    64    30    31    27    27    88    0    121  144    244    36 
7    31    63    163    31    0    12    32    42    48    60    128    64    30    31    27    27    88    0    121  144    244    36 
8    31    63    163    31    0    12    32    42    48    60    128    64    30    31    27    27    88    0    121  144    244    36 
9    31    63    163    31    0    12    32    42    48    60    128    64    30    31    27    27    88    0    121  144    244    36 
10    31    63    163    31    0    12    32    42    48    60    128    64    30    31    27    27    88    0    121  144    244    36 
11    31    63    163    31    0    12    32    42    48    60    128    64    30    31    27    27    88    0    121  144    244    36 
12    31    63    163    31    0    12    32    42    48    60    128    64    30    31    27    27    88    0    121  144    244    36 
13    31    63    163    31    0    12    32    42    48    60    128    64    30    31    27    27    88    0    121  144    244    36 
14    31    63    163    31    0    12    32    42    48    60    128    64    30    31    27    27    88    0    121  144    244    36 
15    31    63    163    31    0    12    32    42    48    60    128    64    30    31    27    27    88    0    121  144    244    36 
16    31    63    163    31    0    12    32    42    48    60    128    64    30    31    27    27    88    0    121  144    244    36 
17    31    63    163    31    0    12    32    42    48    60    128    64    30    31    27    27    88    0    121  144    244    36 
18    31    63    163    31    0    12    32    42    48    60    128    64    30    31    27    27    88    0    121  144    244    36 
19    31    63    163    31    0    12    32    42    48    60    128    64    30    31    27    27    88    0    121  144    244    36 
20    31    63    163    31    0    12    32    42    48    60    128    64    30    31    27    27    88    0    121  144    244    36 
21    31    63    163    31    0    12    32    42    48    60    128    64    30    31    27    27    88    0    121  144    244    36 
22    31    63    163    31    0    12    32    42    48    60    128    64    30    31    27    27    88    0    121  144    244    36 
23    31    63    163    31    0    12    32    42    48    60    128    64    30    31    27    27    88    0    121  144    244    36 
24    31    63    163    31    0    12    32    42    48    60    128    64    30    31    27    27    88    0    121  144    244    36 
25    31    63    163    31    0    12    32    42    48    60    128    64    30    31    27    27    88    0    121  144    244    36 
26    31    63    163    31    0    12    32    42    48    60    128    64    30    31    27    27    88    0    121  144    244    36 
27    31    63    163    31    0    12    32    42    48    60    128    64    30    31    27    27    88    0    121  144    244    36 
28    31    63    163    31    0    12    32    42    48    60    128    64    30    31    27    27    88    0    121  144    244    36 
29    31    63    163    31    0    12    32    42    48    60    128    64    30    31    27    27    88    0    121  144    244    36 
30    31    63    163    31    0    12    32    42    48    60    128    64    30    31    27    27    88    0    121  144    244    36 
31    31    63    163    31    0    12    32    42    48    60    128    64    30    31    27    27    88    0    121  144    244    36 
