# TRIM CALIBRATION    FEB2_4_1    pulse_ampl_min=13    pulse_ampl_max=150    pulse_ampl_fast=10
#
ch:   0     120  131  132  131  123  116  121  117  118  135  124  135  122  123  125  120  133  128  137  130  135  131  128  131  133  126  129  119  123  135  135    0
ch:   1     120  134  125  131  130  121  109  125  121  126  128  121  139  135  134  122  117  126  134  131  135  134  132  124  135  124  135  130  137  126  139    0
ch:   2     130  123  132  136  106  134  121  128  128  131  121  133  122  120  135  133  135  125  140  134  129  143  137  135  134  138  132  129  134  121  124    2
ch:   3     138  119  121  134  123  128  123  130  119  122  124  125  120  122  123  122  130  104  122  137  147  131  135  129  135  138  144  131  133  138  135    5
ch:   4     114  117  131  117  128  121  117  126  128  125  130  121  131  131  131  124  124  126  133  136  135  107  133  134  121  134  132  130  139  135  130    4
ch:   5     123  124  117  122  115  128  122  128  126  121  134  138  120  121  131  134  133  135  126  119  135  129  132  130  122  138  137  132  136  148  134    8
ch:   6     130  127  130  124  125  117  122  138  132  132  123  117  123  120  129  126  128  134  121  133  129  138  131  124  130  138  139  123  135  140  135    8
ch:   7     114  123  134  130  117  132  130  117  121  118  138  119  121  131  148  119  132  131  129  130  124  135  117  139  128  143  132  121  138  137  145    8
ch:   8     123  122  134  118  131  121  123  129  117  124  129  132  131  124  119  124  133  132  138  119  124  120  132  131  135  137  132  137  135  139  137   23
ch:   9     129  128  124  121  121  129  121  131  109  121  135  126  138  132  131  127  124  126  132  132  147  138  130  124  135  131  135  126  130  134  135    8
ch:  10     129  121  120  131  116  121  134  120  126  124  138  131  123  131  134  117  122  133  124  131  124  132  131  131  118  133  134  130  134  122  139    4
ch:  11     121  128  119  130  128  124  117  124  121  125  130  124  135  133  132  131  130  124  135  137  129  137  118  130  126  151  140  124  135  138  135    6
ch:  12     129  122  124  143  123  131  133  132  132  116  134  118  131  124  138  126  137  138  128  138  138  131  131  132  134  131  138  135  135  135  128   20
ch:  13     118  131  120  115  130  134  134  120  124  120  129  123  131  129  121  122  145  134  134  124  132  140  132  135  131  138  149  126  134  130  138   19
ch:  14     117  130  122  124  124  128  120  132  132  124  117  131  121  132  134  138  126  120  126  134  128  135  127  132  138  129  121  142  138  132  138   15
ch:  15     119  118  121  119  121  128  137  138  121  133  119  119  121  117  128  135  134  132  135  124  137  129  135  138  134  134  129  124  132  131  134   22
ch:  16     123  125  117  117  128  119  132  132  135  124  129  125  121  118  135  135  134  120  130  135  132  121  137  123  126  124  139  131  135  131  138   28
ch:  17     130  106  122  118  124  121  127  129  121  147  121  130  135  124  134  124  135  120  119  122  130  139  131  135  132  132  137  135  137  138  135   25
ch:  18     121  133  126  133  125  115  123  128  131  131  130  130  121  121  129  131  128  134  130  130  131  122  128  132  134  134  131  137  138  124  136   24
ch:  19     120  133  121  133  131  129  109  124  131  121  124  123  130  134  134  132  130  134  138  121  131  135  132  122  131  131  147  129  122  138  134   23
ch:  20     129  117  124  118  131  131  126  134  118  130  134  131  132  134  135  125  128  134  125  130  132  135  135  135  149  137  137  141  125  131  135   34
ch:  21     122  126  128  129  123  130  129  129  135  131  134  121  134  135  122  125  139  136  149  134  134  131  135  138  135  131  135  128  121  132  135   27
ch:  22     120  104  126  122  122  138  120  131  134  148  120  130  117  131  121  134  134  124  121  133  130  132  134  121  137  125  135  138  148  134  135   33
ch:  23     117  127  121  124  105  121  123  132  128  135  139  126  131  136  119  135  130  126  128  132  134  134  122  122  124  132  133  131  149  147  134   29
ch:  24     116  121  131  132  134  132  133  128  122  131  132  124  134  134  134  132  135  137  139  134  128  134  128  135  129  140  132  128  132  136  139   23
ch:  25     118  133  130  123  121  129  125  126  130  128  138  137  134  126  147  121  130  129  130  132  131  124  130  135  138  128  132  134  138  133  130   34
ch:  26     117  124  129  119  119  131  121  124  134  121  134  133  128  135  131  117  131  128  135  121  128  135  135  138  126  137  122  128  146  137  132   37
ch:  27     122  123  131  126  133  123  124  137  113  122  131  124  131  121  134  120  135  131  130  124  134  140  135  125  135  138  149  138  131  135  129   35
ch:  28     121  134  122  130  121  123  135  121  132  129  117  119  137  136  122  131  137  135  122  134  130  137  115  125  147  130  138  127  132  132  135   36
ch:  29     121  122  124  120  124  121  124  120  116  122  139  128  137  129  120  129  124  121  126  124  130  131  138  126  134  136  126  140  131  130  131   32
ch:  30     118  122  124  124  131  120  121  136  135  127  122  118  122  134  121  120  138  135  126  140  131  131  130  129  134  138  147  132  124  123  137   40
ch:  31     116  130  123  123  131  128  134  138  132  135  134  120  121  135  121  135  122  131  134  135  137  134  147  135  142  130  132  132  133  147  137   37
ch:  32     128  132  117  121  121  111  130  124  131  119  117  131  133  128  138  124  124  135  138  130  131  135  140  135  121  134  139  139  135  146  131   28
ch:  33     134  128  124  116  136  120  117  131  131  131  123  124  131  125  124  139  127  131  129  131  126  134  130  139  148  138  135  131  147  137  142   42
ch:  34     122  128  134  124  141  123  129  124  105  124  131  120  131  120  131  128  146  123  144  133  126  131  132  134  142  129  132  137  134  135  131   36
ch:  35     129  122  119  120  131  128  119  124  124  122  132  121  131  134  124  130  118  122  117  132  135  135  124  134  129  152  143  137  135  134  139   27
ch:  36     123  112  121  137  119  133  118  132  134  133  134  120  131  131  135  134  117  133  131  134  130  135  128  129  131  129  138  128  140  146  130   42
ch:  37     123  130  131  120  131  123  120  130  129  119  121  131  129  137  117  133  145  133  131  139  124  121  138  118  134  138  134  138  135  131  135   42
ch:  38     123  117  117  117  134  136  132  128  128  135  132  135  130  121  131  120  135  129  138  140  124  143  124  142  123  135  131  132  134  139  131   25
ch:  39     106  115  119  131  134  130  123  131  124  130  131  124  118  124  122  119  120  134  128  134  129  131  123  139  131  150  121  136  129  135  135   39
ch:  40     124  132  120  120  123  120  131  131  121  134  122  120  122  131  120  120  127  130  134  127  120  135  128  124  131  147  137  128  140  147  135   53
ch:  41     115  123  137  121  118  128  123  122  133  126  135  128  134  137  131  124  132  148  121  135  135  139  120  127  135  131  147  134  138  135  145   48
ch:  42     130  133  128  134  123  117  134  137  124  128  126  124  120  114  125  131  131  134  130  138  134  132  132  131  130  147  132  141  139  127  138   39
ch:  43     120  128  134  115  129  123  117  135  124  119  129  135  125  132  133  121  135  137  134  135  124  137  126  135  137  125  137  131  134  141  131   48
ch:  44     123  126  131  128  136  124  131  134  121  131  115  139  135  147  121  137  134  121  128  131  134  137  139  131  137  146  122  138  146  137  138   46
ch:  45     120  121  134  121  127  134  123  125  126  122  134  128  131  128  138  134  127  126  134  135  123  124  124  137  132  124  142  137  122  148  142   42
ch:  46     116  137  127  131  123  122  135  131  122  117  134  132  134  130  134  131  131  130  131  147  135  131  145  134  131  124  124  124  128  131  135   33
ch:  47     119  118  130  134  128  123  132  135  135  124  117  137  123  129  129  132  129  121  137  128  130  134  141  128  133  134  123  134  140  138  130   42
ch:  48     131  123  125  133  121  132  139  118  118  120  131  135  128  135  121  135  131  119  134  131  131  138  135  131  137  131  141  132  135  124  131   36
ch:  49     128  119  131  121  133  133  129  118  137  121  132  124  133  132  135  134  134  139  129  135  134  138  135  134  146  131  135  134  139  146  132   38
ch:  50     123  130  117  116  121  119  119  119  117  115  135  134  121  134  131  131  130  135  123  135  122  123  118  137  126  140  138  131  122  132  147   32
ch:  51     116  135  134  133  128  135  125  135  132  129  117  131  112  125  129  134  126  135  135  135  138  132  133  136  135  130  147  135  147  138  135   45
ch:  52     123  120  134  137  126  118  128  120  131  135  121  121  121  134  130  135  126  121  120  128  137  134  133  125  119  131  132  124  137  137  132   51
ch:  53     128  127  124  121  121  115  137  126  141  122  131  131  121  131  132  114  127  124  134  148  118  124  132  119  131  131  145  128  134  129  135    0
ch:  54     121  123  132  124  123  123  128  131  135  132  135  124  124  129  134  134  132  123  137  121  135  131  138  124  124  135  139  134  135  137  124   41
ch:  55     133  124  119  120  122  123  123  120  119  117  135  131  122  134  132  135  134  124  130  135  130  138  124  131  131  143  143  138  137  131  134   49
ch:  56     116  117  131  129  122  117  130  126  117  138  134  137  129  135  126  133  131  130  134  132  129  124  132  125  120  129  134  134  138  148  135   48
ch:  57     116  128  126  128  126  133  125  124  135  132  132  130  132  134  131  119  129  132  138  125  134  131  148  132  134  137  138  123  131  138  135   43
ch:  58     134  114  131  120  134  137  127  132  139  122  129  121  124  132  130  120  135  124  134  132  135  128  140  135  135  135  138  132  141  141  134   45
ch:  59     128  120  124  126  119  128  138  135  128  137  132  134  123  141  132  133  145  135  134  129  146  137  148  137  142  134  138  141  141  151  124   44
ch:  60     122  134  124  113  131  118  123  134  128  121  132  132  131  124  131  131  130  130  146  135  118  131  131  147  119  131  137  135  125  135  128   42
ch:  61     123  128  132  120  133  132  135  128  131  128  132  135  138  132  125  137  131  145  139  146  134  135  148  124  146  138  149  136  138  128  146   41
ch:  62     118  119  124  131  123  113  130  124  127  124  124  121  130  132  121  118  135  136  120  135  134  139  139  137  132  139  145  134  148  137  134   38
ch:  63     117  122  124  122  117  131  131  131  126  128  125  139  132  132  137  135  122  134  128  139  138  139  134  138  140  139  133  134  138  150  141   45
ch:  64     122  122  117  133  137  134  131  132  135  131  132  134  122  123  134  123  139  130  137  139  120  137  129  133  129  132  139  135  134  136  135   47
ch:  65     126  117  131  123  121  124  123  137  137  124  121  125  133  116  134  129  143  128  128  145  123  134  140  121  144  129  137  132  128  134  142   40
ch:  66     122  117  119  117  126  130  135  131  127  129  132  131  133  128  130  118  124  136  122  138  119  132  138  124  122  131  134  122  135  138  130   52
ch:  67     124  122  135  122  131  124  132  121  131  122  134  121  127  122  131  134  131  134  122  127  124  130  135  124  121  138  135  127  127  134  132    0
ch:  68     130  117  137  118  128  126  123  128  124  129  124  129  135  129  138  131  132  120  130  138  135  141  133  139  135  126  134  134  135  138  146   33
ch:  69     128  119  111  121  130  123  134  132  134  128  130  121  138  131  148  135  128  124  134  134  135  147  126  129  138  130  135  138  122  146  138   40
ch:  70     122  126  124  118  123  128  124  121  135  124  118  127  133  137  124  124  134  131  134  138  124  138  132  129  140  139  132  139  131  126  137   42
ch:  71     136  122  121  131  133  122  132  125  122  121  137  129  137  137  149  137  136  132  131  135  134  138  135  131  135  137  138  149  141  135  132   31
ch:  72     121  133  121  128  123  121  128  132  130  124  124  124  131  129  134  124  130  132  133  140  137  129  132  138  127  139  124  136  128  144  135   47
ch:  73     128  133  133  137  121  120  134  119  129  135  129  136  134  132  148  134  124  132  134  147  121  135  145  137  141  135  138  138  135  130  138   33
ch:  74     121  132  144  131  133  135  125  130  126  136  124  130  122  135  137  135  132  134  127  136  153  124  135  131  137  118  132  134  137  138  135   53
ch:  75     121  116  120  121  130  128  134  124  122  131  131  134  131  137  124  135  136  121  130  131  138  134  130  134  138  144  128  135  138  138  135   45
ch:  76     124  133  114  121  121  115  117  130  135  130  131  122  129  121  126  123  131  120  132  128  135  131  134  134  131  131  145  131  138  135  137   56
ch:  77     123  128  128  119  133  124  123  134  130  122  124  120  129  133  121  134  124  138  132  131  134  133  129  134  138  137  143  137  138  137  135   41
ch:  78     134  117  118  109  118  131  130  134  125  120  135  130  132  123  131  124  124  122  140  135  124  135  138  138  132  134  141  121  138  130  132   33
ch:  79     117  128  122  116  121  130  126  132  131  130  131  135  144  136  128  124  130  120  140  124  135  139  134  134  135  145  136  139  145  130  137   44
ch:  80     134  129  124  119  117  119  128  129  138  128  118  132  126  132  135  136  124  131  131  133  147  124  128  135  132  135  125  131  135  138  131   41
ch:  81     134  127  140  128  134  128  127  135  121  135  124  125  137  135  145  138  135  125  117  133  148  132  140  118  128  123  135  146  134  145  148   37
ch:  82     129  119  133  113  117  112  119  129  132  131  121  130  135  131  129  139  122  131  141  131  133  134  131  122  122  135  130  134  151  138  124   36
ch:  83     130  118  123  132  130  135  128  122  120  135  130  139  131  128  129  124  131  134  123  127  129  152  148  134  138  132  138  139  135  141  134   30
ch:  84     123  133  124  124  126  121  134  129  115  129  131  121  121  137  128  134  132  131  117  147  126  135  138  131  131  128  132  121  121  131  135   36
ch:  85     131  130  134  118  122  128  121  125  126  127  122  126  133  131  127  120  133  132  132  126  123  134  137  148  121  131  141  135  147  134  137   43
ch:  86     117  118  124  122  121  126  118  133  130  126  139  130  125  120  123  117  122  134  128  143  134  125  129  145  142  140  128  137  126  134  120   28
ch:  87     123  116  122  115  118  119  136  135  130  130  131  118  126  123  137  128  135  130  129  135  134  147  136  131  138  137  128  129  130  134  142   29
ch:  88     123  117  137  132  137  133  125  131  124  131  135  130  140  124  131  128  119  128  134  132  124  134  139  139  126  139  134  133  135  135  137   30
ch:  89     114  113  121  121  122  130  131  131  117  119  124  135  135  131  134  131  129  132  135  135  137  124  135  121  132  130  131  134  135  135  138   43
ch:  90     123  117  128  120  116  120  123  122  134  135  117  122  122  122  131  124  120  132  134  144  131  137  137  133  131  146  133  149  137  131  134   30
ch:  91     117  128  129  121  118  105  118  120  134  133  129  138  133  132  134  126  131  132  130  124  133  131  153  135  147  132  131  137  139  135  138   29
ch:  92     126  132  138  121  132  131  132  123  127  115  132  124  121  131  134  137  125  121  128  137  132  132  134  135  123  134  134  133  135  131  131   40
ch:  93     120  123  131  135  134  129  132  121  113  131  121  123  146  130  120  138  134  133  138  127  140  135  121  137  135  135  138  133  132  132  132   25
ch:  94     122  134  132  121  121  134  134  131  131  131  122  131  134  135  137  128  128  133  124  132  147  134  137  134  134  139  134  133  136  134  132   40
ch:  95     119  123  126  132  123  124  123  117  124  139  134  135  138  135  128  127  129  135  134  130  135  131  134  135  129  137  132  119  137  130  135   33
ch:  96     115  128  123  133  129  132  131  121  116  119  131  122  137  138  148  128  121  137  134  131  137  129  129  132  130  129  137  147  137  122  134   24
ch:  97     130  130  121  131  130  120  131  126  128  131  128  132  120  134  129  121  133  130  131  135  129  132  132  141  135  135  134  131  141  130  129   36
ch:  98     119  124  121  136  131  130  120  131  126  128  122  134  132  136  124  135  117  118  136  128  119  135  129  132  126  135  135  130  139  129  134   25
ch:  99     121  128  124  117  134  136  120  120  117  132  134  128  121  130  131  143  138  124  130  126  138  135  139  134  132  134  131  135  130  130  148   29
ch: 100     120  128  120  134  133  128  118  133  124  131  130  133  122  130  138  131  134  135  132  122  146  134  137  129  135  132  132  134  151  130  137   29
ch: 101     123  119  131  131  138  120  131  131  115  118  131  117  124  134  131  128  134  134  130  134  135  134  135  130  131  131  139  130  131  133  138   32
ch: 102     121  118  130  133  123  150  120  129  120  126  128  119  129  118  125  121  124  131  132  132  134  131  121  148  135  138  147  134  139  115  131   29
ch: 103     117  113  134  127  130  133  128  122  123  138  128  131  118  125  135  131  126  134  124  130  139  122  128  137  134  132  138  131  139  137  138   29
ch: 104     123  132  109  119  127  119  130  121  138  129  134  132  134  129  137  128  124  131  131  128  137  126  141  135  132  137  131  132  133  134  133   36
ch: 105     128  140  124  129  129  137  127  132  122  138  132  131  134  118  131  127  130  148  127  132  135  134  130  131  137  121  139  124  137  140  136   26
ch: 106     133  116  127  124  138  115  130  131  134  128  135  130  122  129  121  139  145  120  128  117  131  135  127  124  135  131  137  129  135  122  133   30
ch: 107     122  114  128  129  121  123  131  135  122  131  122  132  118  134  131  134  134  138  138  132  128  133  134  133  130  121  142  143  135  134  134   22
ch: 108     123  121  133  118  134  128  125  128  130  128  133  124  135  132  131  132  124  119  131  126  131  134  137  131  134  139  129  131  132  128  135   41
ch: 109     125  117  122  119  128  119  123  123  131  139  130  134  128  132  121  120  130  132  137  134  147  134  121  146  131  138  153  124  145  128  130   22
ch: 110     123  128  129  118  118  122  120  124  124  129  132  128  130  137  132  122  133  128  128  138  134  129  137  135  132  138  135  135  138  137  138   25
ch: 111     121  128  132  122  129  123  137  122  136  118  135  138  128  121  117  132  134  130  120  137  135  130  136  139  127  124  130  135  128  134  138   26
ch: 112     114  119  123  112  133  123  122  130  117  127  120  147  128  131  134  118  132  138  138  146  137  141  141  135  135  134  134  145  129  138  132   19
ch: 113     124  128  124  122  128  128  131  135  123  121  135  122  138  125  121  137  138  133  124  117  122  135  127  126  141  151  130  139  135  134  130   18
ch: 114     123  130  124  123  130  130  114  134  122  131  134  122  129  134  126  124  134  148  131  135  135  134  124  134  134  133  134  129  135  124  138   20
ch: 115     122  122  138  124  130  116  135  135  135  125  118  138  133  130  137  144  126  138  126  128  121  138  137  132  134  126  143  133  135  124  135   29
ch: 116     121  120  119  124  135  131  131  117  135  130  134  122  125  127  131  121  122  131  123  135  120  134  134  137  139  138  121  131  136  136  129   24
ch: 117     122  123  111  120  119  128  131  122  123  127  120  128  132  129  135  143  122  127  132  137  137  137  149  135  128  121  130  131  134  131  138   26
ch: 118     130  128  128  134  118  124  121  131  124  126  124  122  131  120  131  134  131  110  134  138  122  129  138  135  129  137  133  137  132  129  130   14
ch: 119     121  117  123  118  132  132  123  121  135  134  132  123  126  118  131  138  138  122  135  128  122  131  135  134  130  138  133  133  143  125  130   11
ch: 120     118  121  134  124  131  122  131  124  119  135  131  133  132  139  137  132  132  124  123  128  132  130  146  132  145  135  131  137  138  132  129    8
ch: 121     123  128  117  122  129  128  125  129  125  120  124  137  134  135  124  134  135  133  131  132  122  135  134  135  132  139  137  138  148  127  139   16
ch: 122     116  117  117  119  115  130  124  122  122  132  124  135  120  128  132  129  133  124  121  135  130  121  134  131  141  135  131  120  124  132  138   15
ch: 123     123  122  119  130  133  123  126  125  131  142  110  126  124  131  124  127  122  135  133  135  138  132  138  129  131  140  141  135  129  141  138   13
ch: 124     117  117  128  124  121  139  126  125  120  129  123  129  135  138  117  134  131  131  129  136  131  125  130  135  135  134  132  138  132  137  121    8
ch: 125     123  128  122  131  133  114  128  134  134  121  124  131  129  130  124  135  132  128  122  126  122  133  124  120  148  146  142  134  145  135  134    8
ch: 126     127  123  109  133  117  123  139  126  132  132  130  135  138  123  118  138  135  130  131  132  122  139  124  133  131  135  137  124  140  138  121    9
ch: 127     127  129  123  121  132  145  135  121  131  135  128  132  122  135  133  137  137  126  136  141  146  131  138  136  140  153  132  140  134  145  140    8
