# TRIM CALIBRATION    FEB2_4_0    pulse_ampl_min=13    pulse_ampl_max=150    pulse_ampl_fast=10
#
ch:   0     116  106  115  116  114  107  121  119  126  116  116  118  117  121  114  115  118  122  119  129  112  121  120  116  116  128  119  128  117  120  120   11
ch:   1     118  106  123  112  110  122  117  113  102  124  121  120  114  121  118  121  117  130  117  122  127  118  119  124  116  117  134  107  114  130  108   16
ch:   2     108  115  115  113  127  101  117  118  123  113  122  117  118  117  118  116  116  127  110  117  121  113  122  124  128  120  120  128  108  124  134   12
ch:   3     102  115  106  107  121  119  120  118  116  121  120  115  117  132  120  105  118  115  122  121  120  108  122  116  128  121  112  122  116  116  128   18
ch:   4     119  119  128  107  115   91  123  129  119  120  103  129  120  117  104  121  117  117  124  126  122  117  118  123  122  117  115  121  121  128  114    9
ch:   5     115  117  115  114   99  117  122  118  118  119  126  118  115  131  124  121  111  127  108  115  117  121  115  123  124  121  119  119  121  125  121   17
ch:   6     118  115  117  116  107  125  114  119  113  117  107  118  108  113  120  117  121  122  119  129  106  124  118  119  114  117  128  113  122  119  132   18
ch:   7     117  113  126  104  121  117  118  115  118  104  116  105  120  120  120  122  124  120  117  132  119  122  121  120  117  129  123  115  117  112  121   20
ch:   8     113  114  118  119  123  105  124  114  130  118  117  113  120  113  119  117  112  126  121  120  117  131  123  120  120  107  126  122  116  135  121    7
ch:   9     119  123  117  122  119  123  116  120  126  118  120  119  120  116  115  118  116  117  121  102  121  123  119  105  121  118  118  113  117  121  121   16
ch:  10     108  117  121  120  107  126  118  115  116  114  121  107  120  130  111  116  128  113  120  121  118  117  116  118  115  109  122  117  123  118  116   32
ch:  11     118  114  118  117  118  105  119  121  115  117  116  117  123  115  122  105  115  107  120  118  120  116  116  122  115  118  114  122  121  118  125   24
ch:  12     120  117  106  122  118  129  103  115  121  123  122  115  107  105  117  127  119  117  122  129  118  122  119  115  106  118  134  122  115  131  131   30
ch:  13     102  120  121  115  116  115  124  121  121  121  121  119  120  117  122  119  106  109  121  130  132  118  116  118  124  120  112  121  116  119  119   24
ch:  14     116  116  115  118  107  113  110  121  119  104  117  104  116  112  116  124  120  107  117  120  117  126  118  104  121  115  117  121  113  122  126   19
ch:  15     122  116  115  114  119  115  115  117  115  114  115  120  130  121  117  131  128  120  114  117  117  125  121  124  114  115  105  116  119  118  120   27
ch:  16     118  117  115  116  117  123  120  105  121  117  121  126  105  121  131  120  116  126  127  117  116  119  124  123  119  121  133  115  121  113  117   25
ch:  17     116  117  126  108  120  113  114  124  128  117  117  114  119  103  121  120  115  122  115  116  116  105  100  116  117  124  117  130  126  128  119   18
ch:  18     105  122  117  105  117  115  103  116  107  112  124  118  125  121  105  118  119  107  121  103  112  123  117  124  107  129  120  124  116  108  120   18
ch:  19     123  121  115  117  117  123  118  105  115  129  112  125  107  110   96  117  122  126  124  117  116  120  113  120  118  118  130  119  127  113  121   23
ch:  20     127  120  106  126  115  118  118  107  117  118  112  116  124  105  117  122  122   99  124  122  121  111  116  118  124  116  117  107  108  123  114   40
ch:  21     119  122  119  118  120  115  118  120  131  116  121  112  115  117  114  122  108  121  119  116  124  116  120  122  107  117  126  118  115  124  119   37
ch:  22     123  118  119  118  105  120  119  114  109  122  132  117  115  116  114  126  122  119  114  117  123  104  116  120  119  120  119  122  122  118  113   19
ch:  23     116  117  118  121  126  118  117  114  122  118  112  116  121  120  121  120  116  116  112  118  118  131  118  117  128  119  127  117  117  124  121   32
ch:  24     116  119  116  119  119  106  113  114  124  121  118  113  129  116  116  124  122  132  121  122  118  119  129  113  108  123  124  117  119  115  126   29
ch:  25     105  123  121  126  117  116  120  106  120  116  121  126  120  108  118  117  117  110  117  118  115  124  124  117  118  116  113  119  129  118  118   18
ch:  26     128  128  128  128  128  128  128  128  128  128  128  128  128   91  128  115  106  100  118  111  115  122  119  115  115  118  131  120  125  124  107    0
ch:  27     128  128  128  128  128  128  128  128  128  128  128  128  128  128  128  128  128  128  128  128  128  128  128  128  128  128  128  128  128  128  128    0
ch:  28     128  128  128  128  128  128  128  128  128  128  128  128  128  128  128  128  128  128  128  128  128  128  128  128  128  128  128  128  128  128  128    0
ch:  29     106  104  112  115  126  106  121  135  113  105  123  121  111  115  112  114  112  115  117  118  120  117  112  121  117  116  124  115  125  121  122    0
ch:  30     115  116  116  116  114  105  115  121  131  121  114  100  123  120  116  118  115  114  117  124  123  120  114  113  119  124  118  120  117  112  121   35
ch:  31     116  117  118  119  130  131  124  121  117  114  107  104  125  120  121  117  113  118  113  106  121  124  117  119  113  119  119  116  126  121  117   38
ch:  32     105  103  117  118  121  105  103  116  107  121  106  117  116  121  115  119  122  116  124  131  118  122  124  118  118  106  124  119  126  123  118   29
ch:  33     110  112  132  113  121  103  112  113  113  116  117  113  121  114  117  114  120  123  112  106  119  117  116  116  126  124  117  120  117  116  124    5
ch:  34     117  116  120  115  126  104  122  112  118  128  124  110  121  115  119  123  118  105  117  116  116  117  107  119  112  120  121  120  107  107  125   27
ch:  35     105  117  108   98  115  105  117  124  109  115  119  117  123  108  119  119  116  121  118  117  119  120  124  125  118  117  125  122  127  119  122   31
ch:  36     118  117  117  119  124  117  122  121  121  118  120  124  101  112  130  124  125  128  117  128  119  121  121  122  120  120  123  124  119  115  113   37
ch:  37     122  128  118  116  115  119  120  121  108  121  116  125  121  125  133  121  113  128  117  124  115  115  124  118  130  120  119  117  118  117  129   46
ch:  38     117  116  116  115  123  126  106  117  118  112  117  116  109  103  105  119  121  121  113  117  117  104  124  115  108  120  124  121  116  119  117   42
ch:  39     105  117  118  115  115  104  114  130  120  119  107  126  119  118  117  117  120  124  115  121  121  118  123  121  128  128  117  120  121  120  118   36
ch:  40     104  117  121  117  123  114  121  116  120  115  125  120  114  121  134  121  121  119  124  123  121  124  121  118  121  122  124  107  126  133  119   39
ch:  41     110  117  116  118  113  121  105  116  125  128  124  119  106  124  118  106  120  120  117  124  120  119  124  119  112  120  126  129  115  118  115   34
ch:  42     105  116  108  116  123  126  105  117  110  117  107  118  126  119  111  120  117  119  119  107  121  105  117  130  118  121  111  112  116  107  118   35
ch:  43     119  108  117  108  115  115  123  118  118  131  121  115  119  109  134  113  120  117  124  111  119  123  119  125  118  124  121  118  119  110  127   36
ch:  44     128  125  121  126  117   99  117  120  120  108  128  113  122  121  121  124  115  126  117  107  118  120  116  121  117  118  119  114  110  109  124   30
ch:  45     115  128  115  119  121  104  114  120  122  115  115  118  108  119  123  122  121  118  117  121  118  115  115  113  127  128  109  123  119  106  121   36
ch:  46     124  105  118  120  125  117  127  121  107  116  120  118  117  119  128  114  117  121  119  128  116  128  118  120  122  122  117  119  122  118  114   21
ch:  47     118  126  119  105  113  105  121  121  116  124  124  121  120  116  131  106  105  106  118  121  128  118  132  124  120  118  118  123  116  132  115   30
ch:  48     117  119  122  116  116  120  123  125  117  117  125  124  124  116  118  115  107  100  105  117  116  118  116  133  119  122  120  114  108  132  104   38
ch:  49     106  133  119  112  115  131  123  121  107  110  117  130  124  122  112  121  103  112  105  112  130  122  114  116  126  115  120  120  116  121  117   36
ch:  50     119  116  121  121  123  113  117  114  126  106  124  115  122  130  121  121  118  121  122  118  107  130  115  117  120  107  119  116  121  121  116   43
ch:  51     122  117  118  119  114  120  119  119  121  116  120  117  119  130  120  123  113  122  119  131  112  116  124  122  107  126  103  130  118  123  121   35
ch:  52     119  113  112  123  117  105  121  117  115  122  121  117  120  118  119  118  118  121  122  120  121  123  119  113  119  124  124  105  121  116  132   36
ch:  53     115  115  116  118  119  124  104  126  119  118  114  121  121  110  114  122  120  117  107  103  118  115  124  118  115  114  119  115  115  125  120   33
ch:  54     117  106  119  119  116  122  121  107  124  121  123  117  132  113  104  117  120  123  109  120  115  117  129  112  124  117  112  116  120  120  118   31
ch:  55     117  127  121  111  109  117  117  106  122  124  105  121  119  120  116  117  124  118  127  121  123  118  119  120  107  120  117  122  129  137  117   42
ch:  56     131  123  119  126  123  124  103  118  119  104  119  119  117  117  119  117  122  122  123  120  121  121  121  116  122  127  121  118  121  131  121   37
ch:  57     117  119  119  118  123  118  119  118  121  117  111  117  121  124  126  113  124  116  130  126  112  104  120  124  115  124  124  123  118  115  118   44
ch:  58     118  131  105  131  115  119  117  118  115  127  121  119  102  120   94  104  118  116  126  115  114  123  118  122  122  119  120  117  105  124  120   43
ch:  59     111  117  123  119  122  123  123  108  115  120  127  122  112  124  121  116  109  122  119  109  115  122  118  127  107  121  112  119  118  120  121   35
ch:  60     120  100  129  120  123  120  124  118  124  122  123  126  120  118  124  110  118  129  121  117  129  118  111  125  121  126  124  119  118  128  125   52
ch:  61     118  117   99  118  116  116  131  122  119  115  125  117  125  119  116  119  104  123  121  123  118  116  124  119  120  117  121  118  118  122  120   47
ch:  62     119  106  121  123  118  118  106  121  117  114   92  121  117  115  117  101  118  102  121  127  118  116  124  127  119  117  121  123  118  122  115   46
ch:  63     117  118  118  115  118  120  106  115  112  117  121  126  111  118  114  118  132  129  115  126  122  106  117  129  117  107  124  109  113  122  127   39
ch:  64     117  129  132  115  105  105  118  124  121  122  119  117  107  131  131  124  109  116  117  120  112  117  116  124  122  119  116  115  115  121  124   35
ch:  65     129  124  117  121  128  123   94  119  120  121  105  113  107  110  117  115  113  121  118  122  125  115  121  117  134  124  128  123  128  124  128   37
ch:  66     126  123  124  108  113  124  119  104  115  104  117  119  117  117  118  115  121  117  117  121  109  124  124  124  124  122  119  131  131  121  124   41
ch:  67     115  107  104  115  123  115  105  113  117  124  118  102  104  117  104  123  117  119  114  121  113  122  130  119  117  124  134  116  120  123  123   33
ch:  68     121  124  101  118  116  121  113  115  128  116  121  127  118  127  121  119  126  131  117  122  117  124  122  120  120  115  118  119  117  121  117   35
ch:  69     114  118  120  118  116  117  130  122  120  120  119  118  114  120  123  122  116  114  124  119  124  117  122  121  118  117  110  118  122  120  122   49
ch:  70     116  115  113  125  118  116  121  118  115  115  108  117  113  114  124  118  108  105  123  116  120  120  124  116  116  118  120  121  106  113  121   30
ch:  71     106  117  115  121  117  122  120  121  115  127  111  121  106  117  118  124  118  121  136  126  115  128  116  118  124  107  122  117  124  121  115   46
ch:  72     108  113  122  122  118  128  116  128  116  120  116  118  133  117  131  115  128  119  115  117  117  111  122  128  123  128  119  117  121  107  116   37
ch:  73     116  107  117  116  115  126  104  120  115  123  117  106  118  123  124  125  119  117  119  124  121  122  117  121  130  120  121  117  129  124  118   34
ch:  74     115  119  121  120  122  124  114  118  111  106  124  114  104  104  115  114  112  116  119  122  113  124  111  112  124  117  120  116  106  105  116   40
ch:  75     108  119  121  126  124  129  116  121  115  117  120  114  106  117  124  117  115  121  116  130  120  116  123  116  118  121  121  129  116  121  119   42
ch:  76     115  104  105  124  119  106  118  121  125  120  105  116  121  118  113  129  112  120  102  126  117  120  121  117  123  121  131  117  129  121  118   59
ch:  77     119  126  123  114  129  130  109  105  116  119  113  124  130  108  118  131  108  114  119  115  116  123  130  117  120  119  103  118  115  127  121   49
ch:  78     118  117  108  115  115  109  105  115  115  114  119  104  116  119  126  117  113  123  120  112  122  131  121  116  122  120  111  118  110  111  120   32
ch:  79     117  117  105  108  111  111  114  119  127  117  119  115  115  124  116  117  124  115  129  126  126  115  123  117  107  128  113  128  120  118  127   42
ch:  80     122  122  113  114  104  120  110  115  116  112  126  124  119  119  120  130  129  120  121  124  122  106  118  105  117  121  121  118  121  117  121   38
ch:  81     119  111  119  122  111  118  123  119  115  119  118  107  115  122  118  105  115  118  118  123  121  118  132  120  122  127  118  116  122  124  126   36
ch:  82     119  122  106  114  120  107  116  105  122  113  130  120  120  111  117  104  121  113  121  120  102  118  114  112  122  122  115  128  115  126  123   31
ch:  83     126  119  120  114  124  106  123  121  129  109  129  110  115  124  108  121  122  124  120  107  126  117  130  127  115  117  121  117  119  103  118   47
ch:  84     108  123  122  123  118  128  121  113  116  123  109  126  124  110  111  127  118  128  116  121  125  118  120  116  123  128  133  130  112  118  124   51
ch:  85     129  119  118  129  108  118  122  119  122  131   93  124  118  124  118  124  122  108  121  121  124  111  112  115  121  118  118  120  117  114  115   37
ch:  86     120  113  115  122  120  108  122  105  119  122  120  121  116  129  105  104  121  120  107  117  119  117  122  116  123  114  121  119  121  118  119   24
ch:  87     119  114  116  118  122  123  115  120  117  122  115  132  118  116  106  106  117  121  121  117  124  131  105  121  125  124  123  107  119  108  116   39
ch:  88     117  119  112  123  118  128  119  118  117  120  121  124  118  122  123  128  107  113  120  129  112  119  135  126  113  127  135  106  122  129  130   34
ch:  89     107  107  116  118  104  131  134  117  113  123  118  106  120  124  114  112  116  125  121  107  126  115  120  122  126  124  114  117  125  119  116   30
ch:  90     117  117  117  121  108  125  111  121  120  117  117  107  131  116  115  121  118  102  121  115  118  119  117  104  112  120  112  105  124  121  118   41
ch:  91     107  119  117  108  117  118  128  124  125  116  120  114  116  124  120  122  121  115  116  121  121  116  118  126  119  122  120  118  127  127  136   37
ch:  92     107  128  114  115  117  124  106  119  117  117  114  115  117  116  116  122  121  117  122  121  107  123  104  111  108  121  121  124  120  119  111   28
ch:  93     104  106  119  121  118  129  118  131  106  104  120  127  124  117  121  119  114  121  117  114  106  122  117  116  116  124  108  121  104  117  112   33
ch:  94     114  118  121  121  126  117  117  122  121  119  104  119  121  127  105  119  118  118  121  116  128  114  114  125  115  123  118  126  115  121  120   34
ch:  95     119  113  117  113  126  123  124  113  122  119  116  122  125  117  131  122  117  119  115  118  118  116  117  109  124  121  129  121  119  120  121   30
ch:  96     118  114  121  120  125  124  117  117  117  126  110  115  121  124  119  120  108  117  124  120  124  116  123  117  122  108  112  121  128  127  120   34
ch:  97     107  106  116  120  123  119  117  129  107  115  112  124  120  117  117  125  117  117  106  114  127  119  125  113  106  117  121  114  118  127  124   32
ch:  98     105  112  119  124  104  119  117  117  118  124  119  104  121  121  117  112  124  115  118  123  112  115  121  114  119  113  112  135  118  118  112   29
ch:  99     129  118  118  105  119  122  123  121  118  120  124  105  112  117  115  121  124  104  120  115  120  128  118  120  121  120  120  120  119  125  118   33
ch: 100     107  124  104  122  112  118  121  104  124  123  117  124  112  100  109  129  118  118  119  123  118  121  123  125  122  117  124  112  107  124  121   27
ch: 101     116  128  114  117  116  118  128  116  114  117  132  114  120  104  124  115  116  123  121  122  126  119  112  122  123  126  121  121  125  119  129   28
ch: 102     117  123  118  120  123  105  120  115  120  124  117  121  106  129  122  117  105  122  115  126  105  125  114  132  116  106  120  119  110  121  122   26
ch: 103     114  119  106  123  104  121  126  125  118  116  122  117  117  120  127  118  114  120  112  117  116  122  117  121  128  124  122  116  108  116  124   35
ch: 104     122  124  119  115  105  117  115  116  107  117  121  121  124  123  125  114  125  114  118  124  115  117  133  131  118  126  124  124  118  122  121   28
ch: 105     119  112  122  115  128  105   98  112  125  112  129  125  118  130  121  120  120  125  115  115  120  114  124  117  120  113  117  105  110  125  113   28
ch: 106     117  116  113  112  118  118  108  100  117  105  121  112  112  120  118  117  126  120  116  121  118  121  124  122  124  119  120  127  117  115  108   26
ch: 107     118  108  114  115  111  120  124  121  117  118  109  128  112  120  125  129  128  121  116  115  121  121  121  126  117  117  117  120  120  132  110   27
ch: 108     107  128  119  123  115  113  106  120  118  114  115  117  115  124  115  112  116  116  118  135  115  116  121  124  115  120  128  122  124  118  121   12
ch: 109     121  120  121  118  121  115  124  120  117  128  117  114  118  109  119  117  118  113  125  120  118  117  122  122  114  121  120  119  130  117  108   31
ch: 110     116  115  120  122  116  118  122  117  115  106  118  119  118  117  124  124  118  126  112  122  107  112  105  120  130  121  123  125  120  128  121   23
ch: 111     116  108  122  112  117  118  118  108  122  116  116  117  118  125  120  123  121  121  121  126  115  118  109  119  118  114  128  116  114  120  122   26
ch: 112     118  104  118  105  106  114  107  120  112  116  119  112  115  117  119  118  123  117  116  116  120  119  113  120  116  126  119  117  124  127  124   11
ch: 113     119  120  128  122  119  108  118  123  121  113  117  113  120  117  122  115  118  107  119  135  111  117  117  121  115  109  119  116  121  117  115   22
ch: 114     119  116  119  108  106  110  119  115  105  117  118  116  118  113  115  116  118  115  119  118  109  113  123  107  116  127  117  117  119  103  115   24
ch: 115     118  132  124  125  121  121  117  117  117  116  136  124  127  118  121  120  115  122  115  111  118  129  121  113  120  122  120  130  116  132  130   17
ch: 116     103  116  116  116  124  106  123  118  128  116  123  112  107  117  115  117  119  114  116  113  117  126  117  118  118  124  127  116  129  128  121    4
ch: 117     109  116  128  121  108  115  117  118  121  117  120  120  118  117  118  118  118  104  108  124  118  125  124  130  104  124  133  116  126  121  125    0
ch: 118     107  134  119  115  105  112  100  116  116  114  128  114  118  103  116  125  108  117  119  123  104  117  118  119  117  119  127  118  104  124  118    0
ch: 119     123  120  114  119  107  115  107  116  108  118  106  118  109  112  130  121  113  101  116  112  116  115  112  116  114  113  124  118  110  119  119    0
ch: 120     119  125  114  117  105  121  118  107  113  116  114  124  118  113  122  112  114  116  106  106  114  106  110  120  106  120  101  118  109  101  106    0
ch: 121     125  106  117  117  118  102  116  118  117  106  132  104  116  116  116  114  100  116  121  116  117  106  110  103  113  120  114  100  114  115  120    0
ch: 122     115  114  107  105  118  117  121  116  106  106   98  109  114  106  106  120  104  116  116  116  112  116  106  106  120  101  114  106  106  114  107    0
ch: 123     117  120  114  102  118  115  117  104  105  118  117  113  116  122  114  127  116  125  114  101  106  128  116  124  100  101  116  117  116  106  117    0
ch: 124     113  121  117  106  120  122  106  116  103  125  114  120  116  106  105  116  116  106  109  117  117  106  114  107  116  116  124  118  106  122  109    0
ch: 125     102  114  118  118  115  121  116  102  113  116  118  113  116  106  106  106  113  106  106  118  122  104  116  101  121  120  120  101  105  116  117    0
ch: 126     107  115  121  106  106  117  107  109  116  122  130  114  101  113  121  119  120  113  121  112  106  120  103  106  107  125  113  116  119  101  113    0
ch: 127     105  115  104  116  117  116  122  105  102  106  109  108  118  103  112  106  120  122  116  114  113  116  119  116  106  109  106  114  112  106  106    0
