# TRIM CALIBRATION    FEB2_2_0    pulse_ampl_min=13    pulse_ampl_max=150    pulse_ampl_fast=10
#
ch:   0     117  120  120  121  104  121  117  121  117  122  135  134  117  121  124  128  131  131  137  126  124  117  119  137  121  142  145  130  134  128  134    3
ch:   1     107  109  123  117  134  129  120  130  121  128  121  122  124  134  121  122  122  119  138  120  131  129  117  125  135  122  133  132  134  131  138    8
ch:   2     119  130  129  124  124  113  123  129  134  131  113  132  124  117  121  118  126  129  131  124  132  124  138  131  134  126  139  124  124  134  121    6
ch:   3     110  117  115  118  118  117  120  121  128  124  131  129  124  138  124  120  124  123  128  138  137  138  134  134  137  150  129  133  130  134  137   11
ch:   4     102  118  121  121  116  124  142  121  115  102  122  124  117  121  122  122  124  131  129  121  131  138  134  134  124  131  135  134  134  137  134   12
ch:   5     129  125  107  113  114  122  125  108  128  128  119  120  129  118  130  127  126  132  135  126  131  132  126  135  129  131  135  131  121  120  135   13
ch:   6     118  128  118  122  123  130  123  123  123  119  128  128  121  128  134  134  126  128  128  121  131  126  133  133  127  139  135  127  127  134  128   16
ch:   7     117  121  120  115  133  121  128  122  133  131  128  122  119  124  141  131  125  126  131  132  131  135  131  121  130  137  131  124  131  138  147    7
ch:   8     123  123  117  121  124  116  120  128  124  118  117  131  110  134  138  117  124  116  137  134  124  123  138  130  138  146  108  131  131  121  132   12
ch:   9     126  124  128  124  123  121  116  125  122  117  117  130  118  121  126  124  131  124  132  132  128  131  128  131  131  132  138  123  130  148  138    8
ch:  10     103  121  121  118  117  122  117  121  122  131  121  117  117  128  133  124  132  135  134  134  145  129  122  129  123  126  134  121  121  131  137   10
ch:  11     123  124  124  137  123  130  122  124  117  135  116  122  135  124  126  122  127  128  131  131  130  125  146  135  123  134  138  131  131  126  130    7
ch:  12     106  130  123  121  123  117  131  120  121  126  105  127  120  124  124  126  131  126  131  137  124  123  132  134  124  126  135  134  125  135  129   12
ch:  13     122  122  124  115  137  117  123  120  119  134  118  120  128  130  119  124  128  124  135  125  127  129  134  128  131  128  130  135  142  140  129   25
ch:  14     118  127  128  121  124  123  117  124  129  121  115  128  122  131  131  122  121  132  124  138  131  126  134  134  135  124  124  147  137  122  123   13
ch:  15     120  116  122  126  128  127  123  122  121  129  124  132  114  134  131  121  130  131  130  129  134  131  135  123  137  124  132  134  132  138  135   15
ch:  16     128  120  115  106  123  119  120  116  131  124  114  127  121  119  129  134  123  132  134  120  136  136  126  134  126  134  131  131  132  138  124    8
ch:  17     116  108  115  115  121  118  130  127  124  121  125  126  134  126  131  132  125  119  135  121  121  124  136  132  129  135  131  134  134  137  132   18
ch:  18     109  122  127  121  120  123  124  121  133  127  132  134  117  122  120  124  132  130  132  132  119  126  122  132  135  132  121  128  137  148  124   13
ch:  19     116  120  121  115  117  120  120  121  125  130  128  131  126  127  122  119  125  126  126  134  122  134  122  132  124  131  130  139  133  129  131   16
ch:  20     118  123  132  132  127  123  131  129  106  130  117  133  119  124  129  121  129  118  120  138  121  130  131  138  128  132  131  134  130  117  135   20
ch:  21     116  120  124  123  122  120  128  118  128  121  124  126  121  134  121  138  127  122  128  137  134  124  135  135  130  127  135  132  138  145  133   30
ch:  22     116  117  121  117  131  123  128  121  124  117  131  121  124  120  129  129  131  122  126  131  130  118  130  133  120  127  128  124  135  131  148   12
ch:  23     116  123  107  120  128  114  120  103  124  121  122  131  131  117  124  121  126  124  130  121  121  130  131  135  125  132  131  134  138  128  120   22
ch:  24     113  131  130  130  126  114  130  129  120  121  134  124  132  121  121  129  130  131  121  126  127  120  132  129  135  138  131  131  131  128  130   27
ch:  25     118  130  127  121  138  128  118  128  120  126  130  130  126  116  131  127  131  117  130  135  138  134  134  138  128  130  139  124  135  142  134   22
ch:  26     117  119  118  119  112  138  120  124  131  126  126  121  120  122  121  126  121  128  131  121  131  121  126  134  132  131  137  138  138  126  140   12
ch:  27     122  126  118  128  125  125  126  129  119  127  117  114  119  116  131  128  132  121  124  139  117  137  131  132  132  121  135  130  131  126  129   18
ch:  28     116  117  121  133  129  115  124  124  117  117  119  102  131  131  129  131  116  119  135  125  131  131  124  133  129  124  121  134  126  128  131   16
ch:  29     120  130  124  121  128  121  120  121  126  125  121  117  124  123  120  124  139  127  134  139  125  134  128  134  126  126  121  134  132  135  127   24
ch:  30     120  119  121  121  121  123  121  137  106  121  121  121  114  121  133  120  131  126  128  124  123  120  135  126  121  122  122  139  132  125  124   20
ch:  31     128  117  118  121  116  118  119  130  124  117  131  124  109  139  125  131  127  126  131  128  126  135  134  129  135  138  135  134  138  134  130   28
ch:  32     120  114  122  118  123  123  116  119  122  118  117  135  122  122  131  126  126  121  124  131  126  121  121  128  126  132  134  130  131  129  122   20
ch:  33     115  130  137  120  118  120  119  109  124  131  129  115  128  134  121  138  131  135  118  124  138  135  118  134  133  131  135  135  126  124  121   16
ch:  34     118  123  115  125  126  108  120  128  121  130  130  128  122  119  121  127  125  127  128  121  134  133  126  128  121  130  126  117  138  132  117   19
ch:  35     117  130  133  117  126  118  117  129  115  123  124  116  131  131  128  130  124  127  135  124  131  135  131  120  139  131  134  134  134  131  134   27
ch:  36     134  124  132  134  123  123  132  131  120  121  119  120  122  125  133  122  124  128  129  125  131  125  128  131  135  134  137  146  126  136  128   12
ch:  37     131  128  120  117  119  127  117  121  121  128  127  135  121  124  130  121  129  124  134  130  120  133  125  135  134  131  129  132  134  135  138   19
ch:  38     122  128  126  121  123  120  115  130  115  124  129  107  125  123  124  130  129  124  129  128  135  137  122  130  128  130  124  131  136  121  121   22
ch:  39     133  128  123  117  121  128  114  129  124  121  115  119  132  124  130  129  132  121  132  122  124  138  130  130  126  135  138  134  138  124  125   28
ch:  40     120  118  121  124  115  129  123  124  133  117  126  117  124  135  131  128  130  124  130  131  129  124  132  128  121  138  131  131  135  130  121   23
ch:  41     115  117  127  123  131  128  123  127  127  120  127  124  117  131  135  131  131  137  130  135  130  120  134  134  129  130  135  135  134  135  134   21
ch:  42     118  120  117  119  103  115  126  117  121  126  110  129  126  134  134  117  122  131  129  135  135  121  139  121  128  128  146  132  131  131  134   24
ch:  43     105  123  127  110  128  123  121  118  128  126  131  128  121  121  125  122  124  128  121  134  130  129  131  129  134  128  137  132  122  124  134   32
ch:  44     122  112  107  124  122  123  123  117  119  121  116  127  130  125  123  125  125  121  132  130  130  124  122  130  124  130  138  121  134  131  132   22
ch:  45     122  116  109  115  119  130  123  119  119  134  124  121  130  129  124  131  121  126  124  132  122  135  129  124  135  129  134  133  131  129  133   19
ch:  46     118  128  117  130  121  119  116  124  132  117  127  120  124  126  126  122  131  128  138  116  121  134  131  124  131  121  122  134  126  135  128   24
ch:  47     123  120  119  124  119  124  124  120  128  127  134  122  124  124  135  120  124  132  122  135  121  130  134  135  134  139  128  130  128  141  131   20
ch:  48     118  117  118  118  120  115  133  124  122  120  117  124  130  122  128  133  131  124  124  125  125  124  145  124  133  129  136  137  131  128  131   19
ch:  49     116  117  133  119  129  125  117  132  127  137  123  119  124  135  126  117  126  126  134  130  128  135  135  142  149  121  131  132  131  124  129   25
ch:  50     118  126  119  120  123  121  128  126  115  124  124  135  122  131  129  118  130  137  131  128  123  121  130  123  134  135  114  128  137  147  131   23
ch:  51     130  119  118  120  120  131  123  128  117  119  124  119  121  131  120  135  131  121  125  135  138  120  134  115  137  148  125  138  122  134  135   30
ch:  52     116  122  123  120  117  114  123  126  121  124  113  124  125  128  138  124  124  134  119  128  148  135  134  138  124  133  138  131  139  129  131   24
ch:  53     118  123  126  121  121  118  120  124  131  124  121  128  120  122  128  135  131  131  126  120  128  150  135  133  131  131  134  128  131  137  124   33
ch:  54     119  120  120  119  118  115  119  104  124  134  125  130  132  121  135  121  126  122  124  129  128  128  135  130  137  135  129  139  131  128  148   19
ch:  55     125  123  120  129  119  120  128  131  128  125  122  124  134  124  131  130  129  124  131  131  126  135  130  132  132  131  134  130  132  128  139   20
ch:  56     126  121  125  118  118  123  120  124  134  120  122  124  131  122  129  122  117  124  125  135  124  117  135  127  124  131  135  133  135  134  132   26
ch:  57     119  104  107  123  132  121  125  121  121  121  117  130  116  119  137  124  130  120  117  131  126  131  135  132  134  126  135  131  135  131  134   16
ch:  58     116  114  116  124  121  123  124  120  124  124  128  129  126  128  126  131  128  128  131  130  122  128  135  136  134  134  126  124  130  121  125   17
ch:  59     116  120  120  118  115  126  129  121  114  130  129  120  131  124  140  126  125  131  119  131  126  119  129  137  131  132  135  120  131  130  124   30
ch:  60     120  116  128  110  119  130  108  119  126  125  116  124  125  121  133  130  128  134  135  118  127  135  128  126  124  124  134  125  128  127  118   25
ch:  61     120  128  117  131  119  134  116  114  118  119  127  121  121  128  138  138  121  133  126  121  126  138  121  122  138  131  146  138  130  129  138   30
ch:  62     126  120  124  122  122  130  127  135  107  124  130  129  121  125  131  120  136  132  130  130  123  130  134  117  134  133  120  131  137  139  121   26
ch:  63     120  129  122  121  121  114  121  132  132  121  117  128  134  124  134  124  135  129  134  134  134  125  127  134  135  129  131  121  130  138  135   23
ch:  64     117  117  121  117  128  134  131  129  126  124  119  128  129  124  132  131  125  124  132  120  127  127  128  126  137  120  126  131  131  131  138    9
ch:  65     131  119  129  124  123  122  125  122  116  122  122  121  133  132  124  122  128  135  118  138  134  138  135  138  122  132  147  136  134  147  130   23
ch:  66     116  115  124  124  122  130  120  126  128  133  121  124  121  124  129  114  121  132  124  127  134  120  123  134  128  133  129  124  140  131  134   19
ch:  67     116  119  133  129  118  123  117  126  124  124  124  134  124  124  138  124  131  125  127  128  130  131  129  126  121  126  134  135  124  134  131   31
ch:  68     120  117  133  133  124  117  122  130  121  132  131  135  129  122  132  124  131  122  131  135  122  129  138  117  125  134  135  132  128  137  140   24
ch:  69     123  115  126  121  128  123  116  134  116  126  132  121  126  134  124  122  132  128  125  135  130  131  128  134  124  124  146  134  137  134  124   18
ch:  70     115  125  124  132  119  129  118  124  131  123  126  124  124  131  122  120  121  126  126  138  135  137  128  134  131  138  131  123  121  130  134   30
ch:  71     117  118  120  129  131  129  123  131  126  131  112  136  121  131  131  123  128  135  129  135  128  128  139  130  124  147  138  138  138  138  134   28
ch:  72     118  128  130  126  119  120  126  125  118  122  118  121  129  128  131  135  116  131  129  141  124  133  135  130  133  131  134  133  130  120  125   27
ch:  73     128  116  129  117  129  131  134  128  137  124  135  132  122  125  138  124  119  131  135  135  135  139  137  133  134  129  131  131  131  131  139   31
ch:  74     117  121  124  119  122  129  121  133  117  117  126  122  124  113  131  130  128  131  131  126  124  138  135  136  138  138  148  127  138  134  135   30
ch:  75     122  137  117  117  123  131  128  121  120  121  137  131  124  132  128  124  124  126  121  134  138  119  133  128  124  134  135  135  149  139  129   29
ch:  76     117  114  113  124  121  123  120  131  119  117  120  137  121  127  124  120  140  119  137  134  131  121  124  131  123  131  133  134  135  126  138   37
ch:  77     131  115  120  128  128  120  123  124  128  124  131  131  131  132  126  138  131  141  130  138  131  121  132  129  129  121  124  135  134  131  138   21
ch:  78     120  120  128  124  121  117  118  124  109  124  131  125  120  127  132  141  135  130  118  123  129  136  134  138  131  131  127  129  131  139  131   29
ch:  79     118  107  121  110  123  116  119  126  124  125  126  122  126  130  123  135  137  130  126  135  133  126  128  129  129  129  130  130  128  134  134   25
ch:  80     109  130  124  118  116  102  131  122  122  124  126  121  104  121  131  129  130  117  131  131  121  131  125  125  134  125  134  128  139  137  130   32
ch:  81     119  117  129  128  118  123  120  124  131  124  124  131  129  128  121  124  132  125  130  122  124  131  127  145  135  135  138  134  135  146  131   27
ch:  82     117  117  124  120  115  127  124  121  124  117  130  110  125  127  121  121  122  134  126  131  135  135  126  128  137  131  132  121  137  131  138   20
ch:  83     123  120  120  130  121  131  129  124  139  123  119  124  126  131  126  128  125  131  132  131  128  125  129  134  117  132  129  134  146  134  147   32
ch:  84     120  117  131  119  133  119  121  124  124  127  121  122  128  131  126  122  131  129  120  126  134  129  134  131  131  131  146  130  143  137  125   24
ch:  85     106  126  133  117  119  123  131  131  122  123  121  121  117  118  121  123  131  124  130  131  135  130  135  134  148  139  137  139  151  135  135   26
ch:  86     115  129  118  118  124  115  130  129  117  122  131  127  130  124  128  119  132  128  135  124  124  119  135  122  125  119  132  127  137  137  134   23
ch:  87     116  119  128  129  118  120  127  128  118  131  122  124  125  135  124  135  147  122  134  109  134  131  135  134  130  126  131  145  128  135  134   31
ch:  88     116  118  133  117  122  127  132  121  117  114  112  129  134  134  130  118  124  126  142  135  128  139  121  131  131  137  137  126  132  134  134   23
ch:  89     117  119  116  117  122  121  131  124  124  120  130  127  130  117  134  126  130  146  132  124  131  138  124  131  122  129  129  131  131  145  134   26
ch:  90     106  122  122  115  118  134  116  134  128  129  131  117  134  121  124  131  131  138  121  135  132  126  138  123  128  130  137  138  136  127  130   30
ch:  91     116  122  119  123  128  122  130  121  119  124  124  128  124  134  130  118  126  124  128  131  128  131  131  131  131  137  140  136  135  135  131   35
ch:  92     114  116  122  119  133  121  126  125  126  128  121  122  121  128  119  121  131  124  129  126  128  131  119  131  128  134  148  128  134  124  143   22
ch:  93     119  132  117  117  129  124  117  128  121  120  124  132  134  134  117  127  137  127  124  127  134  135  124  120  135  130  134  114  131  132  149   22
ch:  94     118  115  120  118  123  115  116  116  118  129  132  131  124  118  118  121  134  133  146  131  120  124  131  129  132  129  134  133  138  130  117   12
ch:  95     123  133  117  118  131  121  127  121  134  122  134  117  130  132  132  119  128  128  117  124  124  135  124  139  134  136  124  131  132  138  132   30
ch:  96     117  116  127  124  128  121  132  131  127  121  124  134  126  119  130  134  133  131  124  134  130  137  122  129  131  124  132  126  126  134  121   23
ch:  97     118  127  122  115  118  131  114  124  124  132  121  121  130  124  129  128  129  134  132  129  121  125  132  124  124  131  131  130  131  134  130   20
ch:  98     116  130  124  126  123  121  119  131  117  129  117  124  117  120  132  130  121  131  120  124  132  135  130  127  133  116  133  135  127  135  131   16
ch:  99     104  117  122  121  125  125  123  107  130  132  124  135  127  110  133  128  138  139  135  138  131  132  138  127  124  132  135  129  130  137  131   31
ch: 100     119  121  122  119  119  124  118  119  122  124  117  126  118  120  120  124  117  116  127  128  132  129  134  117  131  148  124  134  134  127  135   23
ch: 101     126  114  114  123  123  123  123  118  114  120  120  135  129  123  145  124  128  140  134  134  131  135  124  127  118  136  154  128  131  129  132   16
ch: 102     106  123  118  121  134  133  117  126  119  131  119  131  125  131  127  128  121  120  121  120  120  121  131  127  131  137  131  139  135  127  134   15
ch: 103     118  118  124  124  126  120  123  124  121  125  126  128  121  124  148  135  131  132  134  128  139  146  139  131  124  124  124  132  138  146  136   33
ch: 104     118  115  118  122  126  116  135  129  121  117  119  130  131  123  130  138  121  134  132  126  131  129  121  134  128  136  135  135  128  131  131   18
ch: 105     122  117  121  119  115  114  117  124  124  130  134  124  127  134  134  124  126  125  136  135  114  130  129  137  134  138  132  130  137  137  131   12
ch: 106     123  134  132  131  120  130  116  128  128  120  130  127  121  133  121  136  117  123  128  132  135  131  131  130  122  139  137  137  134  139  131   23
ch: 107     122  116  103  121  117  128  117  124  113  131  118  121  134  130  134  121  138  131  138  133  134  125  124  132  148  139  136  134  131  131  131   34
ch: 108     120  118  129  116  126  120  123  119  124  134  129  122  119  131  130  117  123  120  128  134  134  131  129  134  132  131  134  135  135  136  139   25
ch: 109     120  128  120  119  111  121  121  129  121  124  119  119  120  124  124  129  127  124  149  132  134  128  137  135  117  131  128  136  135  127  131   25
ch: 110     123  128  120  121  117  116  133  116  117  121  122  117  132  117  128  122  120  121  130  128  131  131  134  124  129  137  135  130  135  134  130   16
ch: 111     116  122  120  131  104  109  132  124  117  123  129  120  123  124  134  134  131  129  128  135  148  142  131  127  130  148  134  153  121  130  134   12
ch: 112     117  123  130  130  117  121  137  124  115  138  128  124  131  126  126  121  122  129  118  121  126  135  134  124  124  128  146  125  130  132  136   12
ch: 113     132  123  126  104  119  125  122  124  117  128  118  120  120  124  135  124  116  130  124  121  126  135  127  135  135  137  145  120  139  135  135   29
ch: 114     117  120  115  119  117  134  120  124  128  117  131  128  121  126  132  129  127  124  122  132  137  123  120  138  128  137  134  135  130  126  121   16
ch: 115     129  123  120  126  107  135  124  133  120  128  122  124  124  121  131  137  134  125  124  139  129  140  135  123  141  131  134  135  146  130  130   16
ch: 116     107  117  118  128  123  123  129  124  126  121  107  124  131  126  136  128  129  134  132  127  132  135  122  121  125  135  137  128  126  135  135    7
ch: 117     120  116  105  124  123  116  122  124  124  121  129  120  130  121  121  121  134  134  128  131  124  128  128  124  134  121  138  123  129  133  137    0
ch: 118     119  129  126  126  112  126  123  123  118  120  126  117  125  122  132  129  120  119  127  129  133  124  123  131  129  137  136  131  137  121  132    0
ch: 119     119  116  124  109  115  117  128  118  117  122  122  124  127  125  122  128  122  124  125  132  122  132  122  127  122  122  127  128  129  140  128   40
ch: 120     120  122  121  121  130  124  117  116  125  117  116  130  120  130  118  127  127  120  132  122  121  116  108  131  120  122  121  128  125  132  129   44
ch: 121     119  122  132  114  127  119  121  120  118  122  124  120  120  116  134  122  128  116  122  122  130  120  128  137  137  122  131  121  131  131  132   37
ch: 122     105  115  113  131  112  107  122  116  122  127  116  122  108  121  127  120  116  122  121  122  130  129  122  131  127  134  128  124  118  121  128   38
ch: 123     116  119  117  120  114  126  122  125  132  111  112  113  116  113  130  122  128  103  122  119  127  127  122  120  118  120  130  122  124  124  120   44
ch: 124     115  122  117  121  117  114  122  122  120  122  122  122  122  116  122  132  122  127  127  120  118  124  121  132  118  116  132  116  132  128  135   34
ch: 125     117  131  121  118  121  121  121  122  122  118  127  119  116  114  120  122  129  116  130  132  122  128  120  122  135  122  124  137  122  128  116   37
ch: 126     107  120  121  122  109  124  120  121  120  125  121  120  122  120  119  132  125  129  122  134  127  121  121  125  122  122  132  122  129  122  119   42
ch: 127     124  122  117  121  117  124  105  116  122  120  120  120  128  132  120  137  137  118  130  117  132  132  135  129  122  132  119  132  120  118  137   32
