# TRIM CALIBRATION    FEB6_7_3    pulse_ampl_min=13    pulse_ampl_max=150    pulse_ampl_fast=10
#
ch:   0     116  117  110  112  118  130  132  121  121  120  107  122  120  116  121  114  116  124  119  120  116  116  114  118  117  121  113  116  116  129  122   26
ch:   1     117  109  131  121  122  132  119  126  120  122  116  117  132  120  122  122  130  120  133  113  122  122  119  116  121  122  121  117  124  117  126   23
ch:   2     120  130  117  122  131  116  116  104  116  109  114  116  119  116  114  117  119  109  118  122  122  122  117  119  119  123  121  116  116  116  131   16
ch:   3     108  119  116  123  118  121  116  116  132  133  122  116  116  130  121  106  127  132  135  117  131  131  122  137  121  131  132  113  122  118  124   23
ch:   4     117  121  116  117  117  116  120  103  121  106  116  118  118  118  122  122  120  114  132  107  124  112  116  116  120  110  122  124  121  122  122   28
ch:   5     116  120  107  105  121  118  121  121  114  126  116  116  131  117  120  124  114  122  119  130  131  122  132  137  120  120  130  124  122  118  120   24
ch:   6     123  122  116  122  112  116  121  122  118  124  114  128  128  116  116  112  130  109  127  132  124  117  133  113  113  114  118  122  127  129  132   20
ch:   7     113  105  116  119  115  130  116  117  132  122  116  132  124  116  132  122  122  120  116  137  114  117  132  122  117  139  122  137  131  131  121   25
ch:   8     113  117  117  117  106  119  124  122  117  120  124  114  132  118  116  118  120  122  116  114  111  124  122  121  116  137  129  114  122  118  128   25
ch:   9     122  117  114  115  121  105  120  121  120  132  135  131  121  133  122  122  114  122  114  121  120  132  135  131  106  120  117  122  116  129  121   28
ch:  10     117  117  117  114  117  116  112  114  121  134  120  119  109  117  122  104  116  116  121  124  131  121  114  120  120  120  121  113  130  133  118   23
ch:  11     115  119  131  115  128  120  121  116  140  130  117  131  121  126  124  119  121  116  117  127  120  116  122  117  119  120  120  117  117  121  130   27
ch:  12     116  117  119  117  125  120  117  117  121  119  132  128  119  121  110  124  113  110  122  130  124  122  119  116  110  121  122  130  116  122  116   19
ch:  13     120  120  120  120  121  116  118  111  122  121  118  124  121  113  124  124  132  117  132  118  113  119  124  110  120  122  121  117  122  134  132   28
ch:  14     111  122  121  121  131  116  132  108  121  122  107  122  116  122  118  132  118  117  121  122  129  118  108  111  122  120  112  122  131  117  122   15
ch:  15     134  122  119  120  117  116  120  121  129  122  122  118  104  122  121  118  121  119  126  124  118  130  140  118  126  129  132  134  122  132  116   24
ch:  16     115  120  120  114  107  116  124  110  122  119  117  124  118  122  120  120  120  116  132  121  129  118  124  131  122  108  117  122  124  114  124   31
ch:  17     120  119  119  107  120  108  130  131  134  121  122  120  122  122  120  118  122  122  120  121  122  122  122  119  122  130  135  116  121  130  117   29
ch:  18     120  108  119  115  121  121  106  114  121  122  122  116  130  124  111  119  113  135  122  117  120  116  113  120  120  113  116  116  114  124  111   24
ch:  19     130  116  117  107  112  120  117  124  117  122  122  132  119  116  118  117  122  122  122  130  126  120  124  118  134  119  122  127  134  120  119   23
ch:  20     118  134  116  119  129  119  122  121  125  118  120  117  117  114  114  119  132  124  112  132  116  116  114  117  122  120  121  119  121  122  113   28
ch:  21     112  131  119  109  121  114  121  108  117  141  120  117  116  114  116  121  121  110  114  116  120  117  130  118  120  120  132  131  141  121  131   20
ch:  22     117  121  128  122  101  118  116  124  116  120  116  114  131  121  119  117  118  118  122  120  124  121  133  120  119  126  134  120  126  116  133   25
ch:  23     107  119  116  117  117  121  131  130  121  118  129  120  117  122  114  130  122  113  120  122  121  132  121  120  116  124  132  124  116  132  122   23
ch:  24     118  122  130  127  117  129  116  104  124  117  116  132  121  120  122  118  113  113  124  120  116  120  116  127  135  127  117  113  119  122  122   25
ch:  25     115  136  106  121  132  114  131  122  121  106  132  121  116  119  110  116  120  122  121  129  120  107  130  116  116  117  117  121  122  116  137   24
ch:  26     120  122  116  111  121  110  122  107  112  120  116  117  117  118  124  116  122  121  122  127  122  116  132  114  132  124  121  116  122  122  121   30
ch:  27     106  117  122  119  115  118  120  137  116  121  120  122  121  110  118  132  118  130  129  137  122  118  122  121  124  121  113  132  122  116  132   32
ch:  28     102  121  121  117  117  120  122  116  139  110  122  122  129  121  108  121  132  122  120  132  116  118  120  126  116  132  124  129  140  132  121   30
ch:  29     115  119  120  117  121  123  116  117  116  122  122  122  124  122  118  116  122  113  116  122  114  134  121  117  119  122  127  122  118  114  117   32
ch:  30     119  119  128  114  119  132  106  122  116  129  121  121  122  122  122  124  132  120  122  116  120  132  130  118  119  120  116  122  131  110  122   28
ch:  31     119  130  122  122  118  114  121  116  119  120  132  122  117  131  132  120  122  130  121  122  122  122  124  128  110  124  124  114  132  124  127   24
ch:  32     120  120  117  122  123  111  122  116  121  122  116  111  119  120  117  116  117  130  116  117  118  122  116  124  121  124  120  124  122  124  130   25
ch:  33     117  117  117  117  133  126  120  124  122  119  117  114  116  130  120  141  131  122  130  114  122  119  119  120  117  130  116  132  120  121  121   22
ch:  34     132  124  117  114  117  123  118  129  118  117  118  116  120  118  111  120  122  124  117  128  120  110  122  116  117  117  121  124  137  110  121   37
ch:  35     114  109  113  107  117  131  117  122  124  129  117  124  122  133  131  132  120  111  118  118  132  120  122  122  134  129  122  130  122  124  130   34
ch:  36     114  114  122  117  119  126  116  122  117  124  113  116  119  113  127  119  124  120  125  122  122  120  132  134  130  132  129  120  118  118  132   16
ch:  37     117  128  135  131  106  129  118  116  118  114  129  117  121  116  120  116  124  130  117  128  134  118  122  137  116  124  121  125  116  124  126   31
ch:  38     119  109  131  130  126  121  116  121  108  119  134  114  119  124  114  120  124  116  121  117  128  116  116  117  116  129  117  119  122  124  121   26
ch:  39     117  115  110  110  130  107  117  117  116  122  110  120  117  122  122  124  121  116  132  129  113  121  128  131  124  122  116  113  133  122  131   28
ch:  40     114  112  114  131  121  122  122  118  117  120  109  120  122  124  122  121  122  116  116  119  116  121  122  117  133  124  114  117  118  116  121   32
ch:  41     117  126  108  115  114  121  122  130  121  120  120  120  129  119  121  126  119  127  119  131  122  138  122  121  117  129  140  132  118  117  132   30
ch:  42     113  119  117  112  117  131  118  122  131  119  122  122  114  122  114  116  117  120  122  122  116  118  131  122  132  134  116  127  132  122  134   27
ch:  43     116  119  131  122  117  118  117  117  132  109  106  117  117  121  118  127  118  120  132  119  120  121  121  122  124  122  134  119  138  134  114   35
ch:  44     119  113  116  112  117  110  120  117  121  132  122  128  124  122  116  122  112  120  116  134  139  124  116  114  122  122  117  121  119  130  118   24
ch:  45     109  115  122  121  119  117  132  129  112  132  132  122  109  130  122  117  117  116  121  122  119  122  128  120  122  130  120  131  114  124  130   24
ch:  46     124  107  116  124  121  107  120  122  116  122  120  117  122  131  114  118  117  116  111  116  135  123  116  116  116  127  113  116  129  137  122   35
ch:  47     114  115  119  117  118  121  121  121  116  120  132  114  120  120  119  121  110  114  120  119  122  129  125  121  120  145  129  119  122  132  138   24
ch:  48     119  107  121  114  128  125  119  134  117  122  124  119  112  118  121  122  122  116  129  120  116  120  114  130  132  116  122  120  131  116  124   23
ch:  49     113  122  124  118  131  121  110  110  122  108  124  131  135  116  121  116  120  120  128  112  129  122  130  122  122  132  122  122  120  134  122   27
ch:  50     122  119  135  118  135  116  133  120  123  132  116  121  122  132  120  122  121  122  131  122  131  130  133  122  114  121  121  122  133  118  117   31
ch:  51     109  136  128  118  111  114  124  127  128  122  114  120  114  135  124  116  126  122  120  122  122  126  124  129  135  132  128  132  129  134  130   23
ch:  52     116  120  116  118  117  116  126  123  121  120  121  116  122  124  118  114  118  119  124  116  134  130  107  117  124  122  119  121  124  120  121   20
ch:  53     120  115  110  121  119  120  116  120  120  122  117  130  122  124  123  116  119  132  117  118  122  121  132  117  116  122  122  117  124  114  130   30
ch:  54     117  130  122  126  129  120  121  122  122  138  120  131  118  124  118  114  129  132  116  122  121  120  117  122  116  145  122  122  120  137  117   35
ch:  55     120  131  111  111  118  104  117  122  129  110  117  116  118  122  112  122  122  125  122  129  125  120  122  119  120  128  139  122  122  122  127   31
ch:  56     115  115  120  134  118  131  122  120  134  116  113  114  126  114  130  118  124  122  122  122  125  121  120  122  119  132  116  113  122  131  119   37
ch:  57     116  119  117  122  118  117  122  121  122  118  116  120  122  122  117  118  132  122  122  122  116  114  118  122  121  120  122  122  120  120  122   29
ch:  58     114  120  107  124  121  117  122  121  122  122  128  117  120  122  122  121  121  124  131  118  132  117  113  119  133  117  132  118  121  132  119   39
ch:  59     120  107  122  122  121  130  132  120  131  106  120  121  117  121  122  132  124  124  120  122  124  121  135  121  122  132  106  121  121  139  132   24
ch:  60     125  120  118  119  128  116  132  124  132  117  138  120  130  122  120  114  144  117  121  125  124  121  124  120  129  135  134  124  122  116  132   42
ch:  61     107  130  108  122  121  121  112  122  122  120  120  114  129  120  120  110  124  134  121  120  114  121  135  120  132  131  131  117  131  117  122   25
ch:  62     122  108  132  112  129  116  122  126  116  124  116  130  121  127  117  124  120  119  119  122  123  120  116  134  122  116  122  117  122  117  132   27
ch:  63     104  120  122  128  120  117  120  116  126  124  122  124  134  118  120  129  135  117  117  112  122  122  130  124  138  134  126  118  122  139  118   34
ch:  64     131  108  131  123  115  128  122  137  117  121  118  120  116  124  121  120  132  116  118  128  131  120  117  131  124  119  118  111  132  116  121   28
ch:  65     116  130  119  136  113  121  119  116  118  119  132  119  124  120  119  122  118  126  129  122  116  132  132  120  131  121  122  122  118  126  121   28
ch:  66     114  120  129  119  121  116  132  131  124  116  124  120  120  132  110  118  118  118  120  122  122  117  133  131  119  126  129  116  120  122  130   33
ch:  67     133  116  130  133  131  109  122  122  124  120  127  129  116  122  122  120  132  117  131  121  120  131  132  131  124  132  134  124  121  119  121   32
ch:  68     120  113  122  111  111  128  116  121  116  131  120  124  114  134  119  117  122  120  117  132  120  132  122  124  121  116  110  124  122  122  120   27
ch:  69     123  116  131  112  110  116  124  127  117  120  117  120  106  116  118  121  122  132  121  118  117  122  128  132  142  118  117  131  124  124  120   31
ch:  70     117  121  128  119  112  117  128  131  122  118  119  124  124  124  116  122  122  119  129  122  122  123  116  125  120  117  127  121  122  135  131   30
ch:  71     115  116  133  109  124  128  114  130  121  114  122  124  120  122  116  124  120  122  124  121  132  124  122  124  116  132  135  132  132  122  132   32
ch:  72     120  116  118  130  121  129  124  105  120  120  122  120  131  116  119  122  120  131  124  133  131  124  108  131  122  122  122  137  118  131  119   32
ch:  73     123  133  121  108  117  135  130  122  122  137  131  122  125  134  118  110  132  124  126  122  117  139  122  129  122  110  120  132  122  131  125   20
ch:  74     131  115  126  120  137  122  120  124  114  124  116  122  117  120  114  132  117  122  114  122  121  122  132  116  120  122  137  133  111  120  117   36
ch:  75     108  122  120  107  137  118  132  122  124  107  135  134  135  121  118  124  132  132  131  137  121  118  130  130  114  122  117  116  132  122  116   27
ch:  76     122  131  116  119  118  128  117  130  133  124  122  133  117  121  132  122  120  119  124  118  121  122  118  116  121  118  119  116  118  120  121   24
ch:  77     115  121  118  121  117  119  113  124  122  130  116  130  117  132  118  120  135  122  118  131  124  129  129  124  121  121  122  132  129  116  137   24
ch:  78     120  116  122  121  132  130  122  117  118  120  124  130  117  116  121  121  119  131  132  132  134  121  122  125  132  112  122  132  122  124  132   31
ch:  79     117  116  130  129  121  119  120  127  120  122  118  122  122  129  120  122  132  124  124  132  121  127  122  138  132  135  118  116  114  117  132   23
ch:  80     115  122  121  119  117  123  116  122  116  119  121  106  121  130  118  116  121  132  120  127  109  128  117  131  118  137  137  118  122  118  117   30
ch:  81     113  119  122  111  124  121  114  118  132  132  119  126  121  122  121  121  138  116  135  129  121  121  116  124  116  125  119  129  130  118  114   43
ch:  82     119  120  130  111  123  118  116  127  120  130  135  124  127  120  121  117  119  127  121  127  121  129  124  133  124  122  128  119  140  130  134   24
ch:  83     123  122  117  117  121  116  131  119  121  114  131  122  113  130  130  123  118  119  131  119  121  134  121  121  137  121  131  122  121  133  133   22
ch:  84     117  117  122  122  119  121  110  118  117  133  129  118  119  122  116  130  122  131  119  120  124  120  118  122  122  116  131  122  118  129  116   36
ch:  85     122  121  118  114  121  118  109  117  116  116  116  120  131  110  122  116  117  118  121  133  134  120  116  118  119  134  121  124  107  118  122   28
ch:  86     123  119  122  122  133  132  122  132  114  124  122  111  122  121  122  116  120  120  121  132  117  117  123  121  116  132  131  121  131  122  131   30
ch:  87     117  107  118  117  117  128  127  122  130  122  120  124  116  119  130  120  118  116  122  131  119  139  124  126  107  137  122  130  137  121  130   24
ch:  88     122  133  124  115  109  121  122  129  114  137  117  129  121  116  122  129  130  131  121  133  122  131  137  120  121  116  122  118  122  131  124   27
ch:  89     122  122  120  119  123  121  119  118  124  116  117  124  117  120  118  137  117  122  134  124  122  132  122  130  119  116  130  121  109  117  130   30
ch:  90     120  110  128  114  121  110  102  119  116  116  121  130  118  124  116  118  122  120  122  130  118  132  119  117  129  138  132  108  117  122  122   29
ch:  91     119  131  119  117  131  120  120  122  125  133  114  124  125  104  125  132  113  122  121  121  124  129  122  120  124  121  132  135  133  131  132   43
ch:  92     132  120  114  117  121  130  122  134  122  116  116  114  122  116  125  137  122  121  116  132  117  124  124  120  124  132  122  124  117  122  121   26
ch:  93     116  116  130  117  130  131  121  120  133  118  124  113  124  133  130  120  122  116  122  119  117  134  120  111  122  132  135  127  129  121  137   22
ch:  94      85  108  104  115  113  137  137  137  128  163  166  128  128  128  128  128  128  128  128  128  128  128  128  128  128  128  128  128  128  128  128   16
ch:  95      85   93  102  108  105  124  117  121  138  148  142  144  155  161  155  167  145  162  128  168  153  160  162  169  168  167  172  164  166  164  179    1
ch:  96     120  120  131  117  110  121  108  113  117  118  121  127  122  131  132  122  132  117  118  132  124  132  122  125  117  122  119  117  137  122  124   30
ch:  97     109  115  117  121  121  118  118  138  111  124  132  117  121  122  124  114  122  131  129  118  124  122  124  122  120  121  118  132  114  125  121   33
ch:  98     119  131  131  117  118  119  107  122  119  121  120  121  120  132  124  132  119  121  130  122  120  122  121  121  121  122  122  122  132  132  124   28
ch:  99     120  119  117  122  118  123  131  130  117  118  121  120  106  122  122  121  122  122  140  121  122  121  137  130  122  137  122  131  118  134  119   30
ch: 100     124  122  107  107  117  116  131  132  131  122  124  126  124  116  118  119  111  122  124  120  124  134  121  119  131  137  122  116  137  134  121   25
ch: 101     122  130  125  124  129  120  131  121  112  129  124  134  111  117  124  117  121  116  122  120  120  120  127  121  133  120  124  132  137  129  139   31
ch: 102     104  116  131  122  121  131  116  120  122  132  107  130  119  117  121  135  129  122  131  117  120  131  122  116  117  138  122  120  124  130  107   35
ch: 103     117  122  133  115  130  129  116  125  120  120  116  117  135  132  135  122  122  114  135  130  130  137  135  132  124  125  128  121  129  132  134   27
ch: 104     121  121  125  111  121  128  130  134  121  131  116  131  113  122  134  116  126  112  121  120  122  124  131  111  110  124  130  130  122  120  128   28
ch: 105     130  131  124  119  115  107  120  130  114  122  124  114  132  116  139  124  119  116  132  130  132  124  132  118  125  122  132  120  120  117  118   25
ch: 106     113  125  117  112  117  107  119  131  135  130  122  116  118  120  113  131  117  130  121  116  122  122  121  121  117  129  122  120  122  137  132   25
ch: 107     117  119  129  110  126  121  119  117  131  122  121  110  122  120  126  121  138  119  121  122  121  121  129  117  131  134  124  132  130  141  116   29
ch: 108     124  117  120  122  132  124  116  118  122  132  122  117  114  129  121  137  119  116  132  121  125  134  135  116  117  130  133  122  122  131  132   16
ch: 109     119  121  122  119  114  131  122  118  122  131  110  122  122  122  130  122  124  132  122  126  122  124  121  118  122  124  124  121  120  121  135   34
ch: 110     107  116  118  132  135  121  130  131  119  119  118  121  122  120  121  116  114  134  112  122  118  120  132  114  122  107  124  121  134  122  129   19
ch: 111     120  121  121  114  137  116  130  122  121  122  137  122  127  122  120  123  132  121  132  122  123  124  122  137  130  122  132  132  134  138  131   24
ch: 112     123  130  122  118  121  102  117  133  119  124  119  121  107  117  126  127  132  119  124  116  116  120  120  131  122  132  122  114  118  122  133   22
ch: 113     117  111  138  111  118  105  122  116  116  121  128  117  120  124  116  118  122  131  123  129  139  121  124  139  130  121  126  137  131  120  131   25
ch: 114     111  121  121  122  121  123  127  124  117  134  122  134  122  122  116  117  121  107  130  131  120  131  122  122  122  122  122  121  117  116  118   29
ch: 115     122  131  122  117  119  116  121  133  117  128  138  121  118  121  116  122  135  122  118  122  122  131  130  132  120  122  118  131  133  122  123   30
ch: 116     112  123  135  122  128  121  121  134  111  130  108  114  132  126  122  118  117  130  109  131  122  124  120  137  132  124  124  116  116  110  121   27
ch: 117     123  121  130  124  118  127  111  118  127  128  134  129  114  122  132  120  121  121  122  121  130  131  132  120  117  121  120  121  134  124  121   16
ch: 118     119  110  121  118  133  114  117  124  117  128  118  126  116  121  135  118  122  116  135  117  122  122  135  121  118  122  121  121  132  125  121   31
ch: 119     124  121  120  131  112  121  119  124  121  114  120  121  128  118  132  124  130  131  132  124  137  132  124  132  130  121  130  134  129  132  122   29
ch: 120     123  116  131  121  130  119  132  121  137  134  132  124  119  106  121  132  117  120  122  122  120  118  121  130  132  114  131  121  122  122  132   29
ch: 121     123  120  135  124  121  116  114  122  120  127  121  131  118  122  117  132  129  129  121  121  132  132  124  118  125  131  121  137  126  117  122   29
ch: 122     133  119  107  120  128  121  122  129  131  122  117  124  117  119  122  133  122  116  132  137  114  124  122  131  116  118  137  118  124  122  132   22
ch: 123     115  121  122  120  121  124  121  118  122  129  122  122  121  135  132  139  133  132  122  138  124  132  122  132  129  117  114  134  135  118  132   31
ch: 124     133  122  135  119  121  121  116  137  109  117  112  119  121  118  132  116  118  117  124  122  129  132  124  113  122  122  133  139  122  119  124   28
ch: 125     124  121  130  110  123  121  122  132  109  118  116  119  120  131  110  119  127  121  117  119  134  121  124  130  117  116  135  125  132  128  132   24
ch: 126     122  122  120  117  121  104  120  113  118  120  119  135  129  131  110  126  145  132  122  121  128  119  126  127  122  122  124  117  122  131  122   22
ch: 127     113  122  116  122  130  121  132  135  137  122  122  133  131  134  123  124  133  122  138  124  131  122  124  116  139  134  130  135  142  132  122    0
