# TRIM CALIBRATION    FEB6_9_4    pulse_ampl_min=13    pulse_ampl_max=150    pulse_ampl_fast=10
#
ch:   0     117  119  118  121  104  116  120  117  113  131  132  117  118  121  118  108  116  120  116  116  114  122  127  122  114  116  122  113  117  116  122   26
ch:   1     116  117  114  120  121  120  107  117  120  117  118  120  101  121  106  116  116  122  116  117  117  122  120  122  110  116  119  120  126  106  116   16
ch:   2     115  117  131  102  121  107  120  116  109  122  120  120  120  116  125  116  133  118  122  118  114  116  106  116  112  116  106  116  120  120  122   20
ch:   3     130  115  120  110  111  108  108  116  118  118  130  120  112  114  121  121  116  122  119  121  116  113  114  122  132  116  124  132  124  122  124   19
ch:   4     109  131  108  106  110  121  122  122  121  119  116  116  121  122  122  119  124  121  119  117  119  120  120  120  127  122  118  113  118  116  118   15
ch:   5     119  121  120  106  118  107  118  120  118  122  116  116  117  116  117  116  124  131  107  117  125  132  116  114  118  131  122  112  106  106  120   27
ch:   6     122  128  117  106  117  124  122  118  114  122  104  122  101  116  116  121  114  122  107  116  122  120  116  121  106  128  119  124  119  122  121   20
ch:   7     128  120  131  104  105  132  120  120  121  113  117  120  131  109  121  107  107  116  116  121  122  118  120  114  116  116  122  118  132  117  130   20
ch:   8     105  121  117  117  108  124  117  122  114  119  120  118  121  116  122  113  104  117  131  107  122  130  119  131  116  120  116  121  126  112  112   22
ch:   9     115  119  117  117  117  107  116  121  119  108  117  117  129  114  116  131  122  116  133  106  106  107  120  117  126  116  117  124  120  119  120   27
ch:  10     108  107  125  119  104  107  113  116  120  125  120  118  128  110  130  121  118  120  106  120  120  122  121  116  118  118  108  122  120  116  118   22
ch:  11     116  111  117  119  120  135  116  131  107  116  114  114  118  110  118  120  120  121  122  122  129  114  106  122  120  112  122  128  130  114  122   28
ch:  12     120  117  119  119  118  102  116  122  120  122  132  132  116  104  118  122  107  122  101  117  116  124  127  112  114  114  129  122   99  116  118   22
ch:  13     115  120  117  122  120  102  105  117  112  107  120  110  122  116  116  120  116  117  120  107  116  117  119  117  132  122  126  126  114  114  120   17
ch:  14     117  105  117  119  117  117  124  117  121  132  118  108  120  116  114  119  116  117  116  120  116  124  110  124  132  131  112  110  116  104  122   26
ch:  15     124  119  117  128  120  117  105  116  118  117  121  120  110  121  121  120  124  122  121  116  117  132  128  131  132  122  118  130  110  112  122   29
ch:  16     122  120  117  119  115  104  116  116  117  120  106  116  106  124  107  132  121  118  116  117  110  111  120  116  118  124  116  124  120  109  119   21
ch:  17     123  109  119  114  120  126  119  107  114  122  120  106  129  111  118  132  122  126  110  120  116  120  120  131  106  106  118  131  119  121  119   29
ch:  18     128  114  117  121  117  117  116  122  133  109  117  118  117  132  130  121  120  122  116  139  124  118  113  118  118  122  114  116  116  120  112   20
ch:  19     110  119  117  119  108  121  121  119  118  124  112  121  122  116  107  119  124  122  119  124  126  121  107  121  127  116  114  120  118  124  122   21
ch:  20     117  113  114  117  118  104  116  120  106  119  119  116  122  116  118  108  126  116  122  120  116  120  120  121  116  111  130  121  120  119  131   28
ch:  21     114  121  130  115  133  118  120  107  117  122  116  116  114  120  114  129  119  117  100  118  118  137  117  114  122  122  117  116  103  117  116   40
ch:  22     117  116  109  109  118  120  112  120  137  129  116  125  122  110  118  122  122  119  113  124  117  108  118  119  120  117  116  116  124  119  125   16
ch:  23     121  107  129  125  121  116  117  121  129  126  106  120  122  120  124  119  107  118  109  122  125  117  132  127  116  122  124  120  132  140  109   15
ch:  24     120  116  120  115  106  117  120  119  120  122  118  109  114  119  120  114  119  120  116  122  121  112  120  121  112  119  116  122  116  109  120   26
ch:  25     119  102  117  117  121  121  114  121  120  122  116  116  121  120  122  120  120  112  116  121  126  120  122  116  121  110  107  112  121  127  124   20
ch:  26     118  115  107  121  108  122  135  122  121  120  116  118  108  110  124  106  119  122  112  130  116  107  125  119  117  124  106  121  107  132  119   22
ch:  27     115  121  120  122  117  124  130  120  119  114  135  117  119  114  122  117  117  118  132  118  110  116  117  124  121  119  117  111  121  110  121   32
ch:  28     133  116  132  120  121  116  122  122  119  104  125  120  122  120  120  117  116  131  107  104  116  131  121  131  120  121  116  114  121  122  114   27
ch:  29     107  119  120  124  118  121  122  120  122  128  117  121  121  115  105  101  118  120  133  116  120  140  115  122  106  121  116  110  120  112  122   36
ch:  30     120  108  113  119  129  110  107  120  122  117  118  104  106  117  116  122  121  121  106  137  115  122  120  116  109  125  116  117  122  118  118   28
ch:  31     123  128  122  117  128  112  124  118  122  127  119  108  122  118  130  134  116  116  109  117  113  100  114  120  122  114  121  117  128  121  124   23
ch:  32     108  119  122  103  117  102  119  116  114  120  112  122  122  135  118  116  122  116   99  114  116  122  120  116  116  122  120  118  104  121  122   21
ch:  33     105  120  129  131  107  116  120  122  117  112  122  113  116  122  116  116  115  124  116  114  122  130  119  120  120  121  110  116  122  120  114   20
ch:  34     114  122  122  117  118  120  122  132  126  116  116  122  116  120  121  118  117  116  124  122  114  116  124  122  119  119  112  111  116  118  116   26
ch:  35     119  116  118  106  115  118  128  122  121  133  106  130  112  110  117  116  134  131  121  109  124  124  116  131  117  131  113  116  114  116  117   28
ch:  36     120  116  100  119  117  116  122  128  121  121  132  116  119  106  116  128  117  130  121  119  131  121  116  130  106  111  120  134  131  116  122   17
ch:  37     115  120  114  122  117  108  104  131  109  120  120  116  114  120  120  118  117  106  122  119  122  120  110  122  114  122  116  110  127  106  106   28
ch:  38     114  122  124  117  121  113  122  121  120  109  120  116  121  103  120  116  130  115  108  112  117  106  116  117  118  118  110  110  122  117  118   30
ch:  39     124  115  120  121  101  124  122  122  122  117  116  122  122  109  116  129  119  121  117  116  119  116  122  117  126  117  116  120  130  107  119   34
ch:  40     119  122  119  122  118  106  115  132  118  120  116  118  122  122  117  116  122  118  132  131  121  122  114  110  119  116  118  120  121  106  116   27
ch:  41     120  116  119  121  124  116  109  121  105  116  122  109  112  113  118  116  117  122  122  116  120  133  119  121  124  132  107  116  116  132  117   35
ch:  42     120  115  118  117  114  116  114  109  105  123  117  121  115  122  137  124  116  116  119  107  131  121  116  116  118  105  120  114  116  118  120   27
ch:  43     108  119  115  117  121  117  121  132  116  121  117  128  118  120  121  118  103  124  130  124  120  119  122  114  114  121  127  119  126  122  116   35
ch:  44     120  105  120  116  105  104  122  122  120  132  116  116  116  110  116  110  120  129  116  118  118  120  122  117  116  121  119  127  122  132  118   17
ch:  45     114  131  110  109  121  114  125  118  122  116  107  121  117  106  117  122  107  116  123  121  112  116  121  117  116  116  122  120  124  117  120   38
ch:  46     119  116  115  105  120  116  107  121  114  121  121  121  112  121  116  107  114  122  121  131  132  116  106  117  124  116  116  112  114  124  114   27
ch:  47     107  121  117  110  115  131  114  117  121  118  117  124  130  108  110  111  117  129  116  116  110  122  122  118  122  124  125  122  119  122  120   26
ch:  48     114  120  106  117  124  120  122  116  118  120  106  106  118  124  112  112  118  116  130  134  124  121  114  121  109  120  122  111  116  116  122   25
ch:  49     116  119  117  122  106  117  114  120  109  132  121  129  120  117  110  120  111  117  132  122  124  118  114  122  118  124  124  121  121  120  116   33
ch:  50     123  107  109  117  114  118  122  121  117  106  122  118  119  120  124  116  114  120  120  117  119  126  106  131  116  117  116  119  116  121  106   35
ch:  51     116  112  117  119  119  107  121  123  117  116  118  121  121  114  122  126  119  117  118  133  113  120  130  116  124  118  118  121  120  121  122   19
ch:  52     109  121  117  121  114  118  121  116  124  116  118  132  112  112  121  122  116  106  117  122  121  127  116  132  116  119  132  116  116  114  122   31
ch:  53     116  115  121  121  131  101  130  118  116  114  117  117  118  123  120  121  128  110  122  122  119  122  117  121  118  119  120  121  117  113  120   33
ch:  54     117  112  115  129  106  129  119  108  121  120  122  124  124  110  115  122  125  116  122  121  118  120  121  129  119  127  114  114  116  112  104   27
ch:  55     103  136  117  117  117  119  121  122  122  118  114  120  116  127  116  121  114  137  125  126  120  122  117  122  116  120  124  122   98  107  121   25
ch:  56     116  115  129  117  121  118  117  124  118  114  100  125  106  118  129  124  112  129  122  103  118  116  120  120  116  121  116  117  120  122  132   35
ch:  57     124  110  120  107  118  116  111  110  118  120  113  109  119  121  120  129  114  120  110  122  106  120  120  120  116  122  120  106  116  118  122   31
ch:  58     117  122  119  130  118  116  122  114  105  116  122  120  116  122  104  116  125  122  124  114  106  118  121  122  122  116  110  117  118  114  120   25
ch:  59     116  113  117  115  113  120  114  131  111  116  124  122  134  113  118  116  119  121  110  124  129  121  120  121  120  116  114  129  122  101  118   34
ch:  60     107  104  124  121  121  117  108  124  113  119  117  117  111  121  107  121  118  103  118  122  126  120  120  117  114  122  106  131  116  117  122   21
ch:  61     120  107  117  109  120  107  107  130  121  116  124  117  106  118  121  122  118  117  129  122  116  120  121  119  110  120  116  117  116  118  122   29
ch:  62     120  119  118  120  117  114  117  116  115  116  117  117  116  116  130  122  116  121  114  131  130  120  127  116  107  118  116  122  114  116  116   36
ch:  63     121  128  119  122  124  105  117  120  117  122  119  118  114  116  121  118  118  132  122  129  121  121  121  121  122  119  120  126  122  117  128   34
ch:  64     117  116  117  117  115  117  122  110  117  118  116  116  110  125  117  122  112  117  104  116  124  120  122  122  122  120  112  117  121  104  107   20
ch:  65     116  102  120  131  117  107  121  120  121  116  122  120  121  115  120  116  114  117  107  116  124  116  112  134  128  116  119  116  109  120  116   23
ch:  66     118  115  132  117  121  107  121  109  107  120  107  120  121  124  118  120  119  119  117  132  116  122  117  122  118  124  116  124  112  122  122   21
ch:  67     122  117  124  117  120  110  116  119  116  126  122  122  131  113  117  124  117  120  114  112  124  122  120  116  131  116  118  120  122  117  119   34
ch:  68     122  116  115  112  114  110  117  116  116  116  111  119  107  116  116  116  116  112  120  137  116  131  132  124  112  119  110  120  116  119  114   26
ch:  69     107  122  121  115  121  121  112  117  116  112  108  122  110  116  112  121  129  131  109  116  116  119  108  122  116  101  116  117  122  124  118   31
ch:  70     120  109  118  117  107  118  124  107  118  112  120  106  122  114  116  122  132  115  126  112  119  122  116  116  112  120  122  109  120  106  121   33
ch:  71     116  121  122  118  101  108  116  118  121  125  122  122  124  114  135  114  114  117  118  129  121  120  124  120  118  121  116  122  131  126  118   25
ch:  72     116  108  104  120  117  130  116  121  128  121  113  110  121  120  122  121  120  130  114  117  110  128  116  106  117  114  119  114  117  120  124   32
ch:  73     116  115  117  119  119  116  120  117  116  119  127  114  112  117  122  120  118  121  132  122  114  124  124  122  118  110  124  116  131  117  116   20
ch:  74     117  124  115  102  112  120  118  120  116  116  114  114  106  120  132  116  119  117  125  137  122  117  111  118  117  114  117  117  132  128  120   28
ch:  75     109  100  110  130  121  121  116  113  102  126  131  122  107  112  118  121  116  130  116  120  116  121  114  132  117  129  124  119  126  110  120   31
ch:  76     115  115  134  112  117  113  131  114  119  106  116  116  120  118  114  116  109  124  117  110  116  116  116  121  122  116  122  117  122  116  124   32
ch:  77     120  122  126  115  117  124  114  115  124  129  114  101  120  116  117  118  117  118  116  106  121  122  122  122  106  116  119  116  120  114  116   31
ch:  78     114  119  125  117  118  121  120  117  132  121  108  116  117  117  116  117  114  118  114  106  114  126  117  106  116  122  120  119  117  108  110   33
ch:  79     107  116  117  122  117  112  117  118  116  106  122  132  118  121  122  117  106  122  121  137  120  132  120  119  132  129  120  116  128  120  118   37
ch:  80     105  130  117  122  108  116  112  124  117  127  112  116  116  120  116  120  104  117  103  124  117  130  118  122  120  118  110  117  135  112  121   25
ch:  81     115  110  122  117  120  107  116  107  122  105  121  122  114  116  122  116  122  116  116  114  126  114  109  124  116  118  114  120  119  122  114   30
ch:  82     115  115  122  110  120  121  111  117  117  121  114  106  116  127  117  100   99  116  115  128  113  124  106  104  116  113  106  124  120  129  118   29
ch:  83     114  119  117  112  120  120  118  132  124  120  112  122  106  119  120  118  121  116  114  124  119  130  120  119  121  122  122  122  116  122  120   32
ch:  84     107  133  122  118  123  120  116  112  122  114  116  116  117  117  121  111  116  120  120  106  122  122  112  127  121  129  119  116  119  119  116   37
ch:  85     114  122  121  117  114  113  116  113  116  127  120  117  110  116  120  114  116  116  120  131  119  119  121  116  120  117  103  124  116  122  116   15
ch:  86     116  122  117  119  120  114  117  131  122  124  131  109  107  127  113  122  125  122  124  124  113  122  104  120  110  116  114  118  117  124  116   34
ch:  87     117  122   89  122  120  107  117  122  121  106  108  120  116  116  120  117  119  122  126  122  121  132  119  116  122  114  121  118  120  122  119   35
ch:  88     108  119  131  117  120  107  127  108  120  114  119  118  120  101  116  122  112  120  117  120  114  120  117  120  120  116  111  110  117  116  124   31
ch:  89     123  122  115  122  118  123  120  131  121  122  114  120  114  103  116  124  124  117  114  126  112  121  108  132  120  118  120  121  121  122  129   38
ch:  90     123  120  107  106  120  131  122  114  117  119  119  118  121  120  112  122  118  117  116  116  116  106  122  116  120  119  118  117  130  116  121   33
ch:  91     119  107  130  121  117  114  116  105  116  124  106  118  117  120  118  120  130  112  120  116  121  124  116  118  124  119  130  121  122  116  112   28
ch:  92     107  119  114  131  127  116  117  112  122  132  113  122  112  131  121  122  122  132  124  132  116  119  122  122  122  120  116  116  117  128  117   28
ch:  93     117  115  117  111  119  118  124  116  120  112  120  122  116  121  120  132  116  117  112  116  116  120  122  131  129  121  121  120  116  127  122   21
ch:  94     117  108  121  117  130  120  116  118  117  122  116  116  120  118  119  132  117  117  120  122  118  120  109  121  119  116  108  107  120  122  120   20
ch:  95     117  124  132  119  118  120  114  110  116  122  130  134  122  117  131  121  131  116  120  107  119  127  121  137  130  121  122  134  118  122  130   26
ch:  96     133  110  122  122  129  116  106  137  120  106  116  122  110  119  126  116  116  114  116  114  109  117  112  114  119  117  116  120  122  120  121   26
ch:  97     105  131  103  115  118  122  120  128  117  121  117  119  122  122  122  106  118  115  118  132  122  121  116  119  114  122  130  117  116  106  116   34
ch:  98     119  119  122  122  119  116  118  120  122  117  112  122  110  117  114  118  116  107  112  110  114  116  107  120  106  117  120  101  122  119  122   31
ch:  99     115  130  117  108  121  121  122  124  116  106  107  124  117  112  117  130  120  124  126  122  118  117  117  121  117  132  120  131  131  124  121   28
ch: 100     115  112  114  118  116  132  121  129  116  124  120  122  122  117  118  132  118  120  121  129  120  116  116  116  114  111  116  116  116  116  122   32
ch: 101     114  122  114  107  119  117  120  122  128  116  116  116  122  116  118  122  114  120  107  124  116  122  128  129  116  122  124  106  120  110  121   36
ch: 102     107  119  115  117  121  112  116  119  120  114  114  117  101  131  130  114  107  108  117  116  114  119  107  118  124  114  121  112  106  119  120   22
ch: 103     122  118  122  117  132  121  129  107  114  120  116  122  121  116  114  122  133  120  121  110  129  131  127  132  122  119  116  114  122  124  122   34
ch: 104     134  107  118  112  114  116  122  122  118  117  116  122  119  114  120  114  117  120  119  116  124  122  114  119  116  127  122  120  119  112  114   45
ch: 105     109  115  112  121  120  112  131  108  122  121  111  110  114  106  122  112  112  111  131  122  106  116  113  121  129  110  110  119  117  119  116   31
ch: 106     113  104  117  118  117  120  121  115  117  116  121  116  109  116  116  120  122  128  120  118  122  114  116  106  122  106  122  118  109  126  118   33
ch: 107     128  108  110  122  111  124  118  119  122  117  125  129  122  111  114  114  117  131  129  116  116  118  118  116  121  118  118  120  116  122  124   22
ch: 108     121  119  122  120  113  129  116  121  121  117  112  119  118  106  122  117  121  114  120  121  116  107  126  121  121  113  117  118  121  120  114   28
ch: 109     117  116  117  114  121  116  124  119  128  107  117  112  122  120  121  116  120  121  120  113  106  117  114  124  121  121  138  122  113  114  121   28
ch: 110     124  122  119  120  114  124  118  131  107  120  112  124  117  119  117  120  120  122  120  112  121  122  114  132  107  121  111  125  120  119  119   28
ch: 111     106  119  122  117  117  120  107  117  113  121  124  122  116  119  117  121  116  122  116  114  120  121  117  109  119  122  121  121  117  117  116   30
ch: 112     130  122  104  122  120  129  116  117  120  114  119  124  116  110  110  112  122  112  121  112  117  120  122  106  117  118  118  111  110  135  121   21
ch: 113     117  121  109  110  117  121  120  114  121  117  120  120  113  110  122  116  122  130  122  132  117  126  116  109  119  132  116  122  110  116  122   27
ch: 114     107  124  129  130  129   99  119  120  116  105  118  112  118  116  118  108  122  106  116  112  112  116  103  111  119  116  116  120  120  120  125   19
ch: 115     110  122  120  117  121  114  118  122  122  115  116  106  132  112  124  124  122  122  120  121  121  122  118  114  121  117  107  116  117  131  124   33
ch: 116     120  109  115  128  120  107  118  122  121  120  122  113  116  116  118  104  118  120  121  122  119  122  115  120  112  121  116  117  107  118  124   27
ch: 117     117  115  118  127  118  116  108  117  107  122  120  120  119  121  122  112  116  113  117  116  121  120  117  131  116  110  121  114  106  116  111   38
ch: 118     118  121  120  115  117  122  116  120  102  124  124  126  128  122  116  119  116  121  109  106  114  116  112  122  121  107  116  114  111  122  120   30
ch: 119     118  119  131  121  121  117  117  119  114  122  118  104  121  122  117  112  124  117  117  140  122  120  116  131  122  124  117  118  132  121  122   19
ch: 120     109  127  119  122  110  116  121  124  122  116  109  124  107  122  114  107  121  121  122  116  114  117  118  121  114  126  110  114  122  122  121   29
ch: 121     119  115  119  114  119  119  116  116  120  106  118  122  114  110  117  122  122  113  112  120  122  129  120  130  125  117  121  116  107  117  116   34
ch: 122     120  119  122  117  116  114  122  118  117  122  117  116  131  116  106  121  120  116  120  114  121  107  119  122  121  120  121  122  103  120  115   24
ch: 123     108  119  109  117  110  117  107  116  117  120  128  120  107  131  119  121  130  116  129  129  114  116  114  120  134  110  117  118  112  117  118   19
ch: 124     120  117  108  121  117  116  112  122  121  114  121  118  108  106  122  116  122  121  116  108  129  119  117  117  114  119  116  118  137  120  116   35
ch: 125     116  105  121  120  121  120  122  116  100  116  119  117  120  121  121  112  118  120  107  116  119  121  120  119  122  120  129  111  117  122  129   30
ch: 126     115  115  108  119  118  123  111  121  117  110  116  125  118  106  117  118  110  117  113  124  121  110  122  107  129  114  117  116  120  122  106   20
ch: 127     113  124  122  114  118  130  117  120  116  132  119  121  124  132  121  121  124  124  131  123  117  130  120  135  124  124  125  122  120  116  121   35
