# TRIM CALIBRATION    FEB6_7_4    pulse_ampl_min=13    pulse_ampl_max=150    pulse_ampl_fast=10
#
ch:   0     117  119  120  111  118  120  119  121  117  104  119  121  124  131  119  124  120  104  118  116  129  122  114  120  120  128  110  121  109  121  120   24
ch:   1     112  121  107  121  108  117  119  110  118  119  106  119  121  101  126  109  116  118  116  124  118  116  122  122  122  122  117  119  121  118  135   22
ch:   2     119  127  121  115  105  124  118  120  116  116  119  127  119  120  122  106  119  114  119  122  126  122  120  122  116  114  114  119  119  109  124   15
ch:   3     120  124  118  120  115  116  122  118  114  110  117  116  114  110  121  108  129  119  122  122  124  122  117  117  119  122  117  122  122  116  122   17
ch:   4     119  107  120  112  117  118  117  132  118  118  109  120  122  125  121  122  116  124  116  128  118  114  114  117  129  120  121  119  117  117  121   20
ch:   5     104  120  130  117  117  121  122  119  120  120  116  117  111  116  122  119  120  108  116  122  126  116  118  122  116  114  124  122  119  122  116   21
ch:   6     115  122  122  117  101  122  116  116  114  109  117  114  101  116  121  118  116  122  122  120  114  122  121  122  111  121  106  121  124  120  119   13
ch:   7     120  117  120  114  117  124  122  108  114  126  135  131  116  110  118  121  122  122  122  126  120  131  114  122  121  120  110  119  122  124  122   18
ch:   8     117  117  114  112  123  124  114  124  114  120  113  116  119  116  121  128  120  122  106  118  132  131  124  118  116  114  119  122  124  122  126   16
ch:   9     114  122  114  115  116  114  129  119  121  120  116  117  101  106  112  120  117  122  124  121  120  122  122  118  111  121  118  120  124  120  116   22
ch:  10     120  115  122  112  111  122  122  107  116  131  126  116  120  107  116  116  122  130  116  110  114  120  114  121  116  116  119  122  117  114  119    9
ch:  11     116  117  117  110  111  122  118  112  122  131  116  121  114  113  116  118  116  116  126  117  116  118  120  120  117  122  118  119  120  122  122   24
ch:  12     122  121  117  121  114  137  114  122  118  120  107  120  114  122  116  109  122  120  116  118  110  118  120  119  122  120  126  120  124  117  122   24
ch:  13     116  118  121  129  116  108  116  121  120  118  129  114  116  117  119  116  121  116  119  124  116  107  118  121  110  120  124  122  132  118  120   24
ch:  14     130  121  120  106  130  108  116  120  116  117  109  114  109  117  116  132  118  117  114  116  122  124  116  124  116  117  114  120  107  121  122   25
ch:  15     130  115  122  107  121  118  129  126  107  117  121  106  120  116  120  132  120  118  108  124  122  116  118  131  116  127  116  113  114  118  116   34
ch:  16     104  119  118  106  108  122  116  116  116  124  120  122  114  118  122  118  120  126  116  101  114  129  116  107  114  126  119  120  130  118  113   25
ch:  17     130  115  122  114  129  119  119  122  122  124  121  116  106  117  122  117  122  122  116  106  122  108  117  121  119  120  116  116  114  124  120   23
ch:  18     120  116  122  119  118  117  108  116  131  116  110  109  122  116  114  120  119  106  124  117  121  114  117  120  114  120  110  117  116  113  116   20
ch:  19     109  116  127  121  121  122  110  107  130  113  126  128  117  119  130  121  122  112  116  120  108  127  122  121  122  119  132  122  122  114  122   29
ch:  20     107  118  122  121  121  107  116  122  117  113  106  120  107  117  110  121  116  116  122  110  118  132  116  117  118  121  112  116  122  130  121   23
ch:  21     130  109  117  122  130  122  119  120  122  120  118  122  109  134  116  118  117  119  122  106  118  116  120  118  119  114  120  117  121  120  120   31
ch:  22     124  118  133  118  121  110  124  117  120  119  114  116  126  122  116  116  117  118  108  131  114  121  122  116  110  117  122  120  124  122  122   20
ch:  23     120  122  113  118  128  117  119  114  106  124  114  109  128  112  122  114  122  114  120  122  103  116  122  129  122  116  126  110  118  122  117   20
ch:  24     109  113  118  117  117  116  117  108  116  120  112  117  116  118  120  118  117  110  106  132  131  131  121  120  124  122  122  118  116  122  118   21
ch:  25     120  115  124  118  113  119  119  122  118  121  116  116  129  120  122  113  122  116  122  114  112  124  120  122  121  109  122  124  114  116  116   34
ch:  26     122  117  117  122  118  114  121  113  116  122  116  122  112  109  131  116  107  116  114  121  117  118  122  137  124  117  119  122  120  122  113   29
ch:  27     120  119  130  130  118  118  116  124  114  121  122  107  106  122  121  120  131  116  122  116  117  121  122  126  122  119  119  121  131  130  130   24
ch:  28     128  128  140  151  152  154  150  166  164  128  128  128  128  128  128  128  128  128  128  128  128  128  128  128  128  128  128  128  128  128  128   42
ch:  29     116  122  117  122  124  121  124  116  126  118  109  121  116  108  108  119  121  122  134  121  116  122  131  113  120  126  111  119  117  128  122   40
ch:  30     112  115  119  114  114  117  119  114  122  119  120  116  119  108  116  117  132  116  116  109  120  124  120  114  122  130  110  120  131  109  117   28
ch:  31     108  115  114  113  117  114  116  117  122  114  118  119  116  117  120  120  106  116  118  125  110  122  133  118  122  120  116  120  118  116  122   16
ch:  32     107  121  107  111  128  116  121  119  108  120  112  106  121  122  107  111  129  108  125  128  114  114  114  122  129  122  120  131  125  121  122   30
ch:  33     116  124  115  117  120  116  110  116  125  116  106  116  118  130  132  117  122  108  111  118  130  126  112  126  119  124  119  120  120  116  127   31
ch:  34     124  119  111  117  136  131  130  128  140  118  124  117  140  124  122  128  139  125  126  138  132  132  142  132  132  132  135  132  139  147  151   27
ch:  35     119  115  121  123  110  120  104  131  116  118  121  119  114  120  118  121  122  114  130  117  117  129  118  121  124  116  132  122  119  114  119   30
ch:  36     117  122  117  114  123  120  122  118  118  124  117  121  120  119  120  121  120  112  116  116  116  124  116  122  117  121  122  116  118  116  121   30
ch:  37     104  125  117  127  121  114  114  121  120  119  122  124  106  120  122  122  122  122  122  127  119  118  116  116  121  128  124  126  129  119  106   27
ch:  38     109  119  122  110  116  108  118  121  106  122  126  118  118  111  130  122  120  113  117  110  111  108  119  137  118  119  122  117  118  112  118   25
ch:  39     114  115  120  122  124  107  122  122  116  112  125  121  118  118  118  117  119  116  122  118  120  121  133  122  116  122  116  119  122  131  122   20
ch:  40     116  120  117  109  110  114  124  122  118  104  121  122  124  119  117  120  121  122  122  117  121  120  122  122  117  118  117  116  135  122  103   26
ch:  41     115  117  117  122  115  119  108  122  116  116  117  127  118  119  117  113  113  120  118  117  122  114  118  119  117  120  116  114  122  121  118   22
ch:  42     110  128  117  111  111  124  117  116  120  121  107  108  131  116  125  121  121  120  116  103  124  124  114  116  116  118  112  117  135  128  117   20
ch:  43     117  117  121  110  114  112  122  114  117  120  121  112  116  122  110  114  116  120  121  121  122  122  119  120  122  101  118  114  117  133  116   29
ch:  44     118  122  117  122  110  124  114  114  122  120  116  120  121  122  120  120  116  103  120  129  121  121  116  113  121  116  119  122  117  119  122   29
ch:  45     130  109  111  130  110  116  122  114  106  120  121  107  119  116  116  116  118  120  122  116  118  118  116  120  122  126  118  121  121  119  114   24
ch:  46     102  120  117  111  130  113  122  117  114  118  116  126  122  106  124  119  116  121  116  125  116  119  117  127  116  124  116  120  112  117  118   29
ch:  47     119  117  119  119  120  116  108  122  125  124  122  116  111  114  110  121  121  122  118  122  124  124  124  117  114  114  114  130  127  121  122   18
ch:  48     117  129  121  119  107  118  122  130  113  132  116  125  132  126  130  124  119  125  131  130  132  116  122  122  116  122  118  135  116  119  124   28
ch:  49     119  120  122  121  109  116  114  122  124  122  114  117  116  119  116  120  117  116  113  120  130  121  117  116  119  117  121  122  122  124  114   23
ch:  50     116  122  124  115  121  107  105  122  116  122  116  117  117  107  120  119  117  121  132  106  117  116  117  120  122  106  117  113  132  120  111   21
ch:  51     120  111  119  130  114  107  111  118  114  122  112  116  119  120  116  117  117  118  122  120  133  121  134  124  116  117  117  130  117  113  122   20
ch:  52     116  111  120  110  118  118  114  105  112  101  122  116  116  117  118  122  121  121  128  124  121  122  116  113  122  119  127  130  121  109  129   29
ch:  53     117  115  124  127  111  117  116  120  107  121  108  116  122  120  120  117  109  116  122  110  116  122  120  120  117  117  117  119  129  122  122   34
ch:  54     123  116  117  118  132  120  120  117  106  116  116  116  122  106  132  118  117  109  120  116  119  132  130  130  131  116  120  132  116  106  122   33
ch:  55     120  101  117  122  117  113  121  122  128  124  116  120  121  116  117  112  121  117  122  122  120  120  122  114  108  122  120  122  121  130  122   17
ch:  56     132  124  117  133  121  116  111  129  121  119  120  117  119  124  116  117  118  122  114  108  117  116  117  122  130  126  122  128  116  117  120   27
ch:  57     115  121  129  124  132  114  115  114  118  134  114  118  112  117  122  118  131  114  116  114  117  116  110  121  124  118  103  119  120  119  116   24
ch:  58     122  118  132  131  109  116  126  120  114  116  122  120  110  108  114  112  116  116  121  120  122  124  122  116  129  114  122  118  116  121  119   28
ch:  59     120  121  117  121  107  120  116  122  125  119  122  117  116  130  116  116  122  121  121  116  118  116  113  116  122  118  121  127  121  116  122   30
ch:  60     107  119  121  106  119  116  116  124  118  120  116  137  121  121  117  111  124  122  122  125  116  122  118  122  120  124  129  116  124  119  122   19
ch:  61     128  128  136  128  153  166  167  166  128  128  128  128  128  128  128  128  128  128  128  128  128  128  128  128  128  128  128  128  128  128  128   42
ch:  62     117  115  112  114  115  108  119  119  119  120  114  118  116  108  119  116  113  114  121  131  112  113  114  114  110  122  116  120  117  122  121   29
ch:  63     122  121  116  122  107  114  122  113  122  132  122  114  116  122  123  131  122  118  118  129  120  121  113  103  116  131  122  116  119  120  122   22
ch:  64     115  119  119  119  125  116  127  124  116  117  120  119  117  116  122  111  114  117  118  120  111  113  116  117  120  119  126  121  130  120  119   30
ch:  65     114  117  131  112  124  112  125  119  116  131  114  117  117  114  122  118  122  117  114  116  106  106  119  118  121  121  118  122  109  116  116   30
ch:  66     115  116  107  120  120  113  124  108  121  120  116  116  117  118  116  124  114  116  118  132  118  121  121  124  119  117  117  117  126  122  121   12
ch:  67     114  115  124  121  117  111  121  122  120  118  108  122  121  129  109  122  122  124  132  116  137  124  116  117  130  122  125  122  119  118  123   26
ch:  68     130  119  117  120  117  114  122  116  117  118  119  120  112  118  108  110  120  120  117  122  116  118  118  116  116  112  121  120  119  106  124   29
ch:  69     115  115  130  119  121  120  119  122  122  120  116  109  114  117  120  116  117  110  116  111  114  111  129  122  121  120  108  121  130  116  116   19
ch:  70     115  115  118  118  118  116  104  120  116  111  116  120  128  122  121  116  114  116  116  121  120  120  125  121  110  117  119  114  122  106  122   30
ch:  71     128  128  119  129  121  128  121  132  132  122  118  137  124  122  131  126  135  126  127  139  132  131  129  124  131  124  147  135  137  145  132   28
ch:  72     115  116  119  122  128  120  121  116  117  122  110  114  120  110  122  117  114  117  119  118  128  131  124  118  113  122  122  122  122  117  122   30
ch:  73     122  128  117  122  114  116  118  122  116  134  114  109  108  116  116  118  118  122  118  129  124  121  125  122  122  124  124  122  129  122  124   26
ch:  74     113  109  129  117  132  120  126  107  102  114  126  125  114  104  106  129  118  119  122  116  121  122  122  122  118  131  132  124  116  114  118   23
ch:  75     116  119  108  131  115  120  116  120  106  119  116  131  110  118  109  119  132  117  120  112  114  121  120  117  119  117  130  107  119  124  120   28
ch:  76     123  118  119  131  119  112  120  120  114  117  109  118  121  116  111  122  116  120  125  129  120  114  124  118  138  116  112  118  116  122  114   28
ch:  77     119  117  106  117  119  118  114  122  116  116  114  124  107  116  124  122  118  122  107  117  117  118  122  116  116  117  108  132  118  121  120   24
ch:  78     116  117  114  128  121  120  117  124  108  111  116  117  121  118  120  116  116  121  118  106  122  124  116  116  113  108  117  107  116  120  116   32
ch:  79     119  122  132  117  117  135  110  107  134  116  122  119  130  124  117  110  124  119  122  122  122  131  122  117  122  113  132  122  130  120  122   30
ch:  80     103  117  107  122  121  120  122  121  113  122  121  122  120  118  117  117  122  130  124  114  117  114  116  116  114  109  106  126  106  130  121   20
ch:  81     120  119  120  111  121  118  124  128  120  114  122  122  121  119  109  122  116  117  120  117  121  122  106  126  117  120  120  122  131  121  130   24
ch:  82     115  134  113  110  113  119  116  107  116  117  109  124  122  120  107  114  121  117  117  116  120  121  124  120  116  122  121  121  107  131  113   32
ch:  83     117  112  120  114  115  113  122  126  122  117  108  116  130  119  122  124  124  119  130  111  129  116  117  106  128  116  124  108  120  138  127   40
ch:  84     122  121  124  119  121  110  118  114  120  121  121  121  117  131  117  112  129  117  116  120  120  118  118  124  117  133  119  124  116  122  117   23
ch:  85     130  121  121  122  115  117  128  116  114  120  121  114  114  122  122  118  129  122  125  114  116  116  130  121  119  117  121  125  121  118  118   29
ch:  86     122  109  108  107  128  116  116  118  116  114  131  122  120  110  116  117  117  124  114  124  121  116  118  129  122  118  119  130  121  120  116   21
ch:  87     120  119  130  114  117  122  122  117  122  119  120  121  122  116  114  122  120  122  124  120  120  122  127  121  122  131  132  116  119  120  122   27
ch:  88     110  128  122  119  117  105  118  129  105  118  121  116  122  119  122  117  116  134  121  116  116  122  124  121  117  121  122  104  121  125  120   29
ch:  89     116  118  122  112  115  114  120  120  116  128  121  122  127  120  124  116  111  116  114  117  124  128  122  118  122  130  120  110  121  121  122   21
ch:  90     117  117  117  130  114  124  132  116  116  114  114  122  114  121  122  114  121  121  124  122  109  117  120  109  120  135  132  116  118  116  119   20
ch:  91     123  119  113  122  124  116  116  119  116  122  121  112  116  106  131  124  117  121  116  116  116  128  116  116  110  116  128  119  122  117  122   42
ch:  92     116  122  118  119  123  118  114  121  122  117  116  116  117  124  124  122  124  116  118  117  116  121  124  118  122  139  119  114  130  118  122   28
ch:  93     124  117  136  110  115  120  107  126  132  121  116  117  114  109  120  121  121  116  129  116  116  118  116  117  122  117  124  125  122  121  122   41
ch:  94     124  124  131  110  118  122  131  116  121  118  113  117  114  119  119  114  103  121  111  117  120  116  116  129  122  121  118  116  121  117  117   22
ch:  95     115  119  122  119  108  120  102  122  120  122  119  121  120  120  122  120  116  130  116  120  118  118  124  121  121  121  120  122  121  120  119   24
ch:  96     120  120  121  108  110  113  118  112  126  122  122  108  116  122  121  119  119  116  112  118  112  110  121  120  117  124  118  124  122  119  116   27
ch:  97     120  117  118  119  115  117  117  119  121  113  116  114  116  106  116  118  124  120  122  117  116  108  132  122  127  131  120  122  110  120  122   27
ch:  98     128  117  122  107  108  120  117  124  129  122  106  116  116  119  112  122  120  130  121  118  122  117  110  118  109  107  121  117  118  118  129   30
ch:  99     128  120  130  111  121  124  127  120  116  121  116  121  114  109  120  106  121  124  119  120  119  108  122  111  114  124  131  131  122  120  114   30
ch: 100     124  122  122  117  119  118  124  119  116  124  116  120  109  116  124  109  110  114  121  119  118  122  118  119  121  122  110  108  116  129  114   23
ch: 101     122  117  114  106  123  117  120  122  117  106  116  112  116  121  111  114  121  118  119  125  120  129  117  114  117  116  122  112  122  116  116   24
ch: 102     122  122  119  114  121  116  117  118  114  117  116  120  108  116  116  132  116  114  128  109  111  131  114  109  122  120  104  117  119  110  117   23
ch: 103     119  107  124  117  117  117  119  111  110  119  118  119  118  124  116  114  120  118  104  121  131  122  121  118  126  120  119  119  117  121  116   29
ch: 104     117  115  108  117  120  120  113  116  121  118  117  121  114  108  117  122  121  116  121  116  120  110  116  120  117  120  124  122  119  137  120   22
ch: 105     112  115  119  117  117  119  124  120  114  110  110  111  129  106  122  121  117  118  116  121  119  117  119  122  116  124  122  110  117  120  132   23
ch: 106     128  118  117  122  117  122  121  124  116  122  114  116  116  109  110  114  116  117  120  124  114  108  121  117  114  122  116  117  121  117  118   27
ch: 107     115  119  117  127  117  113  119  118  119  119  118  121  107  116  120  130  122  119  119  122  117  128  122  116  124  120  114  121  117  116  121   24
ch: 108     107  116  110  122  120  120  109  120  125  124  119  114  121  106  114  119  122  121  116  120  122  131  122  122  122  117  131  121  118  129  120   16
ch: 109     117  119  122  117  117  119  124  120  107  118  119  106  111  122  122  107  121  122  121  128  121  122  116  122  132  116  118  121  116  120  117   15
ch: 110     108  115  114  131  121  120  120  116  116  116  121  117  116  121  121  122  117  116  132  118  132  125  124  121  121  114  122  116  112  111  121   27
ch: 111     120  121  125  118  121  116  119  119  121  117  116  130  119  122  121  116  122  121  110  122  122  118  117  132  120  131  119  120  121  117  124   33
ch: 112     119  121  109  115  121  120  129  117  121  114  117  120  117  116  118  119  110  130  131  123  116  114  124  112  121  116  132  118  121  131  122   29
ch: 113     109  116  117  117  117  120  107  120  117  120  116  124  122  120  117  131  120  122  114  130  117  114  122  137  116  119  130  116  127  114  119   31
ch: 114     124  117  119  119  117  121  122  122  117  117  116  116  118  110  117  121  120  124  121  121  124  104  122  120  124  122  121  121  128  122  107   28
ch: 115     119  120  122  117  107  130  116  121  120  124  114  122  124  124  122  110  126  120  124  130  132  122  119  122  121  128  126  120  119  121  124   27
ch: 116     120  118  119  121  121  127  114  117  122  120  118  124  120  109  120  129  116  121  124  120  111  109  114  122  128  122  122  122  124  121  110   23
ch: 117     120  113  113  115  121  120  120  117  122  134  132  116  112  114  121  121  106  124  121  116  112  113  113  131  111  120  116  122  114  106  121   28
ch: 118     115  108  122  130  120  111  119  108  122  125  122  117  122  121  114  108  121  106  122  113  116  132  121  116  114  128  117  132  113  117  121   25
ch: 119     119  119  124  130  123  121  122  117  120  118  117  120  121  124  117  100  122  131  121  117  120  122  124  122  117  120  130  126  113  117  117   22
ch: 120     116  120  117  113  118  110  118  121  119  116  122  114  117  120  118  110  122  119  116  116  119  120  121  119  122  120  121  125  116  124  122   19
ch: 121     115  119  108  117  121  122  117  124  116  116  119  120  131  110  117  132  117  121  124  121  107  119  122  120  121  122  125  116  117  124  117   16
ch: 122     113  109  114  122  109  118  114  110  120  129  116  110  112  107  114  122  116  132  114  120  121  122  121  120  121  120  124  121  128  116  122   19
ch: 123     134  115  117  104  120  124  117  122  122  109  116  117  120  121  125  122  122  118  124  121  122  131  120  127  124  122  122  119  117  121  116   27
ch: 124     128  126  122  119  120  122  116  119  112  119  120  116  120  110  120  130  121  120  130  122  122  112  121  117  120  107  132  113  122  121  118   24
ch: 125     118  116  120  121  108  111  131  116  116  107  116  117  101  117  117  122  116  114  121  117  117  116  120  128  117  119  120  129  118  122  122   20
ch: 126     115  106  117  118  118  124  118  116  122  125  122  117  106  131  113  121  124  126  118  114  122  108  114  124  118  118  116  116  122  124  129   24
ch: 127     109  116  125  122  117  114  131  116  122  139  114  129  119  114  128  116  137  131  131  129  120  122  122  120  122  135  131  132  135  117  132   27
