# TRIM CALIBRATION    FEB6_2_5    pulse_ampl_min=13    pulse_ampl_max=150    pulse_ampl_fast=10
#
ch:   0     117  115  117  115  119  121  122  104  116  117  117  114  109  118  107  103  119  108  101  122  106  120  116  114  111  118  111  122  106  111  111    0
ch:   1     107  121  119  117  114  108  107  105  117  120  116  106  107  116  120  110  113  114  110  116  116  116  120  110  117  104  101  131  124  101  116   21
ch:   2     113  104  105  119  114  113  116  122  116  120  104  122  112  106  117  114  106  124  101  112  121  114  114  116  117  116  116  103  114  106  105   25
ch:   3     115  122  121  111  107  129  116  117  102  116  117  108  120  124  120  116  114  113  117  116  121  121  111  118  114  114  106  112  103  116  113   30
ch:   4     119  119  115  121  104  115  117  107  117  102  120  115  113  117  106  116  117  116  120  118  116  112  110  116  116  112  104  107  109  117  116   19
ch:   5     120  112  117  117  117  107  116  105  130  122  103  109  114  113  101  116  118  112  118  113  124  117  106  106  118  122  106  109  114  120  107   28
ch:   6     115  119  122  117  120  116  117  107  116  121  117  125  110  120  107  106  116  118  118  108  116  106  114  100  116  116  112  116  119  109  121   20
ch:   7     102  104  116  122  121  117  115  120  114  120  112  122  117  122  116  116  119  116  112  122  116  122  118  114  114  121  119  116  116  106   94   12
ch:   8     115  117  114  110  119  110  105  121  104  122  117  116  109  116  116  103  107  112  107  114  124  103  116   99  112  114  122  104  110  122  114   19
ch:   9     107  119  118  118  121  119  120  122  102  107  112  119  120  116  109  112  114  113  117  126  116  122  113  119  106  110  116  111  104  120  120   13
ch:  10     123  116  106  117  107  119  118  118  100  106  116  116  124  116  114  109  110  116  112  124  130  119  106  122  121  114  106  118  114   92  104   23
ch:  11     128  128  128  128  128  128  128  128  128  128  128  128  128  128  128  128  128  128  128  128  128  128  128  128  128  128  128  128  128  128  128   31
ch:  12     115  118  130  130  149  147  168  177  128  128  128  128  128  128  128  128  128  128  128  128  128  128  128  128  128  128  128  128  128  128  128   23
ch:  13     104  111  114  125  128  134  136  149  144  146  143  149  149  154  136  161  181  172  164  179  128  166  168  128  128  170  171  179  128  128  128    2
ch:  14     120  115  106  126  105  113  113  122  119  106  113  112  122  106  106  113  114  121  122  109  110  120  121  106  112  116  106  112  120  117  118   27
ch:  15     124  109  117  124  131  120  116  118  117  119  117  122  121  106  111  127  120  117  116  117  107  120  120  122  109  107  116  104  106  104  119   20
ch:  16     120  116  107  106  120  117  122  108  122  111  116  127  116  116  101  108  112  116  111  113  118  116  121  119  107  109  112  120  128  116  116   28
ch:  17      97  122  114  105  117  116  116  117  120  113  105  117  116  112  131  117  106  106  129  118  124  101  119  117  119  107  118  108  110  109  107   32
ch:  18     107  112  112  120  117  120  120  130  114  120  116  117  126  127  120  117  112  114  103  117  105  120  106  118  106  107  116  116  112  107  101   29
ch:  19     107  124  114  109  120  102  108  119  116  117  116  116  121  114  108  117  120  116  110  116  121  116  106  117  120  100  118  104  109  122  116   30
ch:  20     120  112  122  109  103  114  120  118  112  124  106  113  124  114  112  107  106  112  122  116  114  116  118  117  116  124  110  111  112  110  114   29
ch:  21     122  116  120  117  121  120  108  114  117  120  112  117  112  117  106  120  113  122  106  114  121  113  113  116  119  120  104  106  106  116  122   26
ch:  22     115  122  106  105  114  105  121  117  102  112  119  105  116  105  108  118  114  112  110  105  122  116  118  101  116  116  114  116  116  101  118   29
ch:  23     115  122  119  116  111  107  117  116  116  116  122  108  114  124  117  129  120  112  114  118  104  110  124  122  101  107  103  121  116  120  116   20
ch:  24     121  109  115  106  120  116  117  102  104  108  120  110  120  107  108  116  107  116  119  121  116  107  120  114  114  106  103  104  103  106  106   16
ch:  25     102  115  117  117  108  107  115  126  114  117  117  101  113  124  110  120  116  109  114  121  122  112  116  117  116  112  121  122  120  106  103   21
ch:  26     118  115  112  115  117  114  116  107  115  107  125  104  119  112  118  110  121  103  101  119  107  104  114  114  118  110  107  120  117  124  110   26
ch:  27     116  116  120  118  123  118  108  118  117  116  114  114  116  113  103  116  114  113  104  118  114  117  106  104  116  118  117  116  107  114  116   18
ch:  28     120  108  106  118  113  122  116  120  114  116  113  114  114  117  116  103  106  120  116  119  110  106  113  108  106  122  117  101  122  112  113   30
ch:  29     109  120  120  115  115  120  119  114  116  116  108  106  116  106  109  104  117  104  114  116  111  121  118  120  127  118  122  112  116  103  111   36
ch:  30     115  113  109  117  120  108  117  116  114  103  115  119  113  130  106  114  115  122  118  114  101  116  110  120  114  117  122  116  116  105  103   26
ch:  31     107  121  117  119  128  105  121  108  130  116  115  112  125  116  122  112  116  113  122  124  119  114  110  119  106  122  121  107  107  110  114   26
ch:  32     119  122  108  117  113  119  120  121  120  118  107  116  109  114  117  110  120  116  118  118  107  116  116  116  114  118  110  117  122  106  106   24
ch:  33     114  119  108  110  114  116  116  118  122  119  116  116  117  107  118  116  122  103  127  114  117  109  120  101  118  124  106  119  112  120  114   26
ch:  34     107  133  120  117  115  117  114  105  118  106  116  114  116  115  120  116   92  109  117  114  120  101  116  120  124  116  116  112  116  120  106   26
ch:  35     115  121  127  118  135  120  107  124  106  106  120  114  113  114  107  109  106  120  122  121  121  116  114  116  109  119  122  119  114  112  107   36
ch:  36     107  113  114  119  113  116  116  122  113  112  129  113  122  112  104  116  118  118  118  118  112  117  104  121  106  106  106  117  128  104  107   35
ch:  37     107  112  117  119  117  114  121  122  117  101  104  115  122  121  122  114  119  114  122  112  106  117  132  118  112  118  117  117  112  116  117   26
ch:  38     115  130  117  122  120  117  112  127  117  116  117  114  120  116  118  106  121  116  112  116  116  116  107  121  116  107  107  118  116  107  110   39
ch:  39     116  122  128  110  121  124  110  122  114  120  106  120  106  116  109  106  116  121  114  112  106  112  122  106  116  106  120  118  116  118  112   30
ch:  40     120  111  117  109  121  117  121  121  102  121  112  113  106  116  111  122  114  117  114  121  118  114  117  103  106  120  132  114  121  120  116   38
ch:  41     117  122  108  117  129  114  122  122  114  119  101  117  113  118  120  115  117  122  120  112  122  108  116  116  103  122  116  118  122  117  120   33
ch:  42     120  112  118  122  130  122  122  124  120  121  116  117  101  117  106  116  113  113  119  121  105  107  112  120  122  117  117  122  116  112  122   37
ch:  43     121  122  108  108  120  117  104  110  120  117  116  104  120  120  118  116  120  108  103  112  116  118   99  104  116  113  108  114  116  117  112   29
ch:  44     116  106  117  118  131  116  111  118  118  114  122  118  124  116  114  119  122  112  122  116  114  117  117  106  117  113  118  112  121  117  118   26
ch:  45     124  115  117  122  117  116  118  122  119  117  110  114  117  112  116  132  120  116  120  116  109  116  101  114  107  116  116  122  117  120  116   33
ch:  46     107  119  121  117  107  120  120  102  121  121  117  116  101  116  120  116  103  118  109  114  113  117  116  106  116  112  129  109  114  117  119   27
ch:  47     115  102  118  115  117  121  117  124  116  122  124  116  116  124  118  124  110  104  112  116  131  114  120  116  116  116  116  117  116  122  110   28
ch:  48     119  119  107  110  121  107  119  118  121  129   94  104  105  113  104  106  118  114  116  109  122  107  120  116  118  124  106  120  118  121  112   29
ch:  49     121  131  112  119  117  112  121  133  105  117  116  107  117  119  106  122  114  120  103  113  119  116  100  114  116  108  118  109  107  119  118   23
ch:  50     117   99  118  115  117  113  114  122  120  132  122  105  117  114  106  116  117  101  120  133  114  107  113  117  116  119  110  116  113  119  107   28
ch:  51     107  119  115  119  121  116  122  120  105  112  122  117  116  121  111  118  120  121  110  114  116  118  104  119  106  116  120  118  106  118  108   33
ch:  52     118  119  113  119  118  125  120  122  106  116  128  106  113  106  118  122  104  116  106  116  116  117  101  106  119  117  109  106  110  107  118   23
ch:  53     124  120  118  117  128  117  112  113  116  103  111  112  122  116  106  122  117  116  116  120  117  122  111  120  104  119  110  114  126  119  120   30
ch:  54     118  122  110  113  121  116  108  122  122  116  112  122  116  117  128  118  106  114  111  101  109  122  132  103  121  121  106  132  112  116  110   20
ch:  55     120  119  116  130  112  112  106  116  119  120  114  106  104  107  104  121  116  114  116  116  112  112  116  124  116  118  116  117  126  121  117   29
ch:  56     122  122  119  117  117  116  107  107  110  114  114  128  109  116  111  116  101  116  116  120  116  119  118  122  112  118  108  117  117  116  116   27
ch:  57     113  117  117  112  115  128  107  121  112  120  117  116  114  116  123  110  109  103  107  121  120  113  107  109  118  120  117  116  118  104  110   36
ch:  58     107  115  107  121  117  116  113  121  131  129  101  116  116  114  104  116  104  122  114  132  116  104  116  116  110  119  116  117  116  104  116   27
ch:  59     106  117  129  118  121  121  119  116  117  121  121  114  122  121  117  114  121  100  107  104  101  117  118  116  110  108  130  121  118  112  116   32
ch:  60     115  107  117  117  119  122  105  122  105  106  116  118  116  113  117  113  120  122  116  119  118  116  116  106  121  122  117  100  118  116  114   28
ch:  61     114  115  117  112  121  119  116  120  121  116  124  121  122  119  120  118  113  119  107  121  116  112  112  118  114  103  116  131  114  114  116   24
ch:  62     117  117  119  119  132  121  124  133  138  139  136  139  139  149  145  144  140  151  151  156  151  149  154  165  165  152  162  165  160  164  163   12
ch:  63     128  128  128  128  128  128  128  128  128  128  128  128  128  128  128  128  128  128  128  128  128  128  128  128  128  128  128  128  128  128  128   54
ch:  64     100  115  121  102  115  124  121  121  120  115  120  106  116  116  122  114  110  116  117  109  122  118  114  106  119  116  116  120  112  119  116   27
ch:  65     106  122  114  126  121  118  116  113  116  101  116  118  126  124  116  114  132  106  106  118  118  109  122  130  116  122  100  127  114  121  106   25
ch:  66     117  119  106  112  120  118  107  114  121  120  122  117  116  110  118  116  116  124  122  124  116  114  107  116  114  118  113  114  111  116  117   28
ch:  67     120  119  109  119  119  121  115  118  112  122  111  115  119  122  122  122  120  106  118  132  106  117  116  116  120  121  122  122  113  111  106   37
ch:  68     114  124  115  106  115  123  116  121  118  116  107  116  108  106  116  121  114  101  119  106  114  122  106  116  122  106  110  116  116  117  124   32
ch:  69     107  122  119  119  123  105  122  116  110  120  118  135  119  114  114  114  112  110  116  122  117  119  118  112  120  122  121  122  116  106  122   29
ch:  70     122  115  115  117  114  124  116  118  116  112  120  130  122  104  118  116  114  116  114  112  120  116  118  104  119  116  131  101  116  116  118   33
ch:  71     115  113  118  118  117  117  117  127  118  108  117  120  113  120  106  128  127  118  112  121  124  130  116  116  125  120  109  122  106  111  116   23
ch:  72     118  119  117  118  118  120  132  128  130  106  121  101  116  117  117  103  118  106  117  131  117  122  105  116  120  112  122  122  117  111  122   20
ch:  73     120  104  117  122  107  107  125  118  119  119  116  122  116  120  116  116  122  116  116  120  118  116  106  120  117  116  118  108  104  121  112   30
ch:  74     108  119  115  115  115  117  118  116  106  124  114  122  122  116  121  119  117  116  121  116  116  116  116  122  124  120  118  114  112  103  106   30
ch:  75     118  119  115  117  107  105  120  113  117  109  118  121  121  122  110  116  121  116  110  119  116  126  118  112  120  124  120  118  106  112  114   28
ch:  76     115  122  115  117  111  107  114  122  116  110  104  106  113  101  121  117  117  116  120  120  109  114  118   99  116  117  107  118  116  104  117   23
ch:  77     105  102  122  117  135  121  132  108  119  120  107  101  118  119  109  110  119  117  114  124  114  109  112  121  106  106  112  119  109  110  116   24
ch:  78     115  118  130  118  117  116  107  114  107  121  124  116  118  121  120  113  114  106  127  106  111  134  110  118  116  106  101  116  116  121  122   30
ch:  79     114  124  120  126  121  120  121  120  107  131  104  118  117  107  120  109  116  109  111  118  116  112  114  109  119  105  120  110  114  119  122   34
ch:  80     114  109  115  109  120  121  119  124  116  122  114  104  132  114  104  104  116  103  119  120  116  114  112  107  112  120  131  114  110  110  120   29
ch:  81     130  107  117  117  126  116  117  113  113  120  121  116  112  106  114  118  101  116  107  116  119  122  120  122  116  116  116  106  122  104  110   33
ch:  82     115  117  122  117  117  125  121  117  117  117  119  116  121  116  130  121  118  112  117  117  116  130  114  112  130  116  116  116  101  116  105   24
ch:  83     132  119  122  109  121  118  116  118  114  114  122  114  105  121  114  114  113  116  113  122  116  110  106  116  105  107  116  126  110  119  119   26
ch:  84     116  112  121  131  120  116  116  117  105  122  101  119  122  106  109  114  121  120  118  109  116  122  116  120  116  116  114  116  121  116  114   41
ch:  85     116  107  119  121  107  111  120  113  122  116  116  118  116  119  106  116  122  101  101  113  112  106  111  101  106  107  114  111  119  111  107   31
ch:  86     104  134  121  117  109  117  121  122  122  114  120  112  103  122  116  120  122  116  120  121  116  116  106  106  103  116  120  119  129  116  116   39
ch:  87     122  114  120  130  120  113  115  106  120  106  116  115  114  117  119  106  114  116  130  110  104  119  120  116  110  113  113  105  104  118  106   43
ch:  88     131  122  122  117  108  107  108  122  116  124  112  121  106  114  122  118  132  114  119  107  107  121  122  107  113  118  122  119  104  110  116   30
ch:  89     122  112  107  121  120  121  121  114  130  118  120  118  122  133  121  120  122  116  104  114  116  118  112  121  117  120  117  116  108  117  120   39
ch:  90     104  116  115  118  123  111  115  124  102  112  116  119  116  124  116  116  117  120  114  116  118  105  105  117  110  112  114  116  119  116  117   40
ch:  91     114  122  107  120  108  121  107  107  132  109  112  116  112  114  121  118  103  110  117  122  116  112  121  120  117  119  106  122  107  120  108   38
ch:  92     128  110  122  100  107  116  122  131  116  122  121  107  112  106  122  117  116  109  122  120  117  106  118  112  118  100  124  107  111  116  106   28
ch:  93     117  116  106  117  117  105  132  116  121  116  120  114  122  106  105  118  116  124  113  120  114  116  116  122  105  114  122  117  119  120  116   28
ch:  94     116  105  122  106  121  129  107  107  121  113  120  120  121  117  130  106  114  107  116  121  116  116  117  110  106  119  114  114  119  100  116   28
ch:  95     122  121  117  114  121  119  116  118  122  121  119  122  124  112  116  122  114  117  118  121  118  110  124  116  109  116  116  119  122  122  116   23
ch:  96     128  102  112  117  119  107  121  107  105  116  107  106  118  114  109  101  106  107  114  108  121  110  120  120  121  122  118  130  109  101  116   32
ch:  97     120  119  109  117  121  121  118  110  116  116  114  124  113  116  123  119  121  118  132  122  122  116  116  111  122  117  114  121  123  122  117   24
ch:  98     118  110  110  114  107  116  111  122  102  114  118  117  110  131  120  116  116  116  120  118  120  117  118  106  116  116  116  112  123  108  103   36
ch:  99     120  120  105  125  121  121  120  119  112  132  116  106  110  106  112  121  110  118  109  106  121  122  114  121  110  116  114  112  121  106  117   22
ch: 100     120  115  117  115  107  105  122  116  119  108  106  121  120  110  121  121  116  107  106  113  115  118  117  122  121  129  120  106  109  120  100   31
ch: 101     116  115  122  117  106  117  116  117  124  101  120  130  122  106  122  109  116  116  122  114  114  119  114  112  119  122  132  101  112  114  110   33
ch: 102     106  119  119  121  108  115  118  129  120  107  118  120  110  123  122  106  117  106  122  120  117  106  116  117  121  116  124  100  120  116  114   31
ch: 103     116  117  103  122  107  108  116  114  116  122  107  119  101  110  121  114  116  120  110  106  119  110  117  122  117  107  116  119  116  112  121   24
ch: 104     118  115  114  121  117  116  116  117  122  118  104  108  114  116  126  110  107  111  106  100  118  107  124  106  118  120  129  119  113  118  108   32
ch: 105     119  121  122  130  117  113  130  134  121  124  122  110  106  120  122  116  119  120  114  108  117  116  116  131  116  120  116  119  118  112  116   37
ch: 106     117  116  117  122  117  116  118  131  109  121  132  112  116  117  132  125  116  110  119  104  122  118  112  116  116  114  120  116  114  117  117   29
ch: 107     115  128  107  113  121  116  119  117  122  119  107  120  122  121  117  117  118  131  121  113  122  104  116  119  117  117  117  122  107  116  122   18
ch: 108     117  128  118  119  117  116  107  115  120  113  122  117  117  124  121  114  110  121  122  112  120  116  116  112  107  120  110  117  122  116  111   31
ch: 109     116  119  122  102  121  102  124  122  114  110  120  120  122  101  117  120  107  121  116  120  114  118  113  113  122  119  116  117  115  118  106   30
ch: 110     115  107  121  120  120  107  116  114  112  114  116  116  109  108  112  107  114  106  112  132  111  116  117  107  122  114  101  116  112  118  120   21
ch: 111     107  120  131  122  118  122  105  116  124  116  118  117  115  116  120  106  116  120  120  116  116  119  112  116  116  121  117  111  110  107  114   32
ch: 112     112  116  107  118  107  120  132  122  120  120  106  122  116  112  118  112  114  120  113  112  120  132  116  110  112  114  104  124  110  113  116   19
ch: 113     124  120  117  106  113  121  116  119  124  106  117  117  117  104  117  120  120  117  113  118  117  118  130  117  114  129  103  119  100  117  104   26
ch: 114     107  113  114  117  117  100  120  120  121  106  106  116  106  115  116  119  116  113  122  113  121  120  106  118  116  117  114  115  114  120  116   29
ch: 115     103  112  119  124  112  102  124  122  106  111  117  119  108  116  106  122  118  118  122  127  116  106  122  116  117  122  122  117  119  120  109   21
ch: 116     119  121  117  119  105  121  118  118  121  117  116  114  103  113  120  104  121  116  124  106  121  114  103  101  116  112  114  130  114  119  116   33
ch: 117     121  115  115  117  115  116  117  119  110  132  106  105  117  118  109  116  118  115  106  103  106  114  118  106  117  116  106  106  114  111  122   20
ch: 118     120  118  115  119  107  108  118  116  116  110  110  117  112  119  116  110  116  121  114  117  116  110  132  116  116  118  121  117  104  116  120   22
ch: 119     107  129  114  106  112  122  116  124  116  114  122  130  119  107  112  131  101  120  116  116  107  117  116  122  106  114  120  109  116  107  108   20
ch: 120     124  122  118  121  101  116  116  121  124  116  117  130  106  122  109  108  112  121  112  106  122  112  111  124  120  114  117  119  109  103  105   19
ch: 121     119  119  108  117  120  117  120  119  114  113  103  120  122  110  121  116  122  112  117  107  116  121  116  117  110  116  113  118  106  117  120   23
ch: 122     116  120  115  114  118  107   99  111  112  120  116  116  106  106  120  116  120  129  116  122  118  121  113  114  106  116  104  108  116  110  116   28
ch: 123     116  108  126  122  108  119  119  124  116  116  103  118  114  105  114  116  110  118  120  117  126  109  113  119  118  129  121  112  109  119  109   20
ch: 124     120  129  117  117  103  108  104  124  116  118  121  114  119  101  116  123  115  105  114  120  118  131  117  118  116  119  107  117  120  122  119   20
ch: 125     133  116  118  117  110  120  117  119  114  122  112  120  128  117  114  122  116  121  109  126  111  116  110  116  121  118  114  109  116  110  108   28
ch: 126     128  122  127  106  118  121  103  112  107  117  116  114  120  121  116  110  114  114  116  116  117  132  116  104  107  126  106  131  118  106  107   23
ch: 127     123  121  121  128  130  120  117  129  114  132  131  124  131  103  117  119  121  134  124  122  130  125  118  118  116  122  116  119  121  121  116   24
