# TRIM CALIBRATION    FEB6_9_1    pulse_ampl_min=13    pulse_ampl_max=150    pulse_ampl_fast=10
#
ch:   0     115  120  118  119  117  118  113  113  110  120  120  122  127  109  121  120  120  111  122  131  124  120  122  116  124  120  124  117  120  131  118   21
ch:   1     124  122  108  118  107  111  124  119  107  122  134  118  109  109  122  116  124  118  116  128  130  121  120  106  110  120  116  124  117  118  119   25
ch:   2     106  116  115  122  132  121  116  122  119  106  119  117  118  115  116  116  117  120  117  116  116  107  121  122  114  129  122  114  132  131  124   21
ch:   3     119  122  119  118  132  117  107  126  116  116  119  129  121  117  119  112  126  122  128  117  124  122  110  124  117  131  121  106  126  122  110   19
ch:   4     119  109  119  117  115  128  122  131  110  117  120  117  117  104  120  122  109  116  116  114  131  121  121  117  116  131  113  116  118  116  117   22
ch:   5     117  109  129  119  121  116  116  120  116  122  119  119  119  122  124  122  116  116  131  111  119  124  120  116  114  121  124  114  114  117  135   28
ch:   6     136  122  117  122  110  124  134  117  120  109  122  114  116  114  117  120  117  121  129  132  120  121  122  118  122  121  125  114  128  116  117   37
ch:   7     120  125  130  107  115  125  122  124  122  122  118  119  122  119  116  125  125  117  130  114  124  124  117  124  120  116  122  120  119  121  120   25
ch:   8     131  124  129  117  127  116  119  120  121  116  122  116  116  134  126  121  119  124  116  121  108  110  109  116  107  121  114  122  120  116  124   24
ch:   9     130  108  138  115  118  107  132  120  122  114  118  122  116  118  120  129  113  110  122  116  120  130  122  114  114  122  119  126  120  124  120   30
ch:  10     122  121  134  118  107  116  131  116  117  117  116  124  122  121  122  114  114  122  120  125  121  124  108  106  117  120  101  118  109  121  122   17
ch:  11     123  122  124  124  121  135  117  124  122  122  116  110  116  110  114  124  125  112  117  124  124  116  132  116  116  116  131  124  125  118  126   23
ch:  12     114  117  130  132  126  121  117  130  128  124  112  117  116  132  116  125  128  110  116  117  108  116  124  120  114  132  124  117  122  112  120   23
ch:  13     107  119  122  122  119  117  128  120  120  121  116  117  120  124  122  122  116  116  119  132  130  121  129  117  120  113  120  116  117  120  124   25
ch:  14     119  116  114  130  130  107  121  124  116  122  119  104  116  127  119  114  118  122  120  127  113  119  116  117  117  128  124  109  120  118  120   25
ch:  15     119  116  121  122  121  116  116  120  121  126  121  126  120  124  114  122  122  130  124  122  111  120  120  122  122  121  117  118  122  130  124   20
ch:  16     120  119  124  118  103  119  124  119  121  132  116  122  138  122  117  118  122  131  122  114  121  122  116  117  119  124  114  117  124  116  114   23
ch:  17     121  119  116  125  123  117  120  121  110  116  116  126  119  106  127  119  120  116  121  122  132  122  116  122  132  114  121  120  122  118  122   23
ch:  18     120  121  109  119  112  122  120  122  124  119  119  108  132  122  122  124  114  121  122  116  134  110  129  116  118  130  125  117  121  120  124   24
ch:  19     120  108  117  117  114  121  121  122  132  117  122  122  120  118  131  120  122  116  119  119  121  118  118  126  131  121  120  116  124  121  119   39
ch:  20     119  121  122  102  121  121  129  117  117  122  132  131  114  116  120  113  117  121  124  116  114  132  110  114  122  118  120  107  121  124  120   34
ch:  21     110  116  117  134  108  116  119  126  122  122  116  126  124  129  122  117  122  122  124  120  121  116  120  122  118  120  120  118  121  107  122   30
ch:  22     108  109  118  115  115  116  128  108  120  116  119  122  116  107  122  131  120  121  114  122  122  131  110  119  116  121  120  132  116  118  126   28
ch:  23     120  120  116  118  132  117  121  120  121  118  120  122  116  134  134  124  125  116  116  114  134  114  121  108  117  121  121  120  124  122  134   33
ch:  24     119  122  106  134  117  118  122  116  106  109  129  114  124  119  109  103  106  120  116  122  131  117  107  130  116  117  122  117  122  122  122   26
ch:  25     114  121  113  131  114  120  127  117  121  116  131  121  124  121  124  126  110  122  107  117  124  122  116  122  122  116  122  116  116  129  124   27
ch:  26     116  117  124  136  117  121  116  116  117  116  122  122  110  116  122  120  128  110  120  124  119  119  121  117  124  122  121  124  120  121  122   29
ch:  27     117  126  127  121  118  123  127  122  111  124  120  109  121  131  121  131  137  119  124  116  124  126  116  118  117  117  117  122  124  106  130   28
ch:  28     126  122  120  122  137  123  122  120  118  116  122  121  130  118  122  116  129  117  124  117  113  128  131  125  122  122  131  118  122  119  122   22
ch:  29     117  121  117  120  113  116  116  122  119  132  110  118  121  120  116  122  122  114  120  111  122  127  119  124  118  132  120  116  121  120  128   30
ch:  30     122  121  122  124  121  116  118  102  126  131  120  121  128  129  116  120  124  122  120  120  116  121  122  120  124  117  129  122  116  107  118   34
ch:  31     115  116  124  124  128  124  121  121  124  122  124  120  132  127  120  114  120  122  114  122  132  118  122  124  124  111  132  116  117  120  135   25
ch:  32     107  122  109  117  117  122  116  122  126  121  128  116  129  119  114  125  137  117  129  117  117  122  124  116  116  124  121  130  114  114  117   29
ch:  33     124  114  117  122  107  124  119  119  122  124  117  117  116  122  116  131  124  116  119  103  117  122  112  116  120  120  122  122  128  116  116   30
ch:  34     115  116  118  117  126  121  118  135  111  122  118  122  117  120  117  106  122  118  122  121  124  119  109  119  116  119  122  118  110  119  134   23
ch:  35     117  136  118  120  110  117  129  131  128  116  121  121  117  130  116  116  114  121  120  126  132  122  121  120  130  112  131  117  134  121  137   21
ch:  36     114  124  111  128  117  114  114  108  120  118  122  122  119  114  116  122  122  114  120  127  124  116  120  119  125  120  116  122  121  131  127   30
ch:  37     120  115  121  120  121  121  116  111  122  132  116  118  108  116  120  119  120  131  118  125  128  125  122  111  122  122  120  114  131  121  120   27
ch:  38     123  122  122  119  120  121  121  122  132  117  117  129  113  113  121  122  131  124  110  109  122  132  119  128  112  120  111  121  121   99  110   28
ch:  39     116  116  110  118  138  102  122  116  116  119  119  112  122  132  116  124  121  116  128  127  117  120  113  122  121  117  122  121  122  114  120   23
ch:  40     122  121  126  121  120  118  107  116  119  104  120  122  121  120  122  117  124  129  122  122  122  128  127  120  114  114  134  116  118  125  118   33
ch:  41     119  119  116  124  128  125  138  132  116  116  116  131  119  132  120  118  122  120  132  117  116  122  116  129  118  122  116  122  108  110  117   23
ch:  42     107  115  121  115  120  122  121  126  122  116  117  121  110  122  124  122  124  127  117  106  113  117  114  119  118  125  116  124  114  120  124   27
ch:  43     123  117  116  130  104  123  120  113  132  127  121  110  114  121  132  122  124  118  122  124  124  121  117  122  135  120  117  122  119  121  120   29
ch:  44     117  131  122  117  130  122  122  113  114  122  116  116  121  118  116  121  122  124  121  129  121  122  122  121  127  122  117  118  120  117  132   32
ch:  45     130  121  122  117  118  121  118  124  121  122  120  111  121  122  122  119  116  122  116  118  111  114  110  121  112  124  124  114  130  130  118   33
ch:  46     120  124  124  115  121  120  124  122  129  116  116  112  124  116  134  128  116  118  122  114  125  122  116  118  124  107  116  120  121  118  118   28
ch:  47     120  124  116  119  123  108  122  124  122  122  125  122  121  126  122  121  119  130  122  124  120  118  130  118  104  118  116  122  129  117  128   35
ch:  48     120  120  126  107  124  117  107  131  131  129  122  117  122  110  122  116  120  112  108  124  122  116  116  117  120  122  118  117  121  125  114   41
ch:  49     119  124  116  130  117  121  133  129  118  120  132  118  118  124  122  120  120  116  122  121  131  116  129  122  114  124  121  118  122  130  122   31
ch:  50     116  119  122  124  121  121  118  124  131  130  117  121  120  112  127  116  134  122  116  119  110  121  117  117  121  111  112  116  117  121  130   36
ch:  51     123  119  130  121  127  121  121  118  107  126  120  125  126  119  124  122  121  130  120  134  127  134  122  128  122  122  124  121  114  120  108   31
ch:  52     124  120  114  118  117  121  110  114  117  131  130  110  116  120  117  117  135  119  116  118  116  128  128  121  121  122  117  127  121  122  111   35
ch:  53     114  122  121  136  106  119  120  121  118  110  120  122  116  113  108  116  132  130  122  117  117  120  107  132  122  117  114  130  128  121  129   38
ch:  54     117  122  127  115  120  116  126  122  121  125  105  122  126  107  112  121  121  119  114  122  110  114  120  122  122  120  118  116  132  120  120   28
ch:  55     128  122  129  122  118  118  121  124  107  119  124  122  119  122  116  114  128  131  131  116  122  121  121  122  120  121  131  132  120  114  132   32
ch:  56     117  130  126  130  115  119  129  120  130  122  122  122  114  121  121  116  122  124  122  132  116  119  116  116  116  120  138  130  125  125  129   31
ch:  57     123  121  128  133  121  117  108  120  116  124  122  116  120  121  129  110  121  116  120  120  120  116  127  122  119  124  125  124  122  127  130   20
ch:  58     107  121  124  128  130  134  121  122  121  122  108  113  134  124  122  116  122  122  129  131  110  116  114  124  122  130  126  121  126  116  116   32
ch:  59     119  124  121  128  127  120  128  122  110  119  122  119  118  116  111  128  125  119  117  122  129  114  117  127  127  121  130  128  116  110  120   26
ch:  60     120  122  122  122  124  116  116  135  117  118  124  121  121  122  120  117  117  116  120  117  118  122  116  100  119  122  124  121  117  124  122   32
ch:  61     122  120  129  121  121  116  121  116  120  116  132  135  119  117  117  122  116  110  117  132  110  121  106  121  124  119  116  116  122  131  118   35
ch:  62     117  122  132  122  117  110  127  124  122  119  122  117  120  120  122  116  129  125  120  130  120  132  125  122  118  122  122  121  121  124  132   30
ch:  63     124  119  122  129  130  120  125  121  132  122  122  130  122  131  120  118  120  119  122  120  132  122  122  129  117  121  128  118  132  137  132   25
ch:  64     118  124  122  131  128  108  121  125  121  118  124  116  117  121  122  120  119  129  122  119  119  116  116  120  120  120  126  116  113  124  120   37
ch:  65     122  129  124  114  117  105  121  116  119  130  118  122  122  125  122  124  124  120  131  131  124  129  120  124  119  120  128  117  132  129  122   33
ch:  66     119  117  121  118  121  117  120  122  117  117  116  120  112  121  116  117  116  111  113  121  121  130  118  117  122  121  122  119  112  122  124   27
ch:  67     114  121  120  119  121  128  120  120  128  129  135  132  131  124  110  132  119  121  120  114  121  130  122  122  114  118  122  130  121  120  125   28
ch:  68     114  127  120  114  119  120  113  120  118  124  121  122  127  132  112  114  121  118  121  121  130  116  111  112  111  122  124  118  116  121  122   41
ch:  69     120  125  122  127  128  125  125  122  122  116  118  117  118  108  119  118  118  107  122  125  132  122  132  119  116  113  121  119  122  121  127   41
ch:  70     120  110  114  130  120  127  116  120  121  127  116  122  119  137  118  122  130  116  134  121  121  129  119  122  118  116  112  107  117  124  129   26
ch:  71     123  116  130  118  125  118  112  131  109  116  128  120  122  122  132  116  124  120  127  119  120  135  124  128  118  121  121  124  125  110  114   20
ch:  72     116  122  119  118  117  130  120  108  122  121  124  128  114  122  132  119  122  122  120  121  116  120  134  110  121  117  117  122  119  120  113   27
ch:  73     116  119  122  131  121  117  119  121  116  124  117  120  120  106  120  107  131  110  132  122  122  121  112  117  121  129  134  116  116  131  119   25
ch:  74     122  107  117  110  120  122  116  122  128  106  130  120  121  130  127  116  122  122  116  112  109  130  117  129  117  124  118  107  131  111  122   33
ch:  75     118  106  117  112  117  120  122  118  120  117  122  122  120  116  118  118  124  110  124  138  114  131  120  120  132  134  132  122  117  120  119   38
ch:  76     114  122  131  127  121  124  129  124  120  109  120  132  116  116  120  121  121  106  116  132  106  122  129  122  122  120  134  122  120  129  116   22
ch:  77     114  123  126  130  123  117  122  120  126  121  113  132  120  120  116  118  116  114  122  122  118  117  120  116  116  109  125  127  120  134  119   30
ch:  78     124  121  115  119  118  116  111  130  122  124  122  122  122  108  129  122  120  116  116  125  121  117  132  119  122  116  101  124  113  110  121   32
ch:  79     103  116  124  122  110  123  114  128  117  117  121  121  118  116  124  131  130  122  119  122  108  131  120  119  114  109  128  118  126  131  127   35
ch:  80     116  116  116  127  123  117  120  132  128  128  111  134  117  117  124  114  116  122  117  120  122  130  104  122  121  120  120  122  124  131  110   34
ch:  81     112  130  122  121  120  121  116  114  122  122  132  130  114  129  117  125  120  132  107  121  125  120  118  114  118  116  121  117  106  122  122   22
ch:  82     117  124  129  131  115  121  122  129  131  120  117  131  116  117  120  116  122  114  117  122  122  121  135  118  122  117  119  129  121  122  122   25
ch:  83     120  131  127  130  110  116  122  129  117  124  130  122  122  111  121  122  129  119  118  109  122  128  132  108  124  119  130  117  137  122  119   32
ch:  84     120  122  109  122  103  116  121  128  109  116  128  120  114  117  124  124  122  117  116  116  122  124  130  117  116  121  122  119  122  122  120   30
ch:  85     108  131  122  117  131  124  117  119  118  122  121  122  131  118  122  130  128  108  122  130  124  120  124  118  116  117  132  116  126  112  128   20
ch:  86     120  115  130  130  121  120  117  122  128  121  126  122  120  117  125  119  132  121  127  117  107  122  124  121  132  122  122  116  118  120  110   24
ch:  87     114  127  122  111  117  121  113  122  117  116  111  114  114  126  130  128  130  121  119  135  120  127  130  131  117  121  125  131  128  117  126   38
ch:  88     116  122  131  131  108  104  124  118  121  114  113  134  122  131  119  112  116  121  122  121  121  120  122  116  118  121  122  114  122  122  116   24
ch:  89     124  116  122  117  114  120  114  122  122  122  117  114  108  125  132  121  122  122  106  124  132  120  130  119  126  128  122  116  132  118  124   23
ch:  90     117  119  117  126  108  121  124  125  120  118  127  130  118  113  118  116  125  124  112  114  128  117  121  132  118  114  122  114  128  116  124   31
ch:  91     130  121  121  130  126  121  116  121  114  116  116  131  116  118  132  106  129  122  121  124  129  132  119  124  121  131  122  122  128  121  132   31
ch:  92     120  113  128  114  118  114  128  124  125  130  131  109  116  110  106  129  120  117  122  116  117  114  124  114  125  116  128  124  116  124  118   32
ch:  93     107  112  116  122  118  131  119  117  118  116  116  124  124  117  122  124  117  118  122  122  124  121  112  116  129  122  129  121  129  114  118   23
ch:  94     116  122  118  122  120  117  130  130  122  121  116  121  122  116  124  116  117  116  122  120  132  127  132  130  117  106  122  122  122  119  110   32
ch:  95     119  116  122  122  123  112  134  124  125  129  124  122  120  116  122  114  127  120  129  116  119  127  116  121  113  125  116  122  124  122  122   21
ch:  96     116  117  110  118  121  125  116  116  122  118  122  108  120  106  114  129  121  111  124  134  116  121  116  117  117  124  122  113  121  117  138   32
ch:  97     117  115  116  122  123  120  119  131  122  124  117  120  112  117  121  116  118  111  120  122  120  117  122  122  117  132  122  126  112  124  116   27
ch:  98     130  116  119  117  130  116  120  122  121  106  114  122  116  109  118  121  137  113  117  116  122  119  120  117  121  118  117  122  122  112  121   31
ch:  99     114  119  117  112  119  119  110  111  124  124  116  114  127  121  121  119  118  120  101  114  122  116  120  122  131  119  120  134  139  118  118   28
ch: 100     116  116  124  127  140  118  122  116  122  119  106  122  114  120  122  128  120  106  121  132  116  113  121  122  122  121  118  112  122  122  121   20
ch: 101     124  119  118  121  121  130  118  118  114  118  131  122  124  114  121  131  109  110  120  128  132  114  117  120  116  127  124  116  114  118  122   25
ch: 102     114  104  122  118  121  122  121  118  127  116  130  125  128  118  130  107  120  112  130  121  121  129  116  116  130  121  121  116  117  120  125   26
ch: 103     114  122  120  120  121  109  132  116  122  120  112  121  130  122  128  117  121  125  121  116  130  118  118  113  132  129  128  125  137  116  120   35
ch: 104     107  115  106  106  123  123  110  124  117  116  114  117  116  116  112  111  128  121  120  113  127  110  110  116  121  118  129  109  117  132  124   36
ch: 105     114  124  117  118  121  121  122  129  120  120  107  116  109  122  107  126  122  132  118  121  121  118  120  114  114  134  126  111  109  119  114   24
ch: 106     120  107  122  122  131  120  107  129  121  127  117  120  122  122  124  116  117  117  106  122  116  127  117  120  116  112  116  116  122  116  120   27
ch: 107     116  120  117  118  115  117  108  120  122  124  124  107  110  121  122  129  122  105  122  119  128  121  119  118  122  122  122  122  130  120  121   32
ch: 108     123  117  127  118  118  114  122  140  122  122  122  121   96  125  125  130  124  116  116  122  116  125  124  122  129  114  113  118  110  122  121   31
ch: 109     117  121  126  126  121  121  124  128  121  131  117  118  118  132  118  124  120  118  131  116  122  125  128  116  118  124  112  127  120  130  128   27
ch: 110     119  122  121  118  123  121  121  127  120  119  118  124  135  122  120  116  121  116  118  122  113  122  116  116  118  128  122  127  128  110  116   32
ch: 111     117  117  114  119  121  117  132  132  116  117  121  121  122  117  121  124  132  122  119  122  129  117  114  122  121  126  120  113  122  122  117   30
ch: 112     117  115  108  112  107  118  107  122  124  131  111  129  128  121  120  107  122  121  118  119  114  116  119  125  113  119  122  109  116  116  124   24
ch: 113     124  117  119  117  118  116  122  117  124  114  120  120  117  117  120  119  112  116  132  122  121  110  119  114  122  131  116  119  107  117  116   31
ch: 114     117  119  117  117  131  121  108  122  118  114  117  129  116  124  109  122  120  130  117  108  131  138  120  121  106  120  116  107  117  109  104   30
ch: 115     130  131  131  112  121  116  122  118  124  121  121  122  124  122  132  118  130  126  122  120  118  126  116  132  118  128  121  117  116  126  118   35
ch: 116     124  122  122  122  108  120  119  122  134  129  121  122  116  128  114  121  114  134  121  129  119  120  119  132  124  119  121  120  119  108  121   25
ch: 117     114  119  111  136  118  115  121  127  124  122  112  124  122  117  118  116  121  119  124  109  117  132  110  116  109  124  117  122  120  130  120   35
ch: 118     116  122  125  110  119  120  124  122  122  121  122  120  116  120  117  106  122  117  111  131  126  116  109  122  119  119  111  120  127  122  117   26
ch: 119     114  120  122  120  113  121  122  120  131  106  116  121  128  120  124  126  125  117  122  119  119  121  132  120  127  117  134  124  128  119  132   32
ch: 120     119  115  114  122  119  117  122  124  137  130  117  122  124  108  120  130  118  116  131  122  110  131  119  124  114  117  128  122  119  119  117   29
ch: 121     126  129  114  121  117  121  124  114  131  121  114  115  120  111  118  117  116  122  117  120  120  122  128  119  121  130  122  125  122  122  116   33
ch: 122     116  119  117  130  108  130  116  122  116  116  116  122  122  122  118  128  116  117  114  130  107  122  116  125  118  116  114  113  122  104  127   25
ch: 123     118  107  121  122  119  121  122  122  121  124  132  119  124  134  125  121  121  129  132  124  122  112  128  124  117  124  127  114  124  122  122   25
ch: 124     117  125  120  134  119  130  121  126  121  118  124  114  124  116  110  122  120  121  117  118  118  122  104  121  121  117  120  122  116  114  121   25
ch: 125     120  129  118  105  115  120  117  124  112  118  130  120  117  124  121  116  121  121  116  118  118  116  117  130  114  132  122  116  121  118  114   32
ch: 126     117  126  122  112  119  121  114  135  131  121  114  114  130  122  122  118  128  110  117  122  127  125  121  113  113  121  122  122  125  120  117   32
ch: 127     120  130  104  117  118  121  118  126  128  117  120  122  131  119  130  128  132  116  131  134  124  122  121  120  128  121  122  121  131  124  140   20
