# TRIM CALIBRATION    FEB2_4_0    pulse_ampl_min=13    pulse_ampl_max=150    pulse_ampl_fast=10
#
ch:   0     116  106  113  117  113  113  121  119  126  115  117  118  117  125  114  115  118  122  118  129  115  121  120  117  117  128  118  129  120  122  121   19
ch:   1     117  113  125  108  115  122  117  115  101  122  123  120  116  122  119  122  118  130  117  120  128  117  118  124  117  119  134  112  114  130  110   20
ch:   2     114  114  115  113  127  100  118  117  124  115  122  118  118  117  118  117  113  126  117  117  121  112  124  123  125  120  119  128  113  125  135   25
ch:   3     104  116  105  113  120  121  120  118  117  123  119  115  118  131  121  106  118  115  121  121  121  107  121  117  129  121  113  122  117  116  130   23
ch:   4     119  120  126  105  117   93  124  128  118  120  101  129  121  117  104  121  117  118  124  126  124  117  117  124  123  117  114  122  121  126  116   17
ch:   5     116  120  113  115  100  117  123  118  119  121  126  117  115  131  124  121  114  126  115  116  118  122  116  121  124  122  120  120  120  125  121   25
ch:   6     116  115  117  116  106  125  113  118  111  117  106  117  114  114  119  117  119  124  119  127  107  122  116  119  115  117  128  114  121  117  132   32
ch:   7     118  106  126  106  120  117  118  117  118  104  115  106  120  120  120  121  123  119  117  131  120  122  122  119  117  127  124  115  117  112  119   24
ch:   8     112  114  118  118  124  105  124  106  130  117  120  115  119  114  120  117  107  128  120  120  120  130  124  120  121  110  127  123  114  135  121   17
ch:   9     118  123  118  122  118  123  116  120  126  117  120  119  118  117  115  118  117  116  121  102  120  123  120  107  120  119  118  114  117  122  121   21
ch:  10     110  117  121  121  115  124  118  115  116  116  120  107  118  130  115  117  128  115  119  120  118  117  115  117  116  115  124  117  125  117  113   41
ch:  11     119  114  115  117  117  105  119  122  115  117  117  118  123  116  122  107  114  105  118  118  121  115  117  121  116  117  115  121  121  117  127   35
ch:  12     119  117  108  124  118  130  104  115  121  122  121  115  108  105  121  127  119  118  122  129  118  123  119  114  106  120  132  122  116  130  132   40
ch:  13     101  128  122  115  117  110  122  123  122  121  123  118  121  117  121  120  106  114  120  131  131  119  114  119  126  120  113  124  117  119  120   34
ch:  14     116  117  115  119  107  115  112  121  119  101  117  104  116  113  117  124  119  107  118  120  117  128  117  105  119  115  117  121  112  122  128   38
ch:  15     123  115  108  116  119  117  114  117  116  108  114  117  128  121  117  131  131  121  114  117  118  125  123  124  118  115  105  117  120  119  119   37
ch:  16     118  116  115  115  118  122  120  104  119  117  122  127  107  121  130  119  114  125  126  113  116  119  124  124  121  121  131  116  121  107  116   33
ch:  17     117  118  127  117  120  113  107  121  127  118  116  113  121  103  121  121  116  121  114  116  117  105  102  116  117  123  117  127  124  129  118   32
ch:  18     104  123  113  104  118  115  101  113  113  108  124  118  124  120  107  117  119  107  121  103  114  123  117  124  112  125  122  123  117  107  120   35
ch:  19     125  120  116  117  118  122  117  107  110  130  114  124  107  113   99  116  124  129  124  117  117  120  109  119  122  118  128  119  128  116  121   32
ch:  20     126  120  106  125  109  118  118  105  116  118  113  117  124  107  118  124  121   99  126  122  121  115  116  117  124  115  117  107  115  124  116   59
ch:  21     119  123  121  119  120  107  118  122  132  117  121  114  116  117  115  122  110  121  118  116  125  118  118  121  106  117  126  118  115  124  119   48
ch:  22     123  117  118  118  105  120  120  115  116  121  134  115  116  118  110  129  121  120  117  117  124  108  116  120  121  119  120  121  121  120  113   39
ch:  23     113  117  117  121  123  118  117  114  124  118  107  115  121  121  120  121  117  115  112  118  121  128  119  116  131  119  129  117  118  124  120    0
ch:  24     112  120  115  118  118  105  112  114  121  120  120  113  126  117  118  122  122  131  121  121  118  120  129  115  116  124  121  116  120  113  130   40
ch:  25     103  123  122  126  117  118  122  105  121  114  120  128  121  113  117  117  120  114  119  117  117  123  122  118  117  114  114  119  126  120  117   35
ch:  26     128  128  128  128  128  128  128  128  128  128   82  128  128   92   60  128  108  104  117  119  113  125  117  117  116  119  122  120  119  124  114    0
ch:  27     128  128  128  128  128  128  128  128  128  128  128  128  128  128  128  128  128  128  128  128  128  128  128  128  128  128  128  128  128  128  128    0
ch:  28     128  128  128  128  128  128  128  128  128  128  128  128  128  128  128  128  128  128  128  128  128  128  128  128  128  128  128  128  128  128  128    0
ch:  29     106  107  114  116  126  107  123  135  113  104  123  119  113  116  112  112  111  114  109  119  123  118  113  118  117  117  126  118  122  120  122    0
ch:  30     115  117  116  117  113  104  116  121  130  121  107  102  124  121  117  117  116  107  117  121  124  121  115  112  117  124  117  121  118  108  119   51
ch:  31     116  117  116  117  132  131  124  121  117  114  105  104  127  120  122  117  115  117  110  107  121  124  118  119  110  118  118  115  125  120  117   50
ch:  32     103  103  118  117  121  104  104  117  105  121  109  117  115  124  116  119  124  117  121  132  118  124  124  119  117  112  124  120  126  125  119   43
ch:  33     114  110  134  116  120  102  115  113  113  116  108  109  121  116  118  114  121  122  109  107  119  116  116  110  128  127  116  121  118  118  124   47
ch:  34     117  116  121  115  128  104  123  113  118  124  124  105  122  114  116  124  118  104  118  117  117  118  114  119  114  119  122  119  105  112  124   50
ch:  35     107  116  116   98  116  104  115  124  113  116  120  118  124  107  120  118  117  121  118  116  119  120  123  124  118  117  124  121  126  118  120   48
ch:  36     118  117  116  118  125  118  123  122  121  117  118  124  103  108  131  129  125  129  114  125  118  121  120  123  119  117  121  125  120  115  112   63
ch:  37     123  122  118  115  116  120  122  121  116  122  108  124  121  124  131  122  112  127  117  123  116  117  121  120  128  121  119  117  118  117  128    0
ch:  38     114  117  115  107  125  126  106  117  116  115  118  115  110  104  105  120  121  121  115  116  116  104  124  116  108  120  130  120  115  119  117   55
ch:  39     105  117  116  112  118  104  117  129  120  120  112  126  119  117  116  117  121  124  114  121  121  118  121  121  132  128  117  119  121  120  118   34
ch:  40     104  117  120  116  124  116  123  113  118  115  126  120  109  121  135  121  122  121  124  124  122  126  121  117  122  123  124  107  125  133  119   54
ch:  41     110  117  114  119  116  121  107  113  123  128  124  118  107  123  118  109  122  119  116  124  121  118  124  119  112  121  126  130  116  119  115   48
ch:  42     105  113  117  118  124  126  104  114  113  117  108  120  127  119  110  120  116  120  119  106  124  106  115  131  116  121  112  108  115  109  119   55
ch:  43     119  107  116  115  107  115  123  116  119  132  121  115  120  113  135  111  120  118  125  114  120  122  119  122  117  121  121  117  120  111  128    0
ch:  44     129  128  121  128  118   99  119  118  118  115  126  107  124  123  121  124  115  125  113  115  117  120  117  121  118  117  120  116  108  115  124   41
ch:  45     107  128  116  120  120  104  116  120  121  110  116  118  115  118  121  122  121  118  118  121  118  108  116  113  126  130  109  122  119  106  121   61
ch:  46     123  107  119  119  127  117  128  120  105  117  120  115  116  119  127  115  118  120  117  126  116  128  118  118  121  120  116  119  122  117  114   43
ch:  47     118  124  120  105  114  105  121  120  116  124  124  121  118  116  134  108  104  106  118  122  130  118  131  124  120  118  119  124  114  132  117   46
ch:  48     117  118  122  118  117  120  123  121  118  117  126  124  122  116  118  116  114  100  113  116  115  117  115  131  120  123  120  115  112  131  104    0
ch:  49     103  133  121  115  118  132  124  120  107  118  117  130  122  121  117  122  104  109  106  113  130  123  109  116  127  114  119  122  115  120  117   56
ch:  50     119  118  120  121  125  114  117  112  124  114  124  108  120  130  121  121  118  122  121  118  104  126  116  117  120  108  118  116  121  122  113    0
ch:  51     121  117  118  120  114  120  118  119  121  115  119  118  120  130  121  124  106  122  119  132  113  117  124  121  106  122  104  130  118  124  121   51
ch:  52     119  114  115  124  118  106  121  116  117  121  121  117  119  120  118  118  117  121  122  119  122  121  119  115  118  123  124  105  122  116  132   53
ch:  53     114  116  115  115  118  126  104  124  118  119  110  120  122  115  114  123  121  117  114  103  117  116  125  119  114  113  120  117  116  124  119   51
ch:  54     117  106  118  120  118  121  121  105  123  120  122  117  131  113  104  116  118  124  114  118  115  118  129  108  124  117  114  115  118  121  118   54
ch:  55     117  127  121  114  114  118  117  107  123  124  105  122  118  121  116  117  125  117  128  122  121  118  121  120  108  119  117  120  129  138  117   58
ch:  56     129  121  119  128  124  128  104  116  118  104  121  119  117  117  120  117  121  123  122  120  121  121  119  114  121  128  121  120  122  129  121   62
ch:  57     117  121  121  119  125  118  118  119  121  117  112  117  121  123  126  114  124  117  126  128  113  104  118  124  115  126  124  124  118  114  117    0
ch:  58     119  131  104  130  114  119  117  117  115  129  121  118  103  121   98  107  119  117  128  117  116  121  118  121  121  118  120  116  109  122  120    0
ch:  59     107  116  124  118  122  124  123  107  116  121  125  119  112  123  123  117  114  123  118  110  114  122  118  127  109  121  112  119  118  120  120    0
ch:  60     118  128  131  120  120  121  124  117  122  122  121  126  121  117  124  107  118  130  120  116  128  117  110  124  120  126  124  121  120  128  125    0
ch:  61     118  118  100  118  116  115  130  122  119  117  124  116  124  122  117  117  104  123  123  124  119  117  122  118  120  116  119  120  116  122  120    0
ch:  62     119  105  120  124  119  118  111  121  116  105   94  121  118  117  115  101  112  103  122  124  118  116  125  127  118  117  123  124  117  123  112   62
ch:  63     118  119  117  108  118  118  107  111  113  120  121  126  113  118  110  119  131  129  117  128  121  107  118  128  117  106  125  116  116  121  129   63
ch:  64     117  129  129  115  105  104  118  124  121  121  119  116  107  132  132  124  107  115  118  120  113  116  115  123  121  121  115  115  117  120  124   57
ch:  65     129  124  117  119  127  123   98  118  121  123  106  109  107  114  115  116  113  121  118  122  126  117  121  116  134  122  128  125  129  124  128    0
ch:  66     126  122  124  114  108  124  120  103  115  104  117  120  116  117  118  117  121  115  117  121  117  124  124  124  123  122  119  132  131  122  124    0
ch:  67     116  107  104  109  123  116  105  112  117  124  117  103  103  118  104  124  117  120  114  121  107  121  129  119  117  124  134  117  117  124  124   55
ch:  68     120  125  101  117  108  121  115  115  128  114  121  127  117  128  122  118  126  130  116  122  118  123  122  121  120  117  118  119  118  121  117    0
ch:  69     115  120  119  118  117  117  130  121  121  120  120  116  106  121  121  121  117  111  123  119  125  117  121  121  117  118  112  118  121  120  124    0
ch:  70     116  115  115  126  118  116  120  117  116  116  114  119  107  114  124  119  112  104  121  116  120  120  125  117  115  117  119  121  105  116  121   50
ch:  71     106  119  115  120  118  123  121  121  117  126  113  121  107  117  119  125  118  121  137  126  115  126  115  117  126  106  122  117  124  121  117    0
ch:  72     112  116  122  121  117  126  117  124  114  121  116  118  134  117  128  112  129  120  111  117  118  109  122  131  121  129  119  118  121  115  116   60
ch:  73     116  106  117  118  114  127  104  120  116  124  118  107  119  122  123  124  119  117  120  122  120  121  117  119  131  122  121  117  124  129  118   58
ch:  74     109  119  121  120  122  123  117  120  107  106  124  109  104  103  117  115  112  116  119  124  113  122  114  112  123  115  121  117  105  105  117    0
ch:  75     116  119  122  127  127  129  116  120  114  114  122  114  105  117  124  116  117  122  115  129  117  114  122  116  117  121  121  129  116  120  118   59
ch:  76     115  105  106  124  121  105  118  121  126  118  113  117  121  118  112  126  107  120  102  124  116  120  123  115  124  122  131  115  127  120  118    0
ch:  77     119  125  124  107  129  131  109  104  118  119  112  124  129  110  117  128  115  112  116  117  117  123  128  116  119  120  103  117  117  126  121    0
ch:  78     118  117  110  113  117  114  108  111  117  113  119  104  115  119  126  118  112  124  120  110  121  131  120  117  121  120  108  119  109  109  122   55
ch:  79     117  117  107  115  115  115  110  120  128  118  118  115  115  123  113  117  124  118  129  126  127  117  122  115  111  128  113  129  121  119  125    0
ch:  80     122  120  114  115  105  119  110  116  116  107  127  123  118  120  120  131  130  120  121  124  122  106  120  104  117  121  121  119  120  118  122    0
ch:  81     118  113  118  122  112  118  123  120  117  117  116  106  116  124  118  110  110  116  119  120  121  118  132  120  122  126  118  115  124  124  128   56
ch:  82     118  122  105  110  121  105  116  105  122  114  131  120  119  114  118  107  119  115  121  120  104  120  107  116  123  123  115  126  116  126  123   53
ch:  83     126  117  119  113  124  105  123  120  130  114  131  112  115  122  115  120  124  122  121  106  126  118  129  123  117  117  122  115  118  103  117    0
ch:  84     114  123  124  123  118  128  121  116  117  124  113  128  125  114  115  127  119  126  116  122  124  118  121  115  124  129  131  130  117  118  124    0
ch:  85     129  121  117  130  116  119  121  119  121  131   99  124  119  124  120  124  122  107  121  120  126  115  113  116  122  118  118  121  117  118  115    0
ch:  86     118  107  116  121  120  115  123  104  118  121  119  121  116  126  105  105  122  120  114  116  119  117  121  116  121  116  121  122  121  118  117   44
ch:  87     120  108  116  120  120  125  115  120  119  123  117  132  118  116  106  105  117  121  122  119  124  131  104  119  126  122  123  107  120  115  116    0
ch:  88     117  121  107  121  120  129  119  117  117  121  121  124  118  124  123  128  107  108  118  131  109  119  134  125  114  128  135  105  122  127  131    0
ch:  89     110  107  114  119  104  132  132  116  114  124  118  105  120  124  114  110  113  124  121  110  128  116  119  122  124  123  116  117  123  120  115   46
ch:  90     116  120  117  121  115  123  112  120  118  117  118  114  134  116  116  122  114  103  119  116  120  120  116  104  112  120  111  105  124  122  118   58
ch:  91     107  119  117  115  118  116  128  124  124  114  120  113  113  124  121  123  122  110  117  122  122  117  118  123  120  121  120  117  128  127  135   56
ch:  92     107  127  116  109  118  129  110  118  116  118  114  115  115  116  116  124  122  117  121  119  115  123  103  111  113  120  120  126  120  119  107   56
ch:  93     103  106  118  121  116  130  117  130  114  104  121  128  124  117  120  121  116  121  117  114  107  122  117  115  115  124  106  123  103  117  112    0
ch:  94     115  118  122  120  123  116  118  122  122  117  104  118  121  130  107  118  118  118  121  116  128  107  108  124  114  121  118  129  113  120  119   56
ch:  95     120  114  115  115  126  122  125  114  122  119  116  122  128  115  131  121  118  119  115  118  118  115  118  114  123  119  131  120  121  120  120   51
ch:  96     117  115  121  120  124  123  118  117  117  126  113  116  124  124  122  118  107  117  124  121  125  117  124  118  122  112  112  121  128  125  119   62
ch:  97     107  103  115  121  123  120  114  128  106  117  114  123  119  114  115  127  119  117  105  114  127  121  125  108  114  118  120  117  117  126  125   53
ch:  98     105  110  121  124  105  119  118  117  118  124  117  104  121  121  116  111  124  117  119  124  113  115  121  116  119  114  107  134  118  118  112   46
ch:  99     128  118  118  105  121  124  123  120  117  119  124  105  111  117  116  124  123  106  122  108  118  127  116  120  121  119  119  118  117  126  118   50
ch: 100     106  123  106  124  111  119  123  102  122  124  120  124  106  100  116  126  118  118  120  124  117  122  123  124  122  118  124  108  114  124  121   40
ch: 101     117  126  110  117  115  118  129  117  116  118  131  108  119  106  124  116  118  121  120  122  125  119  110  122  124  126  121  122  124  118  128   43
ch: 102     116  123  118  120  122  104  120  116  120  123  115  121  104  131  124  116  104  122  115  124  104  124  113  131  117  104  119  119  109  121  123   45
ch: 103     116  128  104  124  104  121  126  126  118  116  121  116  117  119  126  118  117  121  112  117  116  121  116  120  131  122  122  116  107  116  121   50
ch: 104     122  123  118  117  104  117  114  117  108  117  122  121  122  124  127  113  124  115  117  124  114  118  133  129  116  126  124  124  117  121  121   41
ch: 105     120  114  122  117  133  111   97  107  127  114  131  124  117  131  121  121  121  126  115  117  121  107  125  117  121  113  116  108  113  126  110   47
ch: 106     117  117  117  115  118  118  116  101  118  113  121  110  113  119  112  118  125  119  114  120  117  121  125  121  127  118  120  126  117  115  109   39
ch: 107     119  108  114  115  115  119  124  120  118  120  109  126  112  120  125  130  130  123  115  116  120  121  121  126  117  116  117  119  122  131  112   41
ch: 108     106  129  120  121  117  113  107  121  117  117  114  117  112  124  118  109  115  116  118  134  117  116  122  124  116  118  128  122  124  119  121   23
ch: 109     121  121  123  118  122  115  127  118  116  129  117  110  118  109  118  118  120  112  123  123  117  118  121  121  115  121  119  120  131  119  115   46
ch: 110     113  110  121  122  116  118  122  117  116  107  118  118  117  116  123  125  117  127  116  123  116  108  106  119  126  121  124  125  121  126  121   37
ch: 111     114  108  121  113  117  117  117  116  121  115  116  116  118  126  121  121  121  122  123  126  114  119  113  119  119  114  127  114  113  120  122   35
ch: 112     117  103  119  104  108  114  114  118  113  116  120  107  115  116  121  117  124  117  116  116  118  119  107  118  108  126  118  118  123  125  124   23
ch: 113     118  118  113  121  117  112  118  123  120  105  118  115  119  117  122  117  117  106  118  135  110  118  117  122  113  112  120  116  121  116  116   40
ch: 114     117  114  118  114  107  106  119  114  106  117  117  116  118  111  116  113  117  114  119  118  114  115  124  107  116  126  118  116  119  102  115   35
ch: 115     117  130  124  125  121  121  117  117  117  115  135  124  127  117  122  121  114  121  116  113  118  128  120  113  120  121  120  132  115  130  135   21
ch: 116     102  115  118  109  123  107  122  118  129  115  124  115  112  118  116  116  120  114  117  110  117  128  117  118  117  124  124  117  126  125  122   13
ch: 117     108  117  131  123  109  112  118  119  120  117  120  119  119  117  117  117  119  104  113  122  117  122  124  129  104  122  131  116  127  120  125    0
ch: 118     105  135  120  116  105  114  102  116  116  108  129  116  117  103  116  125  106  118  118  122  106  117  117  121  115  118  127  117  104  122  118    0
ch: 119     123  120  108  119  107  114  107  116  114  118  106  117  114  113  127  121  112  101  116  113  116  111  109  116  114  114  124  118  110  120  120    0
ch: 120     117  127  116  117  107  119  120  107  109  116  108  122  118  114  121  114  115  116  106  106  114  107  108  121  106  118  101  118  109  101  106    0
ch: 121     127  106  117  117  120  104  116  119  117  106  132  106  116  116  116  112  101  114  121  116  117  106  110  103  109  120  108  101  114  116  119    0
ch: 122     108  114  107  105  118  116  122  116  105  106  100  113  114  106  106  121  104  114  116  116  114  116  106  106  119  101  112  106  106  107  107    0
ch: 123     116  119  117  103  118  114  117  104  105  118  117  114  116  122  107  125  115  125  114  101  106  129  116  125  100  101  116  116  116  106  117    0
ch: 124     107  120  117  106  119  124  108  117  103  127  114  120  116  106  114  116  116  106  113  118  117  106  114  105  116  116  122  118  105  122  114    0
ch: 125     102  114  121  118  116  122  117  101  113  116  120  113  116  106  106  107  112  106  106  118  122  104  116  101  122  120  120  101  107  116  117    0
ch: 126     105  108  122  106  109  117  107  109  116  122  130  109  101  114  119  119  118  109  121  112  106  120  106  106  107  124  114  116  120  101  113    0
ch: 127     106  116  104  116  118  116  122  105  102  106  115  109  120  103  114  106  119  122  116  113  114  116  119  116  106  109  106  116  114  106  109    0
