# TRIM CALIBRATION    FEB2_9_0    pulse_ampl_min=13    pulse_ampl_max=150    pulse_ampl_fast=10
#
ch:   0     114  111  131  115  126  120  117  121  133  115  128  110  124  120  118  131  120  125  121  118  118  129  117  131  130  135  121  112  131  121  121   18
ch:   1     116  117  113  127  131  120  121  116  120  126  117  124  114  135  119  124  121  120  121  118  124  114  122  117  125  119  134  114  119  122  121   15
ch:   2     118  117  113  117  118  130  118  107  120  118  121  115  117  121  112  114  126  112  121  119  117  123  122  117  131  120  123  119  125  121  120    2
ch:   3     120  116  117  121  118  107  117  121  120  123  117  115  121  123  116  111  114  125  123  134  130  132  113  114  122  127  122  118  135  135  129   18
ch:   4     114  107  118  119  122  121  130  133  116  120  112  120  131  132  108  119  132  119  117  134  118  122  121  123  121  120  121  116  121  122  122   16
ch:   5     121  123  120  130  118  120  121  121  116  119  117  133  119  122  116  122  122  110  135  134  120  117  122  124  107  134  118  121  111  131  124   19
ch:   6     118  123  106  121  111  120  119  121  105  119  122  122  122  116  124  120  112  115  117  121  119  117  132  123  117  132  120  119  123  119  133   21
ch:   7     123  130  120  121  128  111  118  121  133  117  121  119  119  137  126  137  130  117  118  118  117  114  117  131  119  116  129  130  139  120  110   22
ch:   8     113  132  120  111  130  118  111  131  114  132  121  121  119  117  120  118  121  117  120  121  130  121  117  114  124  121  133  132  125  122  122   17
ch:   9     111  110  122  115  121  131  113  111  123  123  117  124  124  116  119  119  121  132  133  121  116  122  121  118  121  122  133  121  117  116  123   16
ch:  10     122  136  121  119  110  111  123  104  121  132  122  109  122  126  114  122  121  106  121  121  116  122  114  117  122  133  132  122  122  121  121   13
ch:  11     117  117  122  112  120  129  120  120  131  112  131  121  133  116  122  127  121  121  117  121  128  121  119  132  117  122  121  124  129  117  120   35
ch:  12     114  121  118  107  120  117  116  120  119  125  119  118  122  117  127  128  121  113  120  130  109  121  124  131  122  132  126  114  124  122  129   27
ch:  13     118  121  134  121  126  109  139  133  130  138  121  147  134  135  137  150  130  138  133  138  145  151  134  139  143  147  149  146  151  149  143   18
ch:  14     119  109  110  130  120  117  114  110  137  117  116  116  122  119  122  114  120  129  121  118  117  114  121  134  122  117  135  126  121  124  121   13
ch:  15     111  114  120  118  131  116  114  113  124  118  120  123  122  130  121  132  121  122  122  129  134  121  117  133  119  129  131  123  132  133  121   29
ch:  16     108  117  124  113  119  121  118  121  121  119  124  116  133  133  121  134  134  122  116  122  122  121  121  118  122  122  131  138  119  113  119   19
ch:  17     117  105  118  114  118  111  118  119  105  119  132  117  107  119  121  130  117  112  121  119  119  121  117  124  120  134  112  125  120  124  138   18
ch:  18     108  122  120  114  121  116  114  121  121  117  121  120  114  118  114  123  131  117  121  122  118  113  124  121  121  117  134  118  118  116  134   23
ch:  19     120  109  118  121  104  107  116  117  118  120  119  130  129  115  117  135  121  122  115  117  121  116  122  117  122  122  132  121  120  124  131   24
ch:  20     114  124  115  116  115  117  121  117  121  119  119  124  121  120  114  110  118  123  122  118  118  120  110  130  121  133  121  124  134  128  120   27
ch:  21     113  121  132  115  118  123  119  124  121  118  122  122  131  120  121  107  121  118  121  134  121  134  119  122  134  119  124  128  122  122  132   35
ch:  22     119  116  116  119  117  118  121  121  122  111  116  118  118  122  116  118  114  116  120  120  116  116  116  116  113  130  122  122  117  116  122   40
ch:  23     120  121  131  118  113  117  117  126  134  122  117  120  113  122  132  130  124  113  114  118  117  134  114  123  125  124  134  131  133  119  122   28
ch:  24     115  120  111  119  117  117  116  108  117  132  114  120  130  122  119  121  120  110  116  114  120  133  121  123  119  129  144  138  131  130  132   21
ch:  25     116  122  131  119  130  120  118  117  130  124  132  117  121  130  124  107  122  122  134  116  121  122  117  127  133  118  113  132  117  123  121   18
ch:  26     116  106  117  122  111  105  118  118  114  128  117  121  124  124  122  124  118  118  116  131  118  122  135  117  121  126  132  116  125  121  118   26
ch:  27     116  110  118  121  117  116  120  110  121  124  118  116  121  112  117  120  133  130  122  121  110  130  132  120  110  121  116  135  117  133  122   39
ch:  28     120  117  117  119  117  114  116  120  133  115  109  114  119  125  113  118  117  120  117  123  121  117  122  112  123  134  118  122  119  122  120   26
ch:  29     103  116  112  121  121  114  119  120  132  116  117  112  114  124  130  117  126  130  119  114  121  123  135  122  116  136  129  121  118  117  130   34
ch:  30     107  113  110  118  119  118  124  118  121  134  119  123  117  124  112  123  120  131  130  123  121  126  125  121  121  123  130  119  132  121  121   22
ch:  31     113  117  111  121  128  131  117  128  124  114  117  117  126  116  121  125  122  121  114  116  123  120  117  112  133  124  122  120  120  131  123   27
ch:  32     120  121  123  129  119  117  132  117  121  116  114  117  118  137  117  133  130  121  137  123  117  120  129  131  134  130  122  117  124  118  120   26
ch:  33     113  128  131  107  121  121  121  132  114  133  121  117  117  121  114  131  124  108  117  113  120  117  120  118  125  123  118  117  134  115  126   32
ch:  34     117  116  120  115  118  117  121  117  120  121  107  121  117  107  124  117  118  129  120  131  123  114  132  133  121  128  129  119  117  114  121   26
ch:  35     121  115  119  110  123  118  132  121  131  123  107  131  117  112  130  133  135  121  116  120  121  122  124  118  124  133  128  121  135  119  120   32
ch:  36     122  117  121  118  118  110  120  125  131  131  125  129  120  120  117  135  116  121  119  121  133  109  130  126  118  119  135  122  132  123  135   24
ch:  37     130  120  121  113  118  133  123  124  122  134  121  122  121  126  121  123  122  121  127  117  120  123  123  132  122  121  119  128  132  129  122   43
ch:  38     130  116  120  118  129  121  122  115  121  125  121  137  110  116  118  112  114  121  118  123  119  133  128  140  133  127  118  124  133  121  121   26
ch:  39     120  121  120  118  113  117  124  120  123  131  119  120  118  131  117  134  125  117  132  119  118  114  121  117  119  130  118  122  116  117  122   51
ch:  40     132  122  121  111  123  117  123  131  105  119  114  130  107  117  134  118  130  118  130  118  119  114  122  116  121  118  114  120  118  117  122   20
ch:  41     110  109  122  118  123  115  112  119  118  120  121  121  120  130  135  129  111  110  114  119  118  124  131  131  131  132  121  126  128  124  121   25
ch:  42     122  122  115  118  118  111  105  124  122  121  132  119  122  124  120  118  131  129  121  121  123  121  119  122  119  119  123  118  118  121  120   30
ch:  43     122  124  124  113  119  120  121  120  114  112  119  131  119  120  120  124  130  128  119  121  129  129  119  132  118  140  134  119  121  123  131   35
ch:  44     120  113  121  122  118  121  121  117  119  117  135  118  121  116  121  114  121  117  119  121  132  122  118  118  112  133  122  138  118  122  135   38
ch:  45     117  122  115  120  129  121  121  111  119  117  117  122  121  117  121  133  119  120  121  127  119  122  121  131  131  123  118  125  133  118  134   26
ch:  46     106  119  119  124  117  131  105  121  114  130  117  114  118  118  124  119  119  118  110  123  114  114  116  117  115  131  121  133  115  134  135   34
ch:  47     116  130  122  131  131  118  103  120  130  116  118  121  130  133  112  125  130  123  122  135  128  134  121  117  123  123  122  119  127  132  135   30
ch:  48     128  128  128  128  128  128  128  128  128  128  128  128  128  128  128  128  128  128  128  128  128  128  128  128  128  128  128  128  128  128  128    0
ch:  49     121  117  126  130  108  115  134  131  120  122  130  117  123  117  131  118  121  139  132  132  121  123  131  126  114  121  134  121  122  120  123   24
ch:  50     108  121  120  117  119  110  114  116  113  114  116  119  122  117  115  114  122  120  121  131  122  128  116  126  119  122  117  132  122  118  116   32
ch:  51     113  121  122  118  115  123  123  134  117  118  118  124  117  110  120  133  120  122  121  117  125  121  117  130  118  118  121  109  114  121  132   51
ch:  52     108  116  101  120  118  108  119  121  121  115  114  116  119  119  124  121  117  126  123  121  121  124  117  128  122  122  133  118  125  122  121   49
ch:  53     115  128  132  134  111  117  120  118  118  121  131  127  114  114  121  124  121  110  121  121  121  121  124  134  119  114  134  130  124  135  120   35
ch:  54     117  112  122  110  121  110  116  121  135  119  118  119  121  121  109  112  116  121  119  129  134  113  121  130  118  131  123  110  133  124  125   24
ch:  55     119  119  134  119  117  120  117  120  129  123  114  128  121  132  117  128  120  129  134  118  115  135  114  120  130  129  124  121  122  124  131   42
ch:  56     130  119  133  115  111  121  118  121  122  119  125  110  116  117  116  132  114  117  108  117  131  127  120  127  121  116  115  130  123  121  124   23
ch:  57     119  131  113  120  118  123  116  118  125  135  114  116  118  131  131  128  121  114  121  118  132  117  134  125  117  124  135  120  130  131  119   41
ch:  58     120  122  118  118  119  105  119  118  119  131  118  117  122  116  123  117  117  123  119  116  123  117  134  118  125  130  118  120  135  124  132   41
ch:  59     119  122  121  116  113  114  131  134  120  120  112  117  127  118  119  112  130  132  122  123  130  111  122  132  124  130  138  121  126  134  124   33
ch:  60     120  116  123  123  119  116  124  128  114  119  128  114  130  128  113  131  122  127  117  120  122  106  122  122  122  130  117  130  122  133  118   41
ch:  61     114  128  134  121  135  116  110  113  130  121  121  116  117  123  126  135  122  121  121  114  129  128  131  118  118  123  122  135  124  121  120   42
ch:  62     116  116  118  110  118  114  117  122  109  119  117  124  117  119  119  132  121  116  118  121  124  119  117  132  129  118  135  117  123  124  124   35
ch:  63     122  124  128  107  122  122  129  121  122  122  121  114  123  118  124  121  117  118  119  117  131  116  116  133  114  123  121  128  134  118  129   46
ch:  64     114  122  119  117  123  133  120  117  120  119  121  119  123  120  110  137  122  130  130  122  130  122  122  130  133  120  119  122  123  122  122   46
ch:  65     104  129  122  121  124  120  130  133  125  132  134  138  137  132  121  131  130  135  139  134  149  135  140  141  141  138  147  148  147  144  139   36
ch:  66     118  120  121  113  118  115  118  123  113  114  122  116  113  118  117  117  118  120  122  138  122  116  131  121  108  120  117  116  114  122  123   31
ch:  67     118  128  121  122  118  121  121  121  109  124  124  130  121  122  120  117  121  122  121  120  121  121  138  123  118  122  124  121  122  123  133   36
ch:  68     133  131  132  122  133  122  116  117  117  117  114  118  117  124  117  137  121  135  118  124  134  123  126  130  111  135  133  113  119  121  135   31
ch:  69     114  128  120  115  115  121  118  140  118  120  117  126  122  123  114  134  120  122  127  132  130  130  122  132  128  122  134  138  135  122  135   38
ch:  70     120  121  122  123  123  138  121  121  110  117  119  110  121  119  117  111  121  124  119  119  121  116  121  131  121  111  116  114  113  119  121   41
ch:  71     121  123  120  119  120  122  121  130  111  111  121  118  114  117  122  123  131  124  127  121  124  121  117  135  117  116  124  124  134  138  136   41
ch:  72     131  127  118  119  117  121  119  120  112  121  132  122  131  121  114  134  116  134  117  134  122  116  120  122  122  132  122  141  133  121  121   41
ch:  73     116  121  116  111  121  117  116  116  112  122  117  106  116  116  121  138  114  122  116  119  113  122  119  118  122  121  120  122  120  120  122   47
ch:  74     130  117  115  118  120  130  131  124  130  123  132  120  122  132  121  122  123  116  122  120  130  123  135  117  120  133  121  123  118  123  122   29
ch:  75     122  111  112  111  121  114  118  121  132  128  115  121  117  121  115  110  122  133  121  117  135  132  132  119  121  113  128  121  122  121  141   41
ch:  76     122  118  119  128  111  111  137  138  124  122  119  117  114  117  119  129  124  117  121  121  128  132  130  122  120  125  137  119  121  127  118   27
ch:  77     106  117  133  124  121  109  116  137  120  121  116  133  124  122  119  123  125  115  120  124  131  130  112  121  117  121  133  121  131  122  127   38
ch:  78     126  128  121  119  120  133  130  124  117  121  119  131  113  122  120  126  117  114  117  125  120  120  114  123  121  119  129  112  134  138  134   34
ch:  79     116  124  117  119  123  130  121  132  133  117  119  123  119  118  118  132  121  125  134  129  123  134  114  119  118  135  122  121  127  121  121   38
ch:  80     116  122  115  112  133  114  120  118  122  124  121  131  122  118  123  133  122  119  128  124  117  122  133  122  121  120  121  113  136  125  117   28
ch:  81     137  119  106  119  120  114  131  116  114  122  120  117  121  122  122  120  121  111  119  122  110  116  118  130  122  130  133  118  130  119  137   40
ch:  82     117  116  119  123  108  119  119  130  110  117  121  118  117  120  122  129  113  113  124  122  131  121  121  118  121  120  119  129  125  121  130   33
ch:  83     117  128  114  115  128  116  117  117  116  130  116  121  119  114  118  122  124  131  120  119  117  121  129  135  121  138  135  127  133  135  132   29
ch:  84     116  105  114  110  117  116  122  122  118  122  110  121  121  120  118  120  117  135  114  116  114  117  122  114  123  120  132  133  117  120  120   52
ch:  85     122  113  121  118  125  121  119  124  132  133  118  129  120  118  123  123  119  123  131  118  131  124  120  134  117  116  132  127  121  127  124   38
ch:  86     117  120  110  131  123  121  123  119  124  134  120  114  135  114  135  120  133  120  117  121  119  129  121  117  113  122  131  121  121  130  122   25
ch:  87     120  128  122  122  113  128  116  133  121  121  130  120  125  118  119  116  122  129  137  134  120  124  123  123  133  117  132  120  117  123  130   36
ch:  88     120  114  131  119  110  119  114  121  114  117  130  117  134  122  123  114  119  120  113  122  121  117  119  129  119  122  117  113  114  138  124   33
ch:  89     120  117  121  116  128  120  117  134  130  118  121  122  130  114  132  117  142  122  121  123  131  133  117  131  120  134  134  121  123  129  121   35
ch:  90     117  137  121  133  118  119  121  116  120  120  117  132  119  119  130  117  131  118  114  135  120  130  121  119  122  117  121  118  121  121  121   30
ch:  91     118  132  121  118  130  115  119  117  134  135  110  116  127  119  123  121  128  116  112  121  128  137  120  124  120  112  128  121  130  119  131   28
ch:  92     122  116  118  113  121  114  121  114  120  114  116  114  112  118  117  131  132  121  113  108  116  119  117  121  129  112  119  117  122  129  115   30
ch:  93     110  122  129  120  129  132  104  123  117  119  133  120  119  120  131  131  126  114  114  124  134  133  123  115  121  132  125  110  122  119  122   33
ch:  94     119  122  123  118  120  121  134  120  123  119  120  134  115  117  124  121  124  121  123  130  121  119  131  128  121  117  124  124  124  134  119   39
ch:  95     131  120  122  105  120  108  135  129  130  130  120  122  123  130  121  112  114  118  131  120  133  122  131  118  117  129  123  122  128  137  122   32
ch:  96     128  128  128  128  128  128  128  128  128  128  128  128  128  128  128  128  128  128  128  128  128  128  128  128  128  128  128  128  128  128  128    0
ch:  97     129  118  123  133  130  133  121  122  120  133  135  138  133  134  141  133  139  145  141  134  153  132  142  149  145  137  139  145  163  148  147   30
ch:  98     132  140  134  120  133  137  140  134  145  147  121  147  152  140  153  141  162  154  166  166  164  153  167  167  171  168  164  163  170  154  128   36
ch:  99     117  123  133  124  119  118  121  121  118  124  119  121  119  121  120  124  123  121  121  117  121  120  113  132  131  123  130  126  133  139  121   32
ch: 100     130  113  119  129  115  111  118  121  119  110  117  122  134  121  135  115  121  133  126  134  113  117  121  137  132  122  123  111  122  132  137   29
ch: 101     128  128  128  128  128  128  128  128  128  128  128  128  128  128  128  128  128  128  128  128  128  128  128  128  128  128  128  128  128  128  128    0
ch: 102     117  117  118  122  128  111  122  122  112  119  119  119  121  140  118  137  116  110  121  108  132  122  131  131  126  131  117  121  134  122  132   12
ch: 103     120  116  120  119  119  114  132  112  135  120  122  118  117  107  122  121  120  120  131  122  114  117  122  121  121  114  135  122  135  121  134   36
ch: 104     122  107  129  120  120  116  120  111  122  107  121  117  132  133  119  121  117  121  117  133  131  120  118  122  113  118  121  122  135  120  125   39
ch: 105     116  117  109  122  118  116  132  124  128  119  110  120  118  114  133  125  133  118  120  134  114  132  115  114  121  121  132  122  131  122  125   20
ch: 106     123  121  133  120  123  117  122  122  114  121  118  132  117  116  123  117  114  112  116  117  123  122  134  132  135  117  129  122  125  121  133   14
ch: 107     122  117  113  118  110  130  123  128  118  117  122  131  114  130  130  121  121  122  124  131  139  134  117  121  120  123  135  132  120  120  109   28
ch: 108     114  110  122  121  112  110  131  117  121  122  117  122  117  122  122  122  135  118  131  118  134  122  122  121  117  122  134  118  137  122  123   42
ch: 109     118  107  117  117  120  103  108  122  113  121  117  114  123  123  119  121  124  123  119  121  133  131  123  121  115  119  133  117  118  138  134   22
ch: 110     109  124  119  122  123  130  116  130  104  132  121  122  115  117  118  123  123  117  115  123  124  123  122  122  135  127  124  121  134  135  122   24
ch: 111     117  119  117  119  119  124  118  131  121  123  123  133  118  121  121  117  121  122  121  120  123  117  121  125  147  119  135  121  141  117  120   24
ch: 112     123  121  121  119  115  120  113  119  118  114  121  118  117  115  122  120  132  135  135  132  121  122  125  120  112  134  117  134  129  117  133   27
ch: 113     123  118  115  120  132  117  122  121  110  131  112  110  118  131  129  123  119  133  134  117  132  119  114  127  117  135  124  128  132  121  135   17
ch: 114     120  116  124  117  121  123  110  124  117  131  119  116  118  122  131  121  120  129  117  113  131  108  117  134  117  117  120  117  122  109  131   13
ch: 115     113  115  122  119  119  117  123  115  114  120  130  118  119  117  134  124  129  117  119  121  118  128  134  120  114  125  132  131  137  128  110   23
ch: 116     117  115  113  119  118  128  129  120  118  120  122  121  114  114  122  111  137  117  116  117  133  122  134  129  122  119  136  120  110  124  138    5
ch: 117     131  123  130  121  118  128  122  123  121  125  114  120  117  134  121  117  123  118  121  128  114  120  108  120  133  130  117  122  132  121  114    0
ch: 118     128  125  116  109  116  117  115  137  124  116  119  117  121  132  131  121  123  134  119  135  121  121  113  137  121  119  117  123  130  132  121    0
ch: 119     115  110  132  109  117  121  116  120  116  120  116  120  116  130  118  114  116  118  106  120  122  114  117  113  120  122  122  132  132  120  122   38
ch: 120     116  111  106  112  116  117  116  120  104  117  116  122  114  104  110  120  107  106  119  116  116  116  116  116  116  129  121  111  119  116  106   56
ch: 121     119  115  108  117  120  116  113  124  111  116  118  116  122  110  119  116  121  118  116  126  122  122  124  108  110  111  108  118  116  122  120   43
ch: 122     119  113  117  107  120  120  116  121  125  116  113  114  112  111  116  117  116  116  106  116  124  112  124  117  113  120  122  114  120  124  116   48
ch: 123     115  107  117  112  118  116  111  110  113  124  120  122  118  116  127  120  113  122  120  106  116   99  113  131  110  131  117  116  120  118  116   40
ch: 124     115  111  113  130  133  120  132  118  120  120  122  116  116  120  111  117  116  116  114  116  120  116  113  116  120  122  121  111  108  130  116   38
ch: 125     119  115  117  112  108  122  120  123  116  120  108  122  116  106  122  116  113  116  122  111  110  113  116  113  116  116  113  113  119  101  131   47
ch: 126     117  118  118  119  108  116  122  122  116  121  117  117  120  119  106  111  120  120  111  120  118  116  110  119  117  120  116  121  117  116  131   40
ch: 127     107  115  119  120  128  116  107  122  116  119  121  116   99  122  101  120  116  114  117  124  111  122  111  116  111  116  110  128  116  117  109   47
