# TRIM CALIBRATION    FEB6_2_5    pulse_ampl_min=13    pulse_ampl_max=150    pulse_ampl_fast=10
#
ch:   0     117  115  117  115  120  120  122  105  116  117  117  110  110  118  107  103  118  110  100  122  106  119  117  114  114  118  113  122  106  109  111    0
ch:   1     107  121  118  116  113  107  108  107  118  119  116  106  107  116  119  114  108  109  110  116  116  114  120  113  117  106  101  131  124  101  116   43
ch:   2     112  104  106  119  112  113  116  122  116  120  104  122  108  106  118  115  106  124  101  109  122  110  114  116  117  116  114  103  109  106  107   48
ch:   3     115  122  121  106  107  128  114  118  104  116  116  107  118  124  119  117  114  110  118  116  121  121  113  120  114  116  106  114  103  117  113   53
ch:   4     120  119  108  119  105  114  116  107  117  101  119  114  113  117  106  116  117  116  120  117  116  112  113  117  116  111  104  108  108  117  116   42
ch:   5     119  113  117  117  117  107  116  104  129  122  103  114  114  115  100  116  120  114  117  109  122  117  106  106  118  122  106  114  110  119  106   49
ch:   6     116  128  122  115  119  116  117  113  116  122  117  124  114  119  107  106  114  120  120  108  116  106  112  100  117  114  114  116  120  110  121   40
ch:   7     102  105  115  122  121  117  113  120  116  118  109  124  117  122  116  116  118  116  113  121  116  122  118  114  116  121  119  117  116  106   94   31
ch:   8     114  117  115  110  120  110  105  122  105  122  117  116  108  116  116  101  108  109  106  114  122  103  116   99  110  114  122  104  113  122  114   39
ch:   9     107  128  118  118  121  121  120  122  104  107  111  120  119  116  110  112  114  114  117  125  116  122  113  117  106  110  116  109  104  121  118   34
ch:  10     122  117  104  117  107  119  117  118  102  106  116  116  124  116  109  113  110  116  112  124  126  119  106  122  121  116  106  117  116   92  104   48
ch:  11     128  128  128  128  128  128  128  128  128  128  128  128  128  128  128  128  128  128  128  128  128  128  128  128  128  128  128  128  128  128  128    0
ch:  12     117  117  130  131  147  147  168  128  128  128  128  128  128  128  128  128  128  128  128  128  128  128  128  128  128  128  128  128  128  128  128   43
ch:  13     105  114  110  123  127  135  137  144  144  145  139  150  150  154  153  165  172  168  165  128  128  167  164  128  128  172  128  128  128  128  128   16
ch:  14     120  113  107  128  105  116  115  122  120  106  110  114  122  106  106  114  115  120  124  108  110  119  121  106  112  117  106  109  120  117  120   48
ch:  15     124  112  117  124  131  120  116  118  117  120  117  122  121  106  114  128  121  118  116  117  107  121  119  122  114  107  116  104  104  104  119   39
ch:  16     118  116  107  106  120  117  121  108  122  110  117  125  116  114  101  107  110  116  111  113  118  116  119  121  107  110  112  120  127  116  116   51
ch:  17     116  120  107  109  117  116  116  117  119  114  107  117  116  110  131  116  106  106  130  118  122  101  120  117  118  107  120  114  111  110  106   55
ch:  18     107  114  115  120  115  120  121  124  112  121  116  118  124  122  119  117  109  113  103  117  107  118  106  117  105  109  116  116  112  107  101   54
ch:  19     107  129  114  114  120  102  108  120  116  117  116  116  121  114  107  117  121  114  110  116  121  116  107  116  120  101  120  104  109  122  114   54
ch:  20     120  112  121  109  103  114  120  118  110  124  106  114  124  114  112  106  107  112  121  116  114  116  119  117  116  124  108  109  114  111  114   53
ch:  21     120  115  120  116  121  118  109  107  117  119  114  118  113  117  106  118  113  121  106  113  121  114  114  116  119  120  104  109  106  116  122   49
ch:  22     115  122  107  105  111  104  121  117  102  109  120  105  116  107  108  119  108  113  106  105  122  116  117  100  116  116  114  116  116  101  120   54
ch:  23     109  121  120  115  111  111  117  116  114  116  121  105  110  122  117  124  120  108  114  118  104  114  124  122  101  107  103  121  116  120  116   41
ch:  24     120  106  117  104  120  116  117  102  104  107  120  110  120  106  109  116  107  116  119  121  114  107  121  114  108  106  103  106  103  106  106   35
ch:  25     104  113  116  117  109  107  111  130  116  117  117  101  113  124  110  120  116  113  109  121  122  112  116  116  116  109  122  124  120  106  104   41
ch:  26     118  116  114  113  115  113  116  107  116  109  127  104  119  114  118  110  120  101  101  119  105  104  114  110  118  111  106  120  117  124  110   46
ch:  27     116  116  118  117  124  118  110  118  116  116  114  113  116  114  103  116  113  113  104  118  114  117  106  104  117  118  117  116  107  114  114   41
ch:  28     120  109  107  118  109  122  116  121  111  116  109  114  112  117  116  104  106  119  116  120  114  106  112  105  106  122  117  101  122  112  112   58
ch:  29     111  120  120  113  116  120  118  114  116  116  108  106  116  106  109  104  116  104  112  116  111  120  119  121  130  120  122  109  117  103  112    0
ch:  30     116  114  108  117  120  107  117  116  110  103  114  120  112  127  106  116  114  123  118  112  103  116  113  120  116  118  122  117  116  105  103   46
ch:  31     107  122  117  119  130  105  121  108  126  116  109  114  122  116  121  109  114  112  122  122  120  115  110  120  106  122  119  107  107  110  113   47
ch:  32     118  122  108  117  115  120  121  121  119  118  106  116  112  113  116  110  118  116  121  118  106  116  117  116  114  120  113  117  121  106  106   47
ch:  33     114  119  106  110  116  116  116  120  122  120  116  116  116  107  117  116  122  101  127  109  118  114  119  100  118  124  106  120  110  120  114   46
ch:  34     107  131  120  115  115  117  113  107  120  106  116  112  117  116  119  116   92  109  117  114  120  101  114  120  124  117  116  112  116  119  106   47
ch:  35     115  119  126  118  134  120  105  124  106  104  120  110  113  110  106  108  106  119  122  122  121  117  114  116  114  119  122  121  114  111  108    0
ch:  36     107  112  112  119  110  116  116  121  114  111  126  114  122  112  104  116  119  118  118  117  114  117  104  120  107  104  106  117  128  106  107    0
ch:  37     107  114  117  118  117  116  120  124  117  101  104  111  122  122  124  112  120  109  122  109  106  117  132  117  110  117  117  118  112  116  117   49
ch:  38     115  130  117  122  120  116  110  129  117  116  117  114  118  117  119  106  121  116  111  114  116  116  105  121  116  107  109  118  116  109  112    0
ch:  39     117  122  129  111  121  124  115  124  114  121  104  119  106  116  109  106  116  121  114  112  107  107  122  106  116  106  119  118  117  118  109   53
ch:  40     120  113  115  110  121  118  121  121  102  121  112  110  106  114  114  122  114  116  115  122  117  116  118  103  106  119  131  109  121  120  116    0
ch:  41     117  122  114  117  131  114  122  124  115  120  101  117  113  118  119  114  117  121  118  105  122  115  116  116  103  122  116  120  122  117  119   54
ch:  42     119  109  118  122  126  122  122  124  118  122  116  118  101  116  106  117  109  109  119  120  105  107  111  120  122  117  117  122  116  112  122    0
ch:  43     121  122  108  110  121  117  105  113  121  117  116  106  120  118  118  116  119  111  103  112  117  118   99  104  116  114  109  116  116  117  109   52
ch:  44     117  106  117  117  131  116  114  117  118  109  122  118  124  116  111  120  124  112  122  117  112  117  118  106  118  114  118  110  121  117  118   49
ch:  45     130  110  117  122  117  113  118  122  120  117  109  114  117  113  116  132  121  116  119  116  109  116  103  116  108  117  117  122  117  121  117    0
ch:  46     106  120  120  117  107  120  120  104  121  121  118  116  101  116  118  117  103  118  113  110  109  117  114  104  108  109  129  114  114  117  118   48
ch:  47     108  102  118  115  117  121  117  124  116  122  125  116  116  124  118  124  114  104  112  116  130  109  120  116  116  116  116  116  116  122  110   52
ch:  48     120  119  105  110  121  107  121  120  122  130   93  104  106  116  104  106  118  116  117  112  121  109  120  117  118  124  106  118  118  121  111   53
ch:  49     120  131  111  118  117  112  120  129  105  116  116  107  117  118  106  124  110  120  103  114  119  114  101  113  116  110  118  109  107  120  118   43
ch:  50     117  100  118  117  117  113  113  122  120  132  122  107  117  110  106  117  116  101  121  133  112  107  108  118  117  120  112  116  113  120  107   49
ch:  51     107  119  115  119  121  117  122  118  104  114  122  117  116  122  110  118  118  121  108  114  117  118  104  120  106  116  120  118  106  118  107    0
ch:  52     118  117  113  120  117  127  120  122  106  117  128  106  110  107  118  122  103  116  106  117  116  117  101  107  120  117  109  106  112  109  118   47
ch:  53     124  121  117  117  128  117  113  115  116  104  108  109  122  116  106  122  117  116  116  121  117  122  112  120  104  119  111  110  127  118  120   54
ch:  54     118  122  110  112  121  116  110  121  122  116  112  121  117  117  126  118  106  112  110  101  114  122  132  103  120  121  106  131  110  116  111   41
ch:  55     118  119  116  126  114  113  107  117  121  119  109  106  104  107  106  119  116  116  116  114  114  109  117  129  117  119  114  117  124  120  116   51
ch:  56     120  122  120  117  117  115  107  107  105  114  108  127  114  116  112  116   98  116  114  119  117  119  118  122  112  118  114  116  117  116  117   49
ch:  57     115  117  115  114  114  124  107  121  110  120  117  116  109  116  122  114  112  103  107  121  118  113  107  109  118  120  117  116  119  104  114    0
ch:  58     107  115  106  121  118  116  114  120  129  130  101  116  114  113  104  115  104  122  114  132  117  106  116  116  110  120  114  116  116  104  116   48
ch:  59     106  120  130  118  121  121  120  116  117  122  121  109  122  121  117  114  122   99  107  104  101  118  120  116  113  114  124  120  119  110  116    0
ch:  60     115  105  117  117  119  122  105  122  105  106  117  118  116  113  117  114  120  122  116  118  118  117  116  106  120  124  117   99  120  116  116   50
ch:  61     108  115  117  114  121  118  116  118  121  113  123  121  122  121  121  117  112  118  111  121  116  109  114  118  110  104  116  130  114  113  116   44
ch:  62     117  117  119  118  130  119  123  136  138  138  137  139  137  148  142  142  138  150  153  156  150  150  150  164  167  154  156  164  165  166  163   31
ch:  63     128  128  128  128  128  128  128  128  128  128  128  128  128  128  128  128  128  128  128  128  128  128  128  128  128  128  128  128  128  128  128    0
ch:  64     100  115  121  102  117  124  119  121  119  114  120  106  114  116  121  112  114  116  117  112  122  120  114  106  118  117  116  119  112  120  116   50
ch:  65     107  122  112  124  121  118  116  110  116  103  116  119  129  122  116  114  132  106  106  118  118  108  122  126  116  122  100  130  114  119  106   44
ch:  66     119  119  106  112  118  116  107  112  120  120  122  116  114  112  117  116  114  122  122  124  116  114  107  116  113  118  108  114  110  116  116   54
ch:  67     119  119  107  119  121  121  114  118  114  122  111  116  121  122  124  122  121  106  118  132  107  117  116  116  121  121  122  122  114  109  106    0
ch:  68     110  124  117  106  113  121  117  122  118  116  107  116  107  106  116  121  111  101  119  106  113  122  107  116  121  106  110  116  116  117  124    0
ch:  69     107  122  119  119  121  105  122  116  109  120  118  135  118  114  114  116  112  112  116  122  118  120  117  114  119  122  122  122  116  107  124   50
ch:  70     120  112  115  117  108  122  116  118  116  114  120  131  122  104  118  116  109  116  116  112  119  116  118  106  120  117  132  101  116  116  118    0
ch:  71     114  110  117  118  117  117  118  126  118  107  116  121  114  121  106  126  127  120  112  121  126  126  116  116  124  120  111  122  106  108  116   43
ch:  72     118  117  117  117  119  119  132  130  126  106  120  101  116  116  117  103  119  106  116  132  117  122  107  116  118  113  122  123  116  110  122   41
ch:  73     120  104  115  122  107  106  127  118  119  120  116  122  116  120  116  117  122  116  117  119  118  117  106  118  116  116  118  108  104  121  114   53
ch:  74     113  119  114  117  114  116  118  116  106  130  110  122  124  116  121  120  117  116  121  116  116  116  117  122  124  118  118  116  112  103  106   54
ch:  75     119  117  117  115  107  107  119  113  117  113  118  121  121  121  110  116  120  116  108  120  116  124  117  109  120  128  120  118  107  113  116   49
ch:  76     115  122  117  117  114  108  114  122  114  114  106  106  113   99  121  117  116  116  120  119  108  114  119  100  116  116  109  118  116  104  116   45
ch:  77     105  102  122  117  137  121  132  108  119  120  107  101  120  119  114  114  119  116  114  122  114  114  113  122  107  106  114  120  107  114  117   46
ch:  78     116  120  129  118  117  116  107  116  106  120  122  116  118  120  120  114  114  106  129  106  114  134  108  120  116  106  101  116  116  119  122   52
ch:  79     114  124  120  126  121  120  121  120  108  131  104  118  117  106  119  114  116  114  112  118  116  112  114  112  119  106  119  111  116  120  122    0
ch:  80     114  109  111  114  120  121  118  125  116  122  114  104  132  111  104  104  116  103  118  119  114  112  113  106  109  118  130  116  110  110  120   50
ch:  81     130  105  117  117  128  116  117  112  112  120  122  116  113  106  114  117   99  116  105  116  121  122  120  122  116  116  116  107  122  104  114   55
ch:  82     115  116  122  117  117  126  121  117  117  117  120  116  122  114  124  119  118  112  117  117  116  126  114  113  133  116  116  116  103  116  107   46
ch:  83     132  120  122  113  119  118  114  119  114  114  122  114  107  121  116  116  114  116  114  122  108  110  106  116  107  107  116  133  112  120  118   47
ch:  84     117  109  120  130  120  116  116  117  105  122  103  119  122  106  109  114  119  118  120  109  116  122  116  121  116  116  114  116  121  116  116    0
ch:  85     115  107  120  121  107  113  118  114  122  116  116  120  116  120  106  116  124  101  101  113  108  106  111  101  106  108  114  109  120  109  107   56
ch:  86     104  134  121  115  110  116  121  122  122  114  120  109  103  122  116  118  122  116  118  121  113  114  106  106  103  116  120  119  129  114  116    0
ch:  87     123  114  119  131  120  117  112  112  119  106  116  108  112  117  120  106  116  116  129  114  106  119  120  116  111  112  113  105  104  118  106    0
ch:  88     130  122  122  115  108  108  107  122  116  124  110  121  106  110  122  119  132  114  120  107  107  122  122  107  108  120  122  119  103  114  116   55
ch:  89     122  113  114  122  118  121  121  115  130  120  121  119  121  131  121  119  122  116  104  116  116  118  113  121  117  121  117  116  108  117  120    0
ch:  90     104  117  117  118  123  107  110  124  102  113  116  120  114  130  116  116  117  119  112  114  118  107  105  117  112  109  114  116  119  116  117    0
ch:  91     114  122  107  119  107  121  107  106  132  112  110  116  112  114  122  120  103  111  117  122  117  114  118  120  117  119  106  122  107  120  111    0
ch:  92     130  110  122  100  107  116  122  130  115  122  119  106  109  106  122  116  116  112  122  120  117  107  119  112  119  101  122  107  110  116  106   49
ch:  93     117  116  106  117  117  107  132  117  121  116  118  115  122  107  105  118  116  129  113  119  109  116  116  122  108  116  122  117  119  120  116   50
ch:  94     116  105  122  106  120  128  105  107  120  114  121  119  121  117  130  106  114  107  116  121  116  116  117  111  106  119  110  116  118   99  117   49
ch:  95     122  121  117  114  121  120  116  119  122  122  119  122  131  112  116  121  110  118  120  120  118  112  124  116  114  116  116  119  121  122  116   47
ch:  96     127  104  112  117  120  108  120  107  108  114  107  106  120  114  110  101  106  107  116  108  121  110  121  120  121  122  117  131  114  101  116   54
ch:  97     118  117  109  117  121  123  118  111  116  116  112  122  114  117  124  119  120  120  132  122  122  116  110  112  122  116  114  121  124  122  116   47
ch:  98     120  104  110  114  107  116  111  122  104  114  118  117  112  126  120  116  116  117  120  120  118  117  118  107  116  116  116  112  123  113  106    0
ch:  99     120  119  106  130  123  121  120  118  109  132  116  106  108  106  104  122  110  120  114  106  121  122  114  121  110  116  112  114  121  106  117   44
ch: 100     128  116  117  117  107  105  122  116  120  111  106  120  120  108  121  121  114  106  106  113  116  118  118  122  121  128  119  106  109  119  100   54
ch: 101     117  115  121  117  106  116  116  116  125  101  120  129  122  106  122  112  116  116  122  114  114  119  113  109  119  122  132  101  111  114  114   54
ch: 102     108  119  118  121  114  116  118  127  120  105  120  120  113  124  122  106  116  106  122  120  118  106  116  117  120  116  124   99  119  116  114    0
ch: 103     116  117  103  122  107  113  116  116  116  122  114  119  100  110  121  114  116  120  114  104  120  110  117  122  117  109  114  119  116  114  120   45
ch: 104     120  115  110  122  117  116  116  117  124  117  103  108  114  116  129  111  108  110  107   99  119  107  129  104  118  120  124  120  110  118  109    0
ch: 105     120  121  122  128  117  114  128  134  121  124  121  111  106  120  122  116  120  120  116  107  116  116  116  131  116  120  116  120  118  112  116    0
ch: 106     117  116  117  122  117  116  117  131  109  118  132  110  116  117  125  124  116  114  121  106  122  118  112  116  116  116  120  116  116  117  117   52
ch: 107     116  120  106  115  121  117  119  118  122  119  107  119  122  120  117  117  118  132  119  110  122  104  116  121  117  117  118  123  107  116  122   36
ch: 108     117  119  117  119  117  114  107  114  120  113  122  117  117  122  121  116  112  121  121  110  120  116  116  112  108  118  111  117  122  116  109   58
ch: 109     116  120  121  102  122  104  123  122  112  113  121  121  122  101  117  119  107  121  116  120  115  118  114  113  122  119  115  118  112  120  106   52
ch: 110     110  107  121  122  120  107  116  111  112  116  116  114  108  108  109  107  114  106  114  132  111  116  117  107  122  114  101  116  109  118  120   42
ch: 111     107  120  131  121  118  122  105  116  126  117  118  116  110  116  121  106  116  120  120  116  115  119  113  116  116  122  116  112  108  107  114   55
ch: 112     107  116  107  118  107  120  132  122  121  121  107  121  116  109  118  109  114  118  114  114  120  132  116  107  114  116  104  124  111  112  116   39
ch: 113     124  120  115  104  113  121  117  120  122  106  116  117  117  103  118  119  119  117  112  118  116  117  124  117  116  132  103  119  100  117  104   48
ch: 114     107  114  114  117  117  101  119  120  120  106  106  116  104  114  116  121  116  109  124  113  122  120  106  117  114  117  114  110  116  118  116   50
ch: 115     104  109  119  122  114  104  124  122  106  110  116  120  109  114  106  122  118  118  124  125  117  107  122  116  118  122  122  116  118  121  111   42
ch: 116     119  119  117  119  105  121  118  117  121  117  116  116  103  114  119  103  121  116  122  105  119  110  103  101  116  112  110  132  109  120  116    0
ch: 117     120  116  107  117  116  116  117  120  113  134  106  105  117  120  114  115  119  115  106  104  106  114  118  104  118  115  105  106  116  110  122   41
ch: 118     120  122  115  120  107  107  118  117  114  114  110  117  109  120  116  110  116  121  114  116  117  112  132  116  116  118  121  117  104  116  120   42
ch: 119     107  130  110  106  111  122  116  124  117  114  122  124  119  107  114  130  103  120  116  114  110  117  114  122  106  116  120  112  116  107  107   40
ch: 120     128  122  118  121  101  115  116  120  122  116  116  129  106  122  114  110  109  121  116  106  122  114  111  125  119  114  118  119  114  104  107   40
ch: 121     119  119  106  117  120  116  119  119  108  113  104  121  122  111  121  116  122  112  117  107  116  121  116  116  114  116  113  119  106  116  121   46
ch: 122     116  118  115  114  117  107   97  110  113  118  116  116  106  106  118  110  120  127  116  122  118  121  115  116  106  116  104  114  116  110  116   51
ch: 123     115  108  126  122  107  120  119  122  114  116  103  118  114  107  112  116  110  118  118  118  128  109  114  122  120  131  121  110  112  121  111   40
ch: 124     120  129  116  117  103  113  104  129  116  120  118  110  121  100  116  131  115  105  114  120  117  124  117  117  114  120  107  117  118  122  120   42
ch: 125     134  116  120  117  114  121  118  119  113  122  112  119  128  117  114  124  116  121  109  126  114  116  110  116  119  120  114  111  116  110  108   51
ch: 126     128  122  129  103  118  121  103  112  111  117  117  116  120  121  116  108  116  114  116  116  117  134  116  103  107  128  106  124  121  104  107   45
ch: 127     123  121  122  130  126  120  117  126  114  131  132  125  132  101  116  120  120  132  122  122  128  124  117  120  117  124  116  120  121  121  116   47
