# TRIM CALIBRATION    FEB6_9_3    pulse_ampl_min=13    pulse_ampl_max=150    pulse_ampl_fast=10
#
ch:   0     132  120  116  136  117  119  121  120  124  137  122  121  121  132  126  137  122  137  118  132  132  127  121  129  127  119  122  131  131  124  139   36
ch:   1     133  117  121  119  131  119  131  121  134  119  120  132  138  120  117  126  127  131  132  131  119  132  121  124  120  117  132  132  135  121  137   58
ch:   2     120  120  122  136  118  131  122  122  120  128  121  118  127  118  132  130  127  135  137  132  132  129  120  125  122  132  137  122  120  126  121   50
ch:   3     119  110  121  119  115  132  129  130  122  125  122  135  122  121  132  125  119  129  122  131  134  126  119  122  124  117  134  122  137  130  129   38
ch:   4     120  122  117  119  121  120  132  122  132  132  138  120  122  124  132  133  120  121  135  122  120  138  143  132  132  117  124  133  130  121  117   47
ch:   5     123  115  124  124  120  128  122  116  125  122  123  119  130  134  121  122  131  107  124  123  138  122  137  132  124  132  132  132  124  142  132   50
ch:   6     124  119  124  136  121  121  120  116  122  120  122  131  132  120  120  129  134  117  122  134  129  135  132  122  131  137  132  132  132  138  124   47
ch:   7     117  122  119  122  128  121  121  124  120  129  120  127  132  134  134  132  138  122  120  121  122  117  122  122  124  124  132  128  119  137  135   29
ch:   8     122  120  122  124  117  116  120  131  118  119  133  123  123  120  122  122  122  122  132  130  118  137  123  144  133  131  130  137  131  122  145   44
ch:   9     107  116  116  120  129  132  114  131  131  129  114  127  117  130  131  118  131  132  130  122  116  132  131  132  125  140  124  137  134  121  126   43
ch:  10     124  120  119  130  130  120  122  129  131  124  126  122  110  137  101  120  130  119  121  132  131  121  120  132  124  131  138  118  138  118  139   47
ch:  11     115  125  117  117  130  118  132  122  132  116  132  132  130  122  124  124  132  133  120  139  122  135  139  129  116  135  132  122  131  121  124   38
ch:  12     120  115  119  122  117  126  118  130  122  129  124  124  112  119  129  137  130  122  132  147  145  130  124  122  129  133  126  124  122  132  130   43
ch:  13     120  123  122  115  123  128  121  131  114  129  117  116  138  130  120  116  124  132  126  137  121  143  134  132  127  132  117  132  132  127  137   43
ch:  14     130  117  111  117  118  121  122  122  121  132  119  120  135  129  118  132  124  124  120  113  127  124  130  130  132  127  137  131  138  129  131   39
ch:  15     124  119  121  119  110  120  128  121  128  127  118  119  124  122  125  116  125  132  130  131  127  121  130  122  129  128  141  127  137  122  130   54
ch:  16     115  123  134  121  122  120  124  130  119  121  122  122  122  130  122  132  137  132  122  132  137  128  141  122  122  137  132  122  133  124  126   47
ch:  17     119  130  122  122  126  121  127  116  132  132  131  122  120  117  131  121  130  134  122  131  122  117  131  122  130  137  130  127  139  122  124   46
ch:  18     119  115  121  131  121  121  131  120  124  116  119  110  124  130  124  122  122  118  130  129  132  127  120  139  122  130  132  132  132  129  122   37
ch:  19     116  119  122  131  118  108  121  110  124  120  118  132  121  121  122  121  129  126  122  122  134  134  121  138  132  127  137  130  131  120  124   47
ch:  20     117  119  120  130  121  118  116  121  117  132  122  120  147  137  140  122  122  122  119  134  116  132  128  145  118  121  120  131  132  134  122   40
ch:  21     117  116  119  114  136  118  120  122  120  131  122  124  119  124  122  122  122  132  122  124  128  131  132  121  137  119  134  145  132  132  124   48
ch:  22     124  121  121  117  131  121  113  126  107  131  122  122  122  134  132  132  122  116  118  138  147  122  122  118  131  122  119  122  137  132  122   47
ch:  23     124  133  116  124  131  116  121  134  119  132  137  122  120  127  132  135  131  128  124  127  128  132  130  129  126  124  122  127  116  137  132   40
ch:  24     119  121  116  121  121  116  117  135  121  126  117  130  116  122  132  121  121  108  124  137  145  139  127  130  127  131  132  134  135  124  128    0
ch:  25     116  121  110  126  131  121  124  117  121  130  129  124  139  122  124  124  132  124  132  130  122  121  131  138  116  120  121  117  122  135  122   62
ch:  26     115  119  131  119  120  130  120  122  128  120  130  125  132  137  137  122  116  124  132  124  122  131  137  124  129  131  131  135  125  137  122   34
ch:  27     121  130  124  122  130  116  120  121  122  133  116  124  131  120  132  131  120  131  138  132  132  134  134  118  121  134  132  122  121  122  132   52
ch:  28     115  115  122  118  131  120  121  122  117  122  122  131  122  122  132  122  122  116  135  135  124  118  116  120  131  132  131  135  132  135  121   57
ch:  29     123  134  119  130  115  117  132  140  122  132  120  126  116  120  139  119  131  118  122  120  131  119  122  132  129  144  122  116  132  132  117   52
ch:  30     117  130  122  131  121  112  121  131  119  119  124  119  119  132  131  122  132  121  121  124  124  120  137  132  137  131  127  124  135  122  127   46
ch:  31     136  121  119  122  120  121  120  132  117  124  113  132  132  134  133  126  121  122  137  127  121  135  133  129  123  132  134  131  138  130  134   56
ch:  32     120  131  121  117  133  123  111  122  124  124  130  122  130  124  131  131  135  117  122  132  132  130  132  130  122  137  122  132  131  137  137   50
ch:  33     119  122  121  118  130  131  121  122  121  132  121  132  120  145  138  132  132  131  132  129  122  134  140  124  132  124  122  132  122  131  134   53
ch:  34     115  124  122  115  119  123  124  116  122  128  124  124  124  135  129  118  116  121  134  132  122  132  132  124  122  120  137  130  137  130  137    0
ch:  35     119  136  131  114  134  120  132  116  124  119  118  118  127  122  124  110  132  129  119  122  129  135  129  117  137  147  124  132  147  132  120   53
ch:  36     121  126  130  117  110  124  122  130  120  132  116  131  122  118  124  122  120  135  116  139  124  135  121  125  127  120  132  129  120  130  128   40
ch:  37     119  128  131  133  131  132  130  124  135  122  116  122  134  118  132  121  122  118  132  118  122  131  132  135  130  132  116  137  131  134  135   61
ch:  38     112  121  122  114  137  138  124  113  129  129  116  120  122  124  131  130  131  138  131  121  124  128  134  119  122  134  132  131  132  122  117   49
ch:  39     117  119  131  117  121  120  132  122  132  122  138  120  124  131  140  124  132  132  137  138  124  122  135  140  120  122  130  137  120  141  132    0
ch:  40     129  119  116  125  121  120  132  121  116  126  129  137  130  112  134  131  129  137  131  122  122  134  124  114  130  132  122  134  131  137  137   47
ch:  41     124  132  128  129  114  120  124  129  134  131  122  132  128  122  130  122  129  120  135  122  137  132  120  125  122  120  122  135  132  122  124   53
ch:  42     124  129  120  133  120  116  122  134  120  132  122  119  121  122  111  132  121  126  141  120  122  134  122  131  132  122  121  126  137  116  122   54
ch:  43     130  119  124  119  121  132  118  120  131  132  131  122  137  132  124  129  124  130  122  130  132  130  134  129  130  131  129  129  122  147  129   56
ch:  44     124  124  118  118  106  132  122  125  133  121  122  124  131  140  132  133  124  134  132  122  132  122  130  125  124  124  137  131  131  137  132    0
ch:  45     104  124  131  118  117  120  118  131  122  120  122  116  110  132  122  124  120  120  129  122  129  132  132  132  137  134  137  122  132  122  124    0
ch:  46     137  119  131  131  121  121  120  120  122  132  120  120  132  126  132  132  120  122  137  124  122  121  117  125  120  137  119  119  132  129  127    0
ch:  47     133  119  122  119  128  116  121  130  119  130  119  130  126  131  132  132  124  122  134  122  124  132  132  132  125  128  117  141  132  129  132   47
ch:  48     124  126  130  122  131  119  132  124  135  127  130  127  110  116  132  122  110  114  132  135  137  142  124  122  120  121  129  120  122  124  139    0
ch:  49     116  119  122  112  131  132  129  135  128  124  129  135  124  124  117  135  121  119  131  132  126  119  130  132  138  137  139  131  122  122  124   50
ch:  50     119  121  131  117  117  129  124  135  124  126  118  122  122  118  126  131  120  127  122  129  122  122  122  122  134  119  121  124  140  129  129   50
ch:  51     130  131  118  122  122  132  132  132  121  123  121  121  132  124  137  120  120  122  132  132  137  130  122  135  134  119  134  132  132  132  122    0
ch:  52     120  121  122  117  123  119  120  122  118  135  122  126  122  132  124  132  129  132  124  147  132  132  130  132  122  131  132  132  132  137  124   50
ch:  53     121  122  116  118  129  117  130  122  132  121  124  132  135  131  134  132  116  135  122  132  132  118  122  132  126  124  133  120  131  132  129   50
ch:  54     111  132  121  114  121  132  117  137  117  125  111  121  134  132  118  122  130  131  130  128  134  132  132  121  122  124  120  132  121  134  120   57
ch:  55     130  121  120  124  131  121  132  132  118  130  122  133  117  124  134  122  124  132  141  140  120  119  119  132  137  131  120  132  132  130  140    0
ch:  56     122  102  131  112  123  129  111  120  114  124  124  122  132  132  121  137  120  132  132  122  134  128  132  121  122  132  132  132  132  130  121    0
ch:  57     120  121  110  121  130  121  122  124  122  120  122  131  119  132  137  129  132  119  131  122  129  114  122  132  122  132  134  132  137  122  122    0
ch:  58     120  133  122  131  119  128  116  117  130  132  132  124  116  124  134  122  120  116  132  118  122  137  122  135  127  116  132  127  138  129  132    0
ch:  59     120  116  131  131  130  121  131  134  129  126  120  124  126  129  129  122  128  127  124  132  129  131  122  132  126  137  124  126  135  124  140    0
ch:  60     121  121  129  121  114  121  123  122  126  131  126  118  132  130  122  120  134  132  140  134  124  121  122  129  131  132  132  118  140  137  140   47
ch:  61     117  124  119  115  122  107  132  123  122  132  131  144  130  134  121  135  121  129  131  121  122  134  122  121  127  134  142  145  132  140  122   48
ch:  62     119  124  129  129  120  124  119  116  121  127  131  129  125  122  131  119  121  122  132  135  131  122  122  134  137  131  118  132  126  118  124   53
ch:  63     120  136  111  118  122  128  120  122  118  125  122  132  137  121  118  122  132  129  137  126  137  132  122  121  131  137  132  132  126  131  132    0
ch:  64     122  119  128  127  133  138  108  132  122  130  116  117  131  131  132  140  137  124  122  132  135  132  122  132  129  122  121  134  137  126  134    0
ch:  65     130  121  129  121  135  132  132  118  119  121  122  122  130  121  135  138  119  130  132  124  120  132  131  122  127  134  135  134  126  132  131    0
ch:  66     119  119  124  117  137  121  122  119  124  121  124  121  120  118  118  132  118  125  122  134  122  130  129  122  124  131  135  122  126  135  129   48
ch:  67     109  119  121  124  109  132  139  116  118  116  121  121  132  120  122  132  131  137  135  122  137  137  141  139  135  131  134  122  138  132  134    0
ch:  68     120  131  131  119  131  121  118  134  122  124  117  132  124  134  127  132  121  132  119  126  118  119  120  122  130  132  122  131  129  130  128   52
ch:  69     130  127  119  126  115  135  128  131  121  129  121  132  130  135  138  132  119  128  127  124  132  135  132  128  134  121  122  122  124  122  122   61
ch:  70     115  126  115  130  130  132  131  130  122  130  120  131  124  132  135  132  122  132  132  122  130  139  132  122  120  124  124  121  122  129  134    0
ch:  71     123  120  122  121  126  128  126  134  121  122  121  122  137  132  132  120  116  137  137  138  129  135  137  140  132  132  129  133  129  116  132   49
ch:  72     120  122  134  122  125  115  132  132  121  132  124  139  116  129  132  131  131  122  118  130  123  140  132  132  147  124  132  124  137  122  132   56
ch:  73     114  120  112  131  135  111  130  130  125  122  135  132  121  132  124  127  121  132  135  130  122  132  135  117  134  124  132  120  143  137  131   58
ch:  74     134  117  122  132  117  123  122  118  120  133  119  137  134  119  125  125  137  122  132  132  121  130  130  122  127  129  137  118  121  129  120   54
ch:  75     119  119  122  122  130  126  134  124  122  120  119  126  122  119  132  132  124  122  131  129  132  124  126  132  135  122  137  135  130  124  140   49
ch:  76     118  121  120  118  137  124  119  122  120  132  132  130  119  145  119  132  120  134  122  137  131  137  124  131  129  126  128  135  137  131  137    0
ch:  77     122  130  121  117  132  121  120  122  126  134  130  109  129  142  116  120  131  129  141  132  134  134  134  137  122  122  124  132  132  131  132   58
ch:  78     120  115  121  125  137  129  124  119  131  120  122  122  124  129  132  117  130  130  130  134  124  135  129  122  132  137  120  134  121  110  121   57
ch:  79     119  121  131  124  127  118  132  104  128  125  132  118  121  124  144  126  125  134  117  131  135  130  124  130  125  137  130  132  132  120  131   51
ch:  80     120  115  134  122  131  127  122  124  134  125  132  122  126  135  145  122  131  122  121  134  121  128  130  120  132  126  130  137  138  126  137    0
ch:  81     120  119  129  124  129  118  134  119  131  122  131  122  122  121  130  132  132  124  127  118  131  120  132  137  137  132  140  132  134  137  130   49
ch:  82     120  116  119  119  121  124  134  124  122  124  124  118  116  121  120  119  130  122  137  132  122  118  137  124  137  135  133  122  122  130  125    0
ch:  83     108  120  120  129  129  121  132  126  132  121  132  137  122  122  132  132  130  132  135  134  128  126  132  124  132  129  122  118  120  130  134   54
ch:  84     133  120  122  136  118  119  117  132  131  122  132  122  120  122  122  132  122  122  141  135  126  121  121  137  132  132  132  129  132  122  119    0
ch:  85     107  129  120  109  130  130  132  127  124  129  121  117  132  129  129  119  122  132  132  147  129  122  133  122  131  120  119  135  134  131  124    0
ch:  86     107  115  117  122  121  132  122  117  120  130  113  118  120  134  116  121  119  132  129  137  124  130  132  132  126  124  132  137  132  122  141   53
ch:  87     120  110  122  122  118  137  138  132  131  131  124  127  132  132  124  124  137  133  122  139  132  137  132  131  129  130  129  147  132  138  134   42
ch:  88     120  115  124  132  121  126  124  117  131  130  135  122  124  132  117  130  128  135  137  122  129  130  132  138  122  122  132  132  121  135  132    0
ch:  89     119  133  124  122  121  132  124  126  122  127  124  120  132  131  138  122  132  122  121  132  122  129  122  129  135  122  125  139  138  145  141   41
ch:  90     123  119  120  124  131  131  124  120  116  122  120  126  122  137  134  129  119  129  131  125  132  122  134  130  132  124  132  134  135  132  132    0
ch:  91     118  120  122  122  121  135  130  132  131  122  124  122  122  130  122  117  122  121  135  139  124  128  121  132  130  132  121  131  133  124  138    0
ch:  92     120  119  112  126  121  130  129  120  108  124  122  120  118  110  121  131  130  129  122  135  135  137  124  124  134  138  118  132  126  131  122   58
ch:  93     118  116  122  132  131  121  132  119  124  126  120  132  119  120  132  116  132  129  132  130  120  121  119  132  132  138  143  124  131  125  137   47
ch:  94     119  126  122  131  121  132  130  119  121  127  120  116  129  132  132  122  142  124  137  134  125  114  120  128  119  121  132  118  116  131  121    0
ch:  95     120  130  124  121  117  128  116  122  134  129  128  124  129  120  125  124  137  139  122  116  135  131  132  137  137  135  131  132  132  137  124   56
ch:  96     116  131  122  119  120  120  120  117  130  137  122  122  134  132  134  137  131  132  122  132  121  131  131  122  110  131  131  149  145  138  135   53
ch:  97     119  121  121  129  119  131  124  131  122  124  124  121  130  132  125  121  132  128  130  132  126  118  130  122  126  135  131  132  122  138  134   54
ch:  98     119  110  129  122  122  120  131  116  126  126  132  116  120  122  135  132  121  124  134  121  129  132  134  124  124  132  122  131  122  135  131    0
ch:  99     137  122  130  121  121  118  121  121  109  124  117  122  134  120  121  138  132  131  134  132  129  137  141  129  138  132  122  126  124  132  137    0
ch: 100     116  124  130  118  119  132  137  132  131  128  118  122  129  137  122  132  122  132  129  124  132  121  130  124  119  122  132  137  124  124  124   47
ch: 101     120  124  119  119  123  123  132  137  127  134  120  122  122  121  134  137  124  118  129  134  134  131  132  130  131  132  135  124  118  134  132   53
ch: 102     124  123  131  114  125  140  132  116  122  129  122  137  130  122  129  116  122  124  139  129  132  135  122  139  137  128  132  132  134  129  132    0
ch: 103     124  122  128  121  122  121  129  131  132  138  122  119  132  124  121  119  132  135  129  140  118  127  134  137  116  137  132  132  137  137  139   54
ch: 104     120  132  131  122  131  120  126  126  124  116  116  121  131  125  126  131  132  127  132  116  122  132  122  134  145  130  134  130  121  127  138    0
ch: 105     115  121  137  115  117  124  116  137  129  122  122  121  130  132  122  132  122  135  130  135  132  114  122  132  131  132  122  122  135  128  135   54
ch: 106     122  121  119  117  124  117  129  117  122  121  122  129  135  124  122  132  122  113  124  125  121  124  118  131  132  122  120  132  132  122  132    0
ch: 107     123  120  119  122  134  131  131  133  123  132  135  116  130  132  130  122  134  137  132  117  132  132  119  124  130  138  133  135  131  138  137   49
ch: 108     120  119  122  119  120  130  124  122  119  137  122  122  131  133  132  132  122  145  131  135  138  147  122  122  132  130  122  132  132  135  124   50
ch: 109     118  121  122  114  123  123  122  122  132  116  120  110  122  129  132  135  134  122  122  134  132  129  124  129  117  126  131  130  129  134  138   45
ch: 110     120  120  118  117  119  132  127  132  129  128  132  123  128  119  121  134  132  132  122  132  116  121  133  116  122  120  131  124  129  122  122   51
ch: 111     133  130  116  107  134  141  122  126  116  122  122  129  134  126  116  130  126  122  134  121  121  135  131  132  137  131  132  135  132  137  135   53
ch: 112     114  123  121  121  126  131  122  122  121  128  132  124  116  132  138  130  135  132  132  133  131  134  128  134  123  119  137  130  131  134  132   56
ch: 113     122  121  121  129  120  120  116  134  118  132  130  127  122  116  114  111  129  120  131  132  139  135  124  118  132  121  122  122  135  124  124   46
ch: 114     117  125  119  122  131  116  121  121  117  124  138  131  131  129  138  124  135  137  122  122  122  138  132  124  132  122  122  106  137  132  124   44
ch: 115     130  117  124  117  118  108  121  116  122  122  124  121  120  132  124  132  120  134  122  137  137  135  128  139  134  132  138  122  131  134  137    0
ch: 116     109  134  118  129  130  116  124  116  116  117  124  137  120  132  132  128  120  122  118  124  130  132  124  134  137  117  130  138  134  129  121   46
ch: 117     124  121  124  121  122  112  132  105  132  135  127  124  135  129  134  137  119  137  137  122  132  122  122  132  122  131  139  118  139  137  122   49
ch: 118     130  115  118  117  131  132  124  128  122  124  124  122  137  128  128  126  117  122  131  132  131  128  134  132  130  130  134  137  122  137  132    0
ch: 119     123  120  117  124  122  132  112  128  114  114  119  137  119  139  118  137  127  122  131  122  144  119  132  122  131  122  128  124  121  131  130   57
ch: 120     119  123  124  114  123  116  130  124  132  138  129  122  132  120  122  130  132  122  132  131  122  137  131  124  116  124  119  132  131  131  122   38
ch: 121     122  133  114  117  121  120  122  126  121  147  131  124  130  132  121  121  122  134  124  124  133  124  134  120  130  139  132  117  124  122  140   48
ch: 122     132  128  126  126  130  128  131  126  116  129  122  120  122  124  122  121  131  121  139  132  135  129  134  112  131  132  132  137  139  122  134    0
ch: 123     122  120  120  114  125  123  132  121  129  133  120  133  120  122  131  124  132  129  122  124  132  137  134  122  132  132  130  137  129  132  135    0
ch: 124     115  115  118  120  120  123  116  131  124  122  120  135  119  122  124  128  135  124  131  129  135  134  139  126  120  134  131  137  132  131  138   47
ch: 125     122  130  124  132  131  121  124  121  122  124  121  114  119  132  134  130  122  132  133  119  118  132  123  129  119  131  132  137  134  122  124   61
ch: 126     124  115  118  129  121  128  124  134  120  131  132  132  125  122  118  121  131  122  135  137  137  120  125  137  122  122  137  120  139  127  119   42
ch: 127     126  114  128  117  130  118  121  121  132  122  124  119  131  131  122  138  132  124  137  137  120  140  134  132  137  137  132  122  121  122  135   20
