# TRIM CALIBRATION    FEB6_7_1    pulse_ampl_min=13    pulse_ampl_max=150    pulse_ampl_fast=10
#
ch:   0     115  115  117  106  124  121  114  117  121  118  116  116  117  120  120  121  106  122  118  109  113  117  116  116  109  118  121  118  122  122  120   38
ch:   1     115  101  114  114  107  122  117  137  116  114  119  108  117  116  116  130  118  117  134  110  118  118  118  121  121  120  116  116  122  116  117   34
ch:   2     119  115  111  121  117  112  116  113  114  117  114  120  108  116  121  123  108  121  120  106  129  122  122  135  130  116  116  135  130  121  116   42
ch:   3     109  133  118  117  104  114  113  118  106  114  108  120  118  114  124  116  120  119  121  121  122  129  120  119  118  116  116  111  120  135  122   49
ch:   4     114  102  118  119  105  117  121  116  111  117  130  121  119  116  116  120  116  131  114  121  125  118  122  111  119  116  117  117  121  120  117   46
ch:   5     107  115  107  119  110  116  116  118  116  122  116  101  118  114  116  117  122  114  114  122  116  139  122  114  130  114  129  116  122  118  116   38
ch:   6     117  107  121  133  115  116  121  123  114  106  110  109  120  120  121  106  122  120  118  118  129  112  116  133  109  110  116  122  121  110  120   44
ch:   7     118  116  117  122  121  124  118  112  109  114  122  120  107  130  130  122  130  111  122  120  116  120  116  132  131  124  117  122  121  111  107   37
ch:   8     107  120  122  130  132  101  120  122  122  120  116  114  110  116  103  120  120  121  122  117  116  121  121  116  116  112  121  117  101  118  116   39
ch:   9     118  115  108  129  121  116  121  114  114  120  108  120  120  117  121  112  122  118  116  116  121  113  121  112  117  122  116  132  109  124  118   48
ch:  10     117  115  118  117  112  101  117  116  134  110  103  121  109  124  122  126  124  113  122  118  116  110  107  109  120  120  124  116  122  122  124   40
ch:  11     110  122  117  115  117  117  122  119  116  124  121  116  126  116  121  120  117  122  120  116  120  121  122  122  128  122  131  120  122  137  117   50
ch:  12     119  111  122  118  117  107  124  116  108  114  113  118  116  114  118  116  112  122  121  120  113  114  113  114  122  119  113  118  120  118  121   32
ch:  13     110  110  108  107  117  102  120  119  116  116  109  120  119  116  120  118  116  116  116  106  130  120  116  122  118  122  119  120  132  122  122   46
ch:  14     120  119  128  120  107  118  120  118  120  113  134  118  106  110  114  120  114  107  117  119  119  116  114  116  116  117  113  132  122  110  122   29
ch:  15     117  101  110  113  114  117  119  122  117  120  116  121  116  122  116  117  111  127  124  111  117  120  117  116  112  117  124  117  124  116  124    0
ch:  16     122  115  124  130  121  117  131  124  117  117  122  119  117  120  122  116  113  124  116  122  116  135  122  122  116  121  122  116  119  107  122   38
ch:  17     104  109  119  118  108  118  113  117  121  107  114  120  117  124  119  131  110  106  122  114  122  133  124  133  124  116  114  109  122  120  119   41
ch:  18     112  112  117  119  106  110  122  117  121  122  106  117  113  122  116  117  124  118  113  117  122  117  114  118  122  118  124  124  119  118  114   54
ch:  19     119  111  118  110  101  122  108  116  122  121  122  106  116  122  116  117  114  114  112  114  113  121  122  117  106  120  119  120  122  122  123   51
ch:  20     118  117  119  133  108  114  118  120  116  116  116  116  107  137  117  109  122  108  121  118  116  119  107  116  132  116  122  116  120  118  114   40
ch:  21     115  123  106  120  121  102  125  117  106  112  117  122  117  116  110  118  122  122  117  120  110  121  114  124  118  122  122  124  122  121  118   53
ch:  22     111  116  120  102  121  121  121  122  117  109  116  120  114  114  116  116  117  114  122  116  118  116  106  119  134  116  106  116  122  120  107    0
ch:  23     115  120  111  108  115  116  120  113  109  119  116  122  118  124  122  121  117  134  117  120  130  121  117  116  141  119  132  121  114  122  114   31
ch:  24     114  115  119  115  105  113  120  123  116  113  116  117  108  119  133  122  121  117  120  120  110  121  117  117  121  119  122  122  121  114  122   38
ch:  25     103  131  110  118  117  120  120  118  113  113  119  120  121  114  119  112  110  119  129  122  132  116  114  124  101  118  120  117  120  114  122    0
ch:  26     115  118  114  119  123  118  121  121  116  121  122  118  107  118  122  108  122  122  116  112  120  122  124  122  116  118  119  114  122  103  119   56
ch:  27     132  115  112  118  109  116  122  113  122  106  122  116  119  122  130  118  133  118  116  113  122  118  118  113  121  116  131  107  139  120  116   53
ch:  28     116  124  130  117  120  111  119  112  110  114  131  130  118  107  106  117  130  130  120  118  122  116  106  133  109  121  116  122  119  118  124    0
ch:  29     130  111  117  123  114  116  117  122  107  124  121  117  114  118  119  120  122  130  118  110  116  119  121  114  116  120  120  116  124  122  121   42
ch:  30     120  115  120  112  122  132  117  118  118  116  124  114  121  122  114  118  118  108  121  133  116  114  122  118  113  117  132  107  123  121  133   52
ch:  31     122  115  117  111  114  116  111  116  116  119  116  119  122  117  123  131  116  117  114  120  120  116  116  122  127  118  122  121  124  114  125   40
ch:  32     119  111  131  117  120  133  122  114  116  113  132  106  108  114  114  107  132  124  116  116  118  132  117  117  125  104  130  121  123  120  122   46
ch:  33     120  102  108  136  120  117  117  113  116  122  122  117  116  116  120  118  120  117  109  122  117  114  116  106  116  114  122  119  133  116  120   54
ch:  34     115  117  111  117  120  107  110  116  116  121  120  121  116  116  114  109  107  112  122  122  125  121  117  137  121  114  122  112  119  132  132   49
ch:  35     114  122  114  114  111  112  122  132  116  117  124  120  131  116  114  119  117  121  122  122  117  122  124  116  132  122  122  121  132  132  117   46
ch:  36     115  105  117  108  113  111  122  121  116  131  107  110  116  119  106  133  122  121  114  113  131  132  120  114  121  116  124  107  120  131  122   44
ch:  37     112  122  119  102  112  116  116  118  111  122  114  124  109  116  109  121  116  116  118  127  116  117  119  112  117  122  117  116  137  118  132   60
ch:  38     122  119  118  114  121  124  121  118  117  110  112  132  118  120  121  114  117  122  121  123  117  130  116  122  131  122  119  121  121  133  120   49
ch:  39     116  102  118  118  111  116  132  117  110  122  133  116  118  116  121  129  116  121  121  110  122  119  107  116  109  132  122  120  116  120  114   43
ch:  40     120  117  114  120  135  102  132  116  119  122  116  123  116  118  122  120  118  114  122  122  109  121  124  124  116  122  119  130  124  112  130   33
ch:  41     132  119  114  110  119  108  114  116  119  118  137  106  106  118  133  121  118  119  122  122  118  114  118  118  119  114  122  121  122  120  116   58
ch:  42     118  116  121  119  117  116  119  116  122  120  117  137  117  119  121  121  122  118  108  124  132  121  124  118  120  117  122  127  129  117  119   42
ch:  43     118  107  118  122  109  116  116  119  132  107  117  124  122  131  121  117  114  118  116  117  116  129  133  116  129  137  118  124  122  116  124   36
ch:  44     114  117  118  120  112  107  118  114  120  117  133  120  114  117  118  122  109  117  124  122  116  116  124  119  132  110  116  113  116  123  120   42
ch:  45     114  110  114  121  117  107  113  119  117  119  121  116  108  117  114  121  120  116  116  111  121  122  116  108  110  121  116  117  119  126  132   45
ch:  46     108  110  119  121  120  116  124  114  114  111  129  120  113  113  124  119  117  117  122  122  118  116  118  117  120  116  113  114  120  116  116   48
ch:  47     120  119  122  107  121  108  122  122  117  122  134  122  119  119  121  132  129  120  132  114  120  124  120  110  122  125  119  132  122  122  130   49
ch:  48     115  120  114  117  117  119  116  110  107  117  110  104  116  117  121  114  122  116  121  120  108  116  118  121  116  117  116  104  123  116  121    0
ch:  49     104  120  132  122  131  121  107  134  118  111  108  112  114  120  110  114  116  116  130  122  138  124  122  116  117  122  132  113  121  124  122   52
ch:  50     113  119  117  112  118  120  108  116  124  116  112  116  110  119  117  121  121  119  122  119  119  116  122  120  117  112  123  118  132  109  119   48
ch:  51     115  108  109  121  117  107  122  120  122  130  118  120  116  118  116  117  119  117  124  124  130  132  121  124  122  135  132  122  118  117  122   52
ch:  52     117  117  121  119  130  116  107  117  120  121  120  121  116  121  124  113  108  118  117  110  119  117  116  110  131  109  111  109  121  117  118   36
ch:  53     130  121  117  124  131  114  116  121  114  122  122  132  104  121  116  120  107  117  120  119  116  119  124  122  121  124  123  116  125  122  118    0
ch:  54     117  129  112  115  115  107  116  111  118  118  107  130  110  117  123  114  116  109  121  111  116  118  121  122  116  122  118  116  116  116  133   47
ch:  55     122  120  115  117  103  111  122  121  121  124  122  135  124  108  107  117  129  122  116  130  119  131  117  122  130  121  122  121  116  121  117   59
ch:  56     130  104  114  128  130  114  122  132  116  128  118  122  107  117  116  122  122  118  114  122  119  113  113  117  119  121  131  122  135  122  133   38
ch:  57     120  111  110  117  111  119  113  121  120  116  110  128  107  120  116  118  118  121  121  122  122  117  132  120  111  117  120  118  117  122  137    0
ch:  58     123  119  104  119  117  117  107  120  104  120  120  111  117  120  106  112  116  106  116  113  120  120  119  119  132  116  121  124  122  116  114   47
ch:  59     122  115  131  129  115  120  120  122  130  118  122  116  110  133  121  110  119  116  110  119  119  122  121  122  116  122  122  133  124  118  113   49
ch:  60     120  120  106  113  117  104  124  120  122  113  108  131  122  120  116  114  114  120  110  120  108  114  122  124  121  121  121  110  120  117  116    0
ch:  61     119  117  120  122  117  122  117  119  116  119  103  122  111  109  134  117  120  122  118  123  120  114  120  116  124  103  116  130  121  118  131   54
ch:  62     115  130  117  117  117  109  118  119  121  116  120  114  114  122  131  122  114  135  121  130  108  132  108  119  120  120  122  116  117  111  118    0
ch:  63     114  119  120  106  120  132  117  120  116  122  131  122  109  116  117  122  120  117  119  120  110  121  119  119  112  122  119  113  122  120  118   60
ch:  64     120  115  120  107  121  116  120  118  135  114  121  121  122  104  130  117  116  116  119  137  111  122  122  109  108  121  122  120  123  131  132    0
ch:  65     110  122  119  121  104  116  118  119  121  118  124  118  120  117  118  120  134  116  122  119  117  114  132  114  121  121  120  113  121  116  131   55
ch:  66     111  119  107  119  111  123  120  116  117  121  116  118  113  116  120  104  122  117  117  127  122  116  122  121  130  130  114  121  114  132  130   48
ch:  67     120  119  117  117  117  116  118  130  118  118  117  117  122  129  121  106  119  107  125  116  106  124  124  117  121  116  124  121  120  122  133   46
ch:  68     102  105  115  117  120  124  122  122  116  118  120  122  107  114  119  116  118  121  121  121  109  113  124  119  122  108  122  125  131  122  122   40
ch:  69     117  117  114  118  117  116  119  116  110  114  116  121  120  110  119  122  120  110  116  110  119  120  132  114  107  116  122  114  124  120  131   53
ch:  70     107  109  107  122  121  116  121  122  116  122  114  116  116  122  117  122  116  100  120  132  114  116  114  117  119  113  121  122  118  116  122   55
ch:  71     114  122  117  118  121  116  116  121  116  111  122  116  116  130  116  118  122  118  122  124  116  113  139  119  106  117  132  121  117  122  131   50
ch:  72     130  116  112  113  118  120  116  130  123  119  121  124  113  131  118  114  116  122  118  121  119  120  110  122  119  116  121  106  119  116  121   42
ch:  73     117  117  113  121  110  121  116  124  116  106  111  112  122  117  121  106  117  113  122  122  109  122  133  107  111  119  116  121  112  118  116   53
ch:  74     115  115  117  109  120  114  121  108  122  112  121  132  106  121  111  135  132  116  121  118  121  122  122  121  116  118  107  113  132  119  119   48
ch:  75     118  121  133  111  115  121  122  123  118  118  114  121  131  118  110  118  117  132  119  122  131  121  132  122  122  117  118  137  134  120  116   48
ch:  76     115  121  119  120  130  108  108  117  112  122  110  116  122  107  108  120  116  110  117  119  122  122  119  122  118  132  116  113  118  120  119    0
ch:  77     121  119  145  138  124  134  121  138  134  145  138  145  144  153  165  153  155  155  162  160  168  158  167  171  170  167  128  128  176  128  128   36
ch:  78     128  128  128  128  128  128  128  128  128  128  128  128  128  128  128  128  128  128  128  128  128  128  128  128  128  128  128  128  128  128  128    0
ch:  79     130  120  118  117  117  114  108  131  117  112  117  117  116  116  117  148  122  120  124  119  124  134  120  118  121  120  121  120  121  118  124    0
ch:  80     107  116  117  132  108  116  107  131  109  120  111  109  117  117  116  122  121  122  122  121  120  122  130  116  117  117  116  123  110  118  120   45
ch:  81     122  122  122  117  123  116  119  116  119  106  118  111  110  122  122  122  113  117  124  125  124  116  120  117  108  116  121  134  120  118  117    0
ch:  82     120  119  114  117  121  116  116  108  118  117  114  119  106  120  116  119  122  116  116  116  111  121  122  131  116  122  121  116  121  121  118   44
ch:  83     118  117  122  117  131  124  121  116  118  110  118  132  111  129  121  116  120  110  116  122  132  106  126  122  137  132  119  118  122  122  122    0
ch:  84     115  119  114  111  101  116  121  114  121  132  107  130  117  110  114  104  122  122  132  116  116  117  111  121  116  117  132  122  116  120  122   58
ch:  85     117  121  132  121  115  125  132  118  114  111  114  116  116  110  118  122  124  118  111  135  123  114  108  132  113  122  120  118  117  130  124   51
ch:  86     113  126  120  112  120  121  121  108  114  120  120  121  124  108  116  116  122  122  118  111  116  116  119  116  121  106  114  120  130  138  113    0
ch:  87     116  120  120  111  118  109  118  107  112  116  114  107  122  122  122  116  111  130  117  119  117  131  122  116  118  119  122  118  122  122  124   53
ch:  88     115  119  108  117  114  118  122  118  116  130  109  131  116  117  133  106  114  141  120  117  122  124  120  124  124  111  122  117  134  111  121   48
ch:  89     118  119  117  124  121  108  116  116  111  131  116  110  122  122  122  119  118  122  119  116  116  120  124  122  120  116  131  129  117  121  131    0
ch:  90     122  128  120  118  117  117  122  118  121  111  122  101  122  114  121  119  123  110  124  120  112  119  132  116  124  106  111  117  114  121  121   55
ch:  91     115  115  120  106  121  112  107  108  121  108  116  114  116  132  116  116  114  116  121  114  134  122  120  134  121  130  117  138  133  120  121    0
ch:  92     116  110  118  115  118  119  122  124  118  106  117  122  120  130  118  116  116  116  118  132  121  116  119  123  107  116  132  118  116  109  122   58
ch:  93     114  116  124  109  115  131  113  122  113  119  114  116  120  114  114  133  110  116  129  110  116  122  107  116  122  132  114  125  119  106  116   54
ch:  94     117  115  122  121  114  116   99  121  107  107  113  107  120  120  122  122  117  110  109  120  116  119  113  121  110  124  120  116  132  132  118   47
ch:  95     120  122  121  107  124  116  114  117  123  116  114  103  112  120  119  124  116  117  120  122  116  122  134  132  132  130  122  108  117  119  121   50
ch:  96     109  122  121  122  112  120  108  122  114  122  122  112  116  110  116  118  133  112  134  116  118  120  114  116  114  120  116  116  117  110  122   55
ch:  97     117  115  112  122  117  120  121  123  116  116  108  117  119  119  118  116  114  132  118  119  113  119  131  122  120  119  130  113  131  123  122   53
ch:  98     108  115  112  122  105  119  116  122  104  130  112  116  120  116  121  129  122  114  133  131  116  117  107  114  118  121  121  116  118  120  122    0
ch:  99     119  122  122  130  121  120  114  121  119  110  119  117  117  119  117  116  116  116  120  118  110  107  119  121  116  122  122  121  116  119  130    0
ch: 100     128  122  107  112  131  117  104  131  120  118  117  122  133  116  119  110  134  116  116  114  114  120  114  117  124  119  109  133  117  116  118   57
ch: 101     120  117  134  120  121  121  102  123  124  120  122  130  116  116  109  110  130  117  108  116  132  118  122  121  110  128  122  113  117  114  121   60
ch: 102     122  117  122  117  121  120  116  113  113  132  121  121  119  111  124  132  118  114  116  122  116  118  118  117  122  120  135  121  113  121  118    0
ch: 103     119  121  116  121  118  107  124  122  106  120  129  120  132  130  119  134  120  120  137  119  121  122  121  116  125  116  114  120  120  118  122   49
ch: 104     128  117  109  112  119  132  120  116  105  121  116  114  117  114  116  124  116  116  111  106  116  116  116  125  122  131  121  122  122  116  119    0
ch: 105     130  111  117  121  132  121  120  118  114  117  118  116  118  132  109  114  116  120  116  116  120  122  116  114  133  117  122  134  122  114  107   48
ch: 106     116  113  118  117  121  107  121  121  117  107  114  111  101  122  119  110  114  122  121  101  137  114  117  114  116  116  120  120  116  119  122   48
ch: 107     123  118  108  130  120  104  108  117  134  119  107  108  122  131  118  130  123  119  120  119  106  122  116  133  117  121  118  140  121  122  123   49
ch: 108     108  117  118  120  117  113  118  116  122  121  121  122  111  131  114  117  116  110  122  119  130  122  116  134  110  122  110  118  121  124  116   41
ch: 109     120  116  133  119  130  118  121  123  111  112  116  101  120  133  118  116  114  123  117  113  116  122  121  117  122  114  133  122  122  117  114   46
ch: 110     116  117  109  114  132  117  112  117  116  116  120  122  118  106  129  130  121  133  104  132  122  116  122  116  106  121  121  116  116  108  121   41
ch: 111     110  119  130  118  131  119  117  116  117  120  124  119  116  119  110  120  122  121  116  133  116  116  124  124  121  133  118  118  123  116  122   41
ch: 112     116  107  110  115  110  112  111  116  110  122  119  121  118  116  117  117  119  116  117  125  133  120  118  122  116  116  116  106  118  109  122   44
ch: 113     105  117  112  124  131  119  134  123  113  121  122  107  120  122  111  122  116  118  120  120  116  119  117  133  113  130  116  121  117  110  121   49
ch: 114     105  122  113  119  117  114  118  116  120  116  119  107  132  132  119  116  118  116  132  106  124  119  116  124  114  106  122  116  114  116  122   56
ch: 115     116  120  122  120  120  131  121  122  120  117  119  120  122  118  132  123  117  134  130  116  122  137  137  117  124  116  124  135  135  121  125   41
ch: 116     120  119  122  111  121  117  132  117  122  109  116  124  107  116  119  121  122  120  120  121  114  123  120  116  124  107  122  120  114  130  106   47
ch: 117     111  116  106  121  110  107  114  121  117  119  114  123  103  121  116  110  135  129  117  125  114  120  122  125  122  116  109  116  122  122  130   51
ch: 118     123  112  132  114  109  116  116  111  117  121  122  135  117  116  121  116  119  119  119  116  116  135  119  121  116  118  134  113  114  113  120   46
ch: 119     117  120  132  111  117  131  120  114  117  106  117  121  116  121  130  114  117  120  116  117  121  128  122  122  122  119  122  132  122  123  127   41
ch: 120     113  119  117  114  117  116  108  121  113  107  124  119  116  118  116  111  107  120  119  119  130  127  119  121  107  111  114  118  137  110  124   32
ch: 121     120  106  110  115  119  116  120  110  117  128  116  112  122  106  116  118  120  120  126  118  122  119  117  122  120  116  124  122  114  118  124   55
ch: 122     119  112  132  117  121  113  112  119  106  106  116  119  120  110  118  116  122  111  117  130  120  122  113  117  118  116  112  122  114  122  121   33
ch: 123     114  121  131  115  128  107  107  116  116  128  117  114  116  120  132  120  119  116  113  106  117  122  125  132  108  122  132  117  119  119  121   40
ch: 124     120  111  131  115  120  120  116  117  117  133  114  116  121  122  116  118  120  130  113  116  112  122  120  133  114  121  122  111  122  132  117   46
ch: 125     108  109  114  113  121  130  116  116  116  116  120  117  120  118  124  122  120  111  116  113  119  114  112  120  130  109  120  121  107  110  114   40
ch: 126     118  113  112  110  117  121  119  108  121  114  121  116  113  122  120  118  114  106  124  116  120  106  108  119  120  120  117  124  124  113  132   36
ch: 127     114  112  108  132  107  116  120  107  116  139  132  120  120  116  117  120  122  119  121  123  120  132  122  119  133  130  117  117  133  135  121   46
