# TRIM CALIBRATION    FEB6_7_4    pulse_ampl_min=13    pulse_ampl_max=150    pulse_ampl_fast=10
#
ch:   0     118  119  120  111  120  119  119  121  117  104  120  120  124  131  119  122  121  106  118  116  129  122  112  120  120  129  110  121  110  122  119   45
ch:   1     109  121  107  121  112  116  120  110  120  120  106  119  122  100  130  114  116  118  116  124  118  116  122  122  122  122  117  118  120  118  135   44
ch:   2     119  127  121  115  107  122  117  120  116  116  119  126  119  120  122  104  120  114  121  122  125  122  118  122  116  114  116  119  119  111  122   33
ch:   3     120  126  117  119  115  116  122  118  111  110  117  114  114  109  121  111  128  121  122  124  124  122  117  117  120  121  116  122  122  117  122   39
ch:   4     119  106  120  111  117  118  117  131  120  118  111  120  122  127  121  122  116  124  116  124  118  113  113  117  130  120  121  120  117  117  121   42
ch:   5     104  120  128  117  117  122  122  118  119  122  116  116  110  114  122  120  120  108  116  122  126  116  118  120  116  114  128  121  118  122  116   42
ch:   6     115  122  122  117  103  121  116  116  116  112  117  114  101  117  121  120  116  122  122  120  114  122  119  124  109  120  104  121  124  119  118   32
ch:   7     120  117  121  109  115  130  122  110  114  130  134  126  116  110  118  121  122  122  122  124  118  132  112  122  120  118  110  120  122  124  122   38
ch:   8     118  116  114  112  127  124  110  124  114  119  112  114  119  116  121  129  120  122  106  117  132  131  122  120  116  114  120  122  122  124  130   38
ch:   9     116  121  114  114  116  116  124  119  121  118  116  117  101  106  111  119  117  122  122  121  120  122  122  118  114  120  117  120  122  120  116   45
ch:  10     120  116  124  112  111  122  121  107  116  131  130  116  120  108  116  116  122  129  116  110  113  120  114  122  116  116  120  124  117  114  121   28
ch:  11     116  116  117  110  111  122  119  112  124  130  116  119  114  110  116  120  116  116  126  117  116  117  120  119  117  124  118  119  120  122  122   45
ch:  12     122  121  117  121  115  137  114  122  118  119  105  119  114  122  116  109  122  120  116  117  114  118  120  121  122  121  131  120  122  118  121   43
ch:  13     117  118  122  131  116  108  116  120  120  118  129  114  116  117  121  116  122  116  119  126  116  107  119  121  112  120  124  122  132  117  120   48
ch:  14     128  121  120  107  131  108  116  121  117  117  112  113  112  116  116  132  118  117  109  116  122  122  116  124  114  117  111  120  107  119  122   51
ch:  15     130  115  122  109  121  120  129  127  107  118  121  106  119  114  119  132  120  117  110  124  122  117  120  130  116  126  117  113  113  118  116   58
ch:  16     104  121  120  105  108  122  116  117  116  122  121  122  113  118  121  120  120  127  113  103  112  129  114  107  114  126  121  120  129  119  114   47
ch:  17     131  115  122  112  133  120  119  122  122  124  120  114  106  116  122  116  122  121  116  106  122  110  117  122  120  119  116  116  114  124  119   45
ch:  18     122  116  122  119  118  117  107  117  129  116  114  112  124  116  114  118  120  106  122  118  121  114  117  121  114  120  108  117  117  113  116   42
ch:  19     109  116  128  121  121  122  108  107  130  113  130  124  117  119  131  121  122  112  116  120  108  131  122  121  121  120  132  122  124  113  124   52
ch:  20     107  120  122  121  121  108  116  122  117  113  106  120  107  117  111  120  116  116  122  112  118  132  116  118  117  122  113  116  121  128  119   44
ch:  21     130  113  117  122  124  122  119  121  122  120  119  122  114  134  116  118  117  118  121  106  119  116  120  117  119  112  119  118  121  120  120   58
ch:  22     122  120  133  118  123  112  122  118  121  119  114  116  128  122  116  114  117  117  114  129  111  121  122  116  111  117  122  120  124  122  122   43
ch:  23     120  120  113  119  130  118  121  114  106  124  114  109  127  111  122  116  122  113  120  122  103  117  122  126  124  116  130  110  117  122  117   42
ch:  24     114  117  119  117  117  116  117  108  116  118  108  117  116  118  120  119  117  110  104  132  131  131  121  120  124  124  124  118  116  122  119   42
ch:  25     119  115  122  117  112  120  118  122  117  122  116  116  130  121  122  110  122  116  122  116  109  124  119  122  121  111  122  124  116  116  116    0
ch:  26     123  117  117  122  120  114  122  113  116  122  116  122  111  109  131  116  107  116  114  120  117  120  122  135  124  116  118  122  119  122  113   53
ch:  27     121  117  129  129  120  118  116  124  114  120  124  107  106  121  121  121  130  116  122  116  117  120  122  124  122  121  121  121  131  130  126   48
ch:  28     139  128  157  151  154  162  154  167  167  128  128  128  128  128  128  128  128  128  128  128  128  128  128  128  128  128  128  128  128  128  128    0
ch:  29     117  122  117  122  123  121  124  116  129  120  110  120  116  108  109  118  121  122  134  121  116  121  130  113  120  124  109  119  117  127  122    0
ch:  30     109  115  118  112  110  117  119  116  122  121  120  116  121  110  117  116  132  116  116  112  120  124  120  116  122  128  113  120  132  109  117   50
ch:  31     108  113  114  108  117  113  116  117  122  109  118  118  116  117  120  120  106  116  119  122  110  122  131  117  122  121  117  118  117  116  122   36
ch:  32     107  121  108  112  128  117  121  119  113  119  109  106  119  122  107  112  129  108  124  127  114  114  114  122  129  122  118  132  125  121  121   54
ch:  33     116  126  108  117  120  116  112  117  124  116  106  116  118  130  134  117  122  107  112  118  128  126  111  130  118  124  119  120  120  116  129   55
ch:  34     124  118  109  118  136  131  131  130  142  118  125  120  144  126  126  131  141  129  131  142  137  135  147  135  137  135  138  135  144  149  153   50
ch:  35     128  115  121  123  114  118  104  132  116  118  121  120  114  120  118  121  122  114  130  117  117  130  118  121  124  116  131  122  121  116  121   54
ch:  36     117  122  117  114  125  119  122  120  119  122  117  120  120  120  120  122  120  112  116  116  116  124  116  122  117  121  122  116  120  116  120   52
ch:  37     104  124  117  125  121  114  114  122  118  121  122  122  106  120  122  124  122  122  122  129  120  121  116  116  121  128  129  125  130  120  106   51
ch:  38     114  118  122  110  116  108  117  121  106  122  128  118  118  111  126  122  119  114  117  108  111  107  119  137  120  120  122  117  117  111  118   49
ch:  39     114  115  121  124  125  107  122  122  116  110  125  119  120  120  119  117  120  116  122  118  120  119  128  122  117  122  116  119  122  131  122   40
ch:  40     117  120  117  115  108  116  122  122  118  104  122  122  122  119  118  120  121  122  122  116  121  120  122  122  116  120  117  116  135  122  103   48
ch:  41     115  116  117  122  114  119  111  122  117  116  116  128  118  120  118  113  114  120  119  117  121  116  119  119  117  118  116  114  122  121  121   44
ch:  42     110  128  117  110  112  124  117  116  118  121  107  108  131  116  125  122  121  120  116  103  126  124  116  116  114  118  114  117  135  128  118   42
ch:  43     119  116  121  110  114  109  122  113  120  120  121  112  116  122  114  116  116  120  118  120  122  121  120  118  121  101  117  114  116  132  116   54
ch:  44     128  124  117  122  110  128  114  113  122  120  116  118  120  122  121  118  116  103  118  125  122  122  116  114  122  116  119  122  117  119  122   53
ch:  45     124  112  110  127  111  116  122  114  106  121  122  107  119  116  116  116  118  119  122  116  118  122  116  118  122  124  118  120  121  118  114   45
ch:  46     100  118  117  111  130  110  122  116  114  118  116  125  122  106  129  118  116  119  116  124  116  118  117  128  116  122  116  119  109  117  118   51
ch:  47     117  119  120  119  119  116  108  122  124  122  122  116  111  114  114  120  121  124  118  121  124  124  124  116  113  114  114  130  125  121  121   38
ch:  48     117  130  122  119  108  119  124  130  111  134  116  127  132  128  127  125  122  128  130  131  132  116  122  122  116  124  119  137  116  121  125   53
ch:  49     119  120  122  119  110  116  111  122  124  124  110  117  116  120  114  119  117  116  110  120  129  122  117  116  119  118  121  122  122  126  114   46
ch:  50     116  122  124  115  121  107  104  122  116  122  116  117  116  107  119  121  117  119  134  106  117  114  117  121  122  106  117  114  132  120  112   42
ch:  51     120  108  120  129  114  107  114  118  111  122  114  114  120  118  116  118  117  118  122  120  132  122  134  122  116  118  117  124  117  114  122   44
ch:  52     115  111  120  111  118  120  114  105  111  101  122  116  116  117  117  122  122  122  127  122  119  122  116  113  124  120  131  130  122  112  129   53
ch:  53     117  115  122  126  111  117  116  120  107  120  114  116  122  119  119  117  109  116  122  110  116  124  120  119  117  117  118  120  131  122  122    0
ch:  54     123  116  118  118  132  120  121  117  106  116  116  116  122  106  129  120  117  110  120  116  120  132  130  129  131  116  119  132  116  106  122   56
ch:  55     120  102  117  122  117  112  120  122  127  124  116  118  121  114  117  114  122  116  121  122  118  118  122  114  108  122  119  121  121  129  122   37
ch:  56     132  124  117  133  121  116  114  127  121  118  120  118  120  125  116  117  118  122  114  112  117  116  117  122  129  129  122  128  114  117  118   49
ch:  57     115  121  130  122  132  113  116  114  120  132  116  118  111  117  122  118  129  116  116  114  117  116  114  121  124  118  103  119  121  120  116   48
ch:  58     122  120  132  127  108  116  124  119  114  116  122  119  108  107  114  112  116  116  121  121  122  124  122  116  129  113  119  119  114  119  120   50
ch:  59     120  120  117  121  108  120  116  124  125  119  122  117  116  130  116  117  122  121  121  114  120  116  113  117  122  119  121  129  121  116  122   53
ch:  60     107  118  121  106  118  116  116  125  120  119  116  135  122  122  117  111  125  122  121  124  116  122  118  122  120  124  129  116  124  119  122   41
ch:  61     128  133  132  139  150  155  162  150  170  170  170  128  128  128  128  128  128  128  128  128  128  128  128  128  128  128  128  128  128  128  128    0
ch:  62     128  115  112  111  115  107  119  120  118  118  114  118  114  109  120  116  113  114  121  131  111  113  114  114  112  122  116  121  117  122  120   49
ch:  63     122  122  116  121  107  116  122  114  122  132  122  114  116  122  124  131  122  120  117  129  120  122  114  101  116  126  122  117  118  120  124   45
ch:  64     116  118  120  120  125  116  124  125  116  117  118  121  117  117  122  114  114  117  117  119  109  114  116  118  120  119  129  121  130  119  118   52
ch:  65     114  117  131  113  123  113  126  120  117  131  116  117  117  113  122  119  122  117  114  116  107  106  118  117  121  121  118  122  111  116  116   54
ch:  66     115  116  107  119  120  112  125  107  121  120  116  116  117  120  116  124  113  117  118  132  119  122  121  124  120  117  116  117  130  122  121   30
ch:  67     108  115  124  122  117  113  120  120  121  117  110  121  121  127  110  122  122  124  132  116  137  124  116  117  130  122  124  121  120  118  124   47
ch:  68     132  119  117  119  117  113  122  116  117  119  119  120  113  118  108  113  120  121  117  122  114  119  118  116  116  111  121  119  118  107  122   54
ch:  69     115  115  129  119  121  121  119  122  122  119  116  114  114  117  120  116  118  113  116  109  114  112  130  122  121  119  107  119  126  116  116   36
ch:  70     115  110  117  117  117  114  104  120  116  109  114  119  130  122  122  116  113  116  116  122  120  119  125  121  110  116  118  113  122  106  122   53
ch:  71     127  122  120  131  123  129  123  132  134  126  120  139  130  129  132  131  137  131  129  139  135  132  129  130  132  124  149  138  140  148  135   49
ch:  72     116  116  120  122  128  119  121  117  117  122  110  113  120  108  122  117  114  117  118  117  129  132  124  118  114  121  124  122  122  116  121   53
ch:  73     122  128  118  122  114  116  120  122  114  134  113  108  107  116  117  118  118  121  118  131  124  119  126  122  121  124  124  122  130  122  124   49
ch:  74     110  114  130  117  130  119  124  107  102  110  129  126  116  104  106  126  117  119  122  117  121  122  124  122  118  131  132  122  116  113  120   42
ch:  75     110  119  113  131  115  119  116  119  106  119  116  130  110  117  114  120  131  117  118  113  114  120  121  117  120  118  129  107  119  130  119   52
ch:  76     123  120  119  129  119  114  121  120  114  116  112  120  121  116  112  122  117  120  124  127  120  116  124  118  137  116  112  118  116  122  114   51
ch:  77     120  117  106  115  120  118  114  122  117  116  116  122  107  116  124  122  118  122  107  117  117  118  122  116  114  116  109  134  120  119  119   47
ch:  78     116  117  110  128  119  120  117  122  107  110  117  116  121  118  120  116  116  121  117  106  122  124  116  116  114  107  117  107  116  120  116   54
ch:  79     119  125  132  117  117  135  114  108  132  114  122  120  130  122  116  114  126  118  121  122  121  131  121  117  122  109  131  121  124  121  121   55
ch:  80     103  117  107  122  121  119  122  121  116  122  121  122  118  117  118  117  122  130  122  112  118  114  116  116  116  109  106  126  106  130  119   42
ch:  81     120  119  120  111  121  101  122  128  120  114  122  122  122  120  110  122  116  116  119  117  121  122  107  125  116  118  118  122  129  122  130   47
ch:  82     116  135  113  111  111  120  116  107  116  119  109  124  122  118  106  114  121  118  117  117  119  121  125  119  116  122  121  120  106  131  113   55
ch:  83     117  112  120  115  117  114  122  125  122  117  108  113  129  119  121  125  124  118  131  110  131  116  117  106  128  116  125  110  119  138  126    0
ch:  84     122  121  130  121  121  111  118  114  120  121  122  121  118  131  120  109  126  117  116  120  118  118  118  129  116  131  121  122  116  122  116   46
ch:  85     130  120  120  122  115  118  126  116  114  119  120  113  114  122  122  117  127  122  126  112  116  114  128  121  119  117  121  126  120  118  119   52
ch:  86     122  108  109  107  130  116  113  120  116  114  131  122  120  111  114  118  117  124  116  124  121  116  119  129  124  120  119  130  121  120  116   45
ch:  87     121  120  131  111  117  122  122  116  122  120  120  121  122  114  112  122  119  122  122  118  120  122  129  118  122  131  134  116  120  120  121   51
ch:  88     111  129  122  121  117  107  118  131  105  118  121  116  122  118  122  117  116  134  120  116  114  122  124  121  116  121  124  106  121  124  118   53
ch:  89     116  119  122  111  112  114  120  119  116  129  121  122  126  121  129  116  114  116  114  117  124  127  122  118  122  131  120  111  121  121  122   43
ch:  90     117  117  117  131  115  124  132  116  116  111  114  122  114  119  122  114  122  120  124  122  109  117  120  109  120  135  132  116  118  116  120   42
ch:  91     123  119  114  121  124  116  116  119  116  122  121  112  116  106  131  125  117  122  116  116  116  127  116  116  111  116  127  120  122  117  122    0
ch:  92     117  122  118  119  123  118  114  121  124  116  116  114  117  125  125  122  125  116  118  116  116  121  124  118  122  138  120  114  128  119  122   51
ch:  93     124  117  136  110  115  120  107  129  132  121  116  116  114  111  120  122  120  116  126  116  116  117  116  117  122  118  124  127  122  119  122    0
ch:  94     130  122  130  110  119  122  130  116  120  117  110  117  114  121  120  114  103  122  113  117  119  116  116  129  122  122  121  116  121  117  117   44
ch:  95     116  117  121  120  108  120  102  122  120  122  119  119  119  120  122  120  117  131  116  118  118  118  124  119  120  121  121  122  122  121  119   45
ch:  96     122  120  121  109  112  113  120  112  125  122  122  108  116  124  121  120  119  116  111  117  110  110  121  120  117  124  118  125  122  119  116   49
ch:  97     120  117  119  119  114  118  116  120  122  113  116  114  116  106  116  118  124  118  122  117  116  108  131  122  126  130  120  122  112  120  122   51
ch:  98     128  117  124  107  113  121  116  124  126  122  106  116  117  120  109  124  120  129  122  120  122  117  112  120  111  108  121  117  118  117  131   55
ch:  99     128  120  131  110  121  125  124  120  114  121  116  121  116  112  119  106  121  125  120  120  121  108  122  114  114  124  130  129  122  120  116   55
ch: 100     127  124  121  117  122  118  125  119  116  124  116  120  111  116  122  113  114  114  121  120  120  124  117  121  120  122  111  108  116  128  116   47
ch: 101     123  117  115  106  121  116  120  121  117  106  116  113  116  120  109  114  120  117  119  127  118  126  117  116  116  116  122  109  120  117  116   47
ch: 102     122  122  119  114  121  116  117  120  114  117  117  119  109  116  116  132  116  113  124  111  112  130  114  109  122  119  106  117  119  110  117   46
ch: 103     120  107  124  118  117  117  120  108  110  119  118  119  119  124  116  114  121  120  106  119  131  122  120  117  125  118  121  118  117  121  116   52
ch: 104     128  116  108  118  120  120  113  116  119  119  117  120  114  108  117  122  122  116  120  116  120  114  117  119  117  119  125  121  118  137  119   43
ch: 105     109  115  119  117  115  120  124  120  114  114  110  111  130  106  122  121  117  118  116  121  119  117  121  122  116  124  124  110  117  119  132   47
ch: 106     121  128  117  122  116  124  121  122  116  121  109  116  116  112  110  116  114  117  119  124  114  109  121  117  113  122  116  118  121  117  118   52
ch: 107     115  128  117  125  117  116  119  120  120  119  120  121  106  116  119  131  122  120  120  121  118  129  122  116  124  119  114  122  117  117  120   49
ch: 108     107  116  110  121  120  119  112  120  124  124  118  113  121  106  116  120  122  119  116  119  122  131  122  121  122  116  131  121  117  126  118   34
ch: 109     117  120  124  117  117  120  124  120  107  117  120  106  112  122  122  107  121  122  121  124  120  122  116  122  132  116  120  121  116  120  117   31
ch: 110     108  115  115  131  121  120  119  116  117  116  121  117  116  120  121  122  116  117  132  118  132  125  124  120  121  112  122  116  112  111  119   51
ch: 111     120  119  125  118  121  116  118  119  119  117  116  128  120  122  119  116  124  121  110  121  122  120  117  132  118  129  120  119  121  117  122   57
ch: 112     120  121  112  115  121  120  126  117  119  113  117  119  118  117  117  120  110  131  129  124  116  114  124  113  119  116  132  118  122  131  122   53
ch: 113     109  116  117  115  117  120  107  120  117  120  116  122  125  120  116  131  120  122  114  126  116  116  122  135  117  120  131  117  127  112  121   56
ch: 114     122  117  121  118  117  120  122  122  116  117  116  116  117  111  116  120  119  124  121  121  124  104  122  120  124  122  122  121  129  122  106   52
ch: 115     120  121  122  115  107  124  116  122  121  130  116  121  129  124  122  114  126  121  124  127  132  122  121  122  121  130  132  120  118  120  124   49
ch: 116     120  119  120  121  121  128  114  117  121  120  118  124  119  109  118  131  116  122  122  120  110  111  113  121  126  121  122  124  124  122  112   44
ch: 117     120  110  113  117  121  119  121  116  122  134  132  116  112  114  119  121  106  124  121  116  112  114  113  131  109  120  116  122  113  106  120   54
ch: 118     115  110  122  130  120  113  119  108  124  124  122  118  122  121  114  108  121  106  122  113  116  132  119  117  114  126  117  132  111  117  121   48
ch: 119     120  119  124  129  121  121  121  116  120  118  117  119  121  124  117  101  122  129  120  117  118  122  122  122  117  119  128  127  113  117  116   45
ch: 120     116  120  117  114  118  114  118  121  121  116  121  114  116  119  118  114  122  118  116  114  120  120  120  120  124  120  122  124  116  130  122   41
ch: 121     116  119  112  117  121  122  116  127  116  116  119  120  132  112  117  132  117  122  124  121  107  118  121  121  121  122  124  116  116  124  118   36
ch: 122     113  109  113  122  110  118  114  110  120  124  116  109  112  106  113  121  116  132  114  121  122  121  121  120  121  120  122  121  124  116  122   40
ch: 123     134  115  117  102  119  122  117  122  122  112  116  117  118  121  125  124  122  118  122  119  121  131  121  126  124  122  122  120  118  119  116   52
ch: 124     130  128  122  119  121  122  116  120  109  120  118  116  121  113  120  131  120  121  124  122  122  111  121  117  118  106  132  113  122  121  118   49
ch: 125     118  116  121  119  110  112  129  116  116  106  116  118  101  116  117  121  116  114  121  117  116  116  119  130  118  119  121  130  118  121  122   42
ch: 126     115  106  117  118  118  122  118  116  122  125  122  117  106  131  113  119  125  130  118  114  122  108  114  122  118  117  116  116  124  124  127   47
ch: 127     108  115  125  122  117  111  132  116  121  138  111  124  119  114  131  117  135  130  132  129  119  121  121  118  124  134  131  132  134  117  132   51
