# TRIM CALIBRATION    FEB6_9_4    pulse_ampl_min=13    pulse_ampl_max=150    pulse_ampl_fast=10
#
ch:   0     117  119  118  121  104  116  121  117  114  133  132  117  117  121  120  109  116  120  116  116  114  121  129  122  114  116  122  112  117  116  124   47
ch:   1     116  117  109  121  121  118  108  117  120  117  120  120  103  122  106  117  116  122  116  116  118  122  119  122  114  116  119  121  129  106  116   34
ch:   2     115  117  129  103  121  107  120  117  105  122  119  120  119  116  130  116  131  119  122  119  110  117  106  116  112  116  106  116  120  120  122   39
ch:   3     127  115  119  117  109  114  107  116  118  120  130  119  113  113  120  121  116  122  118  122  116  114  114  122  134  116  123  132  123  122  124   37
ch:   4     113  131  110  106  110  121  122  121  121  121  116  116  121  122  122  121  122  121  120  117  120  120  119  121  124  122  117  110  117  116  119   34
ch:   5     117  121  118  106  119  107  118  120  118  124  116  117  117  116  117  114  127  131  107  117  124  132  116  114  117  131  122  113  107  106  120   49
ch:   6     124  120  117  106  117  122  122  118  110  120  103  122  101  116  116  121  114  122  106  116  124  119  116  122  106  127  120  122  120  122  121   41
ch:   7     130  120  127  104  107  132  120  118  121  112  117  120  129  114  119  107  106  116  116  122  122  118  121  114  116  116  120  118  132  118  126   40
ch:   8     105  120  118  117  108  122  117  122  114  120  120  120  119  116  122  114  104  118  132  108  122  130  119  131  116  120  116  121  131  112  112   45
ch:   9     115  121  117  118  117  115  117  122  119  112  117  116  129  114  116  131  122  116  131  104  106  108  119  117  132  116  118  130  120  121  120   50
ch:  10     107  105  123  119  104  107  113  116  120  124  118  118  127  108  130  120  118  121  106  120  119  122  120  116  118  118  111  122  120  116  118   43
ch:  11     116  112  118  119  120  135  116  129  114  116  114  110  118  112  118  121  119  122  122  122  128  114  107  122  121  112  122  130  130  116  124   50
ch:  12     120  117  118  120  118  102  116  122  120  121  134  132  116  103  118  122  108  122  101  116  116  122  126  111  114  114  129  122  100  116  118   42
ch:  13     114  118  117  122  120  102  105  117  109  106  118  109  122  116  116  118  117  117  120  106  116  117  120  117  134  122  126  124  114  108  121   39
ch:  14     116  105  117  119  117  117  125  117  121  132  118  114  119  116  114  120  116  117  117  121  116  122  114  130  131  131  110  114  116  106  122   48
ch:  15     124  121  118  130  120  116  104  116  117  117  121  120  113  122  121  119  124  122  121  117  117  132  128  133  134  124  118  130  109  109  122   53
ch:  16     122  120  117  119  115  102  116  116  118  120  106  116  106  122  107  132  121  118  116  118  114  112  119  116  118  129  117  124  118  112  120   42
ch:  17     124  114  121  110  118  124  121  107  116  122  120  106  124  109  118  134  122  130  111  120  117  120  118  131  104  106  118  131  119  121  120   52
ch:  18     119  114  117  121  116  117  116  122  130  113  116  118  116  132  130  121  119  122  116  139  124  120  114  117  120  122  113  116  116  120  114   41
ch:  19     111  119  117  118  109  121  121  119  119  124  114  122  122  116  106  121  124  122  121  124  130  121  107  121  126  116  116  121  118  124  122   42
ch:  20     117  115  114  117  118  104  116  120  106  120  121  117  122  116  119  107  124  116  124  121  117  120  121  122  116  112  131  121  121  120  126   52
ch:  21     113  121  126  114  132  118  118  107  117  122  116  116  114  120  114  127  118  118  100  118  119  137  117  115  122  122  117  116  104  117  116    0
ch:  22     116  116  111  109  118  120  112  120  137  129  117  123  122  114  118  122  122  120  110  124  118  108  119  120  119  117  116  116  124  120  124   36
ch:  23     120  107  130  129  121  117  118  121  129  125  107  120  122  121  124  121  107  120  111  122  126  118  132  129  116  122  125  119  132  140  110   34
ch:  24     128  116  121  110  107  117  118  118  121  122  118  114  114  118  119  115  120  120  116  122  119  110  118  122  114  119  116  122  116  110  119   47
ch:  25     117  102  117  117  121  121  112  122  120  122  116  117  121  118  122  120  120  110  116  122  124  119  122  117  121  112  107  111  121  129  124   40
ch:  26     118  115  106  122  107  122  135  122  120  120  116  118  110  114  124  106  120  121  114  127  116  106  124  121  117  122  106  121  108  132  120   44
ch:  27     115  122  119  122  117  124  131  121  118  114  135  117  120  114  122  117  118  118  132  118  110  116  118  122  121  120  119  110  122  110  121   54
ch:  28     132  116  132  120  121  116  122  122  120  106  127  120  122  120  119  117  116  132  106  106  116  131  120  131  120  121  116  114  121  122  114   48
ch:  29     106  117  120  122  118  121  122  118  122  131  117  121  120  114  107  101  118  119  129  116  120  141  116  122  107  122  116  114  118  113  124    0
ch:  30     121  114  112  119  131  114  107  120  122  117  118  106  106  118  116  122  121  122  106  137  112  122  119  116  114  124  116  117  121  118  117   49
ch:  31     123  126  124  117  128  116  124  118  122  126  119  108  122  118  131  132  117  116  112  116  114   99  116  120  122  114  121  117  127  121  127   43
ch:  32     107  117  122  102  117  102  118  116  116  119  110  122  122  137  120  116  124  117   99  114  116  121  120  116  116  122  118  118  106  122  124   42
ch:  33     105  120  124  129  107  117  120  122  117  112  122  113  117  122  116  116  108  130  116  116  122  130  121  121  120  122  114  116  122  119  110   39
ch:  34     114  122  122  117  118  120  122  132  129  117  116  122  116  118  119  118  117  116  124  122  116  116  124  124  120  121  114  114  116  119  116   49
ch:  35     117  116  118  106  115  118  128  124  122  131  107  130  109  109  117  116  135  132  122  112  126  122  116  132  118  131  114  114  114  116  117   51
ch:  36     120  116  100  118  117  116  122  129  122  121  132  117  121  106  116  124  117  129  121  119  132  121  116  130  106  109  119  135  131  117  122   38
ch:  37     116  120  114  122  115  112  105  132  105  120  121  116  116  120  120  117  117  106  122  120  121  120  114  122  114  122  116  110  126  107  106   49
ch:  38     114  122  122  115  120  114  124  121  119  109  120  116  120  103  120  116  129  116  107  112  117  104  116  117  120  118  114  111  122  118  120   54
ch:  39     123  116  119  121  101  124  122  122  122  117  116  121  122  112  116  129  121  121  117  116  120  116  122  118  130  117  116  121  130  107  120    0
ch:  40     119  123  118  122  118  106  115  132  119  119  116  118  122  124  116  116  122  118  132  133  121  122  114  108  121  117  119  121  121  107  116   48
ch:  41     120  116  118  119  130  117  114  121  105  116  121  109  112  114  117  116  117  122  122  117  118  131  121  122  125  135  108  117  118  132  117    0
ch:  42     120  115  118  118  113  116  113  116  106  124  117  119  110  121  137  122  116  116  120  107  130  121  116  116  120  109  120  116  114  118  120   52
ch:  43     108  119  115  117  123  117  121  132  117  120  118  130  117  120  121  118  103  124  131  124  121  119  122  114  114  121  128  118  128  121  117    0
ch:  44     121  105  120  116  104  105  122  122  121  132  116  116  116  108  114  116  120  131  116  118  120  120  122  117  117  121  120  124  122  132  118   36
ch:  45     114  131  108  113  121  114  126  119  127  116  107  121  117  106  117  122  107  116  129  122  110  116  122  117  116  116  122  121  124  118  120    0
ch:  46     119  116  115  107  119  116  108  121  108  121  122  122  112  118  116  107  116  122  121  131  132  116  106  116  124  116  116  112  114  124  114   52
ch:  47     107  121  115  114  117  131  116  118  121  118  117  125  130  108  108  111  117  131  117  116  114  122  122  120  122  125  128  122  119  122  120   49
ch:  48     110  121  106  117  125  119  122  116  120  121  106  106  118  122  109  110  120  116  130  134  124  119  112  121  110  121  122  114  116  116  124   48
ch:  49     116  119  117  122  105  120  112  121  109  131  121  131  121  117  112  120  114  118  133  122  124  120  114  121  118  124  124  121  118  121  116   58
ch:  50     124  107  114  118  115  120  122  121  117  106  122  117  120  118  122  116  114  118  119  117  121  125  107  132  116  118  117  121  114  122  106    0
ch:  51     116  113  117  118  120  107  122  124  116  117  120  121  121  116  124  124  120  117  120  133  112  118  124  117  130  118  119  121  119  122  124   38
ch:  52     109  122  117  121  113  118  122  116  124  117  120  132  111  109  121  122  116  106  117  124  120  128  116  131  116  121  132  116  117  116  122   54
ch:  53     116  115  122  119  132  101  130  119  116  116  118  117  117  124  119  121  129  114  122  121  121  122  117  121  118  121  121  121  118  108  121   55
ch:  54     116  112  115  131  106  131  121  108  122  119  122  122  124  108  115  122  124  116  122  119  118  120  121  130  120  129  116  110  116  112  104   48
ch:  55     103  136  117  117  118  120  119  122  121  118  114  119  114  126  116  121  115  137  124  127  119  122  117  122  116  119  124  124  100  107  122   47
ch:  56     116  115  125  118  121  118  117  123  120  112  100  124  106  118  129  122  112  130  122  103  119  117  118  120  116  119  116  117  120  122  132    0
ch:  57     124  108  120  107  117  116  114  112  118  119  115  110  121  121  120  129  116  119  113  122  106  119  120  119  116  124  120  106  116  119  124   50
ch:  58     116  122  120  130  117  116  122  116  106  116  122  118  116  122  104  116  129  122  127  113  106  117  119  122  122  116  114  117  118  116  120   47
ch:  59     116  109  117  115  112  118  116  131  109  116  124  121  132  114  118  116  121  120  109  125  128  120  121  121  121  116  116  131  122  102  118   60
ch:  60     107  105  124  121  121  117  110  124  109  121  117  117  111  122  107  120  119  104  118  124  130  120  120  118  116  122  106  130  116  116  122   42
ch:  61     120  108  117  112  120  108  106  128  121  116  124  118  106  118  120  122  118  117  127  122  116  122  121  120  111  120  117  117  116  120  122   51
ch:  62     120  121  118  119  117  114  116  116  115  116  116  117  116  114  124  122  116  122  108  126  130  119  127  116  110  117  116  122  112  116  116    0
ch:  63     120  130  118  122  123  105  118  119  117  122  120  119  114  116  121  118  118  132  122  130  121  122  121  121  122  119  119  125  124  117  130   58
ch:  64     117  116  117  112  115  117  122  112  118  118  116  116  112  124  116  122  113  116  104  116  124  121  122  124  122  119  111  117  122  106  109   42
ch:  65     116  102  121  131  117  107  121  120  121  116  122  120  122  113  120  116  110  118  107  116  124  116  112  134  129  116  120  116  111  118  117   44
ch:  66     118  116  131  117  121  106  122  109  109  120  106  119  121  124  118  120  120  119  117  132  116  124  117  122  117  125  117  130  110  122  122   39
ch:  67     122  116  127  117  120  110  116  120  116  131  122  122  126  109  117  124  117  120  112  112  122  124  120  117  124  116  119  119  122  117  119   58
ch:  68     122  117  115  109  110  108  117  116  114  116  109  120  107  116  116  117  116  111  120  135  116  131  132  125  109  120  114  120  116  120  116   49
ch:  69     107  122  119  115  121  121  111  117  116  111  108  121  108  116  112  121  124  127  110  116  116  119  107  122  116  103  116  117  122  124  118   53
ch:  70     122  112  117  117  107  118  128  107  120  112  121  106  122  114  116  122  132  109  132  112  121  122  116  116  112  120  122  109  120  106  121   55
ch:  71     116  121  122  118  101  113  116  118  120  126  122  122  122  114  135  110  116  117  118  129  121  118  125  120  120  121  116  122  131  130  120   46
ch:  72     116  108  104  119  117  129  116  120  126  121  113  110  121  120  122  121  119  131  114  117  110  129  116  106  118  116  119  114  118  121  124   56
ch:  73     116  115  117  120  120  114  119  117  116  121  124  113  110  117  122  119  121  120  132  122  116  124  124  122  120  113  124  116  131  117  116   42
ch:  74     117  124  115  104  110  120  120  121  116  116  110  114  107  119  132  116  120  118  125  135  122  117  111  118  117  114  117  117  132  128  120   50
ch:  75     112  100  110  129  121  121  116  114  102  130  129  122  110  112  118  121  116  130  116  120  117  122  114  132  117  130  124  118  126  113  120   56
ch:  76     115  113  136  113  117  115  131  113  120  106  116  116  119  118  114  116  114  124  117  111  116  117  116  122  122  114  122  118  122  116  125   57
ch:  77     120  122  130  115  117  126  114  116  128  131  114  103  120  116  118  120  117  118  114  106  121  122  122  124  106  114  121  116  120  114  116   55
ch:  78     114  121  125  117  120  121  120  117  132  120  107  116  117  117  116  117  114  120  116  106  114  131  117  106  116  124  120  120  118  108  111   57
ch:  79     107  116  117  122  117  105  118  119  117  106  122  132  117  121  124  118  106  122  122  137  120  132  120  119  132  130  119  116  129  119  119    0
ch:  80     111  130  117  122  108  116  110  124  118  128  111  116  114  120  116  120  104  117  104  124  118  130  120  122  120  119  110  117  135  114  120   47
ch:  81     115  110  122  117  120  107  114  107  122  105  121  124  114  114  122  116  122  116  116  114  129  116  109  124  116  119  116  119  121  122  110   52
ch:  82     115  115  122  112  119  121  111  117  117  121  114  106  116  126  117  100   98  117  114  128  113  122  106  106  117  113  106  122  120  131  118   51
ch:  83     115  121  117  113  120  121  118  134  124  120  109  124  106  120  119  121  121  116  115  124  119  129  119  119  120  122  121  122  116  121  120   56
ch:  84     107  133  121  117  123  119  116  110  124  111  117  116  117  117  122  112  116  120  120  106  122  122  113  128  122  126  119  116  120  118  116    0
ch:  85     112  122  119  118  112  112  116  114  116  129  119  117  112  116  121  114  117  116  119  132  119  118  121  116  120  117  103  124  116  124  117   34
ch:  86     116  122  117  122  119  114  117  129  121  122  132  108  107  126  113  122  126  122  122  124  113  122  104  120  114  116  114  118  117  124  117    0
ch:  87     117  122   91  122  120  107  117  122  121  106  114  121  117  116  120  118  121  122  132  131  118  126  121  116  122  114  122  117  120  122  120    0
ch:  88     108  119  131  117  120  107  130  112  120  116  120  118  118   99  116  122  110  120  118  120  116  121  117  120  120  116  110  113  117  116  124   54
ch:  89     123  122  115  122  118  122  119  131  119  122  112  120  114  104  116  124  126  117  114  128  112  122  108  132  119  119  120  121  121  124  126    0
ch:  90     123  121  106  106  120  130  124  111  116  119  121  118  119  120  114  122  118  117  116  116  116  106  122  116  121  120  119  117  131  117  122    0
ch:  91     118  107  130  122  117  114  114  105  116  124  106  120  116  120  118  120  124  109  119  116  121  129  117  121  124  121  130  121  122  116  111   49
ch:  92     107  119  111  131  128  116  117  108  124  132  114  122  112  130  122  124  126  132  125  134  114  119  122  124  121  120  116  117  116  127  116   49
ch:  93     115  115  117  110  120  118  124  116  118  114  120  124  116  121  119  132  116  117  109  116  116  121  122  131  131  122  120  121  117  129  122   42
ch:  94     117  110  121  117  131  120  116  120  116  122  116  116  119  118  120  131  117  117  120  122  118  118  112  122  120  116  108  106  120  122  120   40
ch:  95     119  126  134  120  119  119  115  108  117  122  131  135  122  120  125  121  131  116  120  110  119  130  121  138  131  122  124  134  118  122  129   49
ch:  96     133  110  122  122  128  116  108  137  121  106  116  122  110  120  122  116  117  114  116  114  109  118  109  114  119  118  116  119  122  120  121   47
ch:  97     104  131  103  108  119  122  118  126  117  121  117  119  122  122  121  106  120  110  119  132  122  122  116  120  113  124  130  117  118  106  116    0
ch:  98     119  118  121  125  120  116  118  120  121  117  114  122  110  117  114  118  116  108  110  114  116  116  107  120  106  117  121  101  122  119  122   54
ch:  99     115  130  117  114  121  121  122  122  116  106  110  126  116  112  117  129  120  124  126  124  119  116  117  121  117  133  119  129  132  124  121   48
ch: 100     115  114  114  118  115  132  122  124  116  124  118  121  122  118  117  131  120  119  121  132  118  116  116  116  108  115  116  116  114  117  122   58
ch: 101     114  124  117  107  120  117  118  122  125  116  116  116  122  116  120  122  114  120  107  126  116  122  130  129  116  122  122  104  121  109  121    0
ch: 102     107  119  117  117  121  112  116  118  119  114  114  117  101  131  127  114  107  107  117  116  115  122  106  118  124  116  121  112  106  121  119   45
ch: 103     122  120  122  117  132  121  131  107  114  119  117  122  121  116  108  121  132  119  121  111  130  128  131  131  122  120  116  112  127  126  122   58
ch: 104     135  108  118  112  114  116  122  122  120  117  114  122  119  114  121  114  116  119  119  117  124  123  114  121  116  131  122  121  118  110  114    0
ch: 105     109  115  111  121  120  109  131  108  124  121  110  114  111  107  122  109  112  113  131  122  106  117  114  120  129  108  113  119  117  120  116   54
ch: 106     114  104  117  119  115  118  121  115  117  116  121  116  112  116  116  120  122  129  120  118  122  114  116  107  122  106  122  118  112  129  118    0
ch: 107     130  107  110  122  112  122  118  120  122  116  125  129  122  110  114  113  117  131  129  117  116  117  118  117  122  118  119  120  117  122  124   43
ch: 108     120  117  122  119  112  129  116  121  122  117  112  120  118  106  122  117  122  116  120  121  116  107  127  120  120  114  118  120  121  120  114   52
ch: 109     117  116  115  114  121  117  124  119  126  107  117  114  121  121  121  116  120  122  120  114  106  117  110  122  121  121  138  122  113  116  122   50
ch: 110     123  122  120  120  112  124  118  131  108  120  110  122  117  120  116  120  120  121  119  112  121  122  114  132  107  122  112  126  119  121  120   49
ch: 111     105  117  124  117  117  120  105  117  109  121  123  124  112  120  116  122  117  121  116  114  119  122  117  114  119  121  121  122  118  118  116   56
ch: 112     130  122  106  122  119  130  116  116  118  116  119  124  114  114  112  109  124  112  121  109  118  121  122  106  118  120  118  112  114  135  121   42
ch: 113     116  121  111  108  117  122  119  110  121  117  119  120  113  110  121  114  122  127  122  132  117  124  116  110  120  132  116  122  110  116  122   50
ch: 114     107  125  130  124  131  101  120  121  116  108  118  108  118  116  118  107  122  107  117  110  109  116  103  112  119  116  117  119  120  120  124   41
ch: 115     114  122  119  117  121  114  118  122  124  114  117  106  132  111  124  122  124  121  120  118  121  122  119  113  121  118  107  116  118  132  124   58
ch: 116     120  111  117  124  119  107  118  122  122  120  122  110  116  116  118  103  120  120  122  122  120  124  114  119  114  121  116  116  107  118  124   50
ch: 117     117  115  118  132  117  115  111  117  107  122  121  120  119  122  122  109  116  110  117  116  122  120  116  132  116  111  120  114  109  116  112    0
ch: 118     120  121  119  115  117  122  117  121  102  124  124  127  124  122  114  120  116  122  109  104  114  116  114  122  121  107  116  114  112  125  119   54
ch: 119     118  120  131  121  121  117  117  119  114  122  118  104  121  122  117  111  124  117  117  141  122  120  116  130  122  129  117  119  132  121  122   38
ch: 120     109  129  120  122  114  116  122  122  124  116  114  127  107  122  113  107  121  121  122  116  116  117  118  121  114  122  114  114  122  122  120   53
ch: 121     117  116  120  110  120  120  116  116  120  106  120  122  108  112  116  122  122  110  108  121  121  131  118  130  125  118  122  116  108  118  116    0
ch: 122     120  119  122  117  116  115  121  118  118  122  116  116  131  116  106  120  121  116  120  108  122  107  119  122  122  120  121  122  103  120  114   49
ch: 123     112  117  108  117  114  117  107  116  117  120  129  118  107  131  121  121  131  117  130  129  114  116  113  118  134  112  117  118  109  117  119   39
ch: 124     120  119  114  121  117  114  112  122  121  116  119  118  110  106  122  114  122  122  116  110  131  118  116  117  114  119  116  118  137  119  116    0
ch: 125     116  106  119  119  123  120  122  116   98  116  118  117  119  121  122  109  118  120  107  117  120  121  119  118  122  121  131  113  118  122  130   56
ch: 126     115  110  108  119  118  121  114  121  117  110  116  124  118  106  117  118  110  118  114  122  122  112  121  107  126  116  117  116  118  122  106   39
ch: 127     110  124  124  113  118  130  117  120  117  132  118  121  126  132  121  121  124  124  131  121  117  130  121  135  124  124  125  122  120  116  122    0
