# TRIM CALIBRATION    FEB6_7_5    pulse_ampl_min=13    pulse_ampl_max=150    pulse_ampl_fast=10
#
ch:   0     102  119  122  112  108  107  116  102  120  116  109  122  120  116  107  122  118  116  116  118  119  106  103  114  109  103  106  106  112  117   95    0
ch:   1     113  107  122  117  117  115  105  108  102  122  116  116  114  112  104  106  103  114  112  101  107  114  112  114  120  116  108  112  120  109  116   48
ch:   2     115  116  109  110  107  104  116  120  117  107  108  106  107  122  106  106  104  109  116  109  116  116  116  106  112  103  101  107  116  109  107   29
ch:   3     120  106  121  118  117  116  121   99  104  106  106  119  120  106  118  112  110  116  122  116  104  121  113  100  105  106  120  109  114  103  116   36
ch:   4     107  115  108  118  114  120  117  116  102  106  116  122  122  103  103  118  114  106  116  106  106  104  107  110  113   94  105  116  114  111  121   34
ch:   5     113  119  117  109  118  116  116  116  119  105  124  106  106  106  106  104  106  122  106  106  119  109  106  106  119  107  104  101  104  116  118   37
ch:   6     120  129  106  117  104  119  108  107  116  100  106  107  117  105  114  111  113  121  118  116  116  110  101  106  122  117  117  106  116  101  103   30
ch:   7     107  121  104  108  117  119  106  107  121  120  120  114   97  110  114  114  119  112  121  122  103  111  107  116  103  120  109  106  121  107  109   40
ch:   8     119  107  117  106  117  112  117  116  117  107  116  110  116  107  125  116  116  106  114  117  104  116  109  116  101  116  106   99  111  124  119   50
ch:   9     116  119  117  104  120  105  110  110  110  116  122  107  114  112  106  109  106  119  109  121  106  103  106  107   99  100  111  106  116  104  116   33
ch:  10     103  119  101  118  118  120  108  108  119  114  117  106  106  104  115  114  121  118  114  106  103  109  100  119  100  112  114  106  107  118  117   41
ch:  11     107  114  121  115  118  120  114  119  114  117  101  117  106  110  112  106  114  117  122  108  117  114  106  118  106  108  108  113  119  106  110   31
ch:  12     115  105  121  104  117  114  121  105  112  112  117  106  121  103  116  116  106  106  110  104  106  104  106  112  106  106  112  111  114  111  108   46
ch:  13     118  117  106  122  110  116  117  116  124  119  106  107  121  116  116  106  122  106  118  116  116  101  114  118  106  120  109  107  116  116  118   36
ch:  14     120  116  134  126  119  120  119  124  147  137  137  147  132  147  147  147  151  153  148  153  150  151  161  161  163  155  154  161  162  167  161   45
ch:  15     109  117  121  117  118  117  120  116  121  120  109  107  106  121  114  106  121  106  107  106  119  114  121  114  118  113  110  106  117  116  114   40
ch:  16     114  117  111  117  117  104  129  112  114  120  122  106  107  117  121  114  113  106  114  116  106  114  112  106  116  120  112  103  120  103  114   34
ch:  17     107  131  106  114  114  115  107  124  124  117  116  104   94  124  121  106  116  118  101  116  122  112  112  124  107  110  117  117  101  113  110   46
ch:  18     128  110  114  117  117  120  102  116  114  116  117  116  114  116  108  114  114  114  112  116  116  103  114  106  107  106  119  114  103  109  116   42
ch:  19     119  122  117  116  120  108  116  107  106  110  114  117  116  108  109  122  122  114   99  119  114  104  106  106  104  117  107  118  100  112  122   41
ch:  20     104  121  114  114  121   99  107  107  114  114  118  116  112  114  101  120  117  104  106  118  113  106  119  121  118  116  106  118  104  120  120   47
ch:  21     116  101  118  117  117  108  116  113  106  121  117  109  115  120  117  106  104  107  120  117  117  118  106  101  106  110  107  112  119  100  131   45
ch:  22     113  115  107  112  109  116  105  120  117  120  109  116  118  103  121  106  106  107  107  116  116  117  104  122  120  119  116  112  114  116  114    0
ch:  23     118  116  107  106  101  114  107  107  110  114  116  118  116  118  117  117  117  115  112  106  115  110  106  106  116  110  116  101  114   99  106   53
ch:  24     115  112  114  117  107  108  116  116  122  110  107  121  106  106  101  120  116  114  109  116  101  106  120  109  116  107  114  107  103  114  114   41
ch:  25     130  107  117  101  120  116  105  122  118  114  114  115  103  104  119  120  120  107  121  106  120  118  124  104  119  101  116  116  117  106  106   41
ch:  26     109  113  119  119  105  107  117  121  106  106  121  116  116  133   99   96  116  114  116  121  120  106  114  116  106  112  118  116  106  108  103   37
ch:  27     104  117  104  122  103  116  120  122  116  107  116  116  117  106  106  117  107  112  117  116  116  116  117  106  109  117  114  103  114  116  101   51
ch:  28     112  128  106  121  117  108  117  120  110  116  114  122  122  113  120  121  112  116  122  118  114  106   95  107  106  119  106  113  117  106  104   47
ch:  29     123  119  113  122  108  116  114  104  117  118  116  116  106  110  116  106  103  106  122  106  107  116  116  122  120  108  114  117  107  122  110   45
ch:  30     119  116  117  119  121  118  101  116  105  104  108  118  117  101  112  118  118  108  108  120  118  106  116  106  114  107  112  122  106  114  110   36
ch:  31     116  104  107  117  117  102  116  118  102  106  101  104  116  114  109  118  130  114  112  117  101  112  112  105  107  116  114  112  120  120  120   46
ch:  32     112  119  120  108  113  132  130  116  106  103  116  120  106  106  120  109   98  116  120  117  103  114  120  116  107  116  106  120  107  116  116   53
ch:  33     108  114  118  117  107  104  106  114  119  106  106  106  106  114  116  122  121  117  116  106  114  114  116  116  117  106  106  114  122  105  121    0
ch:  34     100  121  109  103  107  102  130  108  115  113  108  120  106  120  120  101  120  106  103  114  112  116   92  116  104  114  124  113   92  106  105   39
ch:  35     109  115  106  124  119  108  122  117  122  117  118  122  114  128  107  116  122  118  106  117  101  120  117  122  116  115  117  118  116  106  131    0
ch:  36     114  119  117  107  117  118  116  116  132  109  115  106  104  104  119  122  121   92  106  121  116  106  106  104  106  122  114  114  113  107  112   46
ch:  37     122  116  117  114  117  119  118  126  122  116  110  128  106  119  101  106  118  109  116  125  110  117  122  106  103  114  104  112  112  106  122   40
ch:  38     107  106  122  104  120  101  105  117  102  113  106  120  114  116  118  106  122  116  116  117  101  107  119  112  114  121  101  129  112  118  101   42
ch:  39     114  115  114  115  106  111  121  122  107  116  117  119  118  109  117  118  116  130  116  116  114  118  116  120  106  117  114  100  106  111  104   41
ch:  40     114  105  117  117  111  119  116  116  122  116  116  107  126  104  117  114  118  130  117  114  114  116  109  106  106  116  111  107  116  101  106   35
ch:  41     102  107  117  110  111  116  117  117  108  114  120  107  116  109  101  107  107  106  101  121  110  107  112  114  121  107  116  124  118  119  109   56
ch:  42     116  114  108  114  108  121  111  109  121  121  116  112  117  116  112  104  121  114  106  106  101  112  106  116  105  103  110  115  103  114  117   27
ch:  43     115  121  114  103  115  101  107  114  117  118  109  117  112  119  114  106  101  112  114  114   98  116  120  117  124   92  112  100  112  117  100    0
ch:  44     106  119  106  117  117  112  118  118  112  114  106  106  114  103  117  121  106  116  114  112  110  103  112  105  106  116  112  110  118  115  106   49
ch:  45     123  119  114  119  105  121  108  115  105  116  121  116  113  116  116  115  121  118  116  103  106  121  103  105  120  106  117  115  113  116  112   47
ch:  46     118  105  108  119  132  120  106  116  109  112  116  116  112  122  106  117  122  116  117  113  114  101  116   92  116  119  118  113  109  101  116   48
ch:  47     105  115  108  102  121  129  116  132  120  114  111  116  106  108  108  116  124  103  106  106  106  118  106  110  124  114  115  120  116  104  120   55
ch:  48     114  119  106  117  120  116  102  114  117  109  121  114  110  120  122  116  114  100  103  117  111  106  112  120  116  120  116  107  101  114  114   47
ch:  49      97  109  117  124  108  113  113  120  122  119  110  106  106  114  108  112  122  118  101  124  109  112  116  130  121  117  106  120  120  120  119   48
ch:  50     116  104  117  122  120  107  107  121  124  116  116  101  107  101  116  106  119  116  116  118  104  129  107  116   91  116  114  118  117  117  117   41
ch:  51     115  114  128  118  123  124  116  107  104  124  121  104  117  122  110  118  105  116  116  114  120  122  120  116  116  114  105  125  107  116  117   38
ch:  52     120  110  115  106  121  108  122  107  112  125  121  119  109  116  116  118  122  122  113  120  103  121  114  108  110  100  106  101  114  104  106   46
ch:  53     116  115  107  106  107  116  119  120  110  103  114  114  120  122  109  121  114  101  106  116  121  120  122  121  119  117  107  124  109  101  117   49
ch:  54     117  114  118  107  111  113  122  102  121  107  109  121  109  122  116  120  120  114  106  110  110  106  116   92  106  116  114  103  117  110  112   49
ch:  55     119  109  110  115  117  113  102  120  105  108  116  113  107  106  121  106  119  106  119  116  106  116  107  106  100  116  112  112  116  116  114   54
ch:  56     117  130  117  114  119  131  105  113  107  120  103  121  121  116  106  112  106  120  104  121  109  107  112  106  110  116  121  106  116  106  116   50
ch:  57     122  106  117  120  119  121  114  117  111  114  119  116  116  116  122  122  113  120  110  121  112  122  106  112  106  121  131  120  125  106  101   53
ch:  58     107  128  120  101  120  120  104  114  101  114  116  116  106  114  115  105  116  114  114  117  114  117  101  116  113  116  116  113  116  124  116   50
ch:  59     123  119  113  102  114  106  116  124  110  122  118  114  119  101  112  116  101  114  125  114  116  116  104  117  121  116  109  116  116  121  124    0
ch:  60     120  102  106  117  117  120  107  107  106  120  122  101  120  121  115  108  103  110  108  115  116  101  113  120  107  101  118  117  106  114  119   45
ch:  61     107  121  114  114  117  107  122  116  120  116  104  121  114  116  124  106  120  116  116  122  120  116  112  101  112  116  116  114  119  110  110    0
ch:  62     117  114  119  118  114  108  106  120  117  120  118  109  112  117  120  106  107  110  114  119  114  122  110   94  117  112  101  118  109  101  116   40
ch:  63     105  115  112  115  114  106  110  122  116  105  101  121  104  117  116  104  106  116  119  112  107  107  116  113  101  114  110  117  114  101  112   41
ch:  64     119  101  109  106  106  106  117  108  108  106  114  101  120  103  103  117  104  104  105  114  114  106  101  103  120   92  101  119  113  116  106   43
ch:  65     119  119  118  121  107  124  119  107  121  108  116  113  112  113  114  122  121  116  114  116  116  118  106  125  105  111  109  106  117  120  106    0
ch:  66     115  119  106  101  129  102  117  118  105  114  111  120  107  114  116  104  118  106  104  121  116  116  100  117  108   99  101  106  112  110  114   48
ch:  67     119  117  115  104  115  108  115  106  121  114  116  122  119  118  118  113  122  120  120  122  117  118  116  118  114  123  108  106  105  113  120   43
ch:  68     115  119  108  118  108  107  107  114  110  121  110  120  109  103  116  114  114  117  114  116  116  101  103  117  103  109  106  106  116  116  111   46
ch:  69     119  105  114  126  121  121  114  104  117  114  114  114  103  109  124  114  116  116  121  104  107  121  108  108  113  116  117  116  106  117  120   51
ch:  70     114  116  118  117  117  118  116  126  122  104  103  104  118  114  104  109  114  106  101  116  114   97  106  120  114  104  122  114  106  106  121   44
ch:  71      99  122  116  117  117  126  116  116  114  114  119  115  114  114  106  116   94  129  101  120  120  117  106  116  116  118  116  112  114  104  118   40
ch:  72     119  105  109  119  120  112  122  116  117  107  120  121  116  106  109  106  116  103  103  117  106  116  113  106  107  113  107  106  113  114  116   45
ch:  73     120   98  114  106  121  116  107  114  109  116  106  117  116  107  108  116  116  122  131  114  106  106  118  114  121  110  117  127  106  114  127   41
ch:  74     115  129  122  106  114  116  116  116  115  122  116  109  120  131  109  114  122  119  106  106  116  117  118  106  117  101  118  122  106  100  106   47
ch:  75     119  120  114  122  118  114  113  131  112  113  117  116  104  109  114  112  120  117  126  106  116  114  120  124  112  114  111  122  119  121  116   55
ch:  76     123  120  107  121  121  114  107  118  113  107  105  104  120  112  114  110  116  111  117  118  120  122  119  122  118  116  101  104  106   97  117   53
ch:  77     115  119  121  114  119  115  121  122  118  118  114  109  116  118  122  114  116  106  113  120  113  119  117  116  116  120  105  116  117  119  116   49
ch:  78     115  102  103  117  101  120  116  108  116  116  118  119  106  117  110  112  113  104  119  122  111  117  106  110  104  117  104  107  122  116  101    0
ch:  79     108  120  131  113  130  123  107  121  107  113  115  129  113  120  110  116  101  118  106  118  121  110  109  105  114  119  129  114  124  111  107    0
ch:  80     115  109  118  117  106  120  119  107  102  106  114  122  114  101  114  106  104  112  117  104  106  104  117  117  116  106  114  118  118  121  116    0
ch:  81     119  119  107  106  106  118  119  116  116  126  106  117  114  122  116  117  103  107  112  116  116  107   92  104  114  104  116  104  117  106  109   39
ch:  82     120  115  114  120  108  111  116  116  121  116  106  116  122  107  110  119  114  116  116  122  110  112  120  106  119  112  124  103  103  114  117    0
ch:  83     109  102  124  129  119  131  116  128  120  129  119  120  130  110  135  116  122  134  120  131  126  137  120  137  124  124  134  126  132  130  131   47
ch:  84     107  115  120  114  121  120  101  114  122  114  106  113  117  121  114  109  116  107  108  101  120  120  116  122  106  110  116  116  122  117  114    0
ch:  85     115  107  117  121  103  121  107  106  119   91  117  105  103  103  105  114  100  106  121  124  122  113  130  104  116  117  106  124  118  113  116   41
ch:  86     101  112  118  121  117  107  117  116  117  107  116  103  103  106  120   94  104  110  114  121  101  101  116  109  117  109  120  122  106  101  118   42
ch:  87     115  116  118  105  130  105  118  117  118  118  115  108  106  112  109  114  121  105  122   99  105  120  121  118  122  109  106  120  124  116  117   41
ch:  88     119  115  118  119  121  114  120  116  116  107  116  108  114  122  116  112  117  106  120  118  101  114  112  106  100  122  132  107  120  100  122    0
ch:  89     107  116  122  119  128  118  118  116  117  120  120  110  113  122  108  109  109  114  120  109   92  120  116  114  120  117  107  114  117  114  115   50
ch:  90     119  128  114  107  118  120  107  120  117  122  103  121  109  116  110  116  116  120  118  125  108  116  103  114  121  105  114  106  106  116  112    0
ch:  91     120  119  117  117  107  116  116  116  119  120  122  105  122  116  117  120  105  116  114  104  120  119  114  116  116  115  116  112  122  116  116   43
ch:  92     100  124  117  117   91  110  107  118  116  118  119  106  117  106  113  104  122  107  116  118  116  114  106  106  105  122  116  122  118  109  112   49
ch:  93     114  122  105  122  115  107  121  116  121  118  116  116  101  117  117  116  108  115  116  116  116  119  107  118  116  117  104  116  106  108  110   52
ch:  94     131  121  122  106  107  116  120  107  113  117  113  119  122  118  117  106   98  105  116  106  122  113  117  122  114  105  119   99  121  115  101   50
ch:  95     108  113  130  117  115  116  124  114  102  116  121  122  118  122  114  107  106  120  117  114  116  106  110  112  104  118  119  116  116  104  117   41
ch:  96     106  111  117  118  108  120  117  116  120  120  120  117  101  117  110  106  101  113  109  101  116  108  106  106  116  104  118  116  104  122  116   47
ch:  97     119  122  112  114  119  114  116  120  109  114  104  107  101  108  107  120  118  103  101  108  118  116  120  119  116  116  106  122  107  117  101   39
ch:  98     130  115  117  119  121  129  117  124  105  120  112  118  116  112  114  112  116  132  110  122  103  119  109  100  110  120  106  112  113  116  110   48
ch:  99     105  117  117  105  107  116  116  121  119  122  115  112  119  116  119  106  113  110  120  116  105  109  118  117  104  118  116  120  116  117  108   39
ch: 100     130  114  114  117  115  107  116  128  106  122  116  116  103  114  120  116  104  116  104  116  122  124  112  116  118  118  109  119  116  106  106   34
ch: 101     107  111  118  122  128  112  109  122  124   97  122  120  106  106  107  109  124  117  110  117  114  109  114  116  108  110  122  110   92  111  117   56
ch: 102     114  107  121  122  107  114  104  122  119  117  114  121  120  129  118  114  115  116  116  127  112  112  109  120  120  120  115  103  118  112  104   42
ch: 103     121  120  106  119  118  107  132  115  115  131  118  120  124  119  118  122  103  114  105  119  107  120  113  106  116  120  114  122  122  105  121   57
ch: 104     123  116  108  100  118  114  107  107  117  112  116  120   92  116  121  116  117  107  116  106  114  119  121  116  111  110  118  114  116  107  110   45
ch: 105     106  120  114  117  121  117  113  102  114  117  114  105  116  106  117  114  116  116  116  110  118  122  114  109  108  116  117  107  107  113  118   56
ch: 106     115  115  118  104  120  107  113  114  116  114  116  116  129  116  114  104  113  106  112  109  109  104  116  107  121  122  109  103  101  110  106   48
ch: 107     116  122  120  115  117  113  113  110  113  100  117  112  118  116  122  113  117  116  105  107  106  107  117  106  113  120  116  101  106  108  107   39
ch: 108     106  122  124  118  120  102  116  113  112  107  121  116  116  122  117  116   92  109  121  120  106  107  117  116  116  121  119  116  116  104  117   42
ch: 109     120  121  114  119  117  120  119  110  116  117  112  116  117  120  121  122  117  122  120  107  109  117  121  112  120  103  104  118  116  114  124    0
ch: 110     118  121  121  129  105  107  121  124  117  118  118   92  116  118  116  110  119  116  103  100  119  116  116  110  128  116  118  112  107  122  110   40
ch: 111     119  117  118  118  109  116  114  120  124  117  118  124  118  122  116  114  114  130  121  118  121  119  110  107  119  107  109  116  121   99  106   41
ch: 112     128  115  103  117  113  121  121  112  118  107  117  106  116  112  106  121  117  107  106  122  121  108  113  106  116  113  110  117  106  112  111   46
ch: 113     117  117  117  104  117  115  120  116  116  132  110  113  105  122  100  116  106  116  106  106  122  116  114  113  112  109  116  118  116  114  117   51
ch: 114     114  120  121  120  117  116  105  120  116  116  129  104  115  121  120  113  114  120  104  116  116  118  122  106  108  112  111  116  105  120  113   50
ch: 115     112  107  122  117  118  110  107  131  107  106  106  119  122  117  116  104  116  114  130  120  106  117  112  118  109  104  116  117  119  117  114    0
ch: 116     109  114  123  119  107  116  114  116  106  130  118  114  109  116  116  116  120  106  116  115  105  117  117  101  108  101  122  106  116  115  118   37
ch: 117     119  116  124  121  114  116  129  119  121  113  118  116   92  103  117  106  124  107  114  121  114  120  108  116  101  107  119  100  120  117  118   46
ch: 118     116  120  107  119  107  121  118  116  122  121  106  114  112  130  114  101  119  122  114  120  120  112  118  109  121  107  108  114  113  106  116   39
ch: 119     120  104  119  102  115  117  107  117  116  118  122  116  112   92  118  120  119  116  116  121  106  114  114  103  112  119  122  119  110  126  113   39
ch: 120     115  104  118  122  110  114  105  128  114  122  113  101  116  110  120  114  117  101  103  114  103  120  106  117  109  113  117  111  116  101  106   50
ch: 121     114  128  112  117  117  107  109  114  121  109  116  116  108  107  112  117  111  104  117  114  112  123  112  120  106  121  109  116  106  117  107   52
ch: 122     116  121  104  117  114  121  116  114  116  121  104  107  101  106  105  116  115  106  106  104  116  118  119  117  101  106  101  106  114  121  116   45
ch: 123     107  121  117  114  119  117  117  122  117  105  120  116  121  109  101  112  110  118  116  121  121  122  116  113  110  116  117  101  116  116  104   41
ch: 124     128  117  131  106  120  102  116  119  113  106  103  106  106  116  106  109  107  106  106  112  111  122  117  105  114  106  118  124  107  119  103    0
ch: 125     118  119  117  121  121  130  118  117  117  109   99  116  110  113  120  122  122  107  103  106  122  132  114  107  116  117  103  120  116  106  117    0
ch: 126     124  102  124  101  118  121  106  117  117  106  114  106  120  106  114  121  116  114  120  114  116  101  118  115  101  110  117  105  118  116  106   59
ch: 127     115  102  114  121  120  118  116  116  126  119  106  116  124  122  119  121  118  114  117  119  114  117  118  114  116  117  110  116  112  113  120    0
