# TRIM CALIBRATION    FEB2_3_0    pulse_ampl_min=40    pulse_ampl_max=200    pulse_ampl_fast=40
#
ch:   0     128  103  119  130  115  124  134  128  129  124  128  133  138  129  136  139  145  128  145  148  145  148  148  128  154  151  157  163  166  169  163   25
ch:   1     115  121  115  117  113  128  129  119  123  120  124  131  131  124  130  130  132  134  128  128  139  154  138  145  154  151  148  154  157  169  157   15
ch:   2     119  119  117  117  117  129  119  130  115  133  131  133  145  136  128  134  133  137  137  148  151  148  148  148  151  154  157  166  166  157  166   21
ch:   3     115  117  115  128  119  121  124  128  133  126  130  124  131  122  135  134  132  128  128  132  148  157  151  151  151  148  157  148  166  166  151    2
ch:   4     115  121  130  115  129  123  137  123  129  137  139  137  133  148  128  151  151  145  148  154  148  154  151  154  154  154  169  166  154  163  166   23
ch:   5     117  113  121  117  129  117  129  117  131  122  137  123  123  135  133  130  133  137  137  145  148  148  134  145  130  154  154  157  169  172  166    5
ch:   6     119  122  119  119  119  119  132  128  125  123  131  125  145  135  136  134  145  145  145  148  154  148  148  145  148  163  157  154  154  128  166   20
ch:   7     115  115  115  117  121  121  119  131  128  123  129  138  135  137  136  138  137  148  145  135  130  136  154  137  148  151  145  157  157  163  163   12
ch:   8     121  117  119  128  130  131  130  113  122  124  134  125  138  138  132  128  136  151  145  134  145  128  151  157  154  154  148  151  151  163  166   25
ch:   9     128  105  123  119  121  120  119  121  115  121  131  122  134  123  129  134  134  128  134  134  135  133  142  135  148  157  157  148  154  148  166   10
ch:  10     105  119  117  117  117  134  131  130  145  121  123  137  145  139  145  136  139  128  151  151  154  166  148  128  154  148  154  166  163  169  166   19
ch:  11     113  113  121  119  117  121  120  136  117  129  135  135  136  130  145  130  137  136  123  128  145  151  145  148  157  151  157  154  166  163  169   16
ch:  12     113  117  117  133  123  129  131  124  123  128  145  130  145  124  148  137  148  138  145  151  145  145  154  148  154  163  154  172  163  169  166   13
ch:  13     119  129  113  117  121  124  124  121  125  128  130  145  128  128  135  145  134  148  135  151  151  135  148  145  157  163  154  151  151  154  163    6
ch:  14     125  113  124  124  117  120  121  128  124  122  133  128  145  137  139  151  145  134  151  145  154  151  148  154  154  163  154  166  157  154  163   24
ch:  15     117  119  123  119  123  113  125  119  121  136  128  128  135  128  135  132  128  145  134  137  145  139  138  151  145  151  154  151  154  148  163    3
ch:  16     119  119  119  115  133  124  123  129  128  136  137  131  128  135  137  136  133  151  145  148  151  145  154  154  169  154  154  157  163  163  166   21
ch:  17     107  119  115  119  119  121  117  117  115  120  123  128  132  139  133  128  131  128  134  145  133  139  128  148  148  148  154  148  145  151  163    6
ch:  18     119  119  119  134  130  121  123  130  134  148  131  133  138  121  138  135  136  148  148  137  148  154  145  154  157  154  154  163  166  163  163   17
ch:  19     109  113  119  119  122  121  115  122  124  124  129  125  135  134  124  138  134  145  134  136  145  139  138  145  154  148  148  154  163  157  166    9
ch:  20     115  121  113  130  125  119  132  130  128  133  129  137  128  130  145  135  131  148  154  148  138  145  151  166  163  154  163  157  169  157  169   36
ch:  21     107  105  119  121  117  123  128  121  124  130  124  134  135  131  122  136  131  145  145  128  134  133  136  145  130  154  148  154  151  154  151    6
ch:  22     119  113  130  113  131  130  122  132  122  122  128  128  138  138  151  145  148  151  148  151  148  157  151  151  157  163  157  166  163  169  163   26
ch:  23     107  117  119  115  121  121  124  128  128  117  123  123  128  134  145  131  131  130  137  145  133  145  151  154  154  151  166  166  148  163  166    5
ch:  24     113  121  119  113  128  134  133  121  123  139  133  128  145  134  145  145  154  145  138  145  154  148  145  148  151  154  166  172  151  169  172   23
ch:  25     117  124  128  117  117  128  119  121  115  129  136  121  145  134  131  137  136  145  134  131  137  139  128  163  148  148  148  148  154  145  151    8
ch:  26     117  119  122  121  117  129  122  134  129  125  123  124  135  122  137  137  148  145  154  129  128  151  154  157  157  157  166  157  157  169  163   29
ch:  27     117  115  117  115  123  122  122  123  117  133  132  135  131  134  136  130  137  131  133  137  136  137  151  148  151  145  166  148  163  151  163    4
ch:  28     117  119  122  131  134  136  129  135  132  138  132  131  137  134  138  154  148  145  138  151  145  151  151  145  157  157  157  154  169  166  169   26
ch:  29     105  121  119  113  117  119  124  128  128  130  137  134  137  132  122  133  128  133  134  136  128  148  151  145  151  148  151  163  154  151  151    5
ch:  30     115  115  122  117  115  124  133  132  130  123  137  124  145  121  134  128  148  148  139  148  148  154  151  154  137  148  163  157  151  166  169   25
ch:  31     115  105  117  119  121  128  119  128  121  128  129  119  135  135  137  137  133  133  151  145  133  139  148  145  154  166  148  157  148  166  148    8
ch:  32     122  121  122  128  115  115  120  122  124  137  124  135  136  135  151  139  136  154  139  148  148  145  151  148  145  154  166  169  163  163  166   23
ch:  33     117  122  129  117  117  119  123  121  124  128  115  133  129  124  134  130  135  138  148  139  125  145  148  151  154  157  151  145  151  163  166    7
ch:  34     122  125  123  122  121  128  129  135  135  136  133  128  130  145  128  122  128  145  133  157  139  148  154  169  154  157  154  128  169  169  169   24
ch:  35     121  121  119  123  107  119  121  122  122  115  124  137  123  133  130  136  135  145  145  137  145  145  151  151  154  145  154  145  151  151  169   11
ch:  36     113  117  129  121  121  121  121  123  113  128  129  137  133  148  128  133  142  151  145  154  151  148  151  154  148  166  160  166  151  163  157   35
ch:  37     113  119  113  122  115  119  132  123  122  128  128  117  134  130  148  122  131  136  128  138  145  133  148  145  154  145  151  163  151  157  154   11
ch:  38     115  119  119  123  132  119  132  130  119  131  132  123  135  148  145  136  154  145  148  145  154  148  151  136  169  154  154  151  128  128  172   17
ch:  39     117  129  130  119  117  117  117  122  113  121  124  136  129  133  136  135  128  134  145  128  148  154  128  136  151  163  154  163  154  157  163   11
ch:  40     115  117  121  122  130  130  137  119  132  133  136  137  145  136  138  132  128  136  163  137  163  151  148  169  154  157  157  154  163  154  166   31
ch:  41     129  105  107  121  119  117  122  119  119  123  117  131  129  121  139  122  145  131  133  145  134  151  151  151  154  151  157  148  154  157  154   10
ch:  42     121  121  115  119  133  107  131  128  130  131  133  124  134  133  148  148  148  148  145  148  157  154  151  154  151  151  148  169  128  166  154   22
ch:  43     107  117  119  117  121  121  129  131  122  131  122  135  124  129  132  136  129  130  139  151  128  136  154  148  148  135  154  163  157  154  148   12
ch:  44     121  128  117  128  121  124  135  131  131  123  132  135  134  134  132  148  134  145  132  128  137  138  148  145  154  145  163  166  157  157  163   29
ch:  45     115  121  122  117  117  107  119  123  121  123  122  132  124  122  128  131  131  135  128  134  138  138  148  130  157  148  154  157  154  163  151    9
ch:  46     115  117  115  101  123  124  122  132  131  129  132  136  136  133  135  135  145  148  145  145  151  139  154  163  154  163  166  166  166  128  166   26
ch:  47     113  117  115  124  128  119  125  128  123  123  123  130  133  129  145  145  145  129  132  136  133  136  154  154  148  154  151  154  148  169  157    7
ch:  48     115  115  115  123  121  119  123  129  123  133  134  128  130  128  131  139  151  138  148  151  148  145  157  157  145  157  157  154  154  163  154   22
ch:  49     109  117  107  121  119  124  121  125  124  122  117  134  126  130  135  130  130  128  145  145  139  135  145  136  151  154  145  157  148  151  169    7
ch:  50     117  113  119  123  128  133  130  130  121  136  132  121  129  129  132  135  151  128  151  145  154  151  148  157  148  154  163  154  157  166  166   31
ch:  51     119  113  119  121  119  131  128  115  117  125  135  135  136  124  136  132  148  145  132  139  145  148  130  145  133  151  157  151  163  151  157    8
ch:  52     124  107  125  119  122  123  136  124  133  121  135  145  132  137  148  135  138  151  145  154  151  139  151  163  148  166  148  163  166  157  166   21
ch:  53     119  117  117  119  129  132  132  128  119  117  133  122  126  131  145  135  135  130  148  128  128  148  145  154  145  145  163  163  151  151  157   17
ch:  54     119  121  117  113  121  119  130  123  129  133  132  136  134  145  138  145  148  134  145  145  151  148  166  151  169  154  154  166  163  172  172   28
ch:  55     123  115  119  117  115  124  131  128  119  121  129  128  131  130  136  131  128  135  148  145  133  135  145  148  145  154  148  157  157  166  157    8
ch:  56     117  122  105  119  121  122  130  123  134  119  139  135  138  128  145  145  148  145  151  148  148  135  145  166  157  163  157  163  154  172  169   19
ch:  57     107  105  119  113  121  123  121  119  135  134  124  122  125  124  131  123  121  133  148  128  135  138  138  145  154  154  148  151  157  154  154   11
ch:  58     107  120  119  117  134  122  123  132  129  130  137  135  133  135  145  130  139  134  151  151  145  148  157  151  163  151  148  154  163  163  169   37
ch:  59     121  105  121  119  113  124  129  124  122  130  122  128  128  125  130  135  123  132  128  145  148  151  145  145  145  148  145  154  151  163  148   15
ch:  60     121  113  115  123  136  115  126  133  128  129  133  151  137  128  145  138  139  148  148  157  154  148  163  163  163  157  163  163  172  157  163   22
ch:  61     102  113  117  121  128  119  131  121  122  128  124  121  131  145  129  133  134  123  132  145  131  145  145  128  136  148  151  137  157  163  169   19
ch:  62     119  123  105  113  121  117  124  124  123  132  138  132  132  145  131  148  130  148  151  148  128  145  166  145  157  151  154  154  169  169  172   23
ch:  63     117  103  119  113  125  126  121  124  128  125  131  137  126  128  135  130  129  142  133  128  145  145  154  145  163  142  154  148  151  157  157   24
ch:  64     121  113  122  124  120  124  122  120  124  131  132  137  123  132  145  136  135  138  154  151  145  139  151  138  169  128  157  163  151  154  166   28
ch:  65     107  117  125  117  117  123  124  134  134  128  117  122  123  123  121  134  133  128  136  134  151  135  139  151  148  128  154  148  154  154  169    2
ch:  66     117  117  123  125  119  128  130  122  119  125  136  136  136  137  133  145  145  128  145  154  137  151  157  151  157  163  154  154  166  172  169   29
ch:  67     115   99  117  119  119  115  117  122  119  130  133  124  132  128  131  131  128  136  145  139  139  135  148  154  151  148  154  154  157  154  151   22
ch:  68     115  117  119  125  117  124  132  123  120  129  125  135  139  128  138  148  145  128  134  148  151  148  154  138  163  151  157  166  166  154  172   21
ch:  69     115  117  117  113  107  115  119  129  128  125  130  128  124  134  130  129  145  130  148  145  131  138  145  134  154  154  148  154  154  163  154   18
ch:  70     117  117  128  121  121  119  123  129  128  145  138  128  128  138  148  138  133  148  148  148  157  151  151  163  166  163  163  157  154  166  169   29
ch:  71     121  131  117  115  128  117  128  131  124  130  128  138  138  130  129  130  131  136  136  134  139  128  148  157  151  151  151  157  163  166  166    8
ch:  72     115  113  117  121  117  128  133  131  131  123  130  145  138  148  145  145  135  138  145  138  148  148  148  154  154  166  169  151  169  169  169   29
ch:  73     121  115  121  119  122  117  122  117  128  122  121  123  122  131  134  128  136  137  128  145  145  148  148  145  148  154  157  157  154  145  163   11
ch:  74     129  123  123  117  124  134  137  130  136  131  132  131  138  145  134  133  145  151  132  148  148  128  151  148  154  154  157  157  154  166  169   25
ch:  75     117  117  115  115  123  122  117  117  123  128  129  133  128  129  133  134  145  136  128  136  148  148  148  138  154  148  154  154  166  157  154   15
ch:  76     119  115  117  117  117  119  115  130  145  145  131  131  145  134  132  151  154  135  148  148  145  154  163  151  166  163  157  151  157  172  157   31
ch:  77     119  113  129  119  129  121  123  119  119  133  135  132  123  128  137  135  135  135  148  145  145  148  145  151  148  148  163  148  148  154  166   15
ch:  78     117  113  121  119  123  117  121  130  121  128  131  130  137  138  151  145  151  148  145  154  151  138  154  157  154  169  163  145  166  172  157   28
ch:  79     122  115  115  107  119  121  117  135  124  117  135  131  154  134  137  128  129  138  136  137  145  145  139  148  145  148  148  151  157  163  166   13
ch:  80     107  107  125  119  124  121  131  123  124  119  134  130  138  123  145  128  138  128  148  154  148  148  154  154  163  154  151  157  163  163  166   31
ch:  81     103  101  121  132  115  119  115  129  117  115  132  121  123  132  133  134  131  136  137  135  148  148  138  145  145  145  157  154  163  157  163   13
ch:  82     121  119  128  121  124  122  121  122  137  128  134  135  145  138  145  145  151  148  137  157  151  139  145  154  154  157  163  154  157  163  157   29
ch:  83     113  117  117  115  115  123  123  131  135  132  123  130  131  134  132  134  138  145  151  135  145  145  148  151  148  138  151  151  151  154  157   15
ch:  84     115  119  113  121  128  117  125  119  132  124  129  138  138  130  145  139  130  135  137  148  148  157  145  148  154  157  169  163  166  154  169   34
ch:  85      99  119  121  119  128  128  123  113  123  123  122  128  131  131  136  148  137  145  134  137  136  145  128  151  131  145  151  154  151  148  151   12
ch:  86     115  121  125  120  119  119  130  122  122  121  131  132  132  132  148  145  145  145  148  154  154  148  151  148  163  154  166  154  169  151  128   29
ch:  87     117  119  117  117  117  121  121  124  131  124  123  130  132  132  117  122  145  135  145  145  145  148  132  148  148  138  145  166  154  151  154    7
ch:  88     117  117  115  115  131  121  128  124  136  132  135  137  136  133  145  128  132  145  148  154  163  166  145  151  157  148  163  166  154  172  172   31
ch:  89     113  117  113  115  122  121  128  128  117  134  128  128  129  134  128  133  130  148  134  136  145  151  148  148  151  145  151  148  163  151  151   11
ch:  90     107  115  121  117  119  123  131  130  133  132  133  133  130  137  137  138  128  132  145  138  151  154  154  148  166  154  166  166  154  166  163   32
ch:  91     120  117  117  115  119  115  131  120  115  123  128  135  137  119  130  123  132  138  125  132  136  139  163  132  148  151  148  163  154  163  154   20
ch:  92     107  121  117  123  136  134  132  115  123  136  134  137  132  128  136  128  139  151  151  151  145  154  154  166  157  154  166  157  163  169  163   27
ch:  93     115  117  113  119  131  121  123  113  121  128  130  130  133  135  137  132  128  131  131  134  148  128  129  148  148  157  148  154  151  151  163    3
ch:  94     119  115  113  121  128  121  129  129  136  128  148  148  148  138  148  145  138  148  134  148  145  148  154  151  157  163  163  151  151  154  154   29
ch:  95     121  115  117  120  107  125  123  122  121  122  122  123  131  132  133  135  137  124  145  133  145  151  148  148  151  148  145  151  157  154  157   17
ch:  96     125  109  120  117  122  119  128  121  148  128  137  137  135  135  134  148  145  154  145  148  157  135  154  154  157  157  169  169  157  169  166   33
ch:  97     113  117  115  123  117  123  121  130  121  133  122  129  132  135  136  119  145  133  148  145  145  145  137  154  163  151  148  145  157  157  154   15
ch:  98     107  113  123  119  125  123  131  129  125  130  129  128  130  145  137  148  145  128  145  151  151  151  137  154  157  163  157  163  163  169  157   36
ch:  99     113  117  117  123  122  119  121  132  123  124  121  134  124  124  130  138  135  138  137  148  131  136  148  166  154  145  154  154  157  163  157   21
ch: 100     120  128  132  119  122  124  132  129  132  128  128  145  138  128  133  136  148  148  136  148  148  157  157  154  157  151  163  166  154  166  169   24
ch: 101     122  122  117  122  121  119  124  115  113  134  133  131  128  130  135  137  148  128  135  148  134  148  128  157  154  148  128  154  169  163  157   10
ch: 102     105  122  123  115  122  121  130  125  125  122  133  132  131  145  128  151  145  128  151  139  151  166  154  154  154  145  157  157  166  163  169   31
ch: 103     121  128  117  121  113  122  122  132  131  129  145  122  132  137  128  136  128  133  145  151  154  128  145  145  148  128  151  154  151  154  166   11
ch: 104     117  120  115  128  128  122  131  136  129  135  132  151  128  134  135  138  137  154  136  148  154  151  154  163  163  163  163  166  166  166  169   34
ch: 105     115  115  119  115  117  129  124  122  128  131  123  129  131  129  129  135  128  139  134  135  136  145  139  145  148  154  145  148  151  151  154    8
ch: 106     120  119  130  121  124  138  115  130  129  124  145  134  145  148  135  148  148  138  148  134  148  151  148  163  151  145  151  172  163  163  166   29
ch: 107     115  115  117  113  122  119  124  113  122  122  122  130  136  130  133  135  123  145  136  151  145  145  133  137  151  148  157  151  169  154  154    9
ch: 108     119  105  129  119  113  129  124  122  133  130  134  131  148  136  148  139  137  151  151  154  145  163  157  169  169  172  163  169  166  169  166   35
ch: 109     113  107  122  122  122  124  119  129  122  134  130  130  137  117  139  145  138  134  136  135  145  139  133  145  136  148  151  163  163  145  154   21
ch: 110     115  119  115  107  119  121  120  130  125  133  145  131  145  125  132  138  138  145  145  145  151  132  148  154  154  148  154  154  163  169  166   33
ch: 111     105  113  115  119  124  121  130  128  123  121  128  130  124  125  136  129  136  138  145  145  145  134  154  151  154  151  145  148  148  154  166   17
ch: 112     117  113  122  129  119  129  134  128  129  129  133  131  148  138  131  132  139  128  145  145  154  151  145  163  157  151  154  163  163  169  172   34
ch: 113     113  113  117  113  128  121  119  128  132  131  130  132  139  135  137  131  151  134  139  128  145  135  151  151  139  148  151  157  151  163  163   11
ch: 114     117  117  115  120  129  122  132  119  130  148  134  134  133  137  134  137  145  148  137  145  154  128  151  163  166  157  169  169  151  128  169   26
ch: 115     119  117  115  119  130  128  129  128  117  128  135  145  129  133  128  136  131  128  128  139  133  145  154  145  148  154  166  145  166  166  154   15
ch: 116     122  121  119  124  133  132  123  135  132  136  123  135  134  134  139  135  148  145  157  154  145  148  151  148  154  169  154  172  157  157  169   32
ch: 117     121  115  120  123  119  129  120  129  115  122  122  131  135  129  119  139  133  137  135  138  136  135  136  148  148  145  128  148  154  157  154   19
ch: 118     105  119  117  128  122  124  130  123  136  130  132  130  133  136  139  134  145  154  148  154  157  163  148  163  154  157  169  166  166  157  169   27
ch: 119     107  122  117  115  130  117  119  115  124  124  129  136  131  119  139  134  135  128  145  131  145  131  148  151  151  154  134  148  154  163  154   11
ch: 120     119  117  124  128  125  122  130  136  123  134  133  135  128  132  145  154  133  148  151  148  148  148  148  154  151  169  154  169  163  172  172   33
ch: 121     117  121  125  115  124  115  119  122  123  123  131  128  129  135  134  139  137  145  134  129  154  148  154  151  151  148  151  157  154  154  157    6
ch: 122     107  119  126  124  119  121  124  131  120  136  133  148  139  137  145  145  148  148  138  148  145  145  148  151  154  169  157  157  154  169  166   34
ch: 123     115  113  117  130  117  121  121  120  117  132  122  128  129  129  123  145  132  139  137  148  138  137  148  151  151  148  154  145  148  151  148   13
ch: 124     101  117  122  130  123  128  128  129  135  128  131  132  134  133  128  137  135  154  151  148  145  145  157  154  154  154  166  163  169  163  169   34
ch: 125     121  123  128  115  123  121  122  117  130  129  128  128  124  130  124  134  145  133  139  145  136  138  148  148  151  151  151  151  163  154  163   10
ch: 126     115  117  121  135  132  124  123  129  128  134  130  135  138  135  128  145  128  136  151  145  145  157  148  148  151  163  163  163  157  163  172   25
ch: 127     107  119  123  128  122  125  121  131  119  125  128  135  138  130  123  136  148  154  151  145  151  151  163  151  154  157  169  157  166  163  166   11
