# TRIM CALIBRATION    FEB2_2_0    pulse_ampl_min=40    pulse_ampl_max=200    pulse_ampl_fast=40
#
ch:   0     115  119  119  122  107  125  122  128  122  131  148  148  132  136  137  145  148  154  163  148  151  145  148  169  154  128  128  166  169  166  172   15
ch:   1     105  107  121  117  134  131  122  133  123  132  131  132  135  148  132  136  137  136  154  136  151  148  138  151  166  151  163  166  166  166  128    5
ch:   2     119  130  128  128  130  119  131  134  145  145  123  148  145  132  139  138  148  151  157  151  163  154  169  163  169  163  128  166  166  128  166   20
ch:   3     107  117  115  115  117  119  124  124  133  134  128  137  136  151  137  136  145  128  148  157  163  163  157  163  166  128  157  166  166  169  128    9
ch:   4      99  119  122  122  119  131  148  129  122  115  134  138  132  137  138  128  148  154  151  148  163  169  166  166  163  166  172  128  128  128  128   27
ch:   5     123  123  107  113  113  125  129  117  132  134  129  128  139  130  128  139  145  151  154  148  151  154  154  163  154  163  166  163  154  154  172   12
ch:   6     117  107  117  123  124  134  129  130  131  130  138  128  137  145  151  154  148  151  154  148  157  154  163  166  163  172  169  166  166  128  172   28
ch:   7     115  119  119  115  132  123  131  124  137  134  135  130  132  135  154  145  128  145  151  151  154  154  154  148  157  166  163  157  166  128  128    3
ch:   8     121  122  117  122  128  119  125  134  131  128  129  145  124  151  154  133  148  138  163  157  151  151  169  163  169  128  148  169  169  166  172   25
ch:   9     123  122  126  124  122  122  117  130  129  123  124  138  129  133  137  128  145  145  151  151  151  151  151  157  163  163  169  157  166  128  128    7
ch:  10     101  119  121  119  121  128  120  128  133  138  132  131  131  148  151  145  154  157  157  157  169  154  154  163  157  163  172  157  163  172  128   23
ch:  11     121  121  121  135  122  131  124  129  121  128  121  133  148  134  136  137  145  148  151  148  151  148  166  163  151  163  166  163  166  163  166    3
ch:  12     105  125  123  123  125  120  136  125  129  135  121  128  136  138  128  148  151  151  154  163  151  151  163  166  157  163  169  169  166  128  172   20
ch:  13     119  121  122  115  136  119  125  122  123  137  125  128  138  139  129  135  142  138  154  145  148  148  157  151  157  154  157  166  172  128  163   19
ch:  14     117  129  128  123  130  129  122  131  137  132  125  145  145  148  148  145  145  154  148  166  157  154  166  166  169  163  163  128  128  166  169   25
ch:  15     119  113  119  125  128  129  125  124  128  133  132  138  124  145  145  134  145  148  148  148  154  151  157  151  166  151  163  166  163  172  172    9
ch:  16     124  119  113  113  128  123  125  121  138  134  123  128  137  135  148  154  145  154  163  145  163  166  163  166  163  169  166  169  172  128  169   17
ch:  17     113  105  113  113  122  121  133  129  129  124  132  135  145  137  145  148  128  136  154  136  145  148  163  157  154  166  157  166  166  172  169   10
ch:  18     107  122  126  123  122  129  132  128  138  137  145  148  131  136  136  145  154  151  154  154  148  154  154  166  169  169  157  166  172  128  169   22
ch:  19     113  115  117  117  115  121  122  124  130  134  135  136  136  137  135  132  137  139  145  151  139  154  148  154  151  157  157  172  166  166  166   10
ch:  20     117  122  130  134  129  130  134  134  119  138  129  145  134  138  148  128  148  128  145  166  148  157  163  169  163  166  166  172  169  157  128   29
ch:  21     107  117  121  122  123  123  130  119  133  128  131  133  132  145  131  151  145  128  148  154  154  145  157  163  154  154  166  163  169  172  166   22
ch:  22     115  115  121  119  132  128  133  128  133  125  145  135  138  135  148  148  151  145  151  154  154  145  157  166  154  163  163  166  128  172  128   20
ch:  23     107  119  105  119  123  113  120  105  126  124  127  137  128  125  133  133  138  138  145  135  137  148  151  157  148  157  154  163  169  157  151   13
ch:  24     113  128  129  131  130  119  135  134  128  131  145  134  148  136  137  148  151  154  145  151  154  148  163  160  169  169  166  169  169  169  172   32
ch:  25     115  124  122  121  136  129  121  130  121  130  134  134  134  123  128  138  145  132  148  151  163  154  154  163  154  151  166  154  166  172  169   12
ch:  26     115  115  119  121  115  145  124  131  128  135  137  133  135  138  137  145  145  151  154  145  154  148  154  163  166  166  172  128  128  166  128   20
ch:  27     119  122  115  125  123  126  128  131  121  131  124  122  129  125  145  128  145  136  138  154  136  157  154  154  157  148  163  157  163  163  163    9
ch:  28     113  117  120  134  131  119  131  130  123  123  131  115  148  148  145  151  133  145  157  151  157  163  154  163  163  157  154  172  166  169  172   23
ch:  29     117  123  121  121  125  123  123  121  130  130  128  122  133  133  129  137  154  145  148  154  145  154  151  157  151  151  148  163  163  169  163   15
ch:  30     119  119  121  125  123  130  129  145  117  132  134  135  130  137  151  138  151  151  151  148  154  148  169  157  154  157  157  128  172  169  169   27
ch:  31     122  115  117  120  113  121  120  130  128  121  135  133  119  151  135  145  138  139  148  145  145  154  154  151  163  166  163  166  169  166  166   19
ch:  32     119  113  121  119  124  129  121  124  131  129  128  151  137  137  148  148  148  148  151  154  151  151  151  163  157  166  169  166  169  169  166   24
ch:  33     107  124  133  119  117  121  121  115  129  135  135  122  135  145  131  154  145  151  133  128  154  154  138  157  154  154  163  166  154  154  154    9
ch:  34     115  121  113  124  130  117  128  133  131  138  128  138  137  134  136  148  148  148  151  145  157  157  154  157  154  163  163  154  128  172  157   26
ch:  35     113  125  129  115  123  119  119  129  115  125  130  120  137  138  136  145  135  139  151  138  148  151  151  128  166  154  157  163  163  166  166   14
ch:  36     131  124  130  137  125  129  136  136  129  130  132  134  138  139  148  139  145  151  151  151  157  154  157  166  169  169  128  128  169  128  172   19
ch:  37     125  113  115  115  119  128  119  120  124  132  132  145  131  133  138  135  145  145  151  148  137  151  148  157  160  157  154  163  166  169  172    9
ch:  38     121  128  123  122  125  124  119  134  123  134  128  121  128  137  138  148  148  148  151  151  163  166  151  157  163  163  157  169  128  163  163   29
ch:  39     129  121  119  115  120  130  115  131  129  125  121  125  145  134  137  138  145  135  148  138  145  157  151  151  151  163  166  163  169  157  163   15
ch:  40     119  117  121  123  117  132  131  130  128  125  136  128  138  151  148  148  151  148  151  154  154  151  163  157  154  169  166  169  172  172  163   30
ch:  41     105  113  122  123  130  129  125  128  131  123  132  130  123  139  148  145  145  154  145  151  145  137  154  154  154  154  163  166  166  169  169   11
ch:  42     115  119  115  121  105  119  131  120  131  135  123  128  139  151  151  136  145  154  154  160  163  148  172  151  163  163  128  169  169  172  128   31
ch:  43     103  119  123  107  129  122  122  119  130  130  136  133  130  130  134  135  136  145  136  151  148  148  151  151  157  151  163  163  154  157  166   19
ch:  44     121  113  105  124  122  128  128  123  125  130  125  128  145  139  145  145  148  145  157  151  154  151  154  163  157  163  172  163  172  172  172   29
ch:  45     117  113  107  113  119  132  123  121  122  136  131  128  137  136  133  145  134  145  137  145  128  151  148  148  163  154  163  163  163  163  166    8
ch:  46     115  124  115  130  121  123  119  129  138  125  138  131  138  128  139  128  151  151  163  136  148  163  163  154  163  151  157  169  166  172  169   28
ch:  47     121  115  117  121  119  123  128  121  130  131  138  129  133  133  145  131  134  148  136  151  128  148  154  157  157  166  154  157  154  172  163   11
ch:  48     115  115  119  121  122  117  135  130  132  129  126  135  145  136  145  151  151  148  148  151  151  151  172  154  166  163  172  128  169  169  172    0
ch:  49     113  115  129  117  124  125  119  131  131  139  130  124  131  145  135  125  128  128  148  145  145  151  154  163  169  148  154  157  157  154  163   11
ch:  50     115  123  117  121  128  125  132  132  121  132  134  148  137  145  145  135  148  163  154  151  151  151  157  154  166  169  148  166  128  128  172   25
ch:  51     124  115  115  119  119  130  124  129  117  122  131  123  131  138  129  148  128  135  128  151  154  137  157  135  166  172  151  166  154  166  169   15
ch:  52     115  119  121  121  117  119  128  131  129  133  124  135  128  145  157  145  148  157  139  151  172  163  163  169  157  166  172  169  128  169  172   30
ch:  53     113  119  122  121  121  119  121  125  133  128  125  133  129  131  136  148  145  148  145  135  148  166  157  154  154  154  163  154  163  169  154   19
ch:  54     117  119  119  121  119  117  124  113  133  145  136  145  148  135  151  138  148  148  148  151  154  154  166  157  172  169  166  128  169  169  128   22
ch:  55     121  121  117  125  119  121  128  131  131  130  129  131  128  133  138  145  138  137  148  148  145  154  151  154  157  154  163  154  163  163  172    8
ch:  56     124  121  125  119  119  129  124  129  145  130  134  136  148  137  148  145  135  148  148  157  151  139  166  163  154  166  172  169  128  128  172   30
ch:  57     113   99  105  121  130  120  125  121  123  124  121  133  123  125  148  136  145  134  131  145  145  151  154  154  157  151  163  157  166  163  166    6
ch:  58     115  109  113  124  123  126  130  123  131  132  137  128  139  145  139  151  148  151  154  151  148  154  166  166  166  166  163  163  169  163  166   23
ch:  59     107  115  117  115  113  126  128  122  119  132  134  124  137  132  148  135  136  148  132  145  145  136  148  163  151  154  163  148  157  157  154   15
ch:  60     119  113  128  115  122  133  119  123  133  134  125  135  139  136  151  148  148  157  163  139  154  163  154  157  157  157  166  163  166  169  163   28
ch:  61     117  113  115  130  119  135  117  115  121  122  131  130  132  134  148  154  135  148  145  135  145  157  148  148  166  154  169  169  163  163  172   16
ch:  62     122  119  123  123  123  133  133  145  119  134  138  128  136  128  148  137  157  154  151  151  148  154  163  148  166  166  154  166  128  128  163   31
ch:  63     115  122  121  119  121  115  122  133  135  123  122  133  145  132  145  135  148  145  148  148  151  145  148  154  163  154  157  151  163  172  169   12
ch:  64     115  117  121  117  130  137  136  133  135  132  130  128  145  139  148  151  145  148  154  145  154  154  157  154  172  154  163  169  169  172  128    0
ch:  65     124  115  122  123  122  128  125  123  117  124  128  128  139  128  132  135  138  151  135  154  151  157  157  163  148  157  172  166  166  128  163   12
ch:  66     113  115  123  124  124  134  124  131  135  139  133  135  136  138  148  131  145  157  148  151  163  148  154  166  163  169  166  163  128  172  128   23
ch:  67     109  115  129  125  117  123  119  128  128  128  131  145  134  134  151  136  145  128  145  145  148  151  148  148  145  151  163  166  154  166  166   17
ch:  68     119  115  131  133  125  120  130  136  129  145  138  148  145  136  151  145  151  145  154  163  148  154  169  148  157  169  169  169  169  128  128   27
ch:  69     119  107  121  121  125  124  115  135  119  130  135  128  134  128  134  134  148  139  128  151  148  148  148  157  151  148  172  166  169  166  157   10
ch:  70     113  122  124  133  120  132  122  130  138  132  137  136  138  148  136  137  145  148  151  163  163  166  157  166  166  172  166  163  163  172  128   33
ch:  71     115  115  117  125  131  129  123  130  131  132  117  145  131  137  128  133  138  151  145  151  145  148  163  151  151  169  166  166  166  169  166   15
ch:  72     115  125  129  128  121  124  132  130  125  132  129  133  145  145  148  157  135  154  151  166  148  163  166  163  166  166  166  172  169  160  166   32
ch:  73     121  113  123  115  128  131  135  129  128  128  128  137  131  134  148  135  132  148  151  151  154  157  157  154  157  154  157  163  163  163  172   17
ch:  74     115  119  123  121  123  132  128  136  124  124  137  135  137  128  148  148  148  151  154  148  151  166  166  169  169  172  128  166  128  128  128   37
ch:  75     119  132  115  115  121  130  125  122  122  124  145  136  130  138  133  135  134  138  135  148  154  136  151  148  148  154  163  163  128  172  163   19
ch:  76     115  107  115  128  122  129  124  136  125  124  130  151  135  139  128  137  163  128  163  157  157  148  154  163  154  166  166  172  128  169  128   43
ch:  77     124  107  117  124  125  119  123  125  130  128  135  135  138  139  134  148  145  157  145  154  151  138  154  151  154  145  151  166  166  163  172   11
ch:  78     117  119  125  124  123  122  122  129  119  131  145  136  133  145  148  163  154  151  139  145  154  163  166  169  166  166  163  166  172  128  128   35
ch:  79     113  105  117  113  121  117  119  125  129  129  132  129  133  135  133  145  148  145  139  151  151  145  148  151  151  151  154  154  157  166  169   13
ch:  80     107  128  123  128  117  107  135  130  131  133  137  135  119  135  148  148  148  138  154  154  148  157  154  157  169  163  169  166  128  128  172   37
ch:  81     115  115  124  124  119  123  121  124  133  130  130  134  137  136  130  135  145  138  145  137  138  148  148  166  157  157  163  163  166  172  166   17
ch:  82     117  115  123  121  117  130  131  129  132  123  138  122  139  145  135  137  145  154  148  154  157  163  154  157  169  166  166  157  128  169  128   26
ch:  83     119  117  117  128  119  129  129  123  145  123  123  130  134  138  135  137  137  148  148  145  145  139  148  154  137  154  154  157  172  163  128   17
ch:  84     119  115  128  121  134  122  128  130  132  134  131  133  139  145  145  139  151  151  145  151  157  154  163  163  163  166  172  166  128  128  169   31
ch:  85     103  121  129  115  117  122  132  131  124  125  126  129  124  123  131  133  145  137  145  145  151  148  154  154  169  166  163  169  128  166  166   15
ch:  86     113  128  117  117  124  119  132  132  124  131  138  137  145  128  145  136  151  151  157  148  151  145  166  154  157  151  166  166  128  128  128   30
ch:  87     107  115  122  125  117  119  125  129  121  133  128  130  135  145  132  148  157  135  151  125  151  148  154  154  151  151  157  172  154  166  166   20
ch:  88     113  117  131  119  124  132  138  126  124  121  122  128  148  148  148  135  148  151  166  157  154  169  151  163  163  172  172  166  172  172  128   31
ch:  89     113  115  107  115  121  123  132  124  125  124  134  132  138  124  139  137  139  154  148  138  148  154  145  151  148  151  154  163  160  128  166   15
ch:  90     105  121  123  117  121  136  121  138  134  137  145  130  148  136  128  151  151  163  148  163  157  154  169  154  163  166  128  128  128  169  172   37
ch:  91     113  117  117  121  125  122  129  121  121  125  129  133  132  128  136  128  137  137  139  145  145  151  151  151  154  163  166  166  166  166  166   23
ch:  92     113  115  121  120  135  128  131  132  134  136  133  135  136  145  134  138  154  148  151  151  154  157  151  163  163  169  128  169  128  169  128   28
ch:  93     115  125  113  117  125  125  117  126  122  122  129  135  145  128  123  136  151  128  137  138  151  154  148  138  157  154  157  139  163  163  128   12
ch:  94     115  115  119  119  128  119  121  119  125  137  145  145  128  133  134  138  151  157  166  154  145  151  157  157  166  163  169  172  128  172  157   20
ch:  95     119  129  107  115  128  121  128  122  135  124  136  122  135  138  128  130  128  145  131  138  138  151  145  163  157  163  151  157  163  169  166   15
ch:  96     115  115  125  124  130  124  136  136  134  130  136  148  138  132  148  151  151  151  148  154  154  166  154  157  163  157  166  163  166  128  163   31
ch:  97     113  122  119  113  117  131  115  125  125  135  125  125  136  131  135  138  145  148  148  145  138  145  154  148  151  154  157  157  160  166  166   13
ch:  98     113  129  123  129  124  125  123  133  122  135  125  137  131  135  148  148  128  151  145  148  157  163  163  154  166  148  169  172  166  128  172   23
ch:  99     101  113  119  119  124  125  124  113  131  134  130  138  134  117  139  136  151  154  151  154  148  151  163  148  148  154  163  157  157  172  163   19
ch: 100     117  120  121  121  121  130  122  124  131  132  128  137  133  133  135  145  135  136  151  151  157  154  163  148  163  128  157  169  172  169  128    0
ch: 101     121  107  107  121  121  123  124  119  119  123  123  145  137  133  151  135  128  157  148  151  148  154  148  151  145  163  128  157  163  163  166    8
ch: 102     105  121  117  123  135  135  121  131  128  138  131  145  128  145  148  145  145  145  145  145  145  151  163  157  163  172  166  128  172  169  172   22
ch: 103     115  115  121  122  124  121  124  124  124  130  132  133  131  131  154  148  145  148  148  145  157  163  163  154  148  148  151  163  172  172  169   24
ch: 104     117  115  119  123  128  119  128  133  129  125  130  139  148  137  145  157  138  154  154  151  154  157  151  166  163  169  172  172  166  172  172   27
ch: 105     117  115  117  117  115  113  119  126  124  132  138  131  135  145  139  135  137  128  151  151  132  148  151  163  157  166  157  157  169  169  166    7
ch: 106     119  132  132  131  123  134  119  134  135  131  145  138  136  148  137  157  135  148  151  154  163  157  163  163  154  172  172  128  172  128  172   34
ch: 107     119  113  101  120  117  124  117  123  115  134  123  129  145  136  145  132  151  148  154  148  148  148  145  151  172  166  163  163  163  163  163   25
ch: 108     119  119  128  117  130  124  130  123  133  145  128  134  134  148  148  135  145  145  151  157  163  157  157  166  166  166  169  172  128  128  128   35
ch: 109     117  123  115  117  115  121  121  130  124  128  123  125  129  133  132  128  137  138  166  148  151  148  157  157  128  154  154  166  166  157  166   17
ch: 110     121  113  120  123  119  119  136  119  125  131  133  128  151  133  145  145  128  145  154  151  157  157  166  154  163  172  172  169  172  128  172   28
ch: 111     113  117  117  129  103  113  132  123  119  128  133  125  131  131  145  145  145  145  128  148  163  157  151  148  151  172  157  128  151  163  166    7
ch: 112     115  121  129  131  119  124  148  128  122  148  138  137  148  145  145  128  145  151  139  148  154  166  166  154  157  163  128  166  169  172  128   20
ch: 113     124  121  121  103  119  125  123  124  121  133  124  128  130  131  148  137  128  145  128  128  145  154  151  157  163  166  169  148  169  166  169   24
ch: 114     115  119  113  121  121  138  124  130  135  125  145  139  136  145  151  148  148  148  148  154  166  151  151  169  163  172  169  172  169  169  166   30
ch: 115     123  119  117  123  107  136  128  134  121  131  129  131  134  129  138  151  145  128  138  154  148  157  157  145  166  154  163  163  172  163  163   12
ch: 116     107  115  117  130  128  129  134  132  134  130  120  136  148  145  151  148  151  154  157  154  157  166  154  151  157  169  172  166  166  128  128   24
ch: 117     117  113  103  122  122  115  122  123  125  123  133  125  136  129  132  134  148  151  145  148  145  148  148  148  157  148  166  154  157  166  172   17
ch: 118     117  128  125  129  117  131  130  128  128  130  137  130  128  138  148  148  128  139  148  151  163  154  154  166  163  172  172  169  128  166  128   39
ch: 119     117  113  123  115  117  121  133  122  123  130  130  134  138  137  135  148  128  145  148  154  148  154  151  154  154  154  163  163  166  128  169   13
ch: 120     119  122  120  123  133  132  124  122  136  130  129  148  137  151  137  151  151  145  163  154  151  148  148  166  157  163  163  172  172  128  128   37
ch: 121     117  121  132  117  128  122  128  124  122  131  134  130  132  128  151  137  145  135  145  145  154  145  154  169  169  154  163  154  169  169  172   12
ch: 122     105  117  115  134  117  117  132  123  134  138  132  139  131  139  148  142  139  151  151  151  163  163  157  169  166  128  169  169  166  169  128   28
ch: 123     115  117  117  121  115  130  128  130  137  121  121  121  128  124  145  138  145  124  145  139  151  151  148  148  151  151  163  157  163  166  157   17
ch: 124     115  124  119  124  119  120  132  135  132  136  137  138  145  135  148  154  148  154  154  151  151  157  157  169  163  154  128  163  128  128  128   24
ch: 125     115  129  128  121  122  125  125  128  131  125  136  130  129  124  133  137  148  135  151  154  148  154  148  154  169  154  157  172  160  166  154   13
ch: 126     113  120  121  125  117  133  130  131  131  138  134  136  145  137  139  154  151  154  154  166  157  154  157  163  163  166  128  169  172  172  169   29
ch: 127     122  121  117  122  121  131  117  121  130  130  131  132  145  148  134  157  154  138  151  138  157  163  166  157  154  169  154  172  163  163  128   10
