# TRIM CALIBRATION    FEB2_1_0    pulse_ampl_min=40    pulse_ampl_max=200    pulse_ampl_fast=40
#
ch:   0     107  107  121  117  132  132  121  138  130  145  121  136  137  136  136  136  137  145  148  145  151  166  154  151  148  154  154  172  163  172  128   26
ch:   1     107  115  119  121  115  131  131  133  132  129  136  133  133  145  129  135  133  136  145  135  154  145  134  154  163  154  151  154  151  169  154    0
ch:   2     129  115  121  117  117  119  123  134  121  130  128  138  145  132  138  130  128  135  151  137  157  148  163  151  157  148  154  154  166  163  169   19
ch:   3     113  117  115  105  132  119  128  122  123  121  119  121  135  129  138  134  131  135  136  135  151  151  128  145  145  163  148  154  163  163  154    6
ch:   4     117  122  121  117  117  122  123  128  131  131  136  130  121  138  138  137  151  148  148  151  154  148  154  166  166  163  163  169  166  163  172   23
ch:   5     115  105  109  107  121  129  113  105  119  124  121  125  135  139  122  137  151  136  145  130  134  135  136  163  148  151  145  154  169  154  163   10
ch:   6     113  117  113  131  128  123  113  129  134  121  121  133  131  132  137  134  135  148  151  154  151  163  135  163  157  166  157  163  172  169  166   13
ch:   7     107  115  109  121  120  123  130  129  128  123  131  137  137  121  117  132  137  145  145  139  134  145  138  154  151  154  151  163  154  163  163    3
ch:   8     115  105  129  117  120  113  121  119  134  123  138  133  145  145  128  145  139  151  151  154  148  163  145  154  128  154  163  166  163  169  163   23
ch:   9     113  113  119  121  119  115  119  115  121  121  107  136  131  121  131  131  122  137  134  139  148  142  136  151  145  154  148  148  151  163  154    2
ch:  10     117  105  119  119  119  121  119  113  119  121  139  136  138  134  134  132  137  148  145  148  151  139  157  145  163  157  163  154  163  166  166   22
ch:  11     115  105  115  128  113  109  123  129  117  122  134  122  121  128  123  130  133  145  139  145  145  128  151  137  138  148  148  157  154  154  166    0
ch:  12     122  105  115  123  123  113  129  117  129  128  139  135  131  133  138  137  148  157  148  154  138  154  145  148  154  157  169  163  172  163  169   20
ch:  13     113  119  105  130  121  121  130  134  122  136  135  132  117  133  136  132  135  128  136  132  148  151  163  157  151  163  148  154  151  166  163   11
ch:  14     119  105  122  107  130  129  117  128  136  131  132  113  134  145  138  148  139  151  148  151  148  151  145  154  166  154  154  157  166  128  163   26
ch:  15     115  103  128  115  122  107  119  119  134  128  130  119  121  129  132  132  148  131  135  148  148  148  145  151  148  154  148  151  154  151  166    4
ch:  16     121  121  119  117  129  117  128  122  123  132  131  132  136  130  128  134  148  138  157  154  151  154  145  157  154  151  154  169  154  172  166   21
ch:  17     105  103  119  122  117  117  132  121  128  119  121  133  130  123  128  134  137  128  131  148  145  145  134  151  137  145  166  145  166  148  163    4
ch:  18     115  117  117  117  115  119  115  130  128  129  130  133  138  145  136  136  133  151  138  139  145  157  145  154  169  151  151  163  163  166  154   33
ch:  19     117  115  129  123  117  128  129  117  120  128  129  132  129  137  134  130  132  138  138  145  148  145  151  148  148  151  148  166  151  163  163    1
ch:  20     115  121  121  119  124  128  117  128  124  124  121  130  148  137  145  131  133  145  145  154  151  151  154  148  154  163  166  157  163  163  166   24
ch:  21     113  115  117  121  119  107  117  119  129  121  133  117  128  128  129  131  123  135  148  136  128  135  148  145  148  154  154  157  148  169  166    0
ch:  22     113  101  123  107  119  121  134  131  119  119  131  119  139  138  139  148  148  128  133  163  148  151  145  151  151  169  154  157  154  169  154   22
ch:  23     115  121  122  117  105  107  109  121  130  117  119  135  134  135  138  133  129  139  132  137  145  151  151  137  148  148  154  151  151  163  151    1
ch:  24     113  115  117  131  119  117  131  123  132  130  134  137  119  135  136  151  145  138  137  151  151  163  154  157  151  154  166  157  128  166  169    9
ch:  25     105  113  117  117  117  123  121  128  121  133  117  133  134  130  119  145  132  128  123  145  151  134  145  151  151  154  151  148  163  157  154    4
ch:  26     115  107  115  122  117  130  134  132  122  132  132  128  135  130  137  137  148  148  148  148  151  154  157  154  154  154  154  166  163  172  166   23
ch:  27     113  107  119  113  107  115  128  123  121  134  121  130  128  117  138  134  132  137  148  137  151  148  145  145  154  148  154  157  169  151  148    2
ch:  28     115   99  115  122  107  121  128  123  129  130  145  136  145  124  134  129  138  151  132  148  148  145  148  154  154  154  151  166  163  163  169   15
ch:  29     107  115  107  115  123  117  123  117  119  121  128  129  137  131  121  131  131  134  138  145  132  142  145  151  154  145  154  166  151  166  169    9
ch:  30     115  115  115  117  119  117  128  119  124  130  121  135  121  148  132  129  136  148  148  148  151  148  154  148  151  166  169  157  169  157  169   29
ch:  31     113  121  113  115  115  113  115  134  130  117  122  119  128  128  133  131  136  135  133  145  145  137  137  145  148  163  157  151  157  163  163   13
ch:  32     117  121  113  117  117  135  121  117  133  133  128  128  135  134  137  134  134  136  151  145  148  154  151  154  154  151  163  163  157  169  157   19
ch:  33     115  121  115  123  121  113  132  117  131  117  107  128  131  133  134  145  145  136  145  132  148  136  139  134  138  145  163  151  148  151  172    9
ch:  34     103  121  119  119  119  121  128  128  137  133  128  130  134  135  148  132  134  139  148  148  154  151  148  151  148  154  151  172  163  172  169   24
ch:  35     101  120  113  113  115  117  129  124  107  119  123  122  121  124  135  136  134  134  139  154  138  148  148  145  145  148  148  145  154  163  148   11
ch:  36     105  107  117  124  115  117  131  113  128  132  131  128  130  136  131  135  134  151  154  145  157  154  169  151  151  151  163  157  166  151  169   19
ch:  37     113  113  119  121  115  119  122  123  132  119  119  130  121  121  123  135  134  139  135  133  148  135  138  151  151  145  151  172  154  163  148   17
ch:  38     117  113  115  119  121  132  121  128  136  123  138  131  123  123  123  133  137  148  148  128  145  137  151  145  148  148  163  154  163  166  128   23
ch:  39     115  117  103  117  119  113  115  123  122  130  119  128  135  124  132  132  132  135  136  132  145  145  139  145  139  137  148  151  154  166  157    7
ch:  40     105  119  107  119  122  121  129  129  130  132  128  134  145  139  137  148  138  148  148  154  145  151  151  154  154  166  166  163  163  154  169   23
ch:  41     113  115  129  113  113  113  119  115  121  130  129  136  139  129  135  135  131  145  157  137  134  145  136  133  145  145  154  157  151  169  163    3
ch:  42     117  121  113  128  120  136  115  122  124  128  137  136  148  130  123  137  145  157  133  148  145  151  151  163  151  157  154  166  169  169  166   19
ch:  43     113  119  119  105  113  123  119  128  124  132  121  151  129  132  131  132  122  131  151  151  128  148  157  148  154  148  154  154  151  151  169    4
ch:  44     101  119  117  119  113  134  119  134  122  133  128  130  145  145  133  136  145  136  148  134  157  151  151  148  154  157  163  163  172  169  169   19
ch:  45     117  115  119  123  122  119  121  128  123  133  117  121  135  134  134  120  122  137  128  135  148  139  145  128  154  145  148  157  154  151  154   12
ch:  46     117  121  117  121  130  129  121  117  145  136  133  132  128  136  132  135  138  148  148  151  145  151  169  154  151  163  154  157  169  163  163   15
ch:  47     103  115  105  103  115  113  129  121  131  113  137  123  133  135  131  135  145  132  151  145  151  145  148  128  151  154  151  151  151  157  169    6
ch:  48     115  121  117  119  119  129  123  122  121  133  154  128  137  134  128  135  131  151  148  148  154  145  154  151  163  157  166  163  151  169  169   21
ch:  49     115  123  113  109  122  131  122  121  113  128  124  121  130  131  131  133  129  132  130  134  148  139  138  145  151  137  154  163  151  166  163   18
ch:  50     117  115  128  121  119  115  128  129  130  121  137  133  137  132  128  148  136  145  154  145  138  148  145  148  163  154  163  169  163  166  166   25
ch:  51     113  119  119  115  113  132  121  113  128  113  122  130  134  136  134  134  132  134  137  136  145  148  151  148  154  145  148  151  163  151  169   12
ch:  52     121  119  121  122  115  129  129  128  132  145  131  130  129  132  133  142  145  134  163  138  154  151  151  151  166  163  151  151  157  163  163   26
ch:  53     115  107  105  103  117  113  119  119  128  122  119  132  128  121  130  119  130  133  145  137  148  132  145  133  145  145  154  163  163  157  163    6
ch:  54     115  113  115  119  119  130  119  136  137  136  138  133  131  137  148  128  145  145  148  151  128  145  163  154  154  154  166  163  166  166  128   30
ch:  55     115  107  113  129  128  132  128  121  117  131  122  129  130  130  131  132  138  134  151  137  131  151  151  148  148  148  145  163  154  172  166   13
ch:  56     107  113  121  121  119  129  122  123  119  145  131  136  136  148  128  137  138  145  151  163  148  148  154  151  163  163  128  163  169  151  172   18
ch:  57     115   99  113  113  121  115  115  119  129  123  133  121  135  132  122  132  133  136  132  138  130  148  148  154  154  148  148  163  154  163  151    3
ch:  58     117  101  120  115  115  132  115  122  122  136  130  138  135  145  136  138  128  135  145  148  148  137  151  169  163  154  166  163  169  163  166   39
ch:  59     105  115  113  115  119  115  117  128  115  122  130  131  119  133  119  130  134  137  135  148  145  154  133  154  148  136  157  145  163  151  148    9
ch:  60     119  119  117  119  123  122  121  129  136  131  132  137  132  129  135  138  138  148  151  137  148  157  154  163  154  157  166  166  169  166  163   16
ch:  61     115  105  130  117  122  121  123  122  117  115  128  130  128  131  132  136  129  133  133  148  138  136  151  151  145  142  154  138  163  163  163    8
ch:  62     122  109  120  117  122  119  123  136  132  138  131  137  129  137  134  145  145  139  145  145  134  151  154  148  154  151  163  154  169  166  172   31
ch:  63     113  121  117  121  109  113  124  113  107  124  121  121  132  133  128  135  134  131  138  129  145  151  154  151  151  145  151  151  154  169  166    2
ch:  64     115  121  117  117  119  121  119  132  122  133  128  129  128  133  145  148  134  145  136  148  145  151  148  157  163  163  154  166  163  163  163   21
ch:  65     113  105  115  119  117  131  130  124  123  119  132  121  130  129  129  139  145  136  128  135  163  134  148  148  145  151  145  154  148  163  169   13
ch:  66     115  119  122  117  119  121  119  117  125  123  121  131  135  133  119  134  128  136  138  145  145  154  148  154  151  154  166  163  163  172  172   27
ch:  67     113  115  117  109  122  117  122  113  113  119  132  123  123  123  128  132  135  119  135  138  138  136  145  151  151  151  148  157  157  154  166    8
ch:  68     121  101  117  115  131  122  123  121  122  128  137  129  133  145  138  136  134  128  148  154  148  136  148  154  151  163  166  172  166  169  172   25
ch:  69      99  115  117  107  119  117  123  119  132  119  121  115  145  136  133  135  134  133  151  130  128  154  135  148  145  148  148  151  157  154  154    9
ch:  70     117  105  117  115  113  119  117  119  130  136  132  136  139  139  134  133  145  137  145  157  163  154  154  148  151  163  151  163  163  172  169   21
ch:  71     117  113  107  117  119  124  122  123  131  123  128  119  130  137  133  139  135  123  128  139  139  138  134  154  138  154  148  145  157  148  166    5
ch:  72     119  109  122  119  113  131  121  121  120  121  130  117  135  138  145  137  138  145  139  148  151  154  157  151  154  154  163  172  169  154  169   35
ch:  73     105  115  117  117  119  130  123  117  122  128  132  122  130  123  138  129  129  135  128  131  148  137  157  145  128  154  148  154  157  163  154   11
ch:  74     119  121  117  130  129  134  129  131  132  135  131  128  145  145  135  128  134  145  145  139  145  154  166  148  154  163  172  154  172  172  172   27
ch:  75     105  109  113  119  121  113  121  124  124  124  134  122  120  128  132  136  129  135  139  130  131  145  128  148  135  154  151  166  157  163  151   17
ch:  76     119  121  119  115  129  121  137  132  122  137  130  130  145  132  133  145  139  145  145  148  145  154  154  145  169  154  151  172  163  169  163   24
ch:  77     115  103  119  117  105  107  115  113  128  130  119  123  123  133  123  122  132  145  136  137  145  148  151  139  148  151  148  151  148  151  157    6
ch:  78     120  130  117  105  129  113  131  117  122  129  136  132  138  134  137  148  148  132  148  157  148  151  151  154  148  154  166  169  166  169  172   22
ch:  79     107  115  117  119  101  119  117  119  123  107  119  117  128  129  119  132  129  137  133  137  138  145  148  128  157  145  151  148  157  157  163   20
ch:  80     103  122  103  123  130  132  123  123  121  136  133  124  137  133  128  145  128  148  148  148  148  148  163  151  154  166  154  163  163  128  163   20
ch:  81     101  115  105  115  120  121  131  121  129  115  122  123  123  123  136  131  137  135  145  151  145  145  145  128  151  148  138  148  154  166  163   17
ch:  82     107  113  105  119  122  117  128  117  119  132  136  131  129  134  148  145  145  148  128  138  137  151  145  151  163  166  163  172  128  172  169   19
ch:  83     105  103  117  113  132  121  120  115  119  129  136  128  124  121  121  123  145  145  136  135  132  138  138  145  145  148  157  154  154  163  154   11
ch:  84     115  117  107  117  122  121  122  121  122  117  135  128  145  133  132  148  145  151  148  145  139  163  154  163  154  154  157  166  166  163  128   20
ch:  85     103  115  113  121  113  119  123  117  136  121  121  135  135  131  136  135  128  132  138  136  139  128  148  157  145  151  148  151  154  154  169   10
ch:  86     115  115  123  121  122  128  119  124  122  121  129  133  133  148  135  138  138  145  148  128  145  154  154  148  151  154  154  163  151  166  166   16
ch:  87     115  122  105  129  115  109  122  119  117  131  117  131  130  135  133  130  134  137  137  124  138  145  151  157  151  154  157  163  151  157  157   15
ch:  88     107  115  121  115  122  121  124  133  124  133  123  148  124  137  138  137  148  148  148  151  157  151  154  151  145  157  163  157  172  166  172   15
ch:  89     113  121  119  121  113  130  121  117  115  129  128  122  128  128  130  133  135  135  135  133  139  145  138  154  145  157  154  151  157  151  139    7
ch:  90     113  117  117  121  115  121  129  136  113  124  129  133  134  135  134  138  136  130  145  148  148  148  148  157  145  163  163  166  166  166  169   27
ch:  91     103  119  115  115  128  115  117  115  121  121  129  122  129  128  129  133  129  132  131  133  128  148  148  154  139  154  148  157  157  163  157   11
ch:  92     115  107  119  119  122  128  123  115  119  115  132  135  138  134  148  137  128  154  151  148  145  138  166  157  157  154  172  163  166  166  169   33
ch:  93     109  115  117  121  117  117  119  123  122  123  133  131  123  121  137  131  137  131  136  139  148  128  157  148  145  148  145  154  148  166  169    9
ch:  94     117  103  115  117  115  122  123  128  121  119  132  123  129  138  136  137  133  145  145  148  145  145  139  163  166  157  154  163  166  154  157   27
ch:  95     105  115  103  113  117  133  115  107  115  121  133  121  122  132  130  137  138  135  133  138  137  136  151  151  151  138  148  154  157  154  166   11
ch:  96     115  119  122  119  121  122  122  121  132  130  129  135  123  136  148  133  137  139  157  163  157  128  157  154  151  157  163  157  169  166  172   26
ch:  97     119  119  107  113  119  109  117  121  115  119  119  121  132  133  131  137  137  138  136  131  134  133  139  145  148  145  154  151  154  154  157   12
ch:  98     107  115  121  117  133  121  122  122  119  132  131  132  136  128  132  148  157  137  138  148  137  163  151  154  157  151  154  163  166  154  169   23
ch:  99     105  113  120  124  117  115  117  113  131  119  123  131  130  128  128  145  132  138  135  145  145  131  139  145  157  148  151  151  151  163  154    6
ch: 100     122  119  117  128  130  131  132  119  128  119  132  131  145  148  133  123  145  148  139  151  145  151  148  151  151  154  169  157  154  172  166   25
ch: 101     101  115  119  119  107  113  129  119  119  133  123  128  115  122  131  136  128  121  138  137  131  136  133  128  139  148  145  151  154  148  163   12
ch: 102     119  119  105  137  121  121  122  130  129  119  134  135  145  134  145  145  136  154  148  151  148  151  151  145  157  169  163  157  163  172  163   24
ch: 103     105  117  107  115  105  119  117  129  119  115  132  130  132  129  136  129  130  145  135  136  133  145  145  154  148  145  148  148  163  154  166    7
ch: 104     128  121  119  113  115  117  123  131  133  123  133  133  135  136  137  136  139  148  151  136  151  166  151  145  166  169  166  166  166  166  163   25
ch: 105      99  107  113  119  123  121  130  121  119  119  120  121  124  131  134  119  128  145  136  128  136  145  145  145  154  137  145  157  163  151  169    7
ch: 106     119  115  119  129  129  115  113  121  133  123  137  130  132  138  132  151  145  145  148  148  148  163  145  166  154  166  154  163  166  163  172   20
ch: 107     121  115  107  115  107  117  119  103  117  129  123  129  132  128  129  134  130  148  130  145  134  133  145  148  154  151  154  148  169  163  163    9
ch: 108     105  105  117  115  115  132  121  122  130  132  123  145  139  136  139  145  138  139  145  148  163  157  151  148  169  157  151  163  166  128  163   22
ch: 109     119  113  107  122  120  124  121  117  117  121  130  119  128  121  133  121  148  131  136  142  151  137  145  139  148  128  145  163  148  166  157    3
ch: 110     115  121  120  122  113  117  130  133  129  135  131  122  139  145  128  128  154  151  145  154  148  145  148  157  163  163  154  169  166  128  163   23
ch: 111     121  115  121  119  113  123  119  117  121  135  129  123  131  119  130  129  121  145  145  145  145  136  135  128  145  154  138  154  157  163  151    7
ch: 112     115  103  121  119  128  123  123  122  130  129  151  131  145  138  134  138  132  148  135  151  138  148  163  157  151  154  154  154  172  169  172   18
ch: 113     121  117  123  119  122  117  121  117  121  119  129  122  131  132  121  130  139  136  130  138  123  145  151  139  148  154  145  145  169  169  163   13
ch: 114     107  117  119  129  121  113  107  124  133  123  131  124  137  134  137  137  151  145  128  148  157  154  145  148  151  169  169  151  166  169  169   24
ch: 115     115  115  115  113  117  115  119  122  129  122  115  133  123  134  138  135  135  132  136  138  145  151  145  148  128  151  145  166  169  154  169   10
ch: 116     113  117  115  120  119  128  123  134  130  132  128  128  129  131  134  122  148  148  128  154  154  145  145  148  148  154  169  163  163  172  172   21
ch: 117     115  117  119  119  119  117  122  122  123  131  115  131  124  135  135  128  136  138  129  145  145  136  151  151  145  135  151  148  157  151  151    8
ch: 118     113  117  128  115  117  119  117  132  133  128  133  138  128  131  134  148  135  145  145  138  145  163  151  145  139  163  172  163  163  163  166   21
ch: 119     103  117  119  115  131  122  132  121  119  107  117  130  129  132  137  136  138  135  134  137  145  135  139  128  163  163  151  154  151  163  154    4
ch: 120     122  115  115  120  117  119  123  121  122  131  134  128  132  136  130  128  134  151  151  148  148  157  151  148  154  154  163  163  169  166  163   25
ch: 121     113  103  105  105  128  115  123  130  121  117  115  119  129  115  131  134  137  145  136  145  145  151  148  154  154  154  154  154  154  166  157    9
ch: 122     103  105  117  113  133  119  122  119  130  123  128  134  135  131  132  145  145  138  151  151  151  148  139  151  148  154  154  163  169  169  169   28
ch: 123     105  119  117  117  119  121  129  128  119  129  115  121  135  132  137  135  128  134  121  148  148  148  154  151  148  157  137  163  166  151  169    9
ch: 124     121  115  115  128  115  117  129  132  134  133  145  137  148  134  145  135  135  148  148  128  154  157  151  169  148  157  163  166  166  169  169   28
ch: 125     105  117  115  120  109  107  121  122  128  122  123  134  129  136  132  139  145  128  145  132  136  139  145  151  145  148  145  157  154  148  154    9
ch: 126     113  115  128  130  117  121  115  121  122  122  129  135  131  134  137  139  145  145  138  145  148  157  148  151  163  157  166  163  157  166  166   26
ch: 127     113  107  119  107  117  119  122  122  121  139  123  131  134  138  134  148  134  154  138  135  151  151  148  145  151  148  154  154  157  172  172   13
