# TRIM CALIBRATION    FEB2_1_1    pulse_ampl_min=40    pulse_ampl_max=200    pulse_ampl_fast=40
#
ch:   0     113  105  117  119  113  122  137  121  131  122  122  137  129  132  134  135  148  136  137  128  145  137  151  154  151  151  157  154  154  163  157    9
ch:   1     117  115  121  103  121  122  121  123  113  119  123  121  135  121  129  131  138  122  145  131  137  145  133  154  151  154  151  154  148  148  154    0
ch:   2     107  124  103  121  123  134  113  121  124  117  122  119  137  129  134  148  135  134  136  145  145  145  151  148  154  136  128  154  163  163  163   12
ch:   3     117  115  113  119  107  128  126  121  113  119  133  130  136  121  121  128  132  119  131  130  136  132  128  154  148  139  151  154  139  154  151    0
ch:   4     124  121  123  128  105  122  123  120  134  124  130  129  128  132  136  145  138  145  139  145  148  154  145  151  151  154  157  163  163  157  145   15
ch:   5     113  115  128  113  119  117  123  115  115  121  122  119  123  117  132  135  145  145  148  145  145  138  128  128  151  154  138  148  157  157  151    0
ch:   6     117  115  133  119  117  124  132  123  128  129  123  134  148  148  138  137  145  148  137  128  145  138  151  145  148  154  148  154  163  163  169   12
ch:   7     117  101  105  122  122  107  125  122  123  121  131  124  130  131  125  134  129  135  129  135  148  145  139  151  148  145  145  139  151  163  151    0
ch:   8     107  105  115  113  117  122  120  117  132  119  131  134  132  133  135  128  148  135  136  128  139  138  145  166  163  148  154  154  166  172  154   10
ch:   9     117  103  115  119  121  113  128  117  128  115  103  117  121  124  130  137  135  131  132  129  132  130  135  151  145  128  138  139  148  145  166    5
ch:  10     117  124  113  119  117  125  124  123  130  130  133  123  133  117  128  137  134  148  130  148  148  145  151  151  145  154  157  154  148  169  169    7
ch:  11     107  107  107  107  123  105  128  119  123  122  125  129  119  121  130  124  134  135  133  137  138  136  136  138  139  151  137  148  154  148  157    0
ch:  12     117  115  107  124  122  124  119  117  129  122  136  135  122  137  145  130  145  154  148  138  137  148  134  154  151  154  157  157  157  157  163    8
ch:  13     117  115  124  113  130  117  131  119  125  122  117  117  136  107  123  121  125  128  145  128  136  145  148  131  136  135  145  136  154  151  154    0
ch:  14     113  119  122  113  117  123  120  124  123  125  134  131  133  130  132  135  148  134  151  145  136  151  135  154  145  154  151  151  166  157  157    8
ch:  15     103  117  107  117  122  119  121  124  115  124  123  130  131  121  132  124  137  136  128  128  132  137  136  132  148  145  154  166  148  169  145    3
ch:  16     105  117  117  128  115  121  132  121  125  132  119  124  136  135  136  139  145  138  145  151  145  145  148  145  145  151  138  157  157  151  163   11
ch:  17     121  115  101  115  107  129  115  126  121  122  137  124  134  128  130  138  138  148  131  138  128  128  139  128  145  138  151  154  154  148  163    0
ch:  18     105  119  121  115  122  131  123  121  133  119  124  145  135  122  128  119  129  148  138  131  145  148  145  151  151  148  157  154  151  163  166   10
ch:  19     117  115  107  117  113  125  130  117  117  117  121  122  136  121  129  137  145  128  133  139  145  139  135  145  148  148  145  151  154  145  154    0
ch:  20     117  103  119  120  131  123  125  124  133  133  128  133  133  133  132  145  128  151  133  137  151  157  145  148  157  157  145  151  151  166  163    5
ch:  21      99  115  113  128  117  122  115  117  128  123  128  119  130  122  130  123  136  129  137  133  139  148  148  128  137  135  138  148  163  163  157    6
ch:  22     105  121  121  115  115  124  123  117  126  126  135  122  126  136  128  132  135  136  128  148  148  151  151  154  154  154  157  151  154  157  151   14
ch:  23     105  115  119  123  115  113  121  130  117  122  119  136  128  134  124  123  129  125  145  145  148  145  121  154  137  138  148  135  151  157  157    0
ch:  24     109  122  120  117  126  113  121  124  129  137  135  129  128  135  132  132  135  137  148  145  128  148  151  154  157  166  151  154  163  163  163    7
ch:  25     117  117  117  113  119  119  113  115  117  113  123  129  119  123  122  132  128  122  138  145  133  148  133  137  148  145  157  151  154  139  154    0
ch:  26     121  123  121  115  119  117  122  120  128  130  129  119  122  130  135  145  133  137  133  135  145  138  137  151  138  163  151  157  151  172  157    9
ch:  27     103  121  117  113  124  117  128  107  122  117  129  131  119  135  122  132  119  133  130  129  136  128  136  148  148  138  154  145  154  163  154    0
ch:  28     115  122  117  123  119  117  117  113  134  117  122  129  145  138  135  131  148  151  148  128  134  128  138  151  145  154  163  163  133  166  169   15
ch:  29      99  119  105  122  134  131  119  119  117  121  121  129  123  130  128  133  133  137  129  134  128  138  148  137  137  134  151  154  148  151  154    0
ch:  30     121  123  117  121  117  119  122  135  128  122  133  119  134  134  132  134  148  145  154  129  145  139  148  151  157  154  157  163  151  128  157   21
ch:  31     105  107  113  113  117   99  107  117  119  119  128  130  123  125  121  129  133  131  138  128  148  133  133  132  145  137  154  145  151  148  151    2
ch:  32     122  117  119  124  125  122  117  117  123  128  129  130  134  134  134  130  148  137  145  128  133  145  145  151  157  163  128  154  163  157  169   20
ch:  33     107  115  105  115  107  117  115  124  117  136  128  115  122  124  129  136  131  125  128  130  132  131  145  148  136  145  148  148  163  157  157    1
ch:  34     119  107  107  117  107  115  132  131  126  134  124  136  122  123  124  145  145  136  148  151  148  151  145  145  157  154  166  154  148  160  163   11
ch:  35     105  117  107  105  117  113  119  125  119  125  123  130  123  124  128  130  128  123  134  128  124  134  137  148  137  151  148  148  151  157  151    1
ch:  36     117  105  117  123  124  122  117  132  119  128  122  134  134  148  132  133  132  145  151  136  148  151  148  157  148  157  154  151  154  160  157   22
ch:  37     103  122  107  115  119  121  119  115  124  115  128  122  145  124  128  136  122  134  145  136  138  138  133  145  154  151  151  137  151  157  157    1
ch:  38     103  113  103  124  122  113  119  117  122  124  131  121  135  133  148  135  137  132  132  137  151  151  145  148  154  128  138  154  154  163  163   19
ch:  39     113  122  115  115  119  121  124  113  121  120  125  124  129  128  124  135  136  129  129  139  134  133  151  137  133  148  148  135  148  154  148    0
ch:  40     119  115  115  115  122  115  122  129  129  129  131  131  133  130  135  130  151  138  145  148  148  145  151  148  154  154  148  151  163  163  163   20
ch:  41     103  113  107  103  124  121  113  119  121  132  124  125  136  124  128  137  133  121  138  130  137  145  133  148  148  145  145  154  163  148  148    0
ch:  42     121   99  128  124  122  119  121  129  124  130  119  131  132  145  128  145  151  138  151  133  133  151  148  139  139  148  148  154  166  157  163   17
ch:  43     115  113  105  103  119  124  117  117  124  119  119  123  130  119  132  128  132  138  121  131  128  128  148  145  151  122  145  148  157  151  148    4
ch:  44     121  113  115  113  128  128  133  122  124  130  117  123  125  134  131  128  148  148  148  135  148  157  157  157  154  148  151  169  166  163  166   14
ch:  45     115  103  103  113  117  113  128  119  121  121  123  115  128  121  132  134  136  137  137  136  130  134  134  134  148  151  137  137  138  154  138    0
ch:  46     123  119  115  121  115  117  119  117  121  129  122  134  130  136  131  128  145  126  151  131  148  135  148  148  154  154  154  154  157  163  157   15
ch:  47     115  107  119  107  120  121  113  117  115  119  107  123  129  113  135  131  145  125  128  123  132  148  130  139  145  148  151  151  151  148  151    4
ch:  48     115  103  119  123  122  117  129  121  129  134  124  138  138  128  133  134  148  145  137  136  128  148  148  151  151  151  154  151  154  157  166   19
ch:  49     103  115  113  117  107  117  123  117  125  119  134  125  130  132  121  139  132  132  137  133  134  138  123  145  138  138  145  148  154  151  157    2
ch:  50     117  107  115  121  123  123  120  145  131  124  123  136  124  133  131  137  138  133  124  132  145  154  145  157  148  148  151  154  163  163  157   17
ch:  51     121  113  107  107  105  113  119  113  113  121  123  117  123  133  130  128  133  135  137  131  138  137  145  145  154  128  148  148  145  148  154    1
ch:  52     117  105  119  113  124  113  130  128  121  122  130  131  148  135  145  148  131  137  148  138  154  145  151  163  151  163  166  157  163  163  169    8
ch:  53     115  119  123  115  105  105  119  113  122  121  129  123  121  133  124  121  129  124  130  134  145  145  145  148  145  135  151  145  154  151  154    0
ch:  54     105  105  107  121  130  124  124  125  130  132  125  137  128  134  136  130  129  137  138  138  145  145  145  148  148  151  157  145  154  166  163   23
ch:  55     113  105  105  119  117  123  117  113  122  119  117  117  133  128  129  120  133  132  145  128  130  130  145  135  134  145  138  145  154  154  148    4
ch:  56     113  117  117  121  119  130  121  122  122  129  121  134  148  132  132  137  148  145  138  128  148  137  154  145  154  151  151  154  163  169  166   17
ch:  57     119  113  119  119  103  102  115  121  123  119  123  120  119  119  129  123  119  130  130  136  145  136  128  145  148  145  151  157  148  145  154   10
ch:  58     105  113  113  117  119  117  121  121  130  128  132  123  130  133  130  131  125  145  145  126  128  134  151  148  154  151  163  163  154  166  163    8
ch:  59     107  107  119  124  117  113  119  122  119  121  129  123  123  131  124  134  131  131  123  136  136  133  148  145  128  136  148  145  151  148  157    0
ch:  60     115  109  103  119  119  130  119  117  119  123  135  123  145  121  136  136  148  137  139  139  148  151  148  136  148  151  154  157  163  157  163   11
ch:  61     103  121  105  115  115  123  121  117  120  115  132  128  131  138  124  129  131  133  131  137  124  148  123  151  148  154  128  148  151  157  145    4
ch:  62     119  113  117  113  122  122  119  129  132  122  135  117  135  129  128  132  128  128  145  128  135  145  157  148  148  166  157  163  163  154  163   10
ch:  63     119  115  119  107  117  115  113  117  113  115  109  128  135  124  123  122  145  130  135  138  145  135  136  148  137  135  148  145  145  151  154    5
ch:  64     113  130  119  107  125  115  122  129  119  131  121  130  138  129  132  138  145  128  133  136  148  154  148  148  148  148  151  148  163  163  154   17
ch:  65     103  105  119  121  131  124  105  119  119  128  119  130  121  119  130  128  145  132  128  128  133  133  135  138  132  154  145  145  148  148  154    2
ch:  66     115  113  115  121  119  117  115  125  128  124  119  124  129  133  129  131  138  137  139  154  145  148  151  166  151  157  154  157  166  169  157   21
ch:  67     117  122  122  121  103  121  107  113  124  115  117  123  136  120  134  128  128  134  134  134  138  137  135  134  151  154  134  151  148  151  163    3
ch:  68     117  113  117  115  113  117  129  123  121  129  120  128  128  133  132  137  132  128  145  128  136  137  151  157  145  145  154  157  154  151  163   10
ch:  69     113  103  117  115  117  121  135  117  122  129  131  130  136  117  132  124  135  129  138  133  136  138  138  134  154  148  134  148  157  148  154    0
ch:  70     113  115  129  113  126  122  117  121  119  135  123  123  128  135  139  128  138  138  137  139  145  148  128  148  154  154  151  151  157  166  166   13
ch:  71     107  123  113  124  115  121  117  119  133  123  124  131  117  130  128  128  136  130  136  135  138  131  145  145  136  134  136  148  145  148  157    0
ch:  72     113  119  122  103  129  121  123  130  119  133  121  123  129  115  131  133  145  131  138  136  148  128  148  148  154  148  145  154  163  151  166   20
ch:  73     119  117  113  103  107  121  107  115  119  123  121  128  121  122  124  131  132  121  135  145  132  136  128  131  128  148  148  151  148  157  163    8
ch:  74     113  117  115  125  121  113  121  117  123  126  129  130  131  125  134  135  145  128  145  134  145  163  131  151  151  148  154  163  154  166  154   12
ch:  75     117  105  105  113  115  107  119  119  119  128  129  113  130  130  119  119  132  133  120  135  151  134  145  129  148  145  128  148  148  154  157    3
ch:  76     109  115  113  115  117  119  121  115  124  123  129  134  139  145  137  135  135  136  148  138  145  151  128  145  157  145  148  163  154  160  151   23
ch:  77     113  120  119  113  102  103  119  115  123  121  121  128  123  125  123  133  137  132  132  129  137  131  148  138  137  151  151  148  145  151  151    0
ch:  78     107  122  119  115  117  121  125  132  124  124  131  133  133  131  135  122  133  134  138  145  148  151  145  157  136  151  148  166  157  157  154   14
ch:  79     103  128  113  113  124  117  123  117  105  117  131  121  121  128  117  128  124  123  130  145  145  138  136  145  138  145  154  138  148  151  151    9
ch:  80     121  103  113  121  113  123  122  128  134  130  130  135  121  130  135  148  130  137  128  137  151  148  169  145  151  148  148  151  154  166  163   16
ch:  81     105  119  121  113  119  119  113  119  121  119  132  122  121  134  128  132  128  137  129  128  130  145  133  128  151  148  154  154  154  154  157    4
ch:  82     105  117  113  124  117  119  117  120  115  134  115  134  121  138  138  148  145  130  137  151  128  148  137  154  151  145  148  157  166  172  169   19
ch:  83     121  115  119  113  117  121  107  122  113  121  122  125  124  131  128  121  129  138  138  137  148  145  124  134  139  154  148  154  157  148  154    7
ch:  84     119  115  107  115  121  121  123  128  123  130  131  134  130  136  131  135  133  135  128  128  145  154  145  136  154  151  137  154  157  157  166   11
ch:  85     105  103  122  113  117  125  123  121  113  129  121  122  124  130  119  119  130  145  133  145  130  134  148  128  145  138  148  145  151  157  157    5
ch:  86     119  107  113  120  132  123  132  121  117  130  123  137  138  119  131  133  151  137  128  145  138  148  145  151  163  151  148  163  157  163  128   17
ch:  87     107  117  113  124  120  123  130  128  121  119  129  117  134  121  119  115  133  135  138  129  134  131  128  145  148  151  148  128  137  145  157    0
ch:  88     115  123  119  115  115  115  117  123  123  134  132  136  129  121  134  151  145  151  137  138  145  145  138  148  154  154  154  169  163  169  172   17
ch:  89     129  119  107  119  123  113  129  121  121  115  117  119  130  117  125  123  121  131  148  131  139  145  145  130  128  139  145  151  148  157  151    1
ch:  90     113  119  113  113  123  117  121  128  122  122  133  125  135  136  131  135  136  132  145  148  128  151  151  145  157  154  157  151  157  163  172   17
ch:  91     117  117  113  119  113  119  128  117  117  119  121  124  129  121  122  137  129  123  124  132  145  138  132  145  136  148  151  163  148  157  166    0
ch:  92     119  107  117  122  134  120  117  122  123  130  113  132  145  136  135  145  128  135  145  138  145  130  148  157  157  136  166  154  163  163  151   17
ch:  93     117  115  107  123  121  115  115  115  119  130  107  119  119  129  134  131  124  133  125  124  132  137  136  134  133  145  128  154  151  154  151    4
ch:  94     117  117  113  121  113  117  131  131  132  133  124  134  119  125  129  130  135  132  128  151  148  151  135  154  154  148  163  163  163  163  169   13
ch:  95     119  105  115  115  124  117  117  121  119  117  121  117  119  131  121  131  130  131  134  129  135  134  145  151  145  154  128  154  145  151  163    3
ch:  96     119  113  119  119  119  117  130  122  130  125  129  135  130  137  128  131  145  130  128  134  145  151  148  154  145  151  154  163  128  154  154   24
ch:  97     117  113  103  115  115  117  124  119  122  121  124  117  124  107  132  120  121  125  132  129  136  133  148  130  137  157  151  145  145  154  151    0
ch:  98     101  115  115  119  131  123  122  121  122  130  117  133  133  136  123  128  132  145  151  151  145  148  151  154  148  151  151  151  154  154  154   20
ch:  99     113  113  117  113  117  119  126  121  115  123  135  121  130  123  115  136  135  135  132  131  133  136  137  135  137  136  145  154  157  154  154    5
ch: 100     115  119  123  113  117  119  119  129  121  123  122  133  132  138  145  130  131  133  148  135  137  139  145  148  145  154  157  151  157  169  157   21
ch: 101     107  115  119  115  123  113  125  115  121  121  128  119  119  117  129  131  130  123  130  125  131  148  145  134  145  151  138  148  145  163  148    0
ch: 102     105  119  124  117  113  119  113  105  122  121  134  129  134  121  145  125  132  137  138  145  151  145  151  148  157  154  154  145  163  154  154    8
ch: 103      93  103  113  113  115  119  113  115  117  123  135  119  122  124  124  135  119  128  137  135  126  137  145  138  139  133  148  136  151  148  154    4
ch: 104     113  117  115  113  122  125  121  128  124  125  130  136  135  128  126  128  132  148  145  151  151  145  151  154  154  148  163  163  160  163  166   21
ch: 105     107  115  107  115  123  128  115  119  124  105  122  121  135  124  124  132  137  138  145  130  133  137  145  124  145  145  148  148  151  154  148    7
ch: 106     105  105  117  103  117  117  115  121  135  123  130  131  119  130  123  137  137  133  151  154  148  138  151  157  151  145  151  163  166  154  172   11
ch: 107     115  117  115  105  107  115  115  115  121  117  115  135  129  123  120  123  130  125  129  136  145  145  129  148  138  128  148  137  151  163  154    0
ch: 108     119  115  121  121  117  123  123  123  119  123  132  134  131  136  128  128  138  131  145  148  157  128  138  154  154  128  154  148  154  163  157   17
ch: 109      90  113  115  115  122  123  115  120  135  124  122  119  124  122  125  131  131  137  133  121  132  137  128  132  154  135  145  130  145  151  148    4
ch: 110     105  107  122  119  128  119  130  119  123  128  121  135  145  136  148  145  134  133  145  128  137  134  151  148  151  151  128  145  163  157  157   19
ch: 111     113  119  107  119  122  115  121  119  129  122  121  121  132  133  128  136  119  129  131  132  134  145  148  148  139  131  139  137  128  148  151    0
ch: 112     121  115  113  117  119  121  125  122  121  130  137  133  145  131  131  139  128  125  131  136  138  151  137  157  157  148  157  151  154  151  148   14
ch: 113     123  113  119  115  115  119  122  122  113  119  117  130  137  137  119  131  129  131  151  121  128  135  133  137  135  138  151  151  148  166  166    0
ch: 114     113  125  121  119  122  121  133  122  122  117  128  145  135  131  128  125  134  133  145  134  148  151  151  151  154  157  151  154  148  154  163   22
ch: 115     117  121  107  113  117  121  125  117  130  115  113  136  119  122  137  121  125  128  135  136  129  128  128  138  138  128  148  154  148  138  163    0
ch: 116     107  117  107  119  124  121  115  125  119  130  131  123  134  129  145  137  135  128  137  139  151  148  148  151  154  154  163  163  163  163  154   10
ch: 117     101  117  117  119  119  119  119  115  122  125  121  113  121  122  117  128  129  130  122  135  138  132  132  145  145  145  151  145  151  151  128    0
ch: 118     115  115  119  121  120  117  123  135  121  129  131  131  129  132  131  137  134  128  145  145  148  130  154  148  148  154  151  166  151  163  154   10
ch: 119     121  113  119  105  121  117  119  117  123  132  123  119  129  117  136  136  128  130  137  134  131  128  134  138  137  148  137  154  138  145  151    0
ch: 120     107  129  122  113  123  132  117  121  123  117  122  133  128  129  130  145  148  131  131  145  151  139  148  154  148  151  148  151  154  157  166   22
ch: 121     115  119  121  122  117  131  115  119  119  122  120  121  121  133  122  133  131  136  137  132  134  128  133  136  137  145  145  148  148  154  154    0
ch: 122     117  115  123  105  129  121  125  121  128  117  135  136  148  132  137  145  148  145  135  148  151  145  145  154  138  157  151  154  154  148  157   17
ch: 123     113  117  117  103  120  119  121  113  117  119  115  124  129  129  132  128  138  135  133  129  135  133  128  138  163  135  151  157  154  148  157    0
ch: 124     124  123  121  123  107  120  121  121  128  122  128  130  130  119  123  128  130  148  154  148  148  154  151  145  151  154  157  151  157  166  163   24
ch: 125     115  121  113  123  115  124  115  119  119  129  123  119  128  130  122  145  131  126  135  137  138  128  128  138  128  154  145  151  148  148  151    0
ch: 126     113  122  117  105  115  131  123  121  124  119  134  128  148  137  145  145  145  136  148  128  151  151  154  148  157  151  157  154  151  163  163    9
ch: 127     117  115  122  105  117  121  119  107  105  122  129  128  123  133  131  130  125  131  138  135  145  145  136  138  148  137  135  154  148  151  145    2
