# TRIM CALIBRATION    FEB6_1_1    pulse_ampl_min=40    pulse_ampl_max=200    pulse_ampl_fast=40
#
ch:   0     119  115  107  119  113  138  130  119  124  133  134  129  145  133  122  145  137  148  148  133  145  145  148  154  148  166  163  166  157  157  166   16
ch:   1     117  103  117  115  131  121  113  122  122  128  117  119  130  132  128  135  132  128  145  148  145  145  133  157  139  139  154  154  154  154  166    1
ch:   2     117  113  123  131  119  128  128  129  121  130  129  135  136  132  138  148  133  145  136  148  148  138  151  154  151  163  163  157  157  148  169   11
ch:   3     107  123  121  119  113  130  130  123  121  124  124  135  123  133  124  129  129  135  148  145  134  138  136  148  138  163  145  163  151  166  157    6
ch:   4      99  132  119  119  124  122  119  115  122  124  136  135  136  131  138  145  154  151  139  151  136  148  138  154  157  128  151  151  154  172  166   14
ch:   5     117  117  121  115  115  117  117  120  129  121  122  136  132  133  137  133  148  130  133  131  128  137  151  139  148  142  148  154  151  151  163    6
ch:   6     113  109  107  117  121  121  117  121  121  119  124  134  133  128  122  137  145  136  151  148  151  128  166  157  163  154  169  157  166  166  163   13
ch:   7     113  117  124  107  121  121  120  119  121  117  134  119  124  133  128  130  124  136  145  148  136  148  138  154  151  151  151  148  148  166  163    0
ch:   8     105  121  122  119  115  115  123  121  122  131  129  134  135  128  128  129  142  148  145  135  145  139  151  166  154  145  163  157  163  163  169   17
ch:   9     121  123  122  133  121  121  121  119  121  128  133  128  123  145  131  123  128  137  136  131  145  132  151  148  145  148  151  157  148  154  148    0
ch:  10     113  119  113  121  119  128  135  130  117  129  133  132  145  134  145  148  148  145  134  138  145  151  151  151  148  166  166  163  163  169  163   17
ch:  11     119  122  128  119  113  121  121  107  122  125  122  131  145  128  145  129  133  128  139  145  132  142  148  137  148  154  154  154  145  163  148    6
ch:  12     119  119  121  117  124  128  132  132  124  119  119  125  139  125  129  128  145  145  145  145  139  139  145  151  154  154  151  154  148  163  169   17
ch:  13     121  113  121  107  123  109  115  124  121  117  135  130  122  139  134  133  131  133  138  145  134  139  145  151  151  148  154  145  145  157  157    5
ch:  14     115  119  117  117  121  129  107  128  133  121  145  136  129  136  121  145  135  145  145  124  148  139  148  154  154  157  148  154  163  148  172   19
ch:  15     107  113  115  115  117  117  133  119  122  117  135  122  125  117  134  137  137  128  138  134  154  139  145  151  145  139  163  163  154  163  166    2
ch:  16     107  119  117  115  124  124  119  123  122  136  124  134  132  129  148  142  145  130  133  148  137  139  151  151  163  157  148  157  166  151  166   27
ch:  17     117  107  119  113  121  124  113  122  113  128  119  123  133  130  128  133  133  138  133  136  134  139  151  151  145  145  151  151  151  163  154    2
ch:  18     107  121  115  113  119  130  122  122  130  123  119  132  139  135  133  137  142  148  145  145  128  148  154  157  151  148  154  151  151  163  169   17
ch:  19     115  117  113  124  113  113  122  113  130  129  117  115  128  123  134  136  145  136  148  135  136  145  138  148  145  154  157  154  163  154  148    0
ch:  20     113  117  119  121  121  122  117  121  128  123  124  134  145  138  132  145  145  151  154  133  148  154  154  154  154  151  166  166  166  157  172   15
ch:  21     113  115  113  119  117  121  121  113  119  131  117  122  115  119  131  136  124  130  133  134  137  145  135  137  136  145  151  154  148  151  157    7
ch:  22     121  121  119  130  113  130  124  119  123  135  119  145  121  135  136  133  130  136  154  131  145  135  151  154  154  154  154  157  166  166  157   19
ch:  23     101  115  113  113  113  107  113  122  121  122  130  124  133  124  133  128  130  135  145  133  131  137  145  151  139  148  139  145  151  148  154    6
ch:  24     119  117  121  115  121  128  130  130  123  120  130  138  135  134  135  134  128  148  145  139  145  148  154  163  148  163  154  154  166  163  166   12
ch:  25     113  113  105  117  103  119  122  117  113  113  131  121  123  120  138  133  130  122  137  131  145  145  151  148  138  145  148  154  145  151  163    3
ch:  26     115  123  119  113  117  121  128  117  119  128  124  136  134  124  138  145  154  142  139  148  145  145  148  151  163  157  154  163  166  163  163   20
ch:  27     113  115  117  124  117  122  121  117  115  119  113  131  121  135  130  136  133  136  145  137  131  133  139  145  145  145  151  154  151  145  157    3
ch:  28     103  107  113  122  115  117  130  122  123  137  134  142  133  148  145  128  145  145  128  139  135  151  151  151  148  151  166  151  148  163  157   23
ch:  29     117  115  117  121  115  123  124  109  128  121  128  115  136  132  130  131  134  136  148  132  132  148  148  142  145  142  151  145  148  151  154    9
ch:  30     113  113  113  131  120  128  122  117  129  121  129  128  136  119  122  137  148  137  139  132  145  139  157  148  145  148  157  154  151  172  151   21
ch:  31     119  107  123  117  119  115  119  109  121  131  129  121  129  122  124  124  128  131  131  142  132  131  139  157  139  148  154  151  145  145  151    2
ch:  32     119  119  121  121  128  117  129  131  107  129  133  139  136  139  136  145  128  154  136  151  151  133  148  154  148  151  148  163  154  154  166   20
ch:  33     122  107  107  115  128  131  121  123  131  119  128  121  124  135  128  134  124  138  130  135  151  151  139  128  134  138  142  154  151  151  157    3
ch:  34     117  107  128  124  122  119  117  125  121  124  132  119  128  130  134  128  136  134  148  139  139  148  151  148  157  151  151  166  151  166  163   20
ch:  35     113  107  113  117  115  117  119  115  121  121  122  117  132  122  115  131  133  124  128  134  136  134  138  151  151  154  148  154  151  151  151    7
ch:  36     115  128  121  117  121  119  122  124  131  137  129  137  132  137  134  136  137  134  157  137  139  145  154  154  157  148  166  154  157  163  169   21
ch:  37     115  117  115  119  122  128  103  130  123  128  130  122  121  124  148  128  137  133  142  148  148  139  145  136  148  142  148  145  139  154  157    9
ch:  38     117  117  115  115  129  133  133  129  117  121  145  128  135  137  132  131  139  134  139  148  145  154  154  148  154  166  151  163  163  166  169   24
ch:  39     115  123  115  121  119  119  129  130  117  131  137  137  125  131  134  123  137  135  135  128  139  128  132  137  145  148  139  148  154  163  154   15
ch:  40     115  103  122  113  117  128  117  107  137  130  122  131  130  132  145  138  131  148  154  154  151  157  154  148  151  163  154  154  166  163  163   20
ch:  41     113  121  115  107  121  115  130  123  119  129  121  122  132  132  121  135  135  142  122  131  131  139  157  142  148  138  148  148  151  157  151    1
ch:  42     119  124  121  117  119  117  128  115  109  129  123  136  125  128  125  151  148  129  148  138  138  145  154  145  145  154  151  157  157  157  157   18
ch:  43     113  103  121  117  113  109  121  120  113  122  113  131  129  129  132  122  129  124  130  137  136  148  148  157  142  145  148  151  148  154  148    7
ch:  44     105  129  119  115  117  119  121  128  132  131  130  133  128  130  136  131  137  135  136  148  151  157  151  148  151  154  154  157  169  169  163   11
ch:  45     105  115  121  113  115  115  124  117  113  123  115  133  119  139  130  122  129  139  136  134  135  139  145  145  137  128  163  154  157  154  157    8
ch:  46     113  121  122  119  123  119  105  133  123  115  131  131  133  135  137  128  145  131  132  151  142  148  137  154  151  157  154  148  163  169  157   23
ch:  47     105  113  117  105  115  119  115  122  117  109  133  129  131  124  124  125  129  136  138  145  128  136  139  139  128  145  148  154  151  157  139    2
ch:  48     105  121  117  119  133  124  133  136  123  132  115  137  121  132  122  133  142  132  128  145  151  154  148  151  157  157  151  157  151  157  157   28
ch:  49     115  115  113  128  107  119  113  117  119  129  117  128  132  123  113  134  128  132  137  145  145  135  133  128  148  157  148  145  145  154  154   11
ch:  50     119  117  121  123  131  128  119  134  129  121  119  137  145  134  134  145  128  145  139  128  136  145  139  154  151  154  163  151  169  151  128   20
ch:  51     115  119  113  117  115  121  105  117  113  123  119  128  122  121  131  123  119  130  137  137  136  145  138  148  133  145  139  137  142  145  148    5
ch:  52     117  117  122  123  124  124  117  133  123  130  129  119  122  121  131  134  145  139  145  151  145  145  151  145  151  148  154  154  151  163  154   17
ch:  53     101  113  113  113  123  128  115  119  119  119  129  125  135  130  115  135  131  119  133  142  145  135  138  136  145  145  145  151  145  154  148   12
ch:  54     115  113  117  121  128  128  121  125  133  131  134  137  134  139  138  135  134  145  128  128  151  139  163  145  163  151  166  163  163  169  157   26
ch:  55     105  117  101  115  120  117  109  113  119  117  121  123  122  124  134  129  132  133  119  131  145  145  128  145  138  151  151  154  154  154  157    8
ch:  56     115  124  128  121  115  125  129  120  117  133  133  129  135  128  132  139  145  136  145  136  145  139  148  148  154  154  148  151  154  154  166   20
ch:  57     117  113  117  115  119  115  109  115  121  123  132  123  132  122  130  131  135  134  134  135  135  137  148  151  145  145  151  145  145  157  157    6
ch:  58     107  113  121  113  117  122  130  117  134  133  135  135  130  133  145  130  135  148  151  148  154  148  151  148  148  154  151  163  157  157  157   20
ch:  59     105  113  119  117  119  121  115  122  119  121  119  128  122  129  109  145  124  133  132  130  137  128  142  128  145  148  154  151  145  157  151    9
ch:  60     115  113  123  133  121  117  121  132  122  131  124  133  133  124  137  136  145  151  136  136  145  148  142  154  151  154  151  151  157  166  172   25
ch:  61      99  109  101  117  121  119  113  117  115  121  122  121  130  123  130  123  130  135  130  134  145  145  128  151  139  148  145  145  154  157  157   13
ch:  62     105  115  113  107  119  121  121  123  128  133  135  117  128  136  136  136  138  148  142  148  139  148  148  154  148  154  157  157  163  163  169   17
ch:  63     119  113  107  119  117  117  121  123  121  134  119  122  123  129  128  128  128  134  129  139  136  145  145  133  145  145  134  148  154  166  151    5
ch:  64     123  107  115  119  133  113  128  123  130  124  136  133  132  135  137  132  130  148  139  145  145  154  148  154  163  163  163  157  154  166  157    0
ch:  65     117  115  113  122  117  115  122  109  109  117  122  124  124  107  122  130  128  132  119  139  133  131  145  148  145  148  151  148  151  145  148    4
ch:  66     105  117  121  128  121  121  121  122  135  136  132  137  131  131  134  138  138  145  148  138  148  154  163  148  157  148  154  148  163  128  163   15
ch:  67     121   99  122  123  129  119  119  131  117  132  122  137  124  124  133  137  137  129  137  139  134  136  148  145  145  128  154  151  157  151  166    8
ch:  68     117  119  119  117  117  133  121  121  124  122  128  123  139  134  128  139  145  148  137  142  145  148  142  154  145  151  166  145  154  166  157   22
ch:  69     103  121  117  117  105  131  129  124  121  123  121  129  121  132  128  138  123  145  137  132  128  151  154  135  151  148  148  166  154  163  157   11
ch:  70     121  130  113  121  113  124  123  129  107  134  129  133  134  137  130  128  133  136  136  145  151  145  151  151  157  128  151  154  163  157  154   26
ch:  71      99  115  121  103  123  117  113  117  117  119  123  128  130  133  130  124  131  128  139  148  138  133  139  132  128  128  145  145  154  157  151    5
ch:  72     117  113  113  119  124  123  117  129  123  133  129  134  128  137  138  137  148  148  134  148  139  145  148  142  154  148  148  166  148  172  157   20
ch:  73     107  103  117  121  119  130  117  105  121  117  132  133  129  134  132  138  136  128  133  124  137  138  145  128  151  163  151  151  154  157  148    3
ch:  74     113  113  128  113  119  117  130  135  129  129  128  132  134  135  139  145  128  148  145  142  148  157  154  151  145  151  154  151  172  169  163   15
ch:  75     115  105  107  121  109  121  105  119  122  129  131  135  122  121  135  135  130  133  138  145  148  145  136  145  154  128  148  145  163  163  166    5
ch:  76     117  121  113  125  121  130  130  122  119  132  123  138  133  133  129  133  132  151  154  145  138  151  154  148  151  148  157  151  166  151  157   28
ch:  77     117  105  115  119  119  122  119  121  119  115  122  113  123  129  132  136  131  137  132  136  132  137  130  138  151  145  157  154  157  151  154    6
ch:  78     105  113  123  117  117  115  115  128  132  131  133  138  142  136  130  135  145  148  145  148  154  142  148  163  154  148  148  148  157  163  163   23
ch:  79     107  113  117  107  124  123  119  119  119  124  124  123  138  131  128  134  132  133  131  135  137  135  145  137  148  145  151  163  148  163  151    3
ch:  80     128  122  115  123  129  122  121  119  131  135  132  135  136  132  122  128  148  148  134  138  163  145  138  148  154  154  169  157  154  169  166   24
ch:  81     117  117  115  113  121  117  121  120  130  129  119  128  130  136  129  130  133  132  132  131  138  128  139  142  145  137  145  148  151  154  163    6
ch:  82     115  122  117  115  121  105  109  124  124  123  134  135  131  135  137  148  139  139  133  145  145  151  163  145  145  163  169  154  163  151  157   14
ch:  83     115  115  107  117  122  123  117  117  124  121  128  122  130  117  129  138  134  135  123  135  139  136  148  136  139  148  154  148  148  154  157    1
ch:  84     117  122  122  107  124  119  113  117  119  129  128  131  137  134  135  136  139  138  128  145  151  148  145  148  154  151  154  157  166  172  166   12
ch:  85     117  113  105  117  117  123  117  122  128  122  122  128  130  131  124  124  129  135  133  133  128  139  136  137  137  139  134  151  139  154  151    4
ch:  86     121  105  123  121  121  120  119  122  122  131  119  133  133  124  139  133  139  136  151  148  145  145  148  154  148  151  154  169  154  163  169   17
ch:  87     119  107  129  129  117  117  119  117  123  130  117  121  123  121  130  132  117  128  136  139  133  133  137  138  128  148  145  154  154  157  154    6
ch:  88     119  115  117  121  131  122  123  128  129  132  128  124  133  133  148  128  148  157  137  151  154  154  148  151  154  151  163  157  157  163  157   24
ch:  89     117  105  103  117  121  120  123  128  107  128  109  133  130  128  117  128  131  135  136  142  128  138  128  139  145  148  148  128  154  151  148   13
ch:  90     117  115  123  119  122  121  133  121  138  124  129  136  133  135  128  137  148  134  124  154  138  145  145  151  157  157  157  154  151  172  169   17
ch:  91     103  115  115  122  123  123  123  121  131  123  123  122  122  121  123  130  139  138  131  135  135  137  134  154  148  148  151  145  145  151  151    8
ch:  92     121  109  119  109  117  121  117  124  131  123  130  129  124  133  145  136  131  130  145  142  145  145  151  154  151  151  151  163  166  166  154   30
ch:  93     107  117  119  113  117  121  121  119  117  113  122  124  119  130  122  133  129  128  131  148  145  136  136  135  148  145  151  151  157  148  163    6
ch:  94     115  117  115  129  115  122  121  124  117  132  117  130  123  133  133  129  138  145  148  145  154  157  148  151  145  148  151  157  163  157  163   28
ch:  95     113  109  113  107  103  123  124  121  121  125  122  124  122  135  125  145  128  122  130  128  131  142  128  145  157  145  142  148  151  148  148   13
ch:  96     121  115  113  115  129  121  117  123  128  124  130  124  138  136  132  145  137  138  151  154  145  145  142  151  157  151  151  154  160  163  163   34
ch:  97     119  103  107  119  115  121  121  109  123  119  130  137  132  134  122  138  137  125  129  128  135  129  145  148  137  151  148  154  128  163  154    3
ch:  98     117  115  117  115  115  131  117  131  124  136  133  131  145  131  135  145  145  134  148  135  139  148  154  136  148  163  148  157  169  163  163   28
ch:  99     103  113  115  115  119  117  115  121  123  121  129  122  129  131  122  138  134  135  135  122  131  145  151  148  148  148  151  136  151  151  154    5
ch: 100     105  121  119  113  121  121  130  132  123  135  121  122  137  133  137  131  145  151  145  151  157  154  148  157  166  166  166  157  157  160  169   17
ch: 101     107  113  117  130  121  121  117  121  121  122  117  128  121  121  134  129  134  131  145  136  136  145  138  134  142  142  145  151  157  151  148   13
ch: 102     130  121  113  115  117  128  117  105  117  137  134  119  132  134  148  123  148  136  151  137  148  148  151  151  154  151  157  148  166  166  157   24
ch: 103     113  107  113  117  119  119  117  121  115  130  117  123  130  121  132  130  129  130  123  133  145  136  137  151  145  136  148  154  148  151  145    5
ch: 104     119  117  117  128  133  115  134  117  130  130  130  137  124  145  136  138  136  139  148  151  154  148  145  154  154  154  163  151  166  154  157   19
ch: 105     115  119  119  117  107  119  113  117  120  124  121  121  124  122  122  130  133  139  142  145  131  137  151  145  145  148  148  148  163  157  163    8
ch: 106     117  128  119  121  117  120  119  129  129  123  129  134  129  131  136  136  135  154  136  154  154  148  145  166  151  148  157  157  157  163  154   23
ch: 107     107   93  105  117  119  119  115  122  107  134  128  119  123  131  134  132  124  135  119  136  128  148  148  137  148  136  145  148  154  154  151   10
ch: 108     109  121  105  113  121  128  121  124  107  121  133  136  138  145  134  137  135  145  145  151  151  151  139  157  151  151  151  163  154  157  166   18
ch: 109     113   99  124  119  115  121  115  122  121  129  121  128  123  124  128  133  123  128  129  130  128  136  145  145  151  137  148  148  148  166  166    0
ch: 110     105  109  132  109  128  122  117  132  123  128  122  148  136  119  125  139  142  137  148  148  154  138  139  128  148  160  157  154  154  166  154   15
ch: 111     105  105  105  115  113  121  120  122  124  125  119  119  122  115  121  122  133  134  145  137  139  137  136  135  148  145  154  151  145  154  154    5
ch: 112     115  113  115  117  121  128  124  125  120  130  135  128  135  131  148  137  145  131  145  151  128  151  151  151  151  166  148  157  163  166  157   19
ch: 113     109  113  123  117  107  113  117  119  134  133  131  133  123  123  133  132  125  137  123  128  138  137  137  145  145  151  151  142  154  148  154    0
ch: 114     117  119  117  107  123  117  113  113  124  121  145  136  133  135  136  136  130  132  148  151  136  145  154  148  157  148  154  157  166  157  166   12
ch: 115     119  115  115  103  137  113  122  113  129  121  119  125  122  134  123  145  132  121  145  131  133  151  148  128  135  139  148  154  151  154  148    9
ch: 116     107  113  115  119  117  121  129  115  132  139  136  119  145  133  145  137  130  145  131  142  154  148  148  154  151  166  157  154  154  172  160   17
ch: 117     107  123  115  113  105  107  124  129  121  115  125  122  124  135  130  124  132  148  131  139  151  133  128  145  154  142  135  154  139  151  154    3
ch: 118     113  117  115  128  123  115  119  119  133  119  120  129  135  130  133  134  145  148  136  131  138  128  128  151  151  154  151  154  163  166  163   15
ch: 119     105  115  121  107  117  131  131  128  119  122  119  145  132  121  123  129  133  138  136  132  124  138  145  145  151  145  139  154  154  154  157    4
ch: 120     117  115  117  121  117  117  124  124  128  128  142  117  123  139  130  145  131  145  137  148  131  148  138  148  148  154  151  148  154  151  166   17
ch: 121     103  117  115  117  117  123  115  113  113  124  119  142  136  123  131  129  133  132  148  137  133  142  145  148  139  151  151  148  148  169  151    1
ch: 122     128  105  121  124  129  123  123  120  121  119  119  138  138  136  148  145  135  139  148  148  131  151  145  151  154  163  151  145  163  151  154   14
ch: 123     121  101  115  122  120  121  113  134  107  128  122  132  123  128  119  135  145  137  137  130  138  131  148  134  139  148  137  148  154  148  148    5
ch: 124     117  119  121  113  117  121  134  134  131  133  131  145  142  130  139  142  134  135  142  154  139  148  151  163  154  154  157  157  166  160  154   37
ch: 125     117  117  121  122  119  117  113  122  115  123  132  119  121  122  135  130  133  123  148  129  130  139  128  151  145  148  128  163  154  148  166    3
ch: 126     117  121  120  117  117  123  128  121  119  134  135  129  136  134  148  142  128  138  139  138  148  145  154  151  145  151  157  163  151  148  157   15
ch: 127     121  121  119  120  115  115  115  117  122  121  124  124  136  130  132  128  136  135  128  145  154  151  145  151  157  145  145  151  148  172  154    3
