# TRIM CALIBRATION    FEB6_3_3    pulse_ampl_min=40    pulse_ampl_max=200    pulse_ampl_fast=40
#
ch:   0     121  120  117  122  128  145  134  121  134  129  138  145  151  145  151  148  139  148  148  157  157  154  154  154  151  157  163  169  169  128  128   25
ch:   1     113  121  134  124  123  124  124  121  124  137  132  123  130  145  136  148  145  142  151  138  132  151  154  163  157  166  163  157  169  166  128    7
ch:   2     121  119  117  123  131  122  113  119  134  138  136  148  145  145  134  145  145  154  154  157  148  166  166  166  163  151  163  166  163  172  128   29
ch:   3     119  130  123  120  128  136  136  120  128  128  129  134  133  137  133  131  145  148  145  148  151  128  151  163  148  163  148  169  148  166  166    8
ch:   4     117  123  121  121  132  132  134  128  145  128  145  148  151  137  139  151  151  148  151  154  151  163  163  157  154  169  166  166  166  128  169   31
ch:   5     115  119  122  117  133  119  121  117  122  129  129  135  135  139  148  148  154  136  145  148  157  145  148  151  154  139  163  157  154  163  166   10
ch:   6     119  119  122  130  120  137  131  130  133  122  136  145  134  133  151  151  154  151  137  137  154  163  154  166  166  166  157  172  163  166  163   23
ch:   7     115  119  133  133  123  133  134  128  124  135  121  132  135  138  139  148  145  128  137  145  148  154  154  166  151  163  163  163  169  163  163   10
ch:   8     121  115  121  135  121  133  119  134  145  137  130  133  145  151  148  151  154  157  166  151  154  163  163  169  166  169  163  172  128  169  169   19
ch:   9     120  115  122  122  115  122  133  119  121  122  135  139  129  132  145  136  137  145  145  148  136  148  139  128  154  154  157  157  154  166  172    5
ch:  10     115  130  132  115  128  119  131  128  128  131  132  148  133  145  148  138  148  136  151  148  163  163  154  163  163  163  166  166  157  166  128   15
ch:  11     121  121  107  113  123  128  132  119  123  134  119  130  122  135  148  148  129  139  137  136  154  148  139  157  154  154  151  163  163  163  157    5
ch:  12     121  131  119  121  128  131  121  132  136  138  131  154  138  145  145  135  145  148  148  163  145  157  166  148  166  172  166  163  169  163  169   19
ch:  13     131  119  115  115  133  137  117  133  132  132  145  145  137  128  128  148  138  145  151  145  145  151  166  151  157  157  154  163  157  163  169    9
ch:  14     117  138  123  130  135  129  122  128  122  133  145  134  136  129  151  151  154  128  137  148  148  163  166  157  163  163  154  128  166  172  169   28
ch:  15     121  117  131  132  131  122  132  121  131  133  137  128  130  133  145  148  148  151  145  136  154  163  154  154  154  154  148  154  163  166  172    8
ch:  16     129  113  130  123  117  131  121  136  122  145  137  131  136  148  136  145  145  145  157  154  157  163  154  154  157  166  163  166  157  166  169   23
ch:  17     113  119  121  145  115  133  117  132  121  130  132  129  151  131  139  138  145  151  151  148  138  148  151  157  157  139  154  128  154  166  163   15
ch:  18     129  115  121  129  136  119  138  130  121  132  139  128  138  148  139  148  151  137  148  157  148  136  157  154  172  172  157  163  166  154  128   26
ch:  19     115  119  121  121  122  128  125  109  123  135  145  124  134  138  137  138  148  145  148  145  154  163  151  157  163  157  151  166  166  172  172    8
ch:  20     117  124  130  120  133  128  131  131  138  128  148  145  135  145  134  145  151  148  148  154  151  148  163  154  163  163  166  172  128  169  128   25
ch:  21     129  121  107  113  122  135  120  132  135  133  124  132  145  134  137  134  151  138  139  133  145  151  148  151  166  157  154  154  169  163  128   10
ch:  22     123  113  121  119  133  131  130  133  135  132  134  132  145  151  134  151  148  139  145  166  151  151  163  163  163  128  163  166  172  154  166   24
ch:  23     119  119  121  132  136  125  123  119  128  135  136  138  148  135  137  148  145  145  145  148  148  148  151  154  157  148  148  128  163  166  169   11
ch:  24     121  130  122  129  130  128  119  130  132  133  137  133  136  154  145  148  145  148  154  163  137  145  154  166  145  163  169  166  169  163  163   18
ch:  25     117  121  119  135  113  120  129  122  133  124  132  135  145  137  145  131  148  136  139  133  137  134  148  148  154  157  148  157  163  154  166   10
ch:  26     107  119  123  134  123  132  128  131  128  138  133  145  135  148  145  151  151  151  145  154  128  154  163  166  169  163  163  169  128  172  128   25
ch:  27     115  113  119  128  129  130  122  128  128  131  134  119  138  131  130  131  145  145  138  135  151  148  148  139  154  157  169  166  163  166  169   10
ch:  28     115  113  123  129  135  123  125  131  130  132  133  131  148  148  151  138  138  145  154  148  157  154  154  163  154  163  157  154  160  163  172   21
ch:  29     115  128  128  119  122  129  119  117  121  132  132  135  128  128  136  135  132  138  145  148  148  148  145  148  148  163  154  163  163  157  157    3
ch:  30     113  121  122  138  119  137  135  138  136  148  131  145  157  157  151  151  151  145  154  151  154  163  148  166  154  160  154  157  166  169  163   18
ch:  31     128  117  115  119  132  124  124  121  117  134  123  130  136  128  145  145  128  151  151  139  154  148  157  151  157  166  163  163  157  157  169   13
ch:  32     120  121  121  121  128  136  122  136  137  133  138  145  148  148  145  163  132  157  154  154  157  163  157  157  172  166  154  169  172  169  172   24
ch:  33     109  131  121  120  117  132  123  121  137  136  135  145  128  132  130  148  145  148  145  148  145  154  154  154  154  151  157  154  169  163  166   14
ch:  34     124  117  123  134  115  130  132  131  131  122  132  151  148  128  145  148  151  148  145  154  163  154  151  157  148  172  163  166  154  128  128   20
ch:  35     115  134  119  121  131  128  131  128  135  138  131  134  148  145  132  139  139  145  151  151  151  151  154  145  163  154  163  148  169  163  166   13
ch:  36     115  123  133  121  123  132  138  131  136  134  134  128  138  145  137  128  151  154  154  145  157  163  166  157  169  148  166  166  128  128  172   23
ch:  37     115  115  121  115  107  129  130  129  131  124  120  134  134  131  145  134  133  148  154  145  130  148  163  151  163  148  154  154  163  157  172    1
ch:  38     121  121  107  119  128  122  121  138  145  145  134  130  134  148  148  145  148  148  151  148  148  151  154  151  157  157  151  154  172  172  128   15
ch:  39     119  113  117  119  128  124  119  121  129  133  128  128  131  130  139  145  138  128  145  134  154  138  157  145  151  163  157  157  166  163  154   11
ch:  40     107  128  132  133  129  134  134  128  119  128  136  123  139  148  145  139  148  145  151  154  157  163  151  154  157  169  163  169  169  172  172   26
ch:  41     122  107  129  124  117  119  128  123  121  133  133  137  138  134  139  145  145  145  145  148  151  145  148  157  151  151  166  157  157  163  166   11
ch:  42     115  120  121  124  121  128  130  137  133  132  137  148  138  148  134  145  145  148  154  157  154  154  154  154  157  166  169  166  166  166  166   15
ch:  43     119  117  117  115  122  130  123  131  122  129  138  133  134  138  138  138  137  138  136  139  151  151  157  163  157  148  154  169  157  169  151    4
ch:  44     119  121  122  128  128  129  121  139  131  139  133  132  145  138  133  145  145  145  151  128  151  157  166  166  169  163  169  169  128  172  128   35
ch:  45     119  119  123  113  135  122  117  128  138  132  132  129  145  130  148  132  145  145  136  138  148  148  145  157  154  157  151  169  163  151  172    9
ch:  46     122  124  128  113  129  136  131  145  129  132  132  145  128  145  130  151  151  145  163  154  148  157  163  163  128  160  172  172  166  172  154   21
ch:  47     115  128  115  107  124  120  136  131  119  134  138  138  136  130  133  139  137  145  148  145  148  157  145  148  145  163  154  157  154  169  166   11
ch:  48     120  121  121  122  134  123  134  122  145  136  137  133  145  148  148  137  145  151  151  154  157  128  163  163  166  169  157  169  172  163  172   36
ch:  49     123  128  115  113  121  119  121  134  121  123  136  132  122  123  139  137  128  151  148  145  154  148  151  148  154  169  151  151  151  169  166   10
ch:  50     122  109  129  134  122  119  124  133  133  139  133  128  139  138  145  130  148  148  148  151  154  151  151  160  157  157  157  128  172  169  166   19
ch:  51     109  122  124  122  132  121  131  122  124  133  129  145  138  133  135  128  136  151  145  138  145  151  151  154  157  154  157  154  163  166  169   15
ch:  52     119  130  129  134  130  135  131  137  148  128  130  145  145  133  151  148  148  148  145  154  166  148  154  157  163  163  166  169  172  169  172   26
ch:  53     122  119  103  133  113  133  129  131  124  122  132  128  121  132  133  145  148  145  145  137  139  148  148  154  148  163  163  166  172  163  154   14
ch:  54     122  117  124  117  122  122  136  121  130  113  151  135  138  151  138  157  154  151  151  151  157  151  154  166  157  163  172  169  169  169  172   31
ch:  55     117  117  119  120  119  123  130  128  120  145  138  135  154  130  136  136  145  139  138  148  163  148  154  148  148  163  157  166  157  166  154   17
ch:  56     121  122  113  121  122  121  128  119  136  134  138  137  135  148  137  139  154  151  148  145  154  163  163  163  151  166  163  172  128  128  169   30
ch:  57     123  113  124  120  130  134  117  124  121  131  123  128  133  135  128  137  130  145  148  148  151  145  154  157  154  154  151  151  157  157  163   11
ch:  58     119  122  128  133  134  138  119  130  123  133  133  136  145  137  133  151  148  138  151  151  145  166  157  166  163  169  169  166  128  169  166   38
ch:  59     119  120  124  115  122  122  122  123  131  136  121  130  134  138  136  145  136  151  145  148  163  132  138  151  157  148  157  154  151  166  154   23
ch:  60     120  121  107  124  119  124  117  119  138  139  145  136  148  136  128  154  128  151  128  166  148  154  157  166  163  157  128  166  172  128  166   27
ch:  61     113  119  122  128  117  119  119  123  124  121  135  130  136  119  136  139  151  135  145  148  148  131  151  137  154  154  163  157  172  166  169   17
ch:  62     117  128  117  128  131  122  135  145  132  121  134  145  136  135  145  145  151  151  137  154  151  154  148  154  157  157  166  128  154  166  163   28
ch:  63     121  115  113  121  117  122  121  128  117  136  119  136  138  123  128  148  137  151  138  151  148  151  166  148  148  154  151  163  154  172  163    8
ch:  64     129  128  123  129  130  119  124  121  119  138  133  138  145  136  148  139  151  151  157  163  154  148  148  157  154  172  169  166  172  172  128   31
ch:  65     103  113  117  119  130  135  117  128  130  132  134  130  128  132  139  148  129  138  134  128  145  157  128  151  154  157  157  148  169  163  163   13
ch:  66     135  123  121  122  123  135  128  129  129  136  137  130  139  128  145  145  154  154  151  151  157  148  157  151  172  151  169  163  172  166  169   22
ch:  67     105  117  120  122  123  119  136  129  128  133  128  128  137  145  132  136  130  145  145  148  151  145  145  151  154  163  157  169  151  163  169   13
ch:  68     117  128  129  133  137  133  129  119  137  134  136  145  133  148  145  139  151  157  166  154  163  157  163  154  163  166  166  157  166  163  128   36
ch:  69     105  121  115  132  133  121  135  129  129  124  130  121  135  132  134  137  133  137  133  145  139  151  136  148  151  157  151  154  166  151  154   10
ch:  70     121  113  124  122  130  122  136  135  134  138  142  145  134  128  154  148  151  157  166  157  154  166  154  154  163  166  151  163  172  128  169   31
ch:  71     119  113  129  121  135  134  132  129  134  121  129  130  131  132  135  128  151  134  148  148  154  151  151  148  154  157  157  163  154  172  157   13
ch:  72     113  117  117  129  132  123  130  128  138  128  145  134  145  133  151  154  151  148  154  151  151  154  163  166  169  151  172  169  128  169  128   33
ch:  73     105  113  121  121  119  109  117  117  121  132  128  135  145  133  148  135  151  129  148  154  148  154  148  145  157  148  157  157  166  151  169   15
ch:  74     121  124  117  131  136  130  124  137  132  136  145  145  136  137  148  151  151  132  148  154  151  154  166  169  166  151  157  166  166  172  169   34
ch:  75     113  126  117  119  121  115  129  132  121  132  136  135  145  135  131  132  130  129  138  135  138  145  154  128  154  154  154  160  166  163  166   21
ch:  76     109  123  121  130  123  131  134  131  128  130  137  145  148  145  145  157  145  154  154  151  151  154  151  154  157  169  157  163  169  166  169   26
ch:  77     128  107  135  121  124  145  119  131  130  129  123  132  136  136  139  145  139  145  138  151  139  148  145  151  154  154  157  151  172  157  157    2
ch:  78     119  123  115  121  135  130  135  132  135  136  138  132  139  134  151  151  128  154  151  157  154  163  154  163  166  163  166  157  169  169  166   28
ch:  79     117  124  123  107  128  130  134  121  119  129  130  122  138  133  145  135  133  136  148  128  145  157  157  154  154  163  151  163  163  151  172   13
ch:  80     121  129  128  134  134  133  128  122  131  138  145  145  151  148  138  138  148  138  151  154  154  157  148  163  157  163  157  169  157  166  128   27
ch:  81     119  131  119  121  129  123  119  123  122  119  123  136  148  119  137  137  139  151  148  137  151  145  154  145  166  154  148  157  157  166  163   15
ch:  82     113  113  128  122  120  124  129  128  131  133  133  122  139  139  151  136  157  157  154  157  151  157  151  154  151  166  169  169  163  169  166   32
ch:  83     113  119  124  132  133  122  119  130  122  136  132  134  129  135  145  134  134  131  145  139  148  145  151  151  154  151  163  151  169  163  163   21
ch:  84     113  113  128  121  134  125  135  136  130  138  136  137  138  136  136  128  151  163  151  154  151  166  157  154  157  154  166  169  169  166  172   23
ch:  85     123  122  119  120  119  131  128  119  137  134  145  129  124  132  128  151  134  139  137  138  148  163  145  157  151  151  139  172  166  163  166   13
ch:  86     128  120  123  122  120  122  129  131  129  137  136  134  145  128  145  142  151  157  138  145  157  151  163  169  163  163  163  166  163  169  172   29
ch:  87     119  121  115  121  128  119  121  130  129  137  132  136  134  138  137  148  136  148  151  148  134  151  145  148  151  151  166  154  154  154  169   11
ch:  88     131  119  128  123  123  134  137  131  133  134  136  136  145  137  148  148  148  163  163  148  148  166  166  166  157  157  166  128  163  166  172   26
ch:  89     117  119  113  130  123  124  129  121  130  123  122  133  137  136  130  135  145  148  139  145  148  151  145  148  157  157  154  151  157  163  154   14
ch:  90     119  113  128  131  115  131  128  123  124  134  133  123  132  135  139  137  154  163  137  154  151  154  169  166  163  163  172  169  169  172  172   28
ch:  91     119  121  124  129  115  119  122  119  121  134  137  136  133  130  124  128  130  138  151  151  154  157  148  148  151  148  154  154  154  166  166   13
ch:  92     128  121  117  133  117  124  122  135  133  135  138  148  142  136  134  151  148  154  151  154  148  148  157  157  166  163  163  172  163  128  128   31
ch:  93     115  119  123  130  121  115  138  136  135  121  132  133  131  132  148  136  134  145  137  139  154  151  139  148  151  163  163  166  169  154  157   19
ch:  94     145  107  121  131  131  130  131  123  122  128  137  148  137  151  145  145  136  151  139  154  154  169  157  166  166  157  166  172  166  169  172   28
ch:  95     121  115  122  121  130  122  115  121  119  121  135  131  121  138  133  145  148  129  137  145  148  139  145  154  151  151  157  154  154  154  166   15
ch:  96     115  117  135  119  134  133  124  122  128  131  135  131  148  139  137  145  151  154  154  157  148  157  157  157  157  163  151  154  166  163  128   24
ch:  97     130  128  121  117  133  136  115  137  135  136  136  133  145  128  136  137  151  148  148  148  151  148  154  157  151  154  154  163  154  154  169   27
ch:  98     117  124  119  121  133  139  129  130  124  129  145  134  132  148  148  145  151  145  154  151  166  151  157  166  166  163  163  172  172  128  128   18
ch:  99     115  119  123  123  128  113  133  119  132  128  129  123  136  135  128  128  128  138  139  145  145  151  148  151  151  154  151  154  166  166  166   10
ch: 100     128  128  121  121  129  129  138  132  133  138  134  130  145  135  151  145  154  151  166  154  154  151  172  154  166  169  166  163  166  128  172   31
ch: 101     113  115  117  121  125  105  123  121  123  132  139  133  130  132  134  145  139  148  139  139  133  128  148  154  154  157  160  157  166  157  163   19
ch: 102     123  119  119  122  129  121  130  137  135  132  154  128  145  128  145  148  148  145  151  151  163  151  166  166  169  169  157  172  128  169  169   29
ch: 103     123  115  119  132  128  134  121  131  131  130  130  124  130  139  131  137  142  137  145  145  145  148  163  163  157  154  157  154  148  166  169    8
ch: 104     121  129  128  133  120  123  121  128  139  137  129  148  145  139  151  145  148  151  154  151  163  154  128  163  166  157  151  163  166  172  172   29
ch: 105     121  122  123  119  121  129  131  124  131  133  135  135  132  123  131  131  132  145  148  148  128  148  157  148  151  151  148  154  163  166  163   12
ch: 106     128  122  121  123  128  132  134  123  139  134  137  135  151  145  148  154  148  151  154  151  151  157  154  157  166  160  166  128  172  169  128   31
ch: 107     130  121  122  122  130  135  122  134  128  130  123  134  132  130  145  145  137  138  135  151  157  154  151  151  151  157  151  157  166  169  169   13
ch: 108     122  117  133  129  137  130  134  135  137  133  130  145  136  145  128  138  148  151  157  154  163  151  166  163  169  166  128  169  169  172  166   28
ch: 109     119  121  119  115  120  124  124  128  121  124  130  137  130  148  139  136  138  134  136  129  148  151  145  151  154  157  151  145  148  166  166   23
ch: 110     109  119  122  130  122  124  130  134  132  145  145  132  135  136  137  137  145  148  157  148  157  163  151  148  154  169  166  154  157  163  166   26
ch: 111     113  119  119  121  132  129  124  115  122  128  138  117  138  139  135  145  129  145  148  145  145  151  148  154  163  151  166  169  154  166  166   17
ch: 112     113  119  121  131  121  122  145  128  137  128  131  137  131  138  148  139  128  148  163  145  157  154  154  151  157  154  172  166  163  169  166   26
ch: 113     117  119  130  107  129  125  121  122  136  122  131  133  129  123  145  131  132  139  133  145  145  148  145  148  151  148  154  166  163  163  172    9
ch: 114     117  124  134  130  137  131  123  124  132  129  128  137  136  135  136  148  135  148  145  148  154  151  157  166  151  172  157  166  157  172  163   28
ch: 115     119  113  117  119  134  128  129  135  122  137  129  135  145  128  145  131  148  136  137  151  148  151  151  148  166  157  151  169  163  169  169   17
ch: 116     119  121  133  123  133  131  129  133  136  132  138  148  145  138  145  136  151  145  163  145  151  151  157  163  157  169  157  169  163  169  128   26
ch: 117     122  115  129  129  121  124  119  124  130  129  128  135  130  145  134  137  139  148  145  135  151  148  163  154  151  151  148  172  163  169  172   15
ch: 118     113  121  123  123  119  123  133  131  130  133  138  151  145  145  135  154  154  148  148  151  151  157  163  166  169  166  163  169  128  128  166   31
ch: 119     117  130  122  117  105  130  130  128  136  131  131  132  133  132  134  148  137  151  133  136  145  151  148  148  154  154  163  163  169  157  128    7
ch: 120     124  113  132  122  132  125  128  128  123  132  132  133  136  138  134  148  151  139  145  148  148  157  157  154  169  160  163  128  172  160  128   31
ch: 121     121  123  123  128  117  135  125  121  128  121  134  131  121  134  128  145  131  139  148  151  145  154  136  148  154  163  151  157  154  172  163   23
ch: 122     115  131  107  136  132  122  128  121  131  128  139  148  148  130  145  145  148  163  157  163  163  166  166  145  163  157  154  172  163  172  128   24
ch: 123     119  123  121  119  136  135  132  124  133  133  134  131  136  133  139  133  157  139  137  148  138  148  148  151  145  157  157  163  154  163  154   17
ch: 124     121  132  115  128  123  120  131  133  124  129  139  137  148  154  145  145  148  151  136  151  157  154  157  163  154  166  157  163  166  163  128   24
ch: 125     119  121  119  109  130  121  122  121  134  124  123  134  135  121  131  148  137  145  137  151  145  145  151  157  169  163  169  148  154  163  172   10
ch: 126     109  115  129  132  130  124  131  138  145  137  136  151  154  145  137  145  154  145  166  148  148  151  166  166  169  157  154  163  169  169  128    0
ch: 127     122  123  122  131  115  113  122  124  130  133  138  136  145  145  129  139  137  138  148  151  154  154  157  139  151  148  151  163  163  157  166   11
