# TRIM CALIBRATION    FEB6_7_4    pulse_ampl_min=40    pulse_ampl_max=200    pulse_ampl_fast=40
#
ch:   0     115  115  119  115  121  123  124  129  124  115  133  134  145  148  138  145  139  129  145  128  154  154  145  151  154  166  148  163  151  169  166   19
ch:   1     105  119  105  121  113  119  122  117  122  128  117  130  135  113  139  128  132  136  134  145  128  138  151  151  154  154  148  154  163  154  128    3
ch:   2     117  124  121  117  113  132  124  128  122  125  133  142  138  138  145  128  145  128  148  151  154  154  154  157  151  151  154  166  166  154  175   10
ch:   3     117  121  115  117  115  117  128  119  117  117  123  122  124  122  134  128  145  128  145  145  148  145  139  145  148  151  148  154  163  154  166    0
ch:   4     117  105  119  115  119  123  122  137  130  129  123  134  139  145  128  145  136  151  139  151  148  142  145  151  166  154  163  163  163  163  169   15
ch:   5      99  117  123  115  117  123  124  121  123  128  124  128  121  124  137  134  135  130  135  145  151  138  145  148  145  145  163  154  154  166  154    2
ch:   6     113  122  121  117  107  130  122  122  123  120  131  129  121  135  139  128  137  151  151  148  145  154  154  163  148  163  145  166  172  169  172    9
ch:   7     117  115  119  109  115  130  124  115  117  134  145  136  124  122  131  137  138  128  145  148  139  154  137  148  151  148  145  151  163  166  166    0
ch:   8     115  115  113  113  129  132  119  133  121  131  123  128  135  133  128  151  142  148  133  145  163  163  157  154  151  148  154  166  169  172  128   12
ch:   9     107  119  109  113  117  117  132  122  130  123  122  129  117  119  124  135  134  145  148  145  145  148  151  145  128  151  151  154  166  163  154    5
ch:  10     119  115  123  115  117  130  130  115  124  139  142  132  137  128  134  136  148  154  139  137  145  151  148  157  154  154  163  169  166  163  169    6
ch:  11     113  113  115  113  113  123  122  113  130  133  122  128  123  122  128  133  130  133  145  134  135  128  145  145  145  154  148  151  151  163  166    4
ch:  12     122  119  115  122  117  145  121  132  129  131  121  135  131  145  135  132  148  145  128  145  139  148  154  154  163  163  169  163  169  166  172   18
ch:  13     113  115  119  130  117  113  119  124  124  123  138  123  130  130  135  133  128  135  139  148  138  133  148  148  145  151  163  163  172  157  163    7
ch:  14     124  119  128  107  132  115  121  129  128  129  123  124  130  134  133  154  139  145  137  142  151  154  148  163  151  154  151  163  151  169  172   21
ch:  15     122  109  120  107  121  119  130  131  113  122  130  115  132  123  131  145  135  136  129  145  145  137  145  154  145  154  148  145  148  154  154   11
ch:  16     103  119  119  107  113  130  121  121  124  135  132  136  130  135  139  138  145  151  128  129  139  157  148  139  151  166  163  163  172  166  163   19
ch:  17     128  109  121  109  131  120  122  128  130  132  130  123  119  129  136  133  128  128  135  128  148  134  145  151  148  148  148  148  148  166  163    4
ch:  18     119  115  122  122  121  122  115  123  139  124  124  125  145  133  131  128  145  133  151  145  151  145  151  154  151  157  151  163  163  163  166   14
ch:  19     105  113  122  121  121  124  115  113  132  117  136  136  130  131  128  136  138  129  135  138  131  151  148  148  151  148  166  163  163  151  166    7
ch:  20     105  117  122  122  124  115  121  131  124  122  121  132  123  134  128  139  136  139  148  136  145  163  148  151  154  163  151  154  166  128  166   18
ch:  21     123  105  113  122  128  124  121  121  130  124  128  133  121  145  128  132  132  137  128  123  139  138  145  145  148  139  151  151  154  163  163   10
ch:  22     122  117  132  119  128  117  133  123  130  131  128  130  145  139  135  136  128  145  138  154  139  151  154  151  151  154  166  163  172  172  172   15
ch:  23     115  117  107  117  124  119  121  115  113  130  119  119  136  119  134  129  138  130  136  128  121  136  148  151  151  145  157  145  151  163  154    0
ch:  24     107  113  119  119  119  120  123  117  122  130  123  132  132  135  138  139  128  136  132  163  163  163  154  151  166  166  166  163  157  172  169   17
ch:  25     115  107  121  117  109  121  121  123  121  129  123  123  128  133  136  128  137  133  145  132  132  148  145  151  148  128  154  163  148  151  154    9
ch:  26     121  117  117  124  123  119  130  119  124  134  131  138  131  129  151  138  132  145  128  148  148  151  157  172  166  154  163  169  166  172  166   23
ch:  27     115  113  124  128  117  119  117  128  117  123  131  117  117  131  132  133  142  132  139  133  136  128  148  148  148  148  148  151  166  166  166    2
ch:  28     122  121  121  124  123  123  119  122  121  124  132  145  138  133  139  130  132  142  145  136  145  145  154  154  169  169  157  169  166  163  154   25
ch:  29     113  119  115  120  123  123  130  117  133  121  119  130  125  119  121  134  136  128  151  128  136  145  151  137  148  154  128  154  151  169  166   17
ch:  30     107  113  119  115  117  122  129  121  132  132  134  131  138  128  135  137  157  139  145  136  151  154  154  148  163  169  151  166  128  163  169   21
ch:  31     105  107  109  113  117  115  117  119  129  117  124  128  124  129  133  134  121  132  136  145  132  145  154  145  151  148  148  151  151  151  166    0
ch:  32     105  121  107  113  130  121  129  128  121  130  123  121  136  139  128  133  151  134  151  154  142  145  148  157  166  166  163  172  172  169  172   25
ch:  33     113  121  107  115  119  117  115  119  130  121  117  123  130  138  145  132  138  128  130  136  151  148  135  154  148  154  148  154  154  154  169    9
ch:  34     120  115  105  117  134  131  129  124  145  120  129  121  148  133  131  136  151  137  139  151  148  148  163  151  154  151  157  157  166  128  128   21
ch:  35     115  107  117  122  109  121  105  132  117  120  129  128  122  131  129  134  137  130  145  134  136  148  139  145  151  145  163  154  154  148  154    6
ch:  36     115  120  117  115  129  124  131  128  129  136  131  135  136  135  138  145  145  136  139  139  145  154  148  163  154  163  166  157  166  163  172   23
ch:  37      99  121  115  123  121  115  115  123  122  128  131  133  117  130  134  138  138  128  142  148  128  145  139  145  151  154  163  163  166  157  145    9
ch:  38     107  117  122  115  119  117  124  130  117  133  145  132  136  129  148  148  145  138  145  136  128  139  151  172  154  157  166  163  166  157  169   18
ch:  39     105  107  117  122  123  107  128  128  119  117  133  130  131  129  130  131  133  132  128  136  137  145  154  148  145  151  145  151  157  169  163    0
ch:  40     115  119  117  113  117  119  133  131  129  117  135  138  145  137  136  139  145  148  151  145  151  151  154  163  151  154  154  154  128  172  151   21
ch:  41     109  113  113  121  115  121  113  125  120  119  123  136  130  131  130  128  130  128  137  135  145  136  145  148  148  148  145  148  163  163  163    2
ch:  42     107  117  115  113  117  132  123  122  129  132  122  123  145  133  145  145  145  145  145  131  154  154  148  151  151  154  151  163  128  128  169   15
ch:  43     113  113  119  113  115  113  123  115  121  123  128  119  128  134  121  128  130  136  137  138  145  145  148  145  151  130  148  148  148  169  151    9
ch:  44     117  122  115  128  115  133  119  117  134  130  129  135  136  139  138  138  137  129  145  151  151  151  148  148  163  151  157  166  163  169  172   22
ch:  45     120  105  107  128  113  117  128  115  109  128  131  117  131  129  128  130  133  137  139  135  138  145  139  145  151  154  148  154  157  163  151    2
ch:  46      99  119  117  115  131  117  130  123  121  130  130  139  139  122  145  145  138  145  139  151  145  148  151  166  151  166  154  166  154  166  166   22
ch:  47     113  115  117  117  119  117  113  124  130  130  132  122  121  122  122  134  136  139  136  139  148  148  148  142  139  139  145  163  163  163  166    0
ch:  48     113  124  121  119  113  121  130  134  119  139  126  137  148  142  145  145  128  148  151  151  157  139  151  154  148  157  154  172  154  166  169   21
ch:  49     113  115  119  119  107  117  115  123  130  130  119  123  128  132  124  135  132  132  130  138  148  145  139  139  148  145  151  154  157  166  151    3
ch:  50     113  121  123  117  123  113  113  131  123  134  131  132  134  124  137  145  128  145  163  132  148  145  151  154  163  145  154  154  128  169  157   14
ch:  51     117  105  117  129  109  107  115  119  115  129  119  120  129  129  128  131  131  135  128  137  151  145  157  151  139  145  145  163  151  148  166    3
ch:  52     113  107  119  115  121  124  119  113  119  113  135  130  132  134  134  145  145  148  151  148  148  151  148  145  163  154  169  169  166  154  128   23
ch:  53     113  107  121  123  113  119  117  121  113  124  119  122  134  132  130  132  124  133  139  129  135  148  145  145  145  145  148  151  166  163  166   13
ch:  54     121  115  117  121  134  123  130  122  117  128  130  132  139  123  148  128  128  135  148  139  148  166  163  166  169  154  163  128  163  154  172   25
ch:  55     117   93  113  119  113  113  122  124  130  129  120  123  131  121  128  123  134  132  138  128  138  138  148  137  134  148  148  151  154  166  163    0
ch:  56     129  122  117  134  123  121  117  133  131  130  131  131  135  139  134  137  139  148  136  134  145  145  148  154  166  166  163  169  154  163  166   21
ch:  57     107  119  122  122  131  113  117  115  121  137  120  123  123  128  134  132  145  131  134  130  136  135  135  148  154  148  133  154  154  163  154    2
ch:  58     121  119  131  131  113  119  132  128  121  123  137  134  130  125  132  132  135  128  148  148  154  154  154  151  166  148  163  163  157  169  169   20
ch:  59     117  115  113  117  107  119  115  124  129  123  130  124  123  138  125  130  136  137  138  131  138  136  136  139  151  148  151  163  154  151  163    9
ch:  60     105  117  121  109  122  119  121  132  128  130  128  151  128  138  135  132  148  148  148  151  145  154  151  157  157  163  169  154  169  166  172   12
ch:  61     117  115  109  115  121  125  122  117  129  121  122  132  137  122  133  138  137  138  130  145  138  145  148  148  145  148  154  148  163  151  163    9
ch:  62     115  113  109  115  117  115  124  123  129  129  124  131  131  124  137  135  134  138  148  154  138  139  145  148  148  163  151  163  163  169  169   18
ch:  63     117  117  113  122  105  115  124  113  128  134  131  121  123  134  135  145  137  135  135  145  137  145  135  128  145  154  151  151  151  157  166    4
ch:  64     113  115  117  121  129  120  132  133  124  128  132  134  133  132  139  132  134  139  145  145  137  145  148  151  154  154  166  166  172  166  166   23
ch:  65     105  113  124  113  123  113  129  121  120  135  121  124  129  122  135  133  138  136  132  134  129  128  145  145  151  151  148  163  145  151  154    9
ch:  66     113  115  107  121  123  117  133  115  133  132  130  131  135  136  133  148  136  142  145  163  148  154  154  163  157  154  157  163  172  172  169    6
ch:  67     105  109  121  119  115  113  121  120  122  121  117  129  131  136  120  135  137  139  148  132  154  145  136  139  154  151  151  151  151  154  163    4
ch:  68     128  117  115  121  119  119  132  120  124  128  132  133  129  134  124  133  139  145  142  148  139  148  148  148  151  145  163  163  163  151  172   25
ch:  69     107  107  123  117  122  121  121  124  129  124  121  119  123  129  132  131  133  131  135  129  134  134  151  151  151  148  138  154  166  151  154    0
ch:  70     113  113  117  119  121  119  113  129  124  121  129  136  145  139  139  136  136  139  142  151  148  151  163  163  148  154  163  154  169  154  172   23
ch:  71     119  115  113  122  119  122  119  128  130  121  117  136  128  123  131  131  137  133  133  145  138  137  135  135  145  138  163  151  154  169  154    6
ch:  72     109  115  119  123  130  125  129  122  124  132  122  128  135  128  145  137  134  139  145  145  154  163  157  151  148  157  166  166  169  163  172   23
ch:  73     117  115  115  128  113  115  121  124  117  138  119  119  119  124  128  131  133  128  135  148  145  139  151  148  151  151  154  157  166  163  166    6
ch:  74     109  107  128  119  132  128  134  115  113  122  145  139  132  121  124  148  128  145  151  145  148  154  163  157  154  169  172  169  163  163  169   15
ch:  75     107  115  107  128  113  119  119  121  113  122  120  135  120  128  121  132  145  133  137  128  132  142  145  139  148  145  163  139  154  166  163    5
ch:  76     121  117  119  130  121  117  128  123  121  125  122  132  137  131  129  139  137  145  151  154  148  145  154  151  128  151  148  163  163  169  163   22
ch:  77     115  113  103  115  119  119  115  122  121  119  120  134  119  123  137  138  134  128  129  136  138  139  148  139  145  145  139  169  154  163  157    5
ch:  78     115  115  109  130  122  124  122  132  119  122  131  131  128  136  137  138  137  148  145  132  151  154  148  148  151  145  154  148  163  169  166   25
ch:  79     115  121  123  115  115  135  115  113  136  117  131  123  137  134  128  128  145  134  138  128  145  151  145  139  151  137  157  154  163  154  163   11
ch:  80      99  115  107  123  123  125  130  129  121  135  134  137  136  135  135  137  145  154  151  137  148  145  148  148  151  148  145  169  151  128  169   15
ch:  81     115  113  117  113  121   99  128  129  123  117  131  131  133  130  121  137  131  133  137  135  142  145  133  151  145  151  148  157  166  163  169    4
ch:  82     113  133  113  115  117  124  122  115  124  130  123  128  139  137  124  135  145  145  145  145  151  151  163  154  151  163  163  166  151  128  163   23
ch:  83     113  105  117  113  115  115  123  129  124  121  115  121  136  129  132  137  137  135  148  130  148  136  128  131  154  139  154  142  154  128  166   11
ch:  84     119  119  128  120  122  117  123  119  130  132  135  136  134  148  135  131  148  128  138  145  148  148  148  163  154  169  163  169  163  169  166   19
ch:  85     122  117  117  120  115  119  129  117  117  124  129  120  123  134  134  131  142  139  145  130  134  135  154  148  148  145  151  163  154  154  154    9
ch:  86     119  109  109  109  131  121  119  124  123  123  145  136  137  129  131  138  138  151  138  151  151  145  148  163  163  154  163  172  166  169  163   17
ch:  87     117  115  122  113  115  123  122  117  128  122  128  130  133  121  119  135  133  128  139  134  137  139  148  145  148  154  163  145  151  154  163    6
ch:  88     107  124  122  122  119  113  124  136  115  129  133  130  139  137  128  138  137  163  148  139  142  154  157  154  154  163  166  148  166  172  169   23
ch:  89     109  113  119  107  113  115  121  121  119  131  128  132  137  131  137  129  128  134  131  134  145  148  148  145  151  157  148  145  154  157  166    2
ch:  90     115  115  117  132  117  134  138  120  123  122  124  128  131  138  145  135  148  145  151  148  138  148  151  145  157  128  172  157  166  166  169   15
ch:  91     119  115  107  119  122  117  117  121  119  125  125  119  124  115  139  138  131  138  133  133  133  148  138  139  137  142  154  151  157  154  163   16
ch:  92     115  121  117  121  129  123  121  129  134  128  129  129  133  145  145  145  148  128  145  145  145  151  163  151  163  128  163  154  172  169  172   23
ch:  93     119  113  131  113  115  122  109  130  136  128  121  123  123  121  132  136  135  134  148  134  135  128  128  145  151  148  154  163  163  163  166   17
ch:  94     123  122  128  115  120  129  134  121  131  129  123  132  131  138  136  134  128  148  138  145  148  145  148  163  163  163  163  154  166  166  166   17
ch:  95     107  113  117  117  107  120  103  123  122  129  123  128  131  131  133  132  130  145  133  134  135  137  148  145  148  148  148  154  154  154  154    3
ch:  96     119  119  128  113  115  117  124  117  135  133  136  121  131  139  138  128  128  128  136  145  138  139  154  154  154  163  154  169  169  169  163   19
ch:  97     115  113  115  119  115  119  119  122  124  119  121  121  124  119  128  132  139  136  139  135  136  132  154  148  154  157  151  157  148  163  166    5
ch:  98     117  117  123  109  115  124  122  133  136  134  119  130  134  136  130  148  139  154  151  145  151  148  145  154  148  148  163  163  163  166  128   23
ch:  99     113  115  123  109  119  124  128  120  117  124  121  130  123  119  131  119  134  139  136  135  128  129  145  135  137  151  154  163  154  154  151    7
ch: 100     122  122  121  119  122  123  133  129  123  136  129  134  129  132  145  134  135  128  148  148  148  154  151  154  157  166  148  151  163  128  163   21
ch: 101     119  113  109  105  121  117  121  122  120  113  123  119  124  131  121  125  134  135  138  145  139  148  139  138  145  142  151  145  154  154  154    5
ch: 102     119  122  119  117  123  121  122  128  122  128  131  134  128  132  134  154  138  138  154  135  139  163  148  145  163  163  145  163  166  163  166   17
ch: 103     115  103  121  115  115  119  121  113  115  122  122  129  130  134  123  125  134  134  121  137  148  145  145  139  151  148  148  151  148  157  151    6
ch: 104     115  115  107  119  121  128  119  121  131  131  130  134  131  130  135  145  145  138  148  139  148  139  148  151  154  157  166  166  166  128  169   15
ch: 105     105  107  115  117  115  119  125  119  117  117  119  120  138  117  135  133  132  135  133  128  138  137  145  148  142  154  151  145  151  157  172    4
ch: 106     119  117  117  123  119  131  130  132  123  133  122  130  133  128  129  135  136  139  145  151  139  138  154  151  148  163  154  163  166  166  169   21
ch: 107     107  113  113  122  115  115  121  121  121  122  124  130  117  123  130  139  136  134  135  137  136  148  145  139  151  145  128  151  148  151  157    4
ch: 108     105  115  113  122  120  122  117  125  134  135  132  128  138  122  131  128  145  145  139  145  151  163  154  154  163  154  169  163  163  172  169   10
ch: 109     113  117  121  117  115  121  128  121  115  122  128  115  122  133  136  122  137  142  139  145  145  148  128  148  163  145  151  154  151  163  154    0
ch: 110     105  113  113  132  125  128  129  122  124  125  135  132  133  137  128  145  138  139  163  145  163  157  163  154  163  151  166  163  154  154  169   21
ch: 111     115  115  120  117  121  115  119  121  122  121  121  134  130  131  131  129  138  136  128  128  139  128  138  154  145  154  148  151  154  151  166    8
ch: 112     117  119  109  117  128  124  135  122  131  122  131  134  134  134  134  128  134  154  154  151  145  145  163  148  163  151  172  163  166  172  172   22
ch: 113     105  113  113  115  115  121  113  121  121  122  121  135  136  131  129  145  135  145  132  148  136  136  148  163  148  148  163  151  166  148  163    9
ch: 114     122  115  119  121  119  125  130  131  125  128  130  130  135  130  136  142  142  151  148  148  151  134  154  154  166  163  163  166  172  172  154   21
ch: 115     115  115  119  113  105  128  117  121  122  131  117  130  135  133  133  122  128  134  128  142  148  145  145  145  145  151  154  148  151  154  163    7
ch: 116     117  117  119  122  124  132  119  123  131  132  131  128  137  128  137  151  137  148  151  145  138  139  145  154  166  163  166  169  169  169  163   19
ch: 117     117  107  109  115  121  121  123  119  128  138  128  124  121  124  132  136  122  145  139  134  133  135  137  154  128  151  148  154  148  145  163    7
ch: 118     113  109  122  131  122  117  124  117  134  136  136  132  139  138  134  131  145  132  148  138  145  166  154  151  151  166  157  128  154  166  172   20
ch: 119     115  115  120  128  121  121  122  117  122  122  122  129  132  136  129  113  137  148  137  134  137  145  148  148  145  148  163  157  148  154  154    2
ch: 120     115  117  117  115  120  119  123  129  130  128  135  128  133  136  135  133  148  145  128  138  148  151  154  151  166  154  163  169  154  172  172   17
ch: 121     113  115  105  115  121  124  119  130  120  120  128  129  142  122  130  148  133  139  145  139  131  139  148  148  151  151  154  148  151  166  157    0
ch: 122     109  107  115  123  115  123  121  119  132  138  131  124  130  124  132  145  138  157  138  148  151  151  154  154  163  163  166  169  172  166  172   17
ch: 123     130  107  115  103  119  123  119  123  128  117  121  123  130  131  136  136  137  135  145  136  142  151  145  151  151  151  151  151  151  154  151    5
ch: 124     123  128  122  121  123  130  121  129  119  131  132  131  137  130  136  151  145  148  154  148  151  139  154  151  154  145  172  154  169  169  166   19
ch: 125     113  113  117  119  109  113  131  115  119  113  122  128  113  128  129  137  131  131  139  136  137  136  145  154  148  151  151  166  154  163  166    1
ch: 126     113  105  115  121  121  132  124  122  134  137  137  133  124  148  132  145  151  154  145  139  154  139  148  163  157  157  157  163  172  128  128   18
ch: 127     105  109  121  121  117  115  132  117  124  145  117  133  130  121  128  130  148  145  148  145  137  145  145  145  151  163  163  166  169  151  169    6
