# TRIM CALIBRATION    FEB6_3_1    pulse_ampl_min=40    pulse_ampl_max=200    pulse_ampl_fast=40
#
ch:   0     119  123  131  129  121  128  132  129  134  136  151  151  128  145  128  151  145  154  151  145  154  166  163  128  172  169  169  128  128  169  128   19
ch:   1     117  122  133  122  136  133  130  148  135  145  137  137  151  163  139  148  145  148  166  163  166  166  172  166  163  169  163  128  128  128  128    9
ch:   2     115  132  120  117  133  137  138  123  134  135  151  128  151  138  148  139  148  154  154  154  163  166  157  166  154  128  128  169  128  128  128   11
ch:   3     121  129  107  132  135  124  138  133  130  130  131  151  136  134  145  151  145  151  151  157  154  154  163  169  166  163  166  169  128  169  172    7
ch:   4     121  128  119  124  134  139  133  128  128  136  148  148  139  145  151  148  148  145  157  148  157  166  166  172  169  169  128  128  128  169  128   27
ch:   5     132  113  119  119  131  131  132  132  139  145  131  132  128  148  148  151  151  151  154  138  151  172  172  166  166  166  169  128  128  128  128    3
ch:   6     119  121  121  128  129  145  136  131  130  137  138  145  139  154  145  138  145  154  154  169  163  157  166  166  128  169  172  128  172  128  128   26
ch:   7     128  113  119  128  122  134  133  131  135  137  145  133  148  129  139  138  145  151  148  148  148  154  154  169  128  169  128  166  172  128  128   10
ch:   8     107  117  121  133  130  131  135  123  137  128  135  145  145  139  139  148  145  154  154  163  154  163  157  157  169  169  128  172  128  169  128   36
ch:   9     121  121  119  131  136  128  145  135  145  148  145  137  128  138  151  138  151  151  163  154  154  157  163  166  172  172  172  128  163  128  128   12
ch:  10     130  133  121  128  132  128  129  134  121  134  136  138  145  154  145  154  157  148  154  151  163  151  151  169  172  128  163  169  128  128  128   13
ch:  11     113  122  124  119  125  122  129  138  132  134  128  151  148  135  163  151  151  148  163  151  157  157  166  169  172  169  166  172  128  128  128    7
ch:  12     132  121  115  130  133  134  123  128  130  136  138  137  136  154  148  145  145  148  154  154  169  157  163  151  163  169  169  128  169  175  128   14
ch:  13     121  134  133  128  125  135  135  138  136  130  145  130  148  145  145  154  145  166  154  154  163  163  172  172  169  163  172  172  128  128  128    9
ch:  14     119  119  128  135  121  119  148  129  137  129  142  148  135  148  151  148  151  163  151  166  163  148  166  169  157  128  169  128  128  169  128   26
ch:  15     122  119  131  130  135  133  122  128  145  151  136  148  128  154  139  151  157  154  163  151  154  157  163  172  169  166  169  169  128  128  169   12
ch:  16     122  105  130  132  122  136  128  135  148  135  135  132  151  151  145  145  148  145  151  154  154  154  151  169  128  163  128  172  166  169  128   19
ch:  17     120  121  123  124  121  124  133  138  135  132  145  148  128  132  145  148  145  154  148  157  163  151  172  169  157  166  169  128  128  128  128    5
ch:  18     124  122  115  121  135  123  134  136  120  121  148  128  135  139  151  137  148  154  148  148  148  154  163  163  163  169  172  163  128  172  128   28
ch:  19     122  119  117  113  119  121  130  130  133  129  130  137  134  148  148  148  145  163  148  151  154  163  151  151  166  172  169  172  166  128  172   13
ch:  20     119  115  122  121  131  137  138  136  131  139  148  137  151  151  145  154  145  151  151  163  145  163  166  154  169  169  128  172  128  128  128   24
ch:  21     115  123  117  123  115  132  123  123  134  154  148  131  139  137  151  145  148  151  154  148  151  154  151  154  166  157  166  172  169  128  128   13
ch:  22     115  130  128  131  131  139  129  121  132  148  134  136  139  148  151  145  151  145  148  157  163  148  166  166  169  166  169  172  169  166  128   26
ch:  23     119  119  131  123  132  136  136  128  131  145  128  133  137  145  128  148  128  148  154  145  148  163  154  169  154  163  169  169  166  172  169   12
ch:  24     124  128  119  125  137  137  134  136  122  129  133  142  145  151  151  154  154  151  151  157  154  151  157  157  172  169  169  128  128  128  128   31
ch:  25     124  123  119  122  137  122  121  134  133  128  137  137  128  135  151  154  135  145  151  148  163  166  163  154  151  169  169  169  128  172  172    5
ch:  26     121  109  121  117  128  130  128  128  139  145  145  134  148  148  151  151  145  151  148  157  151  166  154  166  172  157  172  169  166  172  172   26
ch:  27     119  121  119  113  135  128  137  130  122  138  133  145  136  145  139  154  148  148  145  154  133  148  154  148  169  157  169  163  166  166  128   15
ch:  28     135  117  121  128  135  133  130  130  133  123  134  145  137  128  145  151  148  148  148  157  166  151  163  154  163  154  169  128  128  172  128   27
ch:  29     129  132  119  122  123  122  134  121  137  138  145  133  135  139  139  151  145  151  154  151  154  154  166  163  166  148  163  154  166  169  128    5
ch:  30     109  122  130  123  132  119  136  145  138  135  139  145  148  138  151  139  145  151  169  154  163  154  166  163  163  166  169  169  169  166  128   32
ch:  31     117  119  124  121  133  121  122  132  137  131  135  145  139  148  148  145  139  157  157  154  166  151  154  172  157  163  166  157  166  172  172    1
ch:  32     123  117  131  119  129  133  123  138  148  145  128  151  128  151  148  148  151  154  151  151  163  172  163  163  169  163  169  172  172  128  128   27
ch:  33     117  113  131  121  124  132  119  136  124  128  132  137  128  136  134  145  142  138  145  154  151  154  151  157  145  172  172  169  169  169  128    5
ch:  34     123  119  120  129  132  145  136  137  138  135  135  145  151  145  151  148  154  154  157  157  154  166  163  172  172  128  172  172  128  172  172   15
ch:  35     115  119  122  122  130  123  145  121  131  135  129  134  129  154  139  145  148  154  145  145  154  154  163  154  166  163  169  128  172  166  172   10
ch:  36     109  123  131  132  121  128  133  131  133  130  137  139  138  134  137  148  148  145  163  154  157  128  154  166  163  154  128  128  128  128  128   18
ch:  37     107  117  115  131  124  128  132  134  121  134  134  137  128  135  129  145  145  163  154  163  157  148  154  157  154  151  166  166  169  169  169    5
ch:  38     119  121  122  121  123  137  135  138  135  134  134  130  151  133  148  154  145  154  154  148  166  172  157  166  172  157  172  128  128  128  128   31
ch:  39     115  119  123  130  129  129  122  128  137  120  145  137  131  130  138  151  148  145  138  145  148  151  151  148  169  154  163  166  172  172  128   10
ch:  40     128  128  130  123  123  130  132  133  131  145  136  145  145  135  148  148  157  128  163  163  163  151  163  166  163  163  169  172  172  128  128   28
ch:  41     113  123  115  128  122  122  130  129  132  148  129  136  134  133  138  136  148  138  145  148  148  163  154  151  154  169  166  166  128  166  128   12
ch:  42     119  124  121  117  123  128  128  139  136  145  145  145  145  148  151  128  151  169  166  169  154  163  157  166  172  169  157  128  128  128  128   26
ch:  43     123  122  117  135  119  130  132  130  128  133  134  145  137  134  138  137  151  148  145  148  137  151  163  151  163  151  154  172  169  128  166   13
ch:  44     119  129  121  132  122  123  121  138  132  137  136  148  148  157  151  148  157  154  151  166  163  157  163  157  172  163  128  172  128  128  128   32
ch:  45     123  117  128  130  134  122  129  128  129  131  133  136  151  137  145  154  145  145  154  166  163  151  163  163  157  163  169  128  169  172  172   14
ch:  46     120  113  117  121  121  121  131  128  133  145  134  145  136  138  148  154  163  157  163  148  169  166  169  163  169  169  172  166  128  128  128   23
ch:  47     119  115  122  133  128  115  138  131  133  132  122  128  151  145  145  139  151  151  134  154  151  145  151  169  169  163  157  166  169  172  128   15
ch:  48     121  119  124  119  134  136  137  145  134  138  145  128  139  151  137  145  154  154  154  145  154  151  157  166  166  128  128  172  172  128  128   27
ch:  49     123  128  122  119  120  128  122  130  122  136  138  131  136  134  138  139  139  157  145  148  154  148  148  154  151  151  163  169  163  172  128    8
ch:  50     121  128  122  133  122  130  131  131  148  145  136  151  137  148  136  151  148  154  163  151  151  148  172  172  172  128  172  172  128  128  128   28
ch:  51     117  115  117  119  124  132  133  128  135  131  136  135  148  137  133  137  148  157  154  128  151  145  151  166  166  169  154  163  175  128  157   19
ch:  52     117  117  121  128  131  120  137  131  136  133  134  148  139  154  151  151  138  148  163  145  151  151  166  172  163  166  163  128  166  128  172   28
ch:  53     113  121  122  122  121  130  136  134  134  134  129  145  148  136  128  136  145  145  145  128  148  151  154  163  154  163  154  157  172  128  169   11
ch:  54     119  120  117  133  145  130  123  135  129  134  119  148  148  145  148  139  148  166  157  154  157  163  166  166  166  163  166  128  128  128  128   24
ch:  55     117  122  130  130  136  117  122  130  130  136  135  135  128  137  133  138  135  145  151  145  157  163  148  166  163  169  166  172  163  166  169   15
ch:  56     121  115  122  128  130  132  148  138  131  128  134  138  148  148  148  154  148  151  154  148  151  151  172  169  166  172  163  172  128  166  172   38
ch:  57     117  121  121  128  122  117  123  119  132  132  134  132  134  145  131  139  145  145  145  148  157  151  157  148  154  154  166  163  172  163  128   13
ch:  58     129  131  109  119  121  121  132  135  145  134  137  135  151  145  137  148  139  154  154  148  154  169  151  169  128  166  172  172  172  128  128   22
ch:  59     123  119  124  131  132  122  130  129  137  134  128  128  134  136  145  137  148  151  148  145  145  157  145  151  148  151  163  169  172  169  172   10
ch:  60     119  128  131  128  134  132  134  121  138  132  145  130  151  139  132  145  151  148  163  151  148  163  166  163  169  172  169  172  128  128  128   34
ch:  61     113  115  117  117  129  124  139  131  145  128  131  134  145  145  137  145  151  145  163  151  145  154  148  151  148  169  169  172  169  169  128   15
ch:  62     119  123  123  121  123  138  131  133  129  139  145  151  148  148  151  154  151  163  157  151  163  172  163  166  169  128  172  166  128  128  128   32
ch:  63     117  115  117  121  132  131  134  129  139  122  130  130  122  134  154  145  163  139  148  151  154  151  154  154  148  172  166  172  128  166  169   13
ch:  64     128  128  115  121  130  134  135  145  136  138  145  132  137  136  135  148  163  151  151  154  169  157  166  166  166  157  166  128  169  128  172   20
ch:  65     105  122  134  117  130  123  121  128  128  130  138  129  135  148  135  128  148  145  151  154  151  151  151  166  166  154  154  172  163  172  128   15
ch:  66     128  132  119  139  133  134  132  128  145  145  138  151  145  139  154  128  145  145  154  151  148  154  163  169  163  157  172  128  128  169  128   32
ch:  67     128  121  122  133  121  128  132  123  145  135  133  145  131  137  145  139  145  138  151  154  145  163  154  157  154  148  163  157  163  172  172   15
ch:  68     119  121  125  129  134  123  128  128  130  137  131  145  138  139  157  151  151  151  151  151  163  154  163  154  128  154  172  169  128  128  128   29
ch:  69     121  115  119  137  129  132  136  130  123  134  132  137  145  134  139  135  145  128  148  151  151  163  163  166  154  157  163  169  169  172  128    9
ch:  70     123  117  124  122  133  129  136  128  128  135  137  151  145  151  142  154  163  151  154  163  163  148  157  172  157  166  172  163  169  172  166   33
ch:  71     121  121  121  122  122  134  128  135  135  135  137  123  128  123  148  145  139  145  151  138  145  151  157  163  154  157  157  166  166  128  172   15
ch:  72     124  122  121  145  130  130  130  134  131  138  130  148  128  139  154  151  151  151  166  157  151  151  169  169  169  128  166  172  128  128  128   33
ch:  73     121  117  123  122  119  121  137  121  136  131  128  133  145  148  134  151  135  154  145  145  148  151  154  151  154  154  157  169  172  172  128    5
ch:  74     123  107  131  132  119  130  135  137  138  132  145  136  145  151  148  157  142  154  154  163  157  169  163  128  128  166  166  172  128  172  128   23
ch:  75     113  117  119  117  130  130  130  139  132  130  119  139  136  148  145  135  131  145  148  154  151  136  154  163  157  172  154  172  166  169  128   11
ch:  76     122  124  121  132  123  123  132  129  133  137  145  148  129  148  139  139  151  151  154  154  151  163  169  154  128  163  166  172  128  166  128   34
ch:  77     122  121  129  129  123  123  130  123  132  130  145  130  135  136  138  136  151  145  148  151  151  151  154  166  163  163  172  166  172  128  172   10
ch:  78     119  123  121  123  123  134  132  131  148  134  135  136  148  148  145  154  148  157  151  166  166  166  172  157  163  163  169  128  172  128  128   19
ch:  79     115  124  117  132  122  137  124  132  131  148  137  137  138  148  145  154  145  151  145  154  151  151  148  163  138  163  166  169  128  169  166   13
ch:  80     119  130  119  130  133  131  130  138  132  129  136  132  145  145  148  151  145  145  151  154  154  172  154  163  169  172  172  128  172  128  172   19
ch:  81     119  117  130  124  123  134  123  129  145  139  134  138  142  148  135  139  138  145  138  148  151  163  154  154  163  166  169  128  169  128  128   11
ch:  82     121  115  130  117  128  121  145  137  129  137  139  148  138  128  148  148  163  148  151  157  166  157  166  163  128  172  166  163  128  128  128   23
ch:  83     117  119  122  121  122  135  130  132  135  128  136  136  137  145  136  132  148  138  151  154  148  154  151  169  163  166  166  172  166  166  169    7
ch:  84     117  121  115  121  131  131  145  151  128  139  135  137  128  145  148  148  139  148  151  148  157  154  163  172  166  169  169  172  128  128  172   26
ch:  85     115  119  117  133  135  122  133  123  122  136  138  133  137  137  134  139  151  142  163  151  157  154  157  151  154  163  163  169  166  128  128   10
ch:  86     117  113  121  119  128  136  128  134  139  135  148  135  154  137  138  154  154  163  154  151  151  151  163  157  172  166  163  172  169  169  128   29
ch:  87     123  120  107  123  121  121  130  119  122  145  133  145  129  139  137  151  145  136  151  136  154  166  166  163  166  145  154  166  172  157  172   15
ch:  88     119  123  130  133  137  132  123  129  136  136  139  133  145  145  151  154  145  163  154  166  169  154  154  166  169  169  169  128  163  172  169   30
ch:  89     119  117  119  130  128  129  122  128  132  128  130  138  133  130  145  145  139  145  151  148  151  151  163  151  151  154  163  163  169  128  166    8
ch:  90     117  129  115  128  128  122  134  121  138  132  145  133  137  134  148  151  154  154  154  148  151  166  157  166  169  169  128  169  172  172  128   24
ch:  91     129  119  115  132  128  129  128  123  123  123  133  134  148  128  136  148  151  128  145  151  145  169  163  166  157  128  163  172  172  128  166    6
ch:  92     124  117  131  119  123  135  134  134  134  148  138  151  128  148  151  154  148  145  154  157  148  163  166  172  172  163  172  128  169  128  128   26
ch:  93     121  117  129  130  124  134  128  122  132  136  130  145  137  151  145  139  148  148  148  145  148  151  157  166  163  169  163  166  172  128  172   12
ch:  94     133  119  128  123  128  135  121  133  145  136  128  137  145  154  128  148  163  163  151  154  154  166  154  166  128  166  172  128  172  169  128   28
ch:  95     130  123  130  122  132  119  128  117  134  137  148  137  137  139  129  145  145  148  148  148  148  154  154  163  154  157  166  166  128  172  128    7
ch:  96     128  123  124  137  123  137  121  132  122  137  139  139  148  138  139  151  151  154  166  166  148  166  154  154  163  166  166  128  172  169  128   19
ch:  97     119  132  128  119  135  136  136  123  124  130  139  137  129  138  151  132  135  145  145  163  137  138  166  151  163  148  166  151  128  128  128   13
ch:  98     130  121  117  133  128  132  139  131  139  133  131  131  148  148  154  151  148  163  145  154  154  163  166  154  169  154  166  128  169  172  128   26
ch:  99     121  119  119  128  132  129  129  131  134  137  133  136  135  135  136  151  142  145  148  151  157  163  169  157  169  163  166  163  157  169  169   15
ch: 100     135  131  115  130  124  124  129  115  137  123  137  130  135  136  145  138  154  137  163  157  166  151  128  154  163  166  166  169  172  166  128   19
ch: 101     117  115  130  121  120  121  131  115  130  132  134  137  148  151  151  145  151  148  151  163  145  151  166  166  166  154  163  166  128  166  172    9
ch: 102     128  123  129  119  137  130  133  131  136  136  145  145  151  137  145  148  145  154  154  154  154  169  154  172  169  166  169  169  169  128  128   36
ch: 103     122  117  135  115  132  133  122  129  131  145  139  132  133  131  138  138  151  154  145  148  148  157  163  154  163  154  166  163  128  166  128    7
ch: 104     131  121  119  131  129  128  133  133  136  134  148  138  151  148  148  151  151  151  145  151  154  172  169  154  169  172  166  172  169  128  128   27
ch: 105     115  121  130  117  128  122  129  120  135  130  137  139  132  137  139  154  145  148  138  151  148  151  154  148  166  163  157  154  166  166  169    3
ch: 106     131  119  122  122  124  138  136  136  135  131  139  137  136  148  151  157  151  148  151  148  145  154  169  166  166  172  128  172  172  128  128   23
ch: 107     129  123  117  121  129  122  130  128  136  137  142  128  142  145  139  139  148  154  151  145  163  148  145  154  151  169  166  163  166  166  128   13
ch: 108     107  119  119  130  121  132  130  138  139  148  134  145  138  151  148  154  145  154  154  148  163  151  166  172  128  169  169  172  128  128  128   26
ch: 109     124  132  119  119  119  119  132  121  139  145  136  138  128  148  134  148  148  138  148  145  154  148  163  151  151  157  169  163  169  128  128    9
ch: 110     121  117  121  137  134  137  135  132  135  123  123  137  133  148  145  154  154  163  151  163  157  163  169  163  163  169  128  169  128  128  128   23
ch: 111     115  117  113  117  119  132  133  134  136  129  135  135  128  145  136  148  137  151  154  148  145  163  163  154  166  163  169  166  172  172  172   15
ch: 112     117  123  124  122  135  122  134  145  132  145  145  148  128  154  136  151  154  154  163  154  163  154  166  169  154  172  128  172  128  172  128   14
ch: 113     119  121  117  121  130  117  123  113  125  131  133  148  137  145  145  128  148  148  145  151  139  148  163  148  151  157  169  163  166  154  128   11
ch: 114     129  117  123  119  130  132  148  138  145  128  135  136  128  138  135  157  154  163  154  157  154  166  166  169  172  172  169  172  128  163  128   37
ch: 115     121  117  123  130  122  123  128  131  130  121  135  129  130  133  145  132  151  145  137  151  145  145  154  154  151  163  163  166  166  163  169    7
ch: 116     119  130  124  122  131  135  136  137  137  148  145  148  136  128  139  151  151  154  148  154  163  169  163  172  166  166  172  172  128  163  128   19
ch: 117     121  123  117  120  133  122  134  121  128  132  137  133  133  130  135  145  138  148  148  151  166  154  154  151  157  157  166  169  128  172  172    0
ch: 118     122  122  122  128  132  132  132  134  138  129  138  148  145  148  128  145  145  151  154  128  169  163  157  148  166  172  169  166  163  172  128   26
ch: 119     120  119  122  117  130  129  128  138  123  134  134  128  128  139  139  148  148  154  151  132  151  151  169  166  163  154  157  154  166  172  128    2
ch: 120     123  117  121  123  123  124  132  134  132  131  136  151  145  148  145  151  145  151  145  148  154  154  169  172  166  163  128  169  128  128  128   25
ch: 121     130  120  128  121  131  121  123  120  133  136  133  134  139  132  136  151  137  128  145  154  151  154  169  154  166  166  166  166  169  157  128    9
ch: 122     132  121  135  128  128  128  135  119  135  128  134  134  157  145  151  148  151  163  157  151  148  128  163  163  163  172  128  169  128  169  128   21
ch: 123     121  117  115  131  119  125  123  122  130  138  145  136  128  135  132  151  148  142  138  151  151  151  163  154  169  166  169  154  163  169  169    7
ch: 124     119  123  130  123  131  136  131  134  122  130  138  128  128  154  151  148  151  154  163  163  166  169  166  166  172  172  172  128  172  128  172   27
ch: 125     119  117  120  130  121  119  130  124  134  145  122  138  145  148  145  137  138  145  148  145  148  154  163  163  151  163  128  163  166  172  172    8
ch: 126     128  120  133  129  138  145  148  132  132  157  135  145  145  145  154  148  154  145  157  151  157  166  163  172  128  172  169  169  172  128  128   24
ch: 127     121  117  137  121  122  123  138  115  124  133  133  145  131  148  145  139  145  148  151  145  148  163  157  163  166  128  166  169  172  128  128    7
