# TRIM CALIBRATION    FEB6_7_5    pulse_ampl_min=40    pulse_ampl_max=200    pulse_ampl_fast=40
#
ch:   0     103  117  123  115  117  117  122  113  130  128  123  138  137  133  130  145  139  139  128  145  151  137  137  151  148  142  148  151  151  163  145   17
ch:   1     105  103  119  117  119  115  113  117  107  131  123  124  122  122  119  123  119  133  132  121  133  137  137  137  151  148  145  148  154  151  154    5
ch:   2     115  117  115  117  115  113  122  129  129  121  129  123  129  145  128  130  132  138  145  138  148  148  151  145  151  145  145  154  163  157  157    9
ch:   3     117  105  119  119  117  119  128  103  113  115  117  130  132  121  132  130  128  134  145  135  129  145  137  128  137  135  151  148  148  145  154    0
ch:   4     105  115  115  121  117  124  128  123  115  119  129  128  145  122  123  145  137  134  145  136  137  138  145  148  151  136  148  163  157  157  169   13
ch:   5     105  115  115  115  119  119  119  119  128  117  134  117  119  121  121  121  123  145  130  128  145  134  131  135  148  137  135  135  128  151  157    0
ch:   6     121  128  105  119  113  124  119  117  123  113  121  124  135  129  134  133  136  148  148  145  148  139  137  145  163  154  157  148  157  148  151    9
ch:   7     105  119  103  115  117  122  115  113  124  123  129  121  113  121  123  123  136  129  145  139  128  133  134  145  133  151  139  128  157  148  151    3
ch:   8     117  107  117  113  121  119  124  124  129  121  130  124  134  129  148  138  139  134  128  145  135  148  148  151  128  154  148  145  154  172  169   26
ch:   9     113  115  115  105  121  109  115  117  115  121  133  121  124  122  119  125  123  128  133  139  131  129  133  136  131  131  145  139  151  145  154    0
ch:  10     101  117  103  121  121  124  119  121  132  122  132  121  122  122  133  133  145  145  138  133  134  145  133  154  136  148  151  148  151  166  166   17
ch:  11     103  109  121  115  119  121  117  123  119  122  113  129  119  123  122  121  130  136  145  130  138  136  133  148  136  145  128  148  154  148  151    0
ch:  12     113  107  123  107  119  120  131  115  121  123  132  123  139  121  134  136  132  133  136  132  137  136  139  148  145  145  151  154  157  154  157   22
ch:  13     115  115  107  122  115  117  121  119  132  123  115  119  134  130  129  122  139  128  137  135  136  128  138  148  136  151  145  145  151  154  157    0
ch:  14     117  107  128  120  113  115  115  117  135  124  129  133  123  132  133  135  128  145  137  145  138  128  151  151  154  148  145  154  151  163  154   18
ch:  15     107  115  119  117  120  119  123  119  128  122  119  119  117  132  124  121  136  123  128  122  128  135  148  139  151  139  142  139  151  154  151    1
ch:  16     107  117  113  119  119  115  136  121  119  133  137  121  129  135  145  133  135  134  138  145  136  145  148  145  151  157  151  148  166  151  163   12
ch:  17     105  129  107  113  115  117  113  130  133  122  124  115  107  137  135  121  131  136  121  135  148  134  136  154  138  145  151  154  136  151  154    3
ch:  18     109  113  115  119  119  128  113  121  123  128  132  132  132  135  131  135  136  137  138  128  145  136  145  139  148  148  157  154  148  154  163   18
ch:  19     115  119  115  115  119  113  117  107  113  119  121  124  124  122  122  137  128  131  117  137  134  128  131  134  133  145  138  151  134  148  163    3
ch:  20     103  120  113  115  123  107  117  115  122  121  135  131  131  130  122  145  145  132  136  148  145  136  154  154  157  154  148  163  151  166  169   22
ch:  21     113   99  117  117  117  113  117  115  113  124  123  119  123  132  129  120  119  128  137  134  138  128  131  128  136  145  138  145  154  137  166    3
ch:  22     107  115  107  117  117  121  117  129  129  132  129  132  135  121  139  130  130  134  136  145  148  148  138  157  157  157  154  154  157  163  163   29
ch:  23     115  113  105  105  101  115  113  113  117  119  121  129  123  129  129  132  132  132  130  124  133  134  131  132  145  139  145  135  148  135  145    8
ch:  24     115  107  115  119  115  117  121  122  134  123  122  137  130  124  121  145  137  137  137  145  133  137  154  148  154  148  151  151  148  163  157   15
ch:  25     121  103  115  101  121  117  107  123  121  117  119  122  117  117  133  133  134  128  138  129  138  128  151  132  148  130  145  148  151  145  145    2
ch:  26     107  113  119  122  113  115  122  129  117  119  134  132  132  148  119  119  136  138  145  148  148  137  145  148  148  148  154  157  151  154  151   15
ch:  27      99  115  101  121  103  117  120  124  117  115  120  123  124  117  121  130  121  128  135  132  134  137  138  133  137  145  128  135  148  151  139    5
ch:  28     107  119  105  122  120  117  124  129  121  124  125  137  128  131  137  145  134  128  151  145  139  137  131  145  145  157  145  154  157  154  151   21
ch:  29     119  115  109  121  113  117  117  107  121  122  123  122  119  122  130  122  119  123  145  123  131  137  128  148  151  138  142  151  145  163  151    4
ch:  30     117  117  119  121  128  124  113  121  119  117  129  133  135  119  131  139  145  138  138  148  148  138  151  145  151  148  151  166  151  163  157   15
ch:  31     113  101  105  115  117  105  119  119  107  113  109  115  124  122  121  133  145  130  129  134  121  132  134  133  136  145  145  145  151  154  154    8
ch:  32     107  117  121  117  117  136  135  123  117  117  131  133  122  122  138  131  121  145  148  145  132  128  154  148  148  151  148  163  151  157  163   27
ch:  33     105  107  117  115  105  107  113  115  123  115  115  117  117  121  129  137  136  134  135  128  132  135  128  137  148  135  136  145  154  148  157   12
ch:  34      93  121  113  105  115  113  135  121  121  121  129  134  123  136  138  122  145  132  131  128  138  145  131  151  128  148  163  154  138  154  154   17
ch:  35     105  107  103  123  119  113  128  119  129  121  123  132  121  137  119  130  136  135  128  133  119  139  139  145  145  138  148  151  148  145  166   10
ch:  36     113  117  115  113  119  123  120  121  128  121  129  121  121  122  137  145  145  121  133  148  148  138  138  138  145  163  151  154  154  154  157   19
ch:  37     119  113  115  113  117  121  121  130  129  119  119  135  119  131  115  119  134  128  133  145  133  137  148  131  132  142  134  145  145  145  163    0
ch:  38     107  105  122  107  122  105  115  122  115  122  122  134  131  132  136  131  148  138  128  145  133  145  154  148  151  163  145  169  154  166  148   17
ch:  39     107  107  107  113  105  113  124  124  109  119  123  128  129  119  129  133  130  148  133  132  133  128  128  145  135  145  145  134  138  148  145    1
ch:  40     107  105  117  119  117  125  121  121  133  128  129  123  145  122  136  135  145  154  145  128  145  145  145  145  145  154  151  151  157  148  154   12
ch:  41      99  103  113  113  113  117  119  119  115  119  128  117  128  122  115  122  122  124  119  139  134  131  137  137  151  137  145  157  151  157  148   10
ch:  42     115  113  107  117  115  130  119  121  130  132  130  124  134  132  130  129  148  138  133  136  133  139  145  148  145  145  148  154  148  157  166    7
ch:  43     107  117  107  103  115  101  109  115  119  121  119  123  121  130  121  121  115  128  132  131  117  136  145  139  151  120  138  132  145  151  137   10
ch:  44     107  119  107  119  119  117  124  128  121  122  122  121  132  121  135  145  131  128  138  137  138  135  145  145  145  151  151  151  163  157  154   22
ch:  45     121  115  107  119  105  122  113  117  113  119  129  124  120  129  128  128  136  138  132  121  131  145  131  136  148  136  148  148  148  154  148    5
ch:  46     117  107  113  120  133  128  119  121  121  121  129  131  130  138  128  138  148  128  145  137  138  134  148  132  151  154  157  154  154  148  163   23
ch:  47     101  109  105  103  119  130  117  133  123  117  117  122  117  119  119  129  138  121  122  122  122  137  132  133  151  138  128  151  148  145  157    8
ch:  48     107  119  107  119  122  121  113  119  124  122  135  123  131  137  139  136  135  123  131  145  138  137  148  154  151  157  154  151  148  154  154   21
ch:  49      90  105  115  124  113  113  115  119  128  123  117  115  117  121  119  122  137  134  119  145  130  131  138  151  151  145  135  151  151  154  157    3
ch:  50     115  103  117  128  121  115  117  131  134  128  130  119  129  119  134  131  145  128  128  148  134  157  145  151  131  154  154  163  163  163  166   17
ch:  51     109  105  122  117  123  128  117  113  107  132  130  115  129  134  122  132  121  132  133  132  138  145  145  139  145  139  137  157  145  151  154    3
ch:  52     119  107  113  109  122  117  131  117  121  136  135  135  129  132  132  137  148  148  137  145  132  151  145  145  148  135  145  142  154  151  151   19
ch:  53     113  109  105  105  107  115  121  120  115  107  119  120  130  133  121  135  128  119  123  134  139  139  148  148  148  145  138  157  145  128  154    5
ch:  54     115  115  117  113  117  119  132  113  132  119  123  136  130  138  132  145  145  135  134  136  138  136  148  130  145  151  151  148  163  154  157   23
ch:  55     113  105  107  113  115  113  105  119  113  115  121  119  119  117  131  121  134  123  137  132  128  137  132  133  129  139  138  145  148  151  151   10
ch:  56     115  124  115  115  123  136  115  119  119  130  117  135  138  132  123  132  130  145  133  145  138  128  145  128  148  151  157  148  154  151  163   23
ch:  57     117  103  115  119  119  123  115  119  115  119  124  121  124  124  132  136  129  135  128  137  131  145  132  135  136  151  157  154  163  145  138    6
ch:  58     113  119  119  105  121  123  113  119  113  122  130  130  122  129  131  131  137  138  136  145  145  148  134  148  148  151  154  151  157  172  163   23
ch:  59     119  115  107  101  113  113  117  129  113  129  123  119  131  113  119  129  117  128  145  128  135  134  129  145  148  145  136  145  148  154  163   10
ch:  60     117  101  105  117  121  124  117  115  117  130  136  117  137  137  131  134  129  137  138  138  145  132  145  154  145  128  154  157  151  157  166   18
ch:  61     101  117  105  107  115  113  128  117  121  119  113  131  121  128  135  121  134  133  132  128  138  136  136  129  138  145  145  145  151  151  151   12
ch:  62     115  113  119  119  117  117  119  129  128  131  132  129  129  133  138  130  134  135  138  148  138  154  145  132  154  151  128  163  154  148  163   15
ch:  63     101  109  107  113  115  113  117  125  119  115  107  130  117  128  124  119  121  133  138  130  130  131  137  137  131  145  138  151  148  128  148    3
ch:  64     115  101  113  113  107  117  123  119  122  117  122  117  136  120  121  137  129  131  135  128  145  135  134  138  157  132  138  163  154  163  154   15
ch:  65     115  115  115  119  107  128  121  107  123  117  122  119  119  119  121  136  135  132  131  133  134  137  132  151  136  137  128  137  151  157  145   17
ch:  66     113  119  107  103  133  109  122  123  117  121  124  134  128  129  133  124  128  131  132  148  145  148  132  151  148  137  138  151  154  157  163   20
ch:  67     115  113  105  105  107  113  113  105  121  113  119  130  128  128  123  119  133  132  132  135  131  133  133  136  131  148  136  132  137  138  151    4
ch:  68     113  117  109  119  113  115  115  121  121  131  124  132  129  119  133  134  135  145  137  139  145  132  136  151  139  148  145  148  157  163  154   15
ch:  69     113  101  107  123  121  122  113  105  121  117  119  119  115  119  136  125  130  130  139  121  129  145  135  136  138  145  145  148  138  151  157    8
ch:  70     113  115  119  119  119  122  121  134  133  119  117  119  134  130  122  133  133  131  129  139  138  129  128  154  151  128  163  154  148  151  169   19
ch:  71      90  119  109  115  117  129  117  115  115  115  122  119  121  120  117  130  113  145  119  137  138  137  132  137  145  148  145  139  148  138  154    0
ch:  72     117  105  113  121  122  117  130  122  124  119  133  136  132  123  130  128  136  131  131  145  136  145  145  128  148  148  148  151  154  157  163   18
ch:  73     117   90  107  105  121  117  107  115  115  119  115  124  122  119  119  128  128  128  148  131  128  128  139  137  148  128  145  157  128  148  163    2
ch:  74     115  128  122  107  115  121  121  119  122  133  130  124  135  148  131  134  145  145  131  132  145  148  151  145  154  138  154  166  151  145  154   21
ch:  75     115  117  107  121  117  115  117  131  115  115  122  121  115  120  121  122  134  133  145  123  133  132  145  148  137  139  128  154  151  157  151    8
ch:  76     121  119  107  121  129  119  117  124  121  120  121  119  137  129  131  134  137  138  145  148  151  154  154  157  157  154  145  148  151  145  166   23
ch:  77     107  115  119  113  119  113  122  123  121  120  119  119  123  129  136  123  131  122  130  135  132  128  145  128  148  148  137  148  151  154  154    3
ch:  78     113   99  103  119  105  123  120  117  123  128  131  133  122  134  130  131  134  130  145  151  138  148  138  145  145  154  139  151  169  163  148   30
ch:  79     105  115  128  107  129  121  109  121  113  115  119  133  121  130  119  123  115  134  122  133  137  132  133  132  137  148  154  145  157  145  145   17
ch:  80     113  113  119  119  115  124  128  117  115  117  124  136  130  119  130  129  129  134  128  130  134  134  148  151  151  145  151  157  157  166  157   26
ch:  81     115  113  105  105  109  119  121  117  119  131  115  128  122  134  128  130  117  128  129  133  134  132  121  131  145  133  145  136  151  145  148    0
ch:  82     117  113  113  121  115  117  121  120  131  124  121  130  128  123  130  139  133  137  145  148  138  139  151  138  154  148  163  145  145  154  163   28
ch:  83     103   93  119  122  113  124  113  121  115  123  119  117  128  113  134  117  124  136  122  131  132  139  124  145  136  137  145  145  148  148  148    6
ch:  84     105  115  119  115  128  124  107  119  132  122  119  128  134  138  131  133  137  134  137  129  148  151  148  157  145  148  151  157  166  163  157   26
ch:  85     105  103  113  119  103  122  113  113  121   99  122  117  115  113  128  122  115  122  138  145  145  132  151  131  145  145  135  157  151  148  151    1
ch:  86      99  113  119  123  119  117  123  122  124  119  129  119  121  123  138  117  129  137  138  148  131  134  148  148  154  151  157  166  151  148  166   17
ch:  87     105  107  115  105  128  105  119  117  120  120  119  121  117  119  123  123  136  128  128  117  130  145  145  145  151  128  136  151  157  151  154    2
ch:  88     115  113  117  121  123  117  128  120  121  119  130  128  130  145  133  132  128  133  148  145  131  145  145  145  135  163  169  151  163  148  169   31
ch:  89     103  113  119  119  123  119  121  115  119  122  125  119  120  133  122  122  123  129  135  129  115  138  136  136  148  145  136  145  151  148  151    5
ch:  90     115   99  113  113  120  128  117  128  128  136  117  136  130  134  130  135  138  148  148  154  138  148  136  148  157  148  154  151  151  163  157   32
ch:  91     117  115  113  115  113  117  117  117  122  128  132  117  133  122  129  132  121  131  128  121  138  128  136  138  145  128  145  145  154  151  151    3
ch:  92      99  122  115  119   93  119  115  122  122  130  132  122  135  123  130  129  148  134  139  145  145  145  138  145  145  163  151  166  163  157  157   21
ch:  93     107  119  103  121  113  107  121  117  123  121  120  121  113  128  129  130  129  130  132  134  134  128  135  145  128  145  135  148  128  148  151    8
ch:  94     124  121  122  107  115  121  129  117  120  129  123  134  128  135  134  130  121  134  128  132  151  145  151  157  148  148  154  138  166  157  151   22
ch:  95     103  105  121  115  113  115  129  115  105  119  128  133  128  133  123  121  117  136  134  128  135  128  134  134  132  145  148  148  148  137  151    1
ch:  96     105  107  115  119  117  122  122  122  130  129  133  132  119  134  132  131  123  136  137  128  145  145  138  128  151  145  154  154  148  166  163   21
ch:  97     113  119  105  113  117  115  117  121  113  117  113  117  113  119  119  132  132  119  119  129  135  136  145  145  139  145  135  154  139  151  137    0
ch:  98     123  115  117  121  128  134  124  133  117  131  122  133  133  130  132  133  138  157  128  151  134  151  145  135  148  157  148  154  154  163  157   23
ch:  99     101  115  113  107  105  115  117  121  121  130  119  119  130  123  131  121  123  130  136  132  128  133  145  145  132  148  145  151  148  151  151    0
ch: 100     122  113  113  117  119  117  122  133  117  134  129  130  120  130  136  135  133  139  131  128  151  157  145  151  154  154  151  163  157  154  151   14
ch: 101     103  105  115  121  124  113  115  122  129  101  129  129  117  117  119  124  128  133  129  134  132  131  137  139  128  137  151  145  125  148  154    9
ch: 102     107  105  119  129  113  117  113  131  125  129  124  134  134  145  136  133  135  138  145  151  137  138  145  154  154  154  151  145  163  154  151   17
ch: 103     117  117  105  119  117  107  130  115  117  132  129  128  134  132  130  136  117  130  123  136  130  138  134  134  145  148  128  154  157  145  154    9
ch: 104     121  115  107  101  121  119  115  115  128  121  131  134  115  134  139  136  139  133  139  132  145  151  154  151  151  151  157  154  157  154  157   17
ch: 105     103  115  105  115  119  117  115  103  117  121  119  117  123  117  128  122  131  133  132  131  136  145  134  135  138  145  148  145  145  148  157    9
ch: 106     113  113  117  107  122  117  119  119  122  121  130  130  148  132  130  128  135  132  136  136  138  135  148  145  157  157  151  148  145  157  154   21
ch: 107     107  117  117  113  115  115  115  115  115  103  123  119  128  122  134  124  131  131  124  128  129  129  128  130  138  148  145  134  138  145  145    0
ch: 108     107  120  128  119  121  107  119  119  119  119  135  130  133  139  135  135  119  136  148  145  135  128  151  148  154  157  157  154  154  151  163   15
ch: 109     117  117  107  117  117  121  122  113  119  122  119  123  128  132  131  137  132  145  136  124  131  137  148  137  148  133  134  151  148  151  163   13
ch: 110     115  119  121  131  107  115  130  132  128  130  131  109  134  135  133  134  145  128  131  128  148  145  148  148  166  151  154  151  151  169  160   15
ch: 111     113  113  115  115  107  115  115  121  128  121  123  132  128  133  128  124  124  145  138  134  138  138  132  133  148  135  137  148  151  134  145    2
ch: 112     117  113  103  119  115  128  130  117  128  119  130  121  132  129  123  142  138  133  133  148  151  145  148  139  151  148  151  157  151  154  157   19
ch: 113     113  113  113  103  117  113  119  117  119  135  119  117  119  134  113  129  119  130  124  122  145  135  137  135  137  138  145  151  148  148  154    4
ch: 114     107  119  119  121  117  119  115  128  122  122  145  119  131  138  136  132  133  148  132  138  145  148  154  145  148  148  148  154  151  166  154   22
ch: 115     105  103  119  113  115  115  109  131  113  113  115  123  133  124  123  117  129  129  145  136  124  136  134  145  137  132  145  148  151  151  145    9
ch: 116     107  107  123  121  113  121  119  122  117  137  131  124  130  132  133  134  145  134  128  138  137  148  151  136  151  128  163  151  157  157  166   11
ch: 117     115  113  121  119  113  117  130  119  124  115  123  121  103  115  128  121  138  124  131  137  131  139  136  138  131  135  148  132  151  154  154    3
ch: 118     113  119  105  121  115  130  123  121  132  132  119  129  130  145  130  119  145  151  136  148  151  128  151  148  157  148  148  154  154  151  163   17
ch: 119     117   99  115   99  115  117  107  117  117  121  130  122  121  103  129  131  132  132  132  137  128  133  134  129  136  148  151  151  145  163  151    0
ch: 120     113  103  117  125  115  119  115  133  121  133  124  117  133  130  137  134  138  125  129  138  134  151  128  151  145  148  154  151  157  148  151   23
ch: 121     107  121  105  115  115  107  113  113  123  115  119  121  119  117  121  130  128  121  133  131  131  145  134  145  135  148  138  148  128  154  145    7
ch: 122     115  119  105  117  117  130  121  119  123  132  117  121  119  122  129  137  134  132  135  135  145  151  154  151  138  145  137  148  154  166  163   19
ch: 123     103  117  113  107  119  117  119  124  121  113  128  122  130  121  113  123  128  134  133  137  128  145  137  136  136  145  145  134  148  151  128    1
ch: 124     115  115  128  107  122  107  121  128  119  117  117  121  122  133  123  132  131  134  133  136  137  151  148  139  148  145  154  166  151  166  148   26
ch: 125     115  115  113  117  121  129  119  117  117  115  105  121  121  119  130  134  135  123  119  121  139  151  133  133  138  145  131  151  145  128  151    8
ch: 126     121  103  122  105  121  129  117  121  123  119  122  120  137  128  130  145  137  134  148  137  148  133  151  148  128  151  154  151  163  163  157   22
ch: 127     107   99  105  119  119  117  117  117  132  121  115  121  134  132  130  134  131  129  133  135  131  136  139  135  139  145  138  148  145  148  154   10
