# TRIM CALIBRATION    FEB6_3_4    pulse_ampl_min=40    pulse_ampl_max=200    pulse_ampl_fast=40
#
ch:   0     123  121  125  128  124  117  117  136  125  139  148  145  151  136  154  128  151  154  148  151  154  154  163  166  151  163  157  166  172  172  128   15
ch:   1     113  121  122  121  122  123  130  145  124  131  133  129  136  139  136  137  137  133  145  145  148  148  157  157  154  148  157  157  169  172  166    2
ch:   2     119  124  132  105  132  123  120  132  138  129  134  122  137  136  136  151  151  148  154  154  151  157  151  166  163  154  166  169  169  172  172   20
ch:   3     107  124  109  119  125  121  129  126  135  126  136  124  137  148  134  128  137  148  145  145  145  145  157  157  137  151  166  151  169  169  172    3
ch:   4     121  117  123  129  132  124  137  122  134  132  130  132  145  148  148  139  137  154  148  151  151  166  163  166  148  169  166  172  163  166  128   15
ch:   5     113  113  119  117  119  133  129  125  130  130  131  148  134  137  132  139  128  145  148  145  151  157  163  154  163  157  157  166  166  166  172    7
ch:   6     121  121  123  134  145  123  117  134  137  135  138  137  145  128  145  128  145  151  148  148  157  163  157  148  157  163  166  163  166  157  169   23
ch:   7     122  123  125  125  124  128  124  130  133  133  145  133  130  136  139  133  135  151  154  138  138  151  151  145  163  145  157  163  166  169  157    0
ch:   8     117  117  135  128  138  115  128  125  121  129  145  131  148  138  137  135  151  148  145  154  154  151  151  163  169  169  157  166  166  128  163   23
ch:   9     128  134  113  119  132  125  131  130  132  130  128  136  148  148  148  145  129  148  151  145  145  145  139  148  163  154  154  157  163  169  163    6
ch:  10     124  123  122  128  130  130  130  128  131  137  136  131  124  145  138  145  145  148  148  151  148  145  157  157  157  166  169  163  157  172  169   17
ch:  11     128  105  124  129  128  131  119  129  145  124  121  131  145  154  138  145  145  148  154  135  145  138  154  145  148  157  166  154  166  128  166    9
ch:  12     122  124  131  123  122  135  128  128  131  135  136  128  135  148  148  151  148  138  154  145  157  148  157  154  151  151  157  172  172  163  128   20
ch:  13     115  105  119  121  128  126  126  124  125  137  125  125  122  130  137  134  128  151  151  135  151  142  157  148  132  151  157  163  163  169  154    8
ch:  14     133  129  123  123  128  124  131  137  123  137  145  154  128  154  166  134  151  145  151  145  166  151  151  154  169  157  163  163  169  128  166   23
ch:  15     121  117  122  119  125  107  128  115  129  132  133  139  145  133  136  145  128  145  145  145  148  151  154  148  148  154  145  151  154  172  128    6
ch:  16     115  128  123  121  125  132  135  121  145  145  136  139  137  131  138  128  139  151  154  145  166  139  157  169  160  169  166  163  172  166  172   17
ch:  17     121  115  113  121  113  117  122  129  132  132  132  135  138  128  134  137  145  138  145  151  151  151  154  157  154  148  163  166  169  157  166    8
ch:  18     128  128  123  117  128  130  128  117  132  148  145  131  151  132  125  128  148  151  154  163  154  128  154  166  154  163  157  128  172  128  172   21
ch:  19     123  115  124  134  128  131  129  130  133  130  129  132  130  145  134  137  128  142  145  151  148  154  148  154  154  154  154  166  163  169  172   12
ch:  20     117  128  124  125  129  135  132  145  136  131  134  151  148  148  154  148  145  128  151  148  163  145  148  157  154  157  169  157  166  169  169   21
ch:  21     113  117  121  131  123  131  115  130  137  121  148  129  137  145  137  124  145  148  154  145  151  148  148  166  157  145  145  154  163  157  166    4
ch:  22     123  121  117  119  134  135  130  129  133  136  136  145  138  131  145  128  148  148  128  151  154  145  154  169  163  172  154  166  169  172  172   26
ch:  23     119  123  130  121  135  121  135  132  128  124  133  129  134  136  137  151  145  145  145  145  138  128  157  148  163  154  151  163  163  163  166    4
ch:  24     113  119  125  122  123  130  121  134  131  125  135  128  148  138  151  145  139  148  151  157  148  154  151  148  154  166  169  169  166  128  172   17
ch:  25     130  122  130  124  121  115  131  122  128  131  132  125  132  137  145  124  135  145  148  145  137  151  145  151  157  145  151  166  163  172  166   15
ch:  26     117  130  123  122  123  117  121  125  139  134  132  145  138  139  154  154  148  154  148  148  145  154  166  154  157  128  157  169  169  169  172   21
ch:  27     130  121  119  131  132  132  135  121  130  125  128  130  133  135  128  135  132  139  148  154  137  148  148  148  151  163  157  154  157  128  166    1
ch:  28     117  131  123  134  130  117  132  128  135  139  130  134  133  135  145  148  145  151  148  157  151  154  157  148  157  169  151  166  172  128  172   27
ch:  29     119  124  122  123  121  132  130  124  123  125  130  145  132  135  145  136  148  154  151  151  151  154  151  154  148  154  142  157  154  151  151    5
ch:  30     107  136  124  115  122  129  128  137  129  135  135  128  128  145  137  145  134  139  151  145  148  154  154  148  163  154  157  169  163  166  166   20
ch:  31     126  124  117  113  121  128  121  130  117  133  135  151  135  148  132  139  133  138  135  145  151  151  157  145  154  154  157  157  169  166  163    7
ch:  32     107  129  119  134  135  134  123  138  136  130  124  134  131  133  138  148  148  154  154  163  154  154  154  163  166  169  169  169  166  166  172   19
ch:  33     117  136  130  115  131  124  130  126  123  126  128  133  137  123  136  132  145  151  128  145  151  160  148  157  154  154  154  151  166  169  169   17
ch:  34     124  124  123  135  117  132  131  130  123  135  132  133  136  133  138  138  135  139  145  145  145  157  157  166  154  169  163  163  157  169  128   23
ch:  35     119  124  133  128  123  117  121  131  125  126  133  129  135  133  139  132  148  135  145  139  148  145  151  151  145  148  163  157  154  154  172    9
ch:  36     131  121  124  129  128  120  124  137  131  136  137  138  151  148  145  128  138  148  145  157  157  157  148  154  166  163  166  128  166  172  169   20
ch:  37     113  119  119  117  128  131  129  134  122  122  135  130  132  131  135  137  139  128  145  148  139  145  154  145  154  154  154  151  169  154  154    8
ch:  38     124  122  125  121  130  119  121  128  132  134  137  133  145  130  151  148  154  145  145  154  145  151  151  163  157  163  154  169  169  163  169   21
ch:  39     122  121  121  123  132  129  131  122  136  135  136  138  138  145  137  137  148  138  148  148  139  151  148  148  151  151  154  157  154  163  157    7
ch:  40     122  126  123  123  136  121  124  128  137  129  134  133  142  131  148  148  145  145  151  148  151  157  138  172  166  157  166  163  169  166  169   23
ch:  41     117  121  123  117  119  129  131  126  115  128  131  126  145  135  130  131  151  138  137  145  148  151  154  154  151  145  151  157  163  151  172    1
ch:  42     122  117  122  119  122  124  134  122  137  132  128  148  148  136  128  154  154  145  137  151  148  148  157  163  154  166  157  172  128  166  166   22
ch:  43     119  125  119  131  121  119  123  134  130  128  136  120  119  132  130  148  136  138  145  145  148  151  151  145  148  151  148  154  163  154  166    3
ch:  44     124  120  120  125  130  130  131  132  136  135  134  133  148  134  151  148  145  151  157  145  154  157  151  157  157  166  163  169  166  172  128   23
ch:  45     107  120  113  121  130  125  119  117  129  145  136  136  137  137  132  135  135  136  139  145  154  157  148  151  154  151  151  163  151  157  166    3
ch:  46     128  125  131  125  120  135  123  137  133  132  151  135  148  128  151  138  145  135  154  148  151  157  163  163  154  128  166  172  128  172  169   17
ch:  47     121  121  119  122  121  130  129  115  125  121  131  135  129  131  128  133  148  145  135  131  157  139  151  151  163  151  163  154  157  169  169   11
ch:  48     120  130  122  132  134  128  133  131  145  126  137  148  132  145  131  137  145  145  154  145  151  157  148  163  154  163  163  169  169  169  166    0
ch:  49     117  125  124  130  124  129  128  130  121  133  130  123  133  137  137  138  145  134  133  136  138  151  151  151  154  154  148  154  148  151  166    6
ch:  50     119  115  123  121  126  129  135  121  125  133  122  145  145  128  148  138  151  145  163  148  163  148  157  163  166  166  163  169  169  172  163   29
ch:  51     121  121  113  121  121  134  128  123  128  122  119  137  135  121  138  133  133  151  148  133  148  145  151  148  151  145  157  166  166  166  169    3
ch:  52     122  122  129  126  128  130  125  132  124  132  135  132  139  132  151  148  148  151  157  151  145  157  157  154  157  157  172  163  163  172  128   22
ch:  53     122  115  124  115  113  123  115  128  129  139  133  126  134  139  135  130  128  148  151  148  148  151  151  151  148  151  157  163  172  157  166   10
ch:  54     121  121  123  129  121  119  134  124  128  130  148  145  145  137  137  128  134  145  151  151  154  163  157  151  166  157  163  166  163  172  163   28
ch:  55     121  122  115  128  121  132  129  132  125  130  130  124  133  133  138  131  123  145  145  138  148  151  163  148  148  166  151  172  157  163  172   13
ch:  56     122  123  128  128  128  129  121  145  134  124  137  134  136  131  151  145  166  151  148  157  163  166  154  163  169  166  172  169  166  128  166   29
ch:  57     119  119  117  131  129  120  117  124  124  137  136  123  125  130  134  148  137  133  145  139  145  145  148  166  148  154  154  166  163  157  163    9
ch:  58     119  130  131  124  136  130  137  137  134  133  134  138  138  128  134  151  148  145  145  157  154  151  157  166  163  163  169  166  169  128  172   22
ch:  59     119  123  123  131  121  129  122  128  130  122  121  135  133  130  123  148  132  137  138  145  135  138  154  148  145  157  157  154  169  157  169   11
ch:  60     125  124  132  133  123  124  129  124  145  132  134  136  148  135  135  139  145  148  154  154  151  163  154  163  157  128  128  163  163  128  166   20
ch:  61     121  117  115  117  129  124  129  119  126  126  136  123  115  135  137  135  154  145  145  148  154  148  148  154  157  154  151  157  151  160  157   12
ch:  62     117  123  128  122  128  130  138  137  128  151  138  134  132  145  148  148  136  148  151  154  151  157  163  148  169  172  166  172  169  128  128   23
ch:  63     115  119  122  128  125  121  124  119  121  124  129  132  131  137  138  138  134  148  132  148  145  151  154  157  151  157  163  163  169  157  166    9
ch:  64     130  129  123  131  133  119  135  138  135  133  138  132  136  128  128  151  128  139  157  154  154  166  154  169  169  166  128  163  163  166  128   28
ch:  65     134  123  117  121  121  121  134  115  122  137  121  131  133  148  128  148  137  129  154  128  138  148  154  148  128  154  136  151  166  163  154    9
ch:  66     128  123  123  124  123  129  132  131  136  131  134  129  133  137  145  154  151  154  151  151  148  157  157  166  163  157  163  163  166  128  128   22
ch:  67     117  123  120  128  123  128  124  133  130  138  130  131  134  136  148  151  128  137  145  135  154  151  151  151  151  154  145  163  163  169  166    8
ch:  68     120  117  122  129  121  131  121  122  134  123  145  139  145  148  145  145  145  151  148  138  157  163  157  145  166  163  172  172  166  128  128   31
ch:  69     119  113  122  117  115  117  125  131  117  134  151  131  130  145  145  138  151  138  151  151  151  137  145  157  154  154  163  166  151  166  169    5
ch:  70     115  119  121  129  122  132  129  121  136  134  133  148  134  128  148  138  145  151  157  148  148  154  148  163  163  154  169  128  157  169  169   28
ch:  71     117  121  122  119  117  121  121  125  130  132  138  133  132  145  132  129  137  131  128  148  128  148  154  151  157  151  169  154  154  169  166   13
ch:  72     123  134  122  113  121  128  125  129  134  131  137  145  151  138  160  148  145  148  145  163  157  154  154  163  169  160  166  169  166  128  128   22
ch:  73     115  125  107  113  121  123  121  121  117  128  134  128  128  145  145  145  139  148  138  128  148  145  157  151  148  157  163  157  166  169  154    8
ch:  74     122  113  119  119  130  134  129  124  124  128  137  145  148  148  145  139  148  138  163  166  128  166  145  166  157  172  166  157  166  166  128   22
ch:  75     117  119  115  129  123  124  130  128  126  131  129  130  124  135  128  145  135  138  135  134  154  151  151  166  148  172  169  163  169  166  154    9
ch:  76     113  117  137  124  134  125  145  132  139  124  128  145  145  145  154  151  148  151  145  154  148  166  157  169  166  163  154  163  128  169  172   23
ch:  77     121  117  120  119  125  122  121  119  121  128  136  128  131  132  138  131  148  139  148  139  157  157  154  148  154  148  151  157  154  166  169    7
ch:  78     124  124  119  120  119  136  125  128  134  131  128  132  133  145  145  145  148  138  148  148  148  166  151  166  163  166  166  163  128  172  163   24
ch:  79     120  115  117  117  122  121  121  134  133  123  130  135  129  134  136  145  132  138  125  136  154  139  148  163  136  163  157  163  166  154  169   12
ch:  80     131  130  121  119  120  120  136  122  130  131  137  139  145  154  139  145  151  154  145  148  154  151  157  169  163  163  163  128  169  128  128   31
ch:  81     121  123  122  129  122  124  120  131  123  125  131  136  124  132  145  125  128  136  148  138  145  137  145  148  157  145  154  163  154  166  166   13
ch:  82     121  117  115  129  122  125  129  136  133  122  131  135  136  129  148  157  151  145  151  148  151  154  157  145  151  154  169  169  172  166  128   26
ch:  83     119  121  128  122  123  120  134  119  129  130  128  133  136  133  136  136  148  138  145  145  139  154  148  163  157  157  163  166  163  169  166   19
ch:  84     133  123  122  122  122  135  129  135  136  145  133  148  145  128  135  145  128  148  148  154  148  151  163  163  157  169  157  166  169  172  169   23
ch:  85     107  124  119  132  123  121  128  123  136  129  125  129  145  145  130  129  151  145  148  148  151  145  145  151  151  163  154  157  163  128  166    8
ch:  86     121  124  119  119  115  119  136  132  121  139  148  145  136  154  128  139  148  148  157  157  163  157  154  148  169  154  172  157  163  169  128   23
ch:  87     119  120  117  117  123  129  128  133  138  130  129  129  134  142  128  134  151  148  136  148  145  139  151  148  154  157  154  163  154  154  163    5
ch:  88     115  128  131  123  132  121  131  137  128  123  135  131  138  135  135  145  154  148  163  154  154  163  163  157  151  172  169  157  163  157  128   21
ch:  89     117  119  120  122  119  130  119  119  131  134  136  136  128  151  148  137  139  145  137  136  157  148  157  148  151  151  154  154  154  166  166    9
ch:  90     129  130  128  145  128  119  132  134  132  137  139  138  128  145  134  137  151  148  148  151  151  157  154  163  154  169  166  157  166  128  172   22
ch:  91     119  119  119  115  132  130  124  121  131  131  131  145  138  129  138  131  128  129  128  137  151  139  148  148  154  148  166  166  154  166  128    4
ch:  92     113  121  115  122  130  126  134  136  128  132  145  136  154  132  134  157  148  151  151  151  145  154  151  154  163  157  169  160  163  128  128   32
ch:  93     121  122  121  124  132  117  131  119  134  130  130  123  135  145  131  137  136  145  148  148  148  151  154  157  163  154  151  166  163  163  128    9
ch:  94     121  122  123  128  124  128  132  133  137  131  138  148  138  148  148  148  151  151  151  163  154  163  154  157  154  157  163  163  172  128  128   23
ch:  95     131  121  121  121  119  121  121  122  124  145  133  129  135  135  133  137  148  139  148  132  154  128  151  151  148  154  166  157  151  163  166    8
ch:  96     119  123  125  133  123  139  131  131  139  131  131  136  148  151  145  128  137  154  154  157  151  151  166  169  166  157  172  172  169  169  169   21
ch:  97     124  115  119  122  123  124  129  123  129  136  123  125  133  128  128  119  137  145  139  128  145  154  145  157  157  154  157  166  169  166  169   16
ch:  98     113  129  123  124  117  125  135  132  132  136  136  145  134  139  157  148  139  154  148  137  148  148  151  163  154  163  157  163  157  128  128   21
ch:  99     103  117  115  117  129  136  128  119  122  130  130  131  145  136  145  133  133  148  148  151  148  136  148  145  163  151  151  154  163  166  163    8
ch: 100     130  119  121  122  121  117  122  134  133  133  145  145  148  134  145  134  148  151  154  157  151  148  163  169  163  169  128  166  169  128  169   21
ch: 101     115  130  122  113  121  128  126  133  123  132  129  132  122  123  134  137  145  128  154  148  145  145  134  154  154  145  154  154  169  169  163   12
ch: 102     121  129  121  132  135  128  132  125  132  131  133  130  136  128  148  145  151  145  157  151  154  157  163  154  154  166  166  163  163  172  166   27
ch: 103     121  115  128  121  115  128  137  124  130  131  131  130  137  133  131  137  148  137  145  128  145  131  154  145  163  163  154  166  169  157  163    8
ch: 104     119  123  129  128  133  130  122  133  130  151  136  137  134  145  133  148  145  151  154  154  154  148  163  169  154  166  163  163  166  128  128   23
ch: 105     115  117  122  125  133  131  121  124  128  138  137  145  131  138  128  137  138  134  148  151  139  145  157  154  157  154  151  163  163  163  166    3
ch: 106     123  121  122  128  129  130  145  130  128  135  137  129  132  151  148  148  157  163  148  163  163  166  128  157  148  169  172  169  172  169  172   29
ch: 107     119  125  128  121  129  126  130  117  131  133  128  137  139  130  129  139  128  128  139  148  136  151  148  151  157  145  163  151  166  151  151    5
ch: 108     128  119  119  119  124  131  139  131  133  133  134  139  138  145  139  148  139  148  148  157  151  154  163  157  154  148  166  172  166  163  128   26
ch: 109     122  117  124  121  119  119  131  124  119  145  129  124  135  132  134  131  134  137  148  145  139  139  151  148  163  154  154  163  157  172  154   12
ch: 110     119  128  120  119  121  130  132  130  130  128  145  131  135  136  137  151  138  136  169  154  154  154  151  172  163  166  166  163  172  128  128   28
ch: 111     121  122  115  128  126  138  117  121  131  135  131  138  138  145  135  131  135  135  145  148  148  145  151  157  145  157  148  154  172  163  157    9
ch: 112     117  122  125  125  119  130  129  130  137  128  130  137  128  145  136  151  148  148  151  151  154  154  151  160  157  157  157  169  128  169  128   21
ch: 113     117  113  121  125  117  136  129  121  129  123  134  123  133  145  132  129  145  145  133  148  154  148  148  148  154  154  163  154  157  151  169   15
ch: 114     107  130  123  132  133  130  129  124  135  135  128  145  148  145  157  148  148  148  154  154  145  151  166  154  169  157  154  169  172  172  172   30
ch: 115     115  124  119  123  124  115  128  124  123  119  129  129  131  148  125  128  154  139  128  145  131  148  148  139  157  157  157  166  169  163  169    6
ch: 116     136  128  132  115  130  117  124  129  128  135  148  148  134  136  135  138  148  154  148  128  151  151  154  154  169  166  163  166  166  128  128   29
ch: 117     119  113  125  126  135  123  121  121  130  132  123  122  138  124  131  145  135  145  139  148  128  139  151  148  151  157  151  157  157  166  166    8
ch: 118     119  117  121  115  134  131  130  129  129  135  134  148  135  130  136  148  128  135  151  148  148  166  154  163  157  157  163  169  157  169  172   17
ch: 119     124  115  124  130  126  124  128  123  123  136  126  135  145  134  128  135  134  145  151  151  137  154  148  154  157  157  154  148  157  166  154   11
ch: 120     115  115  115  128  117  126  128  138  119  132  139  145  139  127  145  133  128  148  154  151  154  151  157  151  169  163  166  166  169  169  169   30
ch: 121     105  121  117  115  124  125  122  128  123  130  117  133  130  129  138  138  134  136  154  135  148  157  151  163  154  154  157  151  154  163  166    6
ch: 122     115  117  119  122  119  131  130  131  132  133  132  131  145  130  145  151  151  151  148  154  157  128  148  154  169  154  166  163  172  166  172   21
ch: 123     117  117  124  129  130  128  124  128  133  134  131  131  135  148  135  145  145  148  148  148  133  145  154  154  151  151  148  151  163  166  166    9
ch: 124     122  119  132  117  130  123  131  136  145  133  134  134  145  145  136  148  148  145  148  148  166  154  166  154  157  157  166  166  166  128  166   37
ch: 125     130  103  123  124  115  120  128  137  119  135  134  129  135  132  137  148  148  148  145  148  132  148  139  145  139  154  163  163  169  166  157    0
ch: 126     125  122  121  129  128  124  132  128  134  131  130  135  136  154  128  148  151  148  151  157  154  151  145  157  169  154  166  172  169  166  166   18
ch: 127     105  121  119  128  132  132  125  134  130  128  128  128  138  128  139  136  157  138  137  157  151  145  166  154  154  151  157  157  163  169  128   15
