# TRIM CALIBRATION    FEB6_1_4    pulse_ampl_min=40    pulse_ampl_max=200    pulse_ampl_fast=40
#
ch:   0     115  115  113  121  121  132  136  137  136  135  137  135  131  131  145  148  145  151  134  145  148  157  151  151  172  154  163  166  169  163  166   25
ch:   1     115  119  113  119  115  119  119  129  121  132  122  139  130  139  134  133  135  148  151  145  125  148  145  151  145  148  151  154  151  163  169    4
ch:   2     105  117  115  122  123  129  132  130  128  128  130  131  134  134  137  148  145  145  145  142  154  154  157  163  151  157  163  172  166  128  128   20
ch:   3     117  115  117  117  117  129  115  122  117  128  130  145  121  137  136  131  136  131  134  145  145  148  145  154  151  154  151  154  166  166  166    6
ch:   4     117  117  129  103  129  132  132  119  129  128  139  145  135  148  136  148  139  157  148  145  148  148  148  154  157  169  163  157  157  169  169   32
ch:   5     109  115  119  115  128  115  122  122  129  122  122  132  133  135  122  139  132  129  145  137  145  137  145  148  142  151  157  163  148  154  163   16
ch:   6     117  109  121  119  122  125  122  123  119  124  131  138  133  138  128  148  151  157  145  139  148  145  154  154  163  160  172  166  172  163  169   22
ch:   7     113  105  113  120  122  119  129  119  129  128  128  134  133  134  121  130  133  129  133  145  142  135  154  154  145  154  163  157  148  166  154    7
ch:   8     119  121  119  122  120  122  130  134  136  136  134  134  145  145  134  154  148  128  145  157  139  157  163  148  163  163  163  169  166  163  128   22
ch:   9     113  113  105  113  115  109  132  131  115  130  124  130  132  132  137  148  129  138  139  148  148  145  148  145  151  163  151  148  166  154  166    6
ch:  10     105  113  113  121  113  134  117  115  135  131  137  132  139  142  134  138  145  148  151  151  148  148  157  157  157  163  163  157  166  166  172   20
ch:  11     115  113  117  122  123  119  120  121  130  133  132  130  132  129  135  138  134  128  148  145  157  148  154  148  145  157  154  166  154  163  157   11
ch:  12     103  113  120  129  119  122  122  145  130  129  138  135  132  139  137  139  148  151  145  151  151  163  148  151  166  154  169  163  154  169  169   26
ch:  13     113  123  115  115  123  122  121  135  130  123  131  132  135  125  137  132  139  142  139  139  138  139  148  142  151  154  157  163  145  157  157    9
ch:  14     107  117  117  121  121  129  123  128  122  122  128  133  148  145  134  151  148  148  145  151  148  148  154  154  163  157  163  157  157  166  172   24
ch:  15     119  132  113  124  129  121  119  123  121  119  133  128  130  131  123  134  134  139  135  139  132  136  151  154  154  148  148  166  154  151  172   10
ch:  16     117  121  115  120  107  121  131  123  134  132  133  130  134  132  136  145  138  151  148  145  151  148  163  157  169  163  163  166  169  166  128   24
ch:  17     117  107  120  105  122  123  122  117  124  123  131  129  130  137  133  129  142  139  145  145  129  148  135  151  163  145  154  163  154  166  157   13
ch:  18     115  115  128  115  121  133  132  145  129  137  139  128  129  138  145  137  138  148  154  148  151  142  157  154  154  157  166  151  163  166  163   30
ch:  19     115  121  101  123  107  117  123  113  115  120  125  134  128  134  137  131  135  134  145  148  139  137  139  145  154  139  145  166  154  163  169    7
ch:  20     113  121  119  121  121  119  119  121  121  130  133  123  124  145  137  145  145  136  148  145  154  142  145  163  163  163  157  166  166  128  128   37
ch:  21     121  105  119  115  119  117  123  117  119  119  135  132  134  132  136  138  130  129  128  134  131  151  148  148  145  148  166  157  157  157  145   15
ch:  22     121  119  128  138  130  122  122  128  135  128  135  128  131  139  133  134  148  137  148  154  148  154  148  154  151  163  157  154  172  151  169   34
ch:  23     121  117  113  115  119  131  121  119  117  124  128  119  136  119  132  136  142  133  136  148  137  132  151  151  151  148  145  148  163  151  154    6
ch:  24     117  107  119  125  122  119  122  128  136  124  119  145  134  133  142  145  138  148  145  151  154  154  151  166  163  157  157  157  163  166  166   23
ch:  25     107  117  109  117  121  113  117  123  123  128  136  130  123  122  128  123  142  133  137  145  138  138  145  145  151  135  151  154  151  154  157   17
ch:  26     113  121  121  117  137  117  133  121  131  135  139  134  139  135  148  139  139  138  145  157  154  154  148  163  166  166  157  151  163  163  128   25
ch:  27     120  119  113  117  123  117  121  115  136  120  119  135  133  131  136  136  136  125  138  133  138  136  148  157  154  148  148  142  163  151  154   22
ch:  28     115  109  109  115  121  125  123  132  123  131  122  128  138  130  128  137  145  134  148  157  145  148  154  157  169  154  157  166  166  172  128   31
ch:  29     109  117  117  121  113  113  117  117  129  131  122  132  137  125  135  124  139  137  148  145  133  142  148  157  135  154  148  157  157  166  163   17
ch:  30     117  117  119  117  121  129  145  124  130  130  136  135  145  139  145  145  145  157  148  145  151  148  148  157  151  157  166  157  169  172  128   24
ch:  31     113  105  121  122  124  117  135  124  122  122  123  128  130  135  136  128  129  145  154  139  136  148  154  128  151  148  148  154  157  154  154   10
ch:  32     107  121  117  119  117  119  132  132  130  129  136  134  137  128  139  139  148  148  148  163  145  163  148  163  163  169  145  163  172  128  166   24
ch:  33     113  119  113  113  115  117  123  121  120  117  128  133  130  136  134  129  130  136  151  138  137  128  148  154  148  148  154  157  163  163  166   17
ch:  34     115  107  134  122  121  122  131  139  136  134  139  131  138  139  136  136  151  142  148  148  151  157  145  154  166  154  151  166  157  172  169   30
ch:  35     119  129  113  105  119  121  124  123  113  125  128  124  122  120  130  136  129  145  145  129  148  139  148  151  148  128  148  154  151  163  166   12
ch:  36     120  120  128  119  122  132  128  128  125  131  145  136  148  133  148  148  148  151  157  148  151  145  154  163  148  157  169  163  169  154  172   32
ch:  37     121  109  117  119  119  115  122  119  124  134  137  137  121  130  135  123  148  142  148  148  142  136  133  148  148  154  151  154  157  163  160   15
ch:  38     119  121  119  123  122  130  132  128  124  138  115  124  136  135  132  135  145  145  151  151  154  154  151  151  151  163  166  163  157  166  166   34
ch:  39     115  120  115  117  124  117  123  119  123  123  130  129  134  121  121  137  142  131  136  142  139  139  148  151  154  151  145  151  154  169  166   15
ch:  40     117  117  121  124  123  132  120  124  130  134  131  135  133  138  151  135  145  148  154  142  151  139  151  163  151  169  163  151  169  163  169   31
ch:  41     119  117  130  123  129  122  121  124  132  123  122  133  130  122  130  137  123  131  133  136  133  132  142  148  154  148  139  154  157  163  157   11
ch:  42     115  119  129  129  119  121  128  130  117  120  123  136  145  136  145  129  139  128  145  148  145  148  157  151  154  157  169  169  169  172  157   30
ch:  43     123  109  119  113  119  121  120  124  132  119  128  129  132  137  142  145  135  130  134  148  145  145  139  138  154  142  151  148  166  154  163   17
ch:  44     107  117  117  119  124  131  132  134  123  123  123  131  132  139  142  145  145  145  128  148  157  148  148  148  166  157  157  169  166  166  166   36
ch:  45     115  115  128  119  117  117  119  117  130  124  122  122  134  129  132  131  139  136  134  138  145  148  137  128  145  139  169  154  157  154  157   21
ch:  46     113  130  109  128  128  134  115  119  119  133  128  135  123  131  135  148  148  145  145  154  145  151  157  166  154  169  163  157  166  166  172   30
ch:  47     113  115  122  113  119  117  121  117  130  133  119  122  119  129  122  134  134  145  136  128  128  145  138  151  142  151  148  154  154  148  163   10
ch:  48     107  119  117  119  117  117  123  121  130  123  132  128  145  137  148  137  148  151  138  148  151  133  154  154  169  163  163  169  166  128  172   42
ch:  49     107  122  119  113  121  120  122  119  117  119  124  130  129  134  131  131  145  138  148  131  138  139  145  148  151  148  154  151  151  157  163   17
ch:  50     121  131  117  123  129  119  133  137  128  128  128  128  136  148  137  145  134  138  139  145  151  145  157  154  157  157  157  163  163  157  166   32
ch:  51     109  107  113  115  122  123  124  128  123  128  136  123  132  135  132  137  139  128  133  139  136  142  148  145  148  148  154  148  151  157  157   15
ch:  52     122  117  105  117  133  128  134  128  132  134  122  138  136  129  138  142  145  145  148  151  148  148  154  151  151  148  154  157  166  172  166   22
ch:  53     119  117  124  113  128  109  107  124  128  113  123  128  130  134  119  135  142  131  135  128  135  148  145  145  145  145  145  154  151  157  163   21
ch:  54     113  117  103  103  130  115  130  130  132  137  138  137  137  145  148  145  131  154  128  148  145  145  148  145  157  166  157  169  163  163  163   28
ch:  55     132  115  119  121  115  117  115  119  128  131  135  139  134  138  136  131  128  137  134  139  132  137  148  151  145  128  154  148  151  154  157   19
ch:  56     105  122  122  123  125  119  120  123  120  132  132  128  138  138  151  139  148  137  145  142  151  145  148  142  157  157  163  163  163  166  166   25
ch:  57     117  117  120  131  111  139  120  124  130  115  132  124  122  125  135  128  134  148  137  128  139  131  154  148  128  151  154  160  151  157  163   19
ch:  58     119  130  119  119  117  121  128  121  122  119  134  135  136  139  138  129  138  128  145  145  163  145  151  157  169  145  163  172  169  163  172   23
ch:  59     121  120  121  120  122  129  121  115  133  123  134  115  131  128  131  131  128  145  138  148  133  148  145  137  145  142  151  163  166  163  151   20
ch:  60     117  129  115  109  133  129  138  122  133  131  136  139  134  121  130  145  148  148  145  136  151  151  151  163  163  163  157  128  166  169  163   37
ch:  61     115  117  124  105  117  123  115  117  121  119  115  120  132  129  138  128  154  148  145  128  138  138  151  154  157  145  142  148  163  154  151   18
ch:  62     107  124  121  129  121  109  115  123  142  128  130  148  145  135  139  139  157  151  138  128  145  166  137  148  166  163  163  163  166  172  169   30
ch:  63     115  109  117  109  107  115  115  124  119  119  119  121  131  122  135  139  139  139  145  142  148  154  148  128  145  148  145  157  151  160  163    9
ch:  64     107  115  119  121  113  128  113  124  130  138  135  136  131  137  148  136  142  151  154  145  154  154  148  151  163  157  154  166  163  172  169   32
ch:  65     121  115  115  109  129  119  124  134  123  122  132  139  132  134  132  133  133  135  123  135  137  136  142  142  145  151  142  157  163  145  148   11
ch:  66     105  115  115  117  117  122  120  129  130  134  129  132  139  133  133  133  145  151  154  148  151  151  138  154  157  163  166  154  166  163  172   19
ch:  67     103  117  113  113  115  115  119  115  117  124  131  130  128  122  124  128  131  135  121  131  138  151  151  138  142  145  163  148  154  145  166    7
ch:  68     113  119  119  123  128  123  130  115  137  145  132  138  154  128  148  134  148  138  139  154  128  163  145  154  169  169  169  163  172  163  128   36
ch:  69     117  113  128  113  120  115  128  115  125  131  122  132  133  124  129  128  128  138  145  148  134  142  145  148  148  148  148  154  151  163  151   15
ch:  70     115  109  105  128  130  119  130  123  135  137  134  134  131  130  128  128  145  131  157  148  154  154  154  154  154  154  157  163  151  157  169   32
ch:  71     113  105  129  115  109  130  133  117  121  123  124  132  139  129  128  135  131  132  139  145  137  145  139  148  135  148  154  148  154  157  163   19
ch:  72     120  117  125  117  122  130  117  129  137  123  132  129  137  136  138  145  133  136  128  157  151  163  154  157  166  157  154  166  163  166  166   20
ch:  73     107  117  117  128  124  121  117  119  130  117  135  119  130  133  128  130  131  138  148  137  151  138  139  148  148  137  154  151  154  148  163   14
ch:  74     121  119  115  120  124  117  134  148  132  132  128  128  131  139  145  145  148  148  145  157  151  163  151  163  157  154  151  172  166  169  163   26
ch:  75     113  115  117  117  121  119  122  119  119  128  135  136  132  128  135  131  132  135  129  135  151  151  148  148  145  145  145  148  163  157  151   19
ch:  76     113  117  115  134  133  135  122  123  133  137  148  134  139  135  151  132  145  138  151  145  154  148  145  163  163  166  172  154  166  128  172   38
ch:  77     107  113  121  124  123  121  117  131  119  130  128  122  130  131  137  129  145  133  148  145  145  142  145  163  151  154  145  157  169  166  172   15
ch:  78     105  129  115  109  123  124  123  122  130  134  134  128  132  128  131  148  142  145  139  151  151  154  148  154  145  163  166  163  163  169  163   34
ch:  79     113  132  115  119  115  132  129  130  128  136  130  134  121  133  124  134  117  132  145  148  148  151  145  151  139  154  154  154  151  166  163   19
ch:  80     120  115  124  121  129  124  119  129  133  130  121  134  135  137  128  138  145  148  148  145  154  157  154  154  163  148  169  166  163  128  172   24
ch:  81     117  119  121  113  115  115  121  129  129  129  122  119  128  123  124  133  119  145  135  145  133  145  151  145  154  145  145  154  154  163  154   17
ch:  82     117  121  128  117  117  129  145  120  128  134  129  145  145  130  137  142  148  157  145  151  148  145  151  145  151  145  151  166  151  172  169   42
ch:  83     122  117  123  119  134  119  107  121  131  121  129  130  122  131  130  129  133  138  139  139  137  145  151  145  154  151  163  157  148  172  163   21
ch:  84     120  131  119  113  133  115  117  122  132  123  133  133  133  145  128  132  145  151  128  154  145  163  151  145  154  148  163  128  151  157  172   23
ch:  85     117  117  113  115  121  117  129  132  117  124  122  133  131  132  129  136  148  145  133  136  148  135  145  148  151  151  145  154  157  157  163   20
ch:  86     113  107  132  136  121  123  129  128  131  136  135  138  135  128  145  132  151  128  154  148  148  154  151  157  157  163  166  157  154  163  148   29
ch:  87     105  119  105  121  113  123  117  132  121  131  122  145  136  129  139  123  121  145  128  136  151  145  145  145  151  151  157  157  148  151  151   21
ch:  88     117  129  122  124  132  123  121  129  129  128  135  137  133  137  135  133  145  138  148  157  145  145  157  163  151  154  166  154  154  128  172   24
ch:  89     107  117  121  117  123  121  130  109  124  130  115  135  134  130  130  131  131  121  136  151  145  145  148  151  148  157  148  148  151  151  151   20
ch:  90     113  117  117  122  131  137  131  131  135  129  136  131  123  138  138  131  151  137  145  148  154  154  154  151  154  154  166  163  169  157  172   39
ch:  91     115  121  107  119  122  113  117  117  122  115  133  124  122  134  132  145  137  134  157  139  132  145  148  148  145  145  154  151  163  157  163   11
ch:  92     115  107  120  132  130  123  131  137  137  131  121  145  148  138  148  151  145  139  151  139  151  157  151  151  166  157  163  151  166  166  166   36
ch:  93     109  113  113  117  115  128  115  121  107  117  132  135  138  133  133  139  133  138  131  132  151  139  145  145  148  148  148  128  148  166  163    9
ch:  94     122  117  125  120  128  121  123  135  128  122  128  130  139  134  145  132  154  151  148  148  148  154  154  163  157  169  163  163  163  166  172   39
ch:  95     115  109  117  121  119  120  122  113  122  135  119  124  124  128  132  135  134  131  134  138  136  145  145  151  142  148  148  151  157  154  166   11
ch:  96     115  120  109  119  129  132  117  123  122  129  132  132  131  134  142  138  142  145  137  151  151  151  154  154  154  151  157  163  169  166  169   31
ch:  97     107  113  115  109  113  123  133  122  124  123  115  119  119  132  132  130  134  137  128  145  136  145  139  154  163  151  151  154  151  154  157   13
ch:  98     121  123  115  120  119  134  128  117  128  133  138  128  128  139  136  133  154  148  154  139  145  151  163  163  163  166  166  157  163  157  169   21
ch:  99     117  109  120  131  117  109  122  135  109  132  128  132  131  135  145  122  122  138  151  145  137  139  148  136  148  148  148  145  154  151  154   19
ch: 100     117  128  132  121  119  124  123  122  130  131  134  131  139  134  145  136  145  148  145  148  151  154  148  148  166  163  148  154  163  128  166   34
ch: 101     123  117  128  121  123  121  125  132  122  113  121  123  130  128  132  134  136  133  128  148  132  148  148  151  148  151  145  163  157  157  154   20
ch: 102     113  132  117  124  125  130  117  122  131  139  125  134  135  145  138  128  157  151  154  148  163  154  151  154  157  157  151  157  151  166  169   28
ch: 103     115  115  124  117  119  109  131  129  123  115  142  120  128  138  132  129  128  135  136  148  145  145  145  145  145  151  145  145  128  154  163   17
ch: 104     105  121  117  113  129  117  123  120  121  131  132  138  139  132  131  133  151  142  145  148  151  157  157  151  151  148  166  154  169  166  166   21
ch: 105      99  115  109  121  128  131  129  119  121  121  123  123  132  132  137  131  137  145  136  145  133  148  148  154  154  154  154  154  163  151  154    9
ch: 106     121  135  115  133  123  130  128  128  136  122  137  133  135  136  137  151  154  128  151  145  132  148  166  166  157  154  166  166  169  157  172   37
ch: 107     113  115  120  113  130  123  119  121  119  132  124  124  131  119  129  145  129  139  138  148  139  145  145  157  148  151  157  157  157  157  157   13
ch: 108     119  128  129  129  124  128  133  133  130  136  135  145  131  123  136  148  148  137  128  148  145  157  151  139  163  172  166  163  169  169  172   35
ch: 109     117  107  117  117  119  133  115  128  121  133  115  132  145  134  128  145  133  135  134  145  137  138  139  148  148  145  154  148  128  154  172   10
ch: 110     103  115  117  124  132  124  134  139  133  132  135  133  137  154  145  139  142  135  163  151  148  151  154  154  154  166  163  166  151  169  157   34
ch: 111     109  109  121  120  115  109  109  125  121  122  129  119  121  119  130  133  151  122  129  124  139  128  136  151  154  151  148  169  154  157  169    8
ch: 112     117  134  117  132  122  131  134  121  132  134  145  125  145  139  130  142  148  138  135  154  154  154  163  145  151  169  163  166  169  163  166   21
ch: 113     107  113  115  109  121  117  123  123  130  136  120  128  129  132  137  138  124  128  138  137  137  145  138  151  151  154  142  154  166  139  169   15
ch: 114     121  115  117  117  122  123  128  119  128  129  131  128  131  138  138  137  134  148  134  128  148  145  148  154  166  157  154  154  154  163  166   35
ch: 115     109  117  113  119  122  121  117  117  122  138  130  145  133  129  128  128  134  137  136  154  157  148  151  151  157  154  148  154  157  151  154   10
ch: 116     131  119  129  124  128  134  130  115  128  122  124  131  130  131  134  145  148  148  148  154  151  148  154  154  151  148  163  163  166  163  128   35
ch: 117     119  115  119  115  113  121  121  117  128  123  120  134  132  145  136  121  145  145  134  145  139  128  145  151  148  148  145  145  163  151  145    8
ch: 118     113  117  119  117  113  119  132  129  133  134  138  145  132  139  145  136  138  138  151  145  145  145  148  154  163  157  166  169  172  163  172   27
ch: 119     115  119  115  117  134  123  121  115  131  119  123  132  151  122  131  128  145  134  148  145  139  145  145  138  148  145  154  151  151  163  166   11
ch: 120     119  119  124  117  119  121  117  122  115  121  145  131  137  148  139  139  154  151  137  151  148  154  151  154  148  154  163  166  163  169  166   26
ch: 121     115  115  113  119  115  128  130  115  122  123  129  124  122  131  128  121  137  128  145  148  151  135  139  145  151  148  139  148  166  169  166   13
ch: 122     117  121  109  129  129  130  117  134  136  124  123  148  139  139  145  145  145  148  128  151  148  151  169  166  163  157  172  169  151  169  172   19
ch: 123     107  119  113  132  122  121  138  113  120  136  124  129  132  142  138  137  134  142  136  133  139  145  142  139  151  151  148  148  166  145  172   11
ch: 124     119  137  122  134  120  117  117  130  135  130  138  129  135  145  148  128  151  128  145  151  145  157  139  151  172  163  128  154  128  154  169   25
ch: 125     119   99  101  117  122  121  120  117  121  129  132  131  131  134  132  137  128  145  142  135  128  138  128  148  148  154  151  157  154  163  157   13
ch: 126     101  117  115  129  113  129  124  121  135  134  135  128  132  138  139  128  128  148  148  154  148  151  151  151  157  166  163  157  166  128  169   30
ch: 127     117  131  117  121  117  121  119  119  123  123  148  129  137  138  136  134  132  139  145  145  145  139  154  154  148  148  151  151  151  163  172   11
