# TRIM CALIBRATION    FEB6_7_2    pulse_ampl_min=40    pulse_ampl_max=200    pulse_ampl_fast=40
#
ch:   0     115  115  122  117  115  122  122  119  113  128  131  139  132  119  122  134  133  132  139  133  138  145  148  145  145  148  148  148  151  157  157   13
ch:   1     119   99  101  103  103  105  113  134  117  107  128  132  121  130  130  124  130  129  132  130  128  133  145  145  138  139  145  137  154  163  145    0
ch:   2     105  113  117  128  129  124  117  107  119  122  121  125  129  132  130  133  137  121  132  128  148  138  145  138  138  148  154  145  151  148  154   13
ch:   3     109  109  107  122  105  113  107  115  115  122  133  124  120  119  122  134  117  135  139  135  137  136  128  145  137  128  145  154  132  157  154    0
ch:   4     113  117  105  109  117  113  113  122  121  119  129  121  134  121  132  121  132  137  135  128  135  151  138  151  145  136  157  157  145  154  148    3
ch:   5     117  113  121  107  121  121  117  119  117  119  124  120  122  129  119  130  126  133  122  129  130  138  138  138  145  124  154  145  151  148  151    0
ch:   6     105  121  117  117  113  109  124  119  122  130  119  129  123  123  123  133  137  121  134  136  145  137  145  145  148  145  148  163  145  151  163    1
ch:   7     113  107  113  117  117  105  121  123  105  117  119  123  121  107  123  129  129  122  123  123  121  121  138  139  128  135  148  145  151  148  163    0
ch:   8     115  117  107  113  107  117  119  122  119  119  119  130  129  133  119  132  133  148  138  137  138  145  128  148  157  148  148  157  151  163  148    9
ch:   9     122  107  115  101  113  121  105  119  117  123  120  123  117  123  119  128  135  137  135  134  132  128  134  138  138  138  131  145  154  157  169    1
ch:  10     117  113  107  115  105  117  125  119  119  121  128  131  133  132  138  134  138  133  131  145  133  142  145  145  145  145  157  154  154  166  157    9
ch:  11     105  107  117  103  113  115  117  119  117  121  128  115  117  123  119  119  122  130  128  129  123  128  139  145  145  136  151  148  154  148  151    0
ch:  12      87  107  105  113  109  122  117  121  123  132  125  122  129  113  128  148  128  134  145  142  145  148  148  145  148  148  128  148  151  157  157    7
ch:  13     117  107  105  115  119  105  117  107  119  121  122  121  121  122  121  123  115  129  129  135  123  135  132  145  151  145  148  148  145  145  151    0
ch:  14     107  113  101  103  113  103  122  117  119  120  129  135  123  130  123  135  137  137  131  145  128  145  138  145  134  163  137  157  148  154  166   11
ch:  15     103  113  117  113  113  121  117  115  103  115  129  120  123  132  119  130  135  122  130  136  128  128  137  129  138  135  148  128  154  151  154    0
ch:  16     113  113  115  103  115  121  119  123  122  117  129  131  117  136  133  137  135  137  145  163  151  154  145  139  151  128  148  151  163  151  163   15
ch:  17     105  107  113  119  109  107  119  121  121  107  113  122  132  133  119  124  117  119  128  131  145  128  133  136  148  145  134  151  139  148  151    0
ch:  18     109  107  105  105  113  119  124  119  123  115  122  131  121  123  125  121  137  135  145  136  131  145  145  133  148  148  163  148  157  145  154   13
ch:  19     107  113  107  113  105  103  119  122  117  119  121  117  123  129  134  128  124  124  129  132  128  148  139  137  145  148  148  128  145  148  163    6
ch:  20     107  107  103  122  117  119  113  117  115  119  122  122  131  130  130  138  133  133  137  139  133  151  145  138  138  154  151  128  154  148  166   10
ch:  21     103   93  103  105  113  121  113  117  115  121  119  115  119  123  122  121  121  123  138  129  123  130  138  128  145  136  138  145  145  145  128    0
ch:  22     113  117  115  121  119  121  131  105  123  119  123  121  115  130  131  137  122  137  133  128  148  122  145  148  128  145  138  148  154  148  163   12
ch:  23     113   99  107  107  121  115  117  115  113  115  130  121  129  119  123  122  120  128  131  132  129  128  151  148  135  139  135  148  128  145  154    0
ch:  24     113  115  113  117  109  119  113  121  121  129  124  120  123  123  124  134  145  128  130  145  135  133  145  148  145  154  135  148  163  148  151   11
ch:  25     105  119   99  113  107  119  117  113  120  115  121  132  124  119  134  129  133  129  117  128  132  131  131  128  138  134  134  130  128  145  148    4
ch:  26     123  107  117  113  113  121  117  119  124  128  128  123  129  129  131  124  122  136  128  135  139  136  145  145  128  148  154  145  163  154  163   12
ch:  27     115  128  107  113  113  117  113  105  121  123  107  128  117  115  117  117  135  123  122  132  123  135  148  136  137  128  145  145  148  145  145    0
ch:  28     107  113  117  103  121  109  113  121  121  117  123  113  124  132  133  135  130  135  135  145  135  138  135  137  148  136  151  154  148  151  151   17
ch:  29     101   99  103  107  117  119  120  123  115  117  122  117  129  115  117  117  135  119  134  122  132  138  145  145  136  135  145  145  151  145  148    0
ch:  30     119  115  113  115  117  119  124  119  121  131  125  124  123  132  134  122  132  134  132  135  131  148  145  151  138  148  137  157  151  163  151    7
ch:  31     103  107  113  107  113  121  115  115  124  113  105  119  130  122  124  122  123  129  123  119  128  138  131  135  137  145  132  157  145  151  145    0
ch:  32     115  115  117  113  115  123  119  117  121  122  119  129  132  138  148  130  133  129  138  138  128  135  148  148  151  151  151  145  151  154  166   15
ch:  33     115  105  117  117  107  121  130  123  121  119  128  121  105  125  128  123  132  128  131  129  131  128  123  133  154  128  136  134  151  154  139    6
ch:  34     115  107   99  120  107  121  119  105  122  125  133  129  130  124  133  145  136  139  137  137  135  145  128  135  138  145  128  128  154  157  151   16
ch:  35      99  107  119  117  107  121  119  113  124  119  103  131  123  121  121  125  130  119  123  125  123  119  132  133  133  145  145  128  145  148  148    0
ch:  36     115  105  107  115  119  121  125  130  121  122  129  119  130  123  128  136  137  137  133  133  129  137  136  148  154  128  157  148  154  154  151   11
ch:  37     105  105  113  117  119  119  117  117  119  115  120  113  131  115  115  130  125  128  136  137  132  132  136  128  151  138  154  148  133  145  154    0
ch:  38     115  113  115  117  103  123  129  115  117  121  121  115  135  124  117  135  136  128  122  145  134  136  145  148  145  128  145  151  151  151  148   13
ch:  39     101  107  115  105  105  113  115  105  119  117  119  132  129  123  121  119  124  122  135  117  137  132  134  135  130  134  139  148  128  151  154    0
ch:  40     119  119  121  113  101  123  105  121  136  130  122  122  131  123  135  123  137  148  131  145  137  133  151  136  154  154  163  138  145  151  154   10
ch:  41     102  121  107  119  113  113  124  119  119  115  117  109  122  128  120  131  119  130  130  124  120  121  131  130  135  135  136  145  134  145  148    1
ch:  42      90  107  117  115  133  117  129  117  132  117  135  115  124  132  123  138  129  133  132  138  139  145  145  151  145  148  154  148  166  166  148   15
ch:  43     105  113  107  105  121  107  131  113  117  115  117  119  135  115  124  124  124  123  128  123  135  133  135  148  135  128  151  136  134  148  154    1
ch:  44     115  121  115  119  120  115  121  124  121  121  129  120  121  121  128  121  139  139  132  135  148  137  151  139  138  128  148  163  151  154  151   19
ch:  45     117  117  107  103  115  119  117  117  109  115  124  105  122  121  132  131  123  121  125  125  130  136  131  139  139  135  130  136  139  138  148    2
ch:  46     121  123  122  113  122  129  123  122  130  121  115  119  131  136  131  128  134  137  123  128  129  136  128  145  157  128  151  151  148  154  169   27
ch:  47     121  113  113  117  117   99  113  124  122  119  119  130  117  128  124  122  136  123  132  134  137  117  148  137  130  135  148  148  148  157  148    7
ch:  48     107  119  117  117  107  119  119  119  119  133  119  115  128  131  138  136  130  134  130  136  139  128  145  145  148  151  151  148  148  145  166    9
ch:  49     115  113  103  115  119  107  119  119  123  121  119  107  122  124  117  123  122  124  130  128  123  131  134  124  132  145  137  148  138  145  145    5
ch:  50     113  105  103  117  105  119  117  121  122  122  133  137  133  139  135  130  130  130  135  145  148  133  151  145  148  163  157  145  151  163  154   17
ch:  51     113  119  113  105  115  107  113  107  105  121  109  128  117  121  117  120  129  119  125  134  130  138  135  131  148  145  139  145  151  148  151    1
ch:  52     107  119  115  124  115  107  123  117  123  121  117  130  135  120  117  129  145  129  131  137  128  145  148  151  148  128  142  148  151  154  166    8
ch:  53     103  103  119  115  113  117  115  119  115  107  119  113  121  113  117  115  115  138  119  128  137  130  131  133  136  128  138  128  128  148  137    6
ch:  54     121  113  115  121  119  119  119  121  132  119  119  128  115  138  131  136  137  145  128  145  138  157  137  138  128  145  145  151  145  154  154   13
ch:  55     103  113  109  119  120  115  107  119  117  115  115  125  121  129  122  121  137  134  121  139  135  145  132  129  136  139  145  148  139  145  145    6
ch:  56     115  117  113  113  107  113  117  123  115  124  128  121  128  130  131  129  133  135  145  148  128  137  145  148  148  148  139  154  145  154  163   26
ch:  57     103  107  103  117  113  113  117  117  107  113  121  124  121  122  121  125  123  128  145  133  133  133  139  136  138  131  142  142  132  145  139    5
ch:  58     107  101  113  117  109  119  117  107  122  115  115  122  134  123  135  136  128  134  137  134  136  145  131  145  151  151  145  145  148  151  157   10
ch:  59      99  119   99  115  113  117  117  105  117  115  117  117  124  131  121  120  123  129  133  128  128  132  132  135  148  134  145  148  135  148  157    3
ch:  60     117  107  105  117  120  115  123  115  121  122  123  122  122  130  135  137  122  128  133  128  148  138  128  137  148  148  148  148  148  163  148   15
ch:  61     105  122  113  117  121  115  117  121  128  109  107  115  125  123  129  115  128  130  126  124  131  128  130  131  145  131  135  148  145  157  139    3
ch:  62     113  105  113  117  117  121  122  122  131  132  130  124  134  117  128  135  133  138  132  139  134  145  128  138  151  148  151  145  151  148  154   21
ch:  63     107  115  103  123  101  115   99  109  123  117  119  121  121  122  109  132  115  131  130  124  133  131  135  130  145  145  138  138  145  136  151    0
ch:  64     115  113  115   99  123  120  124  115  122  122  130  124  123  121  130  137  134  138  128  131  145  145  145  145  154  145  151  151  139  148  154   18
ch:  65     107  113  121  105  107  115  117  105  105  121  107  120  130  115  121  107  120  123  119  132  130  129  129  133  131  148  137  139  145  145  148    0
ch:  66     105  120  119  107  113  119  119  119  122  122  132  131  128  132  135  145  120  129  135  145  136  145  135  128  151  154  148  151  154  163  157    9
ch:  67     117   96  109  120  119  113  113  117  107  121  121  124  122  122  120  107  123  133  124  123  124  133  130  145  139  145  138  139  148  148  154    2
ch:  68     117  117  103  117  121  113  119  129  119  113  137  136  139  130  121  138  133  138  136  137  132  137  137  145  151  148  151  148  151  157  154   10
ch:  69     113  117  113  113  113  113  105  115  115  117  115  124  113  129  132  109  120  132  132  121  119  138  132  145  145  134  145  133  133  148  145    4
ch:  70     103  117  123  117  109  121  119  105  128  129  136  133  130  119  121  129  135  131  135  145  131  128  139  145  148  148  154  151  151  157  157   13
ch:  71     105  107  119  103  115  119  115  113  109  117  128  128  121  128  121  129  130  122  137  128  130  121  139  136  145  134  128  128  128  148  145    0
ch:  72     115  119  115  115  117  124  123  121  125  129  130  122  124  137  129  128  133  132  145  138  145  138  145  128  128  154  154  163  154  157  154   27
ch:  73     103  117  107  113  113  113   99  117  107  119  121  117  124  125  117  128  124  121  122  123  115  129  128  129  135  137  134  145  138  138  157    3
ch:  74     107  107  117  117  107  115  119  130  124  124  117  133  133  129  129  134  123  133  133  134  145  145  135  128  148  148  151  148  157  151  154   19
ch:  75     113  113  113  117  117  113  119  105  119  123  130  128  115  122  115  122  129  133  132  134  132  134  134  133  134  145  145  136  133  163  139    0
ch:  76     107  119  120  121  113  117  123  113  117  117  121  123  123  131  134  128  148  130  145  135  134  139  137  145  131  145  148  145  157  163  148   23
ch:  77     105  115  105  105  105  115  109  107  107  129  123  123  131  131  119  129  113  121  123  138  131  137  137  136  132  151  129  137  145  148  148    1
ch:  78     117  123  109  121  117  115  115  115  117  124  129  121  133  129  124  134  135  145  132  134  145  145  137  128  154  154  151  151  145  151  151   21
ch:  79      99  105  103  113  105  107  117  121  119  113  119  124  132  139  128  120  129  119  135  134  122  136  148  134  148  136  154  128  138  128  166    0
ch:  80     105   99  115  107  119  115  105  119  129  130  130  130  115  129  130  133  136  122  133  145  137  130  151  145  148  148  128  148  151  154  151   19
ch:  81     113  117  107  117  105  105  119  119  115  117  120  117  123  119  119  124  130  121  132  133  128  134  137  139  130  134  145  151  142  148  154    3
ch:  82     107  119  117  122  115  117  121  120  113  117  129  132  128  133  120  134  130  129  133  151  137  151  137  154  151  151  154  148  157  154  154   15
ch:  83     109  121  107  103  121  119  121  105  107  115  119  132  124  120  125  122  131  131  131  131  134  128  135  137  131  128  137  145  148  148  151    7
ch:  84     107  103  117  117  128  115  115  120  122  119  132  129  132  124  138  138  137  124  128  151  139  137  148  148  148  154  151  151  151  157  148   19
ch:  85     101  115  105  115  105  117  115  113  115  115  128  128  121  128  125  113  115  132  122  129  132  122  132  128  133  137  128  128  128  151  148    8
ch:  86     101  119  119  119  119  119  123  123  130  133  133  124  128  136  122  129  128  132  135  124  145  145  139  151  157  148  151  151  163  151  154   15
ch:  87     105  105  117   99  115  109  115  117  115  124  117  117  117  128  117  133  123  123  121  139  124  123  124  134  133  137  148  132  145  148  148    4
ch:  88     115  115  117  117  113  117  117  121  135  117  119  136  128  136  135  123  131  128  136  134  136  128  137  151  136  154  151  151  154  154  166   28
ch:  89     115  105  113  105  109  119  115  117  119  121  119  122  128  117  125  122  124  125  136  125  137  121  132  130  123  133  145  139  148  151  154    0
ch:  90     115  113  119  119  115  121  128  120  123  121  136  122  136  123  131  133  131  128  135  134  130  129  148  139  151  148  148  148  166  148  154   17
ch:  91     115  103  117  113  107  107  113  113  115  129  117  117  120  121  117  121  136  123  135  128  148  137  137  136  133  137  148  136  130  137  148    9
ch:  92     103  120  117   99  119  107  107  123  131  137  125  135  131  121  122  138  133  137  134  148  145  130  139  128  138  148  157  154  157  151  148   21
ch:  93     115  101  117  107  117  113  113  115  119  121  119  117  119  121  123  130  123  125  132  125  117  135  134  138  138  145  136  136  145  151  145    0
ch:  94     113  117  107  121  109  119  113  122  132  121  119  131  130  121  131  133  130  128  128  136  134  148  148  145  151  128  145  151  151  157  163   10
ch:  95     107  113  117  119  109  128  119  119  115  119  128  113  119  119  128  121  131  122  122  137  122  133  136  145  128  136  145  145  128  151  154    1
ch:  96     119  103  117  119  113  115  117  113  119  115  121  131  130  145  123  137  119  124  137  128  145  130  145  136  151  154  154  148  148  163  154   21
ch:  97     113  105  122  105  103  105  115  121  117  115  119  119  121  115  122  124  123  128  123  132  136  136  138  123  134  145  142  138  145  154  151    1
ch:  98     107  120  121  113  117  119  128  107  125  122  121  133  128  129  137  129  136  145  139  132  134  135  145  135  148  151  148  145  154  163  151   13
ch:  99     101  115  115  113  117  119  113  119  128  117  120  129  115  123  121  128  133  124  128  134  123  145  129  128  135  148  151  135  148  148  137    0
ch: 100     117  107  119  109  115  115  115  115  117  132  117  136  125  128  119  135  138  123  132  133  145  138  130  145  151  145  151  151  169  151  145   10
ch: 101      90  113  105  107  115  115  115  123  115  130  115  117  128  113  123  115  129  122  130  137  145  137  139  136  137  139  148  139  151  151  142    3
ch: 102     117  107  119  119  117  119  117  115  115  124  128  132  133  132  131  123  134  145  132  132  138  148  138  154  145  151  154  157  151  157  157   17
ch: 103     107  101  113  105  115  107  113  117  129  113  115  119  121  122  113  117  134  136  121  132  128  133  130  135  131  148  138  154  157  157  154    5
ch: 104     105  103  117  107  117  113  119  113  119  123  123  123  131  145  132  129  135  148  135  136  145  145  134  135  148  151  145  151  151  154  154   17
ch: 105     105  105  107  124  113  115  115  121  115  134  115  115  123  109  129  131  133  132  128  124  130  133  145  135  135  148  148  135  145  134  151    3
ch: 106     107  119  119  119  119  117  117  119  129  122  123  135  123  130  133  122  130  135  128  145  138  145  128  148  151  154  151  151  157  151  154    9
ch: 107     101  115  117  113  113  117  115  122  115  117  123  119  123  119  128  129  121  145  124  123  139  133  139  139  148  151  139  148  134  154  145    1
ch: 108     124  119  117  115  105  119  119  119  119  128  117  122  131  121  133  138  139  135  136  128  154  137  137  139  148  135  148  148  148  151  148   17
ch: 109     105   99  113   99   99  115  107  122  115  113  121  119  125  131  138  128  135  139  123  134  133  131  122  133  137  137  133  133  154  148  145    0
ch: 110     117  102  117  117  123  123  121  119  129  138  124  137  134  135  145  138  131  145  135  148  145  139  145  145  151  154  145  148  138  151  151   17
ch: 111     105  101  113  115  107  115  109  115  122  105  117  119  122  133  128  129  117  120  132  130  132  133  120  132  145  136  128  157  148  138  148    0
ch: 112     113  113  115  117  115  117  135  119  133  133  105  123  129  138  131  133  139  148  138  145  139  145  128  145  145  154  154  154  154  163  128   16
ch: 113      99  107  117  103  109  117  113  129  107  124  119  123  124  123  123  133  119  128  133  130  125  128  135  132  151  148  137  138  145  148  151    2
ch: 114     117  113  115  121  113  124  129  115  121  124  131  129  117  123  128  121  137  128  131  145  132  148  148  148  145  134  163  154  151  145  163   15
ch: 115     103  105  109  113  121  121  115  115  119  117  117  128  109  121  128  130  133  128  136  133  135  133  130  136  128  130  148  145  145  154  154    0
ch: 116     109  103  119  132  119  119  113  128  117  135  117  117  130  133  125  128  138  133  138  148  148  145  136  151  131  148  151  151  145  145  163   17
ch: 117     103  103  117  113  115  107  129  122  107  128  115  117  115  129  122  121  122  123  136  138  133  131  134  137  134  137  145  145  148  151  145    0
ch: 118     101  117  109  115  117  117  125  113  123  117  131  131  133  115  133  129  132  145  129  132  145  128  148  151  148  148  148  148  154  157  151   14
ch: 119     113  105  115  113  109   93  115  124  113  117  119  129  133  124  135  125  122  124  123  134  137  129  131  151  137  148  148  145  151  148  154    0
ch: 120     113  115  117  115  113  115  133  113  135  128  136  124  124  119  137  132  135  148  137  151  131  139  148  139  151  148  145  151  154  154  154   15
ch: 121     105  109  121  107  121  119  113  119  117  129  113  119  115  117  115  121  122  130  129  122  120  130  137  123  131  128  145  134  139  151  151    0
ch: 122     107  115  103  115  115  117  132  129  119  131  121  129  115  134  134  128  134  135  145  132  130  137  145  151  145  135  151  151  154  163  169   14
ch: 123     109   99  119  115  131  115  119  119  119  113  107  123  121  129  121  124  121  119  130  129  134  122  138  145  145  136  145  148  148  145  137    0
ch: 124     113  105  122  115  107  120  119  119  119  124  122  128  123  130  124  133  134  128  137  136  139  148  145  148  145  151  163  151  148  154  157    9
ch: 125     115   99  119  105  117  117  121  121  113  115  119  131  113  113  121  137  123  132  130  129  135  129  136  138  148  136  137  151  148  157  154    2
ch: 126     107  115  113  117  113  121  117  123  134  137  129  119  142  129  131  138  135  135  135  132  128  145  151  139  154  148  151  148  151  157  163   15
ch: 127     115  115  115  107  113  117  121  131  109  122  119  123  123  124  134  122  131  129  128  128  119  120  139  145  138  145  139  128  157  163  154    3
