# TRIM CALIBRATION    FEB6_2_0    pulse_ampl_min=40    pulse_ampl_max=200    pulse_ampl_fast=40
#
ch:   0     121  113  115  115  132  131  136  125  136  136  148  145  126  148  137  154  151  151  151  151  163  154  157  154  163  163  154  163  128  172  128   31
ch:   1     121  128  121  117  117  123  130  129  129  125  131  130  145  138  137  145  138  145  151  145  134  130  160  154  157  154  163  172  172  160  166    6
ch:   2     123  121  121  120  130  125  124  117  134  132  132  136  134  136  134  154  138  128  148  154  151  154  148  166  154  163  166  163  128  128  128   21
ch:   3     103  119  132  122  132  124  117  129  129  130  131  132  137  132  137  131  148  136  148  145  151  148  148  157  163  154  154  166  163  166  172    8
ch:   4     119  115  122  123  119  129  125  129  128  130  134  138  148  154  136  157  154  157  157  151  166  157  154  157  157  157  166  166  163  172  172   12
ch:   5     115  119  117  119  121  121  129  123  133  131  151  129  136  138  128  135  145  145  136  128  148  154  157  157  163  151  154  157  172  154  163   11
ch:   6     117  115  128  119  131  113  124  135  120  131  134  130  145  128  138  136  138  157  145  151  157  154  157  163  151  157  163  163  172  166  163   24
ch:   7     117  115  124  119  119  121  115  131  129  119  131  151  145  125  145  148  148  145  148  128  134  148  148  151  148  157  166  151  169  157  157    5
ch:   8     131  117  123  123  124  120  136  128  128  126  134  121  135  145  148  148  157  154  154  154  154  154  154  154  169  157  166  157  169  157  128   29
ch:   9     115  115  119  119  126  121  132  128  128  136  133  129  128  145  131  138  132  145  151  148  154  151  128  157  154  151  157  160  157  166  163   15
ch:  10     123  132  124  120  123  128  130  124  121  148  135  128  124  131  138  148  151  148  157  148  145  151  148  154  166  163  169  166  166  172  166   21
ch:  11     131  119  113  129  121  119  123  131  123  133  129  128  121  130  134  148  154  134  148  137  138  157  148  163  154  157  154  166  169  172  166   15
ch:  12     115  103  122  129  125  121  131  138  125  137  123  151  134  145  151  145  148  151  154  148  151  163  166  151  157  157  172  166  172  166  166    0
ch:  13     115  121  128  128  131  132  128  121  128  134  123  124  137  145  122  154  133  148  136  148  151  157  154  154  157  163  163  154  163  157  169    5
ch:  14     113  121  119  128  122  135  129  119  132  124  127  138  145  133  131  148  133  148  145  136  148  160  166  151  157  160  169  154  169  128  169   22
ch:  15     125  115  123  117  126  128  115  135  129  115  137  125  148  145  137  136  135  151  154  145  154  148  138  157  160  157  166  166  172  157  163   14
ch:  16     121  122  123  115  119  119  133  132  131  128  138  145  133  126  135  145  154  145  148  166  148  166  151  163  172  157  157  166  172  169  128   26
ch:  17     120  113  113  117  131  120  122  122  115  123  136  129  130  128  148  132  133  145  154  145  135  154  157  157  166  166  145  163  163  157  166    6
ch:  18     115  121  119  103  125  128  131  129  133  130  148  135  138  145  148  137  151  148  138  148  148  128  154  157  163  163  163  166  163  169  169   30
ch:  19     122  121  117  119  125  126  121  123  123  121  132  134  131  148  135  137  136  154  151  128  151  151  166  163  148  154  157  166  163  169  166   15
ch:  20     128  121  119  129  119  131  136  128  136  130  132  128  151  138  151  148  145  148  145  163  157  157  166  160  166  163  163  163  128  128  163   27
ch:  21     115  124  124  122  134  129  119  122  132  125  129  132  123  123  132  145  128  131  128  151  128  145  148  154  166  151  151  160  163  160  163   16
ch:  22     117  120  124  123  125  131  129  125  136  134  135  145  134  157  148  151  148  137  151  151  138  163  166  154  157  157  166  163  163  166  166   17
ch:  23     113  125  117  113  117  122  129  123  124  119  121  130  136  145  132  125  134  145  138  148  154  148  154  145  148  157  166  163  169  154  151   15
ch:  24     121  101  125  122  129  121  136  137  123  135  134  148  137  148  125  157  151  145  151  154  151  151  157  163  166  163  166  169  166  128  169   30
ch:  25     101  119  122  117  123  124  113  125  137  123  130  134  138  132  129  135  134  134  148  145  154  145  151  163  166  148  154  157  157  163  151   19
ch:  26     121  126  122  121  117  130  122  129  129  135  145  128  145  132  145  148  137  137  148  148  132  148  166  157  157  163  154  172  163  172  169   20
ch:  27     115  119  121  119  121  130  123  130  121  124  133  132  130  128  137  138  148  148  128  138  138  132  148  151  151  154  154  166  157  163  163    9
ch:  28     121  119  131  117  131  124  132  134  134  128  135  130  137  148  148  148  145  145  154  157  151  157  148  166  166  169  154  169  163  172  169   22
ch:  29     117  122  117  122  119  125  124  128  131  136  131  134  134  128  128  148  148  138  148  145  138  151  154  157  157  151  154  154  163  163  157    8
ch:  30     115  119  121  119  124  131  133  133  128  131  117  135  145  145  148  151  148  148  145  157  151  151  163  154  169  163  166  163  169  163  166   29
ch:  31     121  117  121  124  124  105  122  124  115  120  115  122  124  131  148  145  151  133  148  145  148  131  145  163  148  154  157  157  166  160  163   20
ch:  32     121  134  117  130  124  123  131  128  137  145  145  133  137  135  133  145  137  154  136  148  154  163  163  151  169  163  163  163  157  169  163   35
ch:  33     115  117  113  119  115  125  129  117  130  121  137  124  135  137  132  136  136  134  151  135  151  134  151  148  163  157  157  166  154  128  163   14
ch:  34     121  119  126  122  121  130  133  129  129  134  145  129  148  137  131  157  138  154  138  136  154  169  154  157  166  148  157  157  157  172  163   29
ch:  35     117  117  124  123  121  119  128  130  122  121  130  132  148  130  128  128  128  145  151  151  145  151  154  151  151  157  166  157  157  157  163   14
ch:  36     119  121  117  123  128  131  129  123  124  136  145  137  138  148  151  145  151  148  151  151  151  151  157  154  169  166  166  172  172  169  169   28
ch:  37     115  103  117  119  124  128  117  125  132  124  134  119  131  135  130  132  151  137  128  145  154  148  145  148  151  151  154  157  166  154  172    6
ch:  38     128  132  119  123  129  131  128  123  124  125  128  132  132  128  145  148  151  145  148  163  151  154  160  157  163  157  157  166  166  154  128   27
ch:  39     119  119  124  117  130  126  121  137  121  148  134  130  136  129  131  137  137  130  128  148  151  137  145  154  151  151  138  151  154  154  163   17
ch:  40     105  119  113  132  120  124  135  136  123  134  130  138  133  135  137  148  154  138  154  166  148  154  160  154  151  154  169  151  128  128  172   32
ch:  41     119  119  121  125  122  128  135  121  121  125  129  119  133  130  145  133  128  131  128  128  151  148  148  154  157  151  157  154  166  151  163   12
ch:  42     121  123  107  122  113  121  134  122  128  128  148  132  134  133  145  138  148  151  145  151  154  154  154  154  154  163  163  128  166  169  172   28
ch:  43     105  117  115  124  124  121  122  125  132  122  123  122  129  132  145  136  138  137  148  148  138  148  157  157  154  148  154  163  163  151  157   15
ch:  44     122  125  123  124  119  121  128  126  130  128  130  148  136  138  137  145  151  148  151  154  151  151  166  163  169  163  163  169  128  166  169   23
ch:  45     119  115  122  121  115  122  130  128  133  123  133  131  128  134  135  136  138  138  145  136  133  148  163  138  157  163  169  138  157  154  166   17
ch:  46     113  117  103  107  134  131  125  129  132  131  145  145  134  128  148  128  154  154  154  163  157  157  163  166  166  163  163  166  169  166  172   25
ch:  47     122  123  117  133  128  128  128  121  128  135  128  137  129  132  148  134  137  138  125  151  151  151  151  154  148  163  157  154  169  163  172    7
ch:  48     115  124  121  122  129  124  131  131  137  131  132  138  130  134  151  148  148  154  154  151  157  138  163  163  163  166  163  172  128  166  128   28
ch:  49     124  115  121  117  129  124  124  130  115  123  135  130  145  127  131  145  148  131  154  148  154  145  151  151  157  160  169  157  163  163  157   14
ch:  50     119  123  123  122  132  121  122  132  123  121  131  151  137  129  145  145  135  154  154  154  154  148  166  163  169  157  166  163  163  172  166   42
ch:  51     120  117  122  125  121  128  123  123  123  138  128  131  136  136  131  145  130  133  137  145  135  128  154  154  151  151  154  163  157  163  163   12
ch:  52     119  128  119  133  124  125  130  133  128  122  133  134  145  134  135  138  151  151  157  154  163  157  163  154  157  166  166  128  169  166  163   27
ch:  53     107  113  123  125  124  115  131  117  122  130  132  119  129  135  133  145  131  135  148  148  154  148  151  137  157  151  157  163  154  166  163   11
ch:  54     119  122  121  121  133  135  115  130  137  128  122  128  132  145  145  151  148  145  151  148  157  157  148  157  166  172  169  163  128  169  163   19
ch:  55     119  123  119  113  121  125  117  133  129  138  133  133  145  145  136  137  136  136  138  136  128  157  145  148  148  151  166  157  163  160  163   12
ch:  56     117  117  125  115  117  124  119  128  136  132  145  138  134  136  148  137  151  166  145  151  128  157  160  169  157  169  169  157  163  169  166   26
ch:  57      99  121  119  113  119  121  130  129  129  121  129  128  129  128  122  135  136  148  137  137  148  166  148  154  166  154  151  148  163  157  157   14
ch:  58     124  123  117  124  121  123  132  130  129  145  122  136  151  125  137  148  151  154  154  154  151  148  154  163  166  172  154  172  172  169  128   24
ch:  59     117  115  113  115  124  119  119  130  121  115  130  129  145  133  131  145  130  148  154  154  151  154  145  148  148  148  157  151  148  157  154   10
ch:  60     103  119  121  119  134  119  131  127  128  134  132  148  137  148  148  151  151  148  151  148  154  148  154  163  163  154  154  169  163  128  169   17
ch:  61     115  117  117  117  126  129  124  121  132  128  130  128  130  131  136  138  136  138  151  148  135  137  145  151  157  163  157  163  157  163  169   13
ch:  62     124  123  132  126  121  125  132  135  129  145  129  133  128  148  145  128  154  154  145  154  148  157  151  151  166  166  166  151  172  169  128   26
ch:  63      99  119  113  131  121  125  124  123  129  124  134  129  124  132  132  138  133  145  128  138  148  151  163  151  145  151  157  163  157  166  166    6
ch:  64     105  123  117  129  119  131  134  134  130  129  128  134  137  148  136  148  137  151  151  145  151  154  163  151  166  154  157  166  157  172  172   33
ch:  65     124  103  128  122  132  119  119  117  123  132  138  132  132  129  132  138  151  151  138  138  138  138  137  148  148  151  157  166  163  154  172   11
ch:  66     105  103  117  130  131  123  134  134  125  136  125  137  148  134  151  148  145  154  154  157  166  163  157  154  157  157  169  157  166  166  128   42
ch:  67     117  121  117  117  122  122  130  125  132  132  125  124  127  131  148  145  136  138  148  151  145  157  138  138  154  157  128  160  163  166  163   17
ch:  68     115  119  120  128  132  130  125  130  145  136  145  148  135  145  148  148  151  154  154  157  151  154  154  160  157  169  154  172  169  166  169   35
ch:  69     117  103  119  121  121  130  121  128  122  136  123  128  130  136  145  129  154  137  138  148  151  128  154  154  148  151  154  154  163  169  166    5
ch:  70     119  115  115  122  125  130  133  126  130  124  124  138  138  135  145  137  151  151  163  148  157  151  157  154  157  172  154  169  169  128  128   34
ch:  71     119  119  105  131  125  117  121  128  131  128  135  135  135  137  128  137  148  136  128  151  148  135  128  145  154  154  151  157  154  169  169   11
ch:  72     129  119  129  124  133  123  122  133  124  134  145  128  132  132  154  148  148  148  154  137  128  138  151  163  163  163  166  163  163  169  172   33
ch:  73     101  129  117  119  132  121  119  131  130  124  131  133  128  130  135  145  148  151  154  137  163  148  151  163  148  154  151  163  154  163  163   10
ch:  74     103  121  119  129  125  131  135  123  131  148  131  145  126  133  145  148  157  151  163  154  157  157  148  154  157  154  163  154  169  172  169   31
ch:  75     117  117  119  128  123  117  117  124  132  122  123  138  137  128  131  145  133  129  148  154  151  151  154  148  128  148  145  148  157  157  157   17
ch:  76     121  117  117  131  131  128  129  128  148  125  124  148  132  136  145  145  138  151  148  151  163  163  154  166  160  154  172  166  172  169  128   25
ch:  77     123  115  117  123  132  132  129  123  126  125  131  136  136  137  134  130  136  145  145  138  145  145  154  148  157  151  154  151  163  154  166   13
ch:  78     122  121  119  123  130  119  133  130  128  133  135  128  131  148  151  136  157  148  154  128  163  151  148  163  154  166  163  163  172  128  172   28
ch:  79     119  115  103  121  115  119  133  130  130  130  126  128  124  131  137  135  138  154  128  145  151  148  151  133  151  145  166  163  163  166  163   12
ch:  80     117  115  123  117  120  124  128  136  132  134  137  145  148  138  145  145  148  130  157  154  157  154  148  154  163  157  166  163  166  128  169   21
ch:  81     103  117  119  123  121  122  121  126  133  124  130  117  133  130  136  138  145  145  136  128  135  151  157  154  157  148  163  151  166  166  166    7
ch:  82     119  123  122  121  138  124  119  133  130  128  128  138  148  148  138  148  145  145  151  148  157  154  157  169  166  157  169  157  166  166  172   30
ch:  83     119  107  107  122  119  130  127  129  130  131  131  129  133  145  145  136  135  145  145  139  157  148  136  154  151  154  154  163  169  166  169   10
ch:  84     122  113  105  128  133  135  121  121  130  132  148  138  148  131  154  148  151  151  163  151  151  151  163  154  163  163  172  169  172  169  157   39
ch:  85     117  121  117  107  117  126  130  127  129  121  125  126  134  133  128  151  134  133  148  138  134  138  151  151  154  157  151  157  166  166  157    7
ch:  86     115  122  121  115  130  117  135  133  136  134  138  138  137  148  148  132  148  145  157  157  148  157  151  145  154  166  157  166  172  166  172   17
ch:  87     113  113  121  123  122  126  124  122  133  126  133  134  128  130  134  128  136  139  154  151  133  154  148  148  154  148  163  151  157  157  160   10
ch:  88     119  105  121  121  126  131  132  128  151  130  133  132  138  154  151  145  133  145  151  157  151  163  157  166  163  163  166  157  163  172  128   33
ch:  89     129  119  119  115  117  123  137  121  119  119  125  117  125  135  145  137  151  145  135  133  128  163  151  157  154  145  154  151  151  163  157   12
ch:  90     119  123  124  122  130  121  122  131  131  133  128  134  128  148  151  157  151  151  134  148  148  145  148  154  169  166  157  166  166  169  166   34
ch:  91     115  113  119  132  128  129  124  128  128  130  119  131  134  136  128  130  138  128  137  131  138  154  145  148  154  148  157  154  163  169  163    4
ch:  92     119  124  119  121  124  137  128  126  121  133  134  136  131  132  151  148  151  148  154  151  148  157  163  169  154  163  157  128  166  128  169   31
ch:  93     125  115  124  103  115  122  129  129  124  136  130  137  132  136  138  124  133  135  145  136  145  151  134  154  157  154  154  166  154  163  166   10
ch:  94     119  121  117  113  119  128  132  123  132  128  133  131  148  148  138  151  148  157  148  151  163  160  154  154  157  157  163  163  166  166  128   38
ch:  95     121   93  122  117  122  113  119  125  119  117  135  136  145  113  148  148  145  148  151  134  130  134  148  157  157  154  157  172  166  157  154   15
ch:  96     121  115  123  130  123  134  107  137  134  138  136  136  132  148  148  151  137  151  148  151  154  163  163  169  166  163  169  172  163  166  128   21
ch:  97     129  105  129  121  128  125  124  119  130  134  137  136  132  121  131  135  148  148  128  148  145  138  151  145  148  157  163  151  163  154  169   12
ch:  98     129  128  115  122  129  131  122  133  151  133  133  136  133  128  137  134  148  148  154  154  151  154  154  169  169  169  151  166  169  154  169   31
ch:  99     115  105  126  119  120  119  125  121  117  135  132  125  135  125  130  134  157  126  145  138  145  138  154  151  163  154  163  157  154  163  163   17
ch: 100     115  119  124  117  125  128  137  117  134  133  135  136  137  145  151  163  145  145  151  151  163  151  157  154  166  163  166  166  172  169  163   41
ch: 101     129  113  117  122  119  115  132  123  131  119  123  131  126  151  136  138  125  148  135  154  132  154  135  157  145  163  151  157  166  163  151   17
ch: 102     119  117  117  135  129  125  135  123  129  124  131  133  138  137  148  148  145  154  148  148  151  151  148  169  154  163  166  157  163  172  128   27
ch: 103     113  119  121  122  124  124  134  121  132  130  136  128  128  148  130  148  138  151  134  125  148  136  148  163  157  148  154  154  163  166  169   10
ch: 104     117  115  107  130  122  138  132  125  131  128  128  135  137  148  148  148  135  157  151  163  163  166  163  154  154  166  172  169  169  172  163   31
ch: 105     115  132  124  119  122  121  122  125  124  121  131  129  124  134  132  132  129  128  148  145  145  154  148  154  154  151  151  154  148  157  169   13
ch: 106     122  113  121  133  131  130  133  124  125  124  128  136  136  135  154  145  148  148  154  154  154  166  163  157  169  169  157  169  157  128  169   39
ch: 107     105  117  125  128  117  113  121  125  126  130  132  130  133  128  129  129  148  145  145  151  148  136  154  154  154  163  169  154  154  163  128   20
ch: 108     124  119  123  117  124  129  130  129  130  131  145  128  148  145  151  157  136  151  163  148  151  166  157  169  166  166  166  163  169  166  128   30
ch: 109     119  119  122  119  117  123  130  128  122  135  124  131  134  148  137  135  154  145  151  145  148  151  148  151  145  157  154  151  163  169  169   10
ch: 110     117  130  125  117  130  131  129  131  117  130  131  137  136  128  148  148  145  145  148  148  154  154  151  169  160  157  157  163  172  128  128   41
ch: 111     119  107  121  105  119  133  117  128  130  132  133  137  131  151  129  137  128  136  151  135  154  154  151  137  157  169  163  163  166  163  166   13
ch: 112     120  113  122  115  119  131  131  129  137  136  128  138  145  148  132  145  154  151  145  154  163  151  169  154  166  154  163  169  166  163  128   24
ch: 113     129  122  124  117  122  115  130  134  127  124  131  136  126  130  138  133  124  134  151  157  157  145  157  160  157  154  163  157  157  172  163   15
ch: 114     117  103  122  128  125  135  135  131  129  124  137  138  148  128  145  138  148  145  151  154  157  163  163  172  166  166  151  166  169  172  172   30
ch: 115     121  128  103  128  119  130  123  113  124  130  151  125  137  137  145  136  145  133  138  138  133  134  157  154  157  154  151  157  166  151  169   13
ch: 116     124  115  133  124  128  130  119  121  129  136  135  135  138  148  128  148  151  157  154  151  154  154  163  163  163  154  169  169  169  128  128   26
ch: 117     113  121  105  121  122  119  131  129  122  123  130  135  124  134  136  128  134  128  145  166  157  151  148  154  148  166  166  157  163  169  163   10
ch: 118     115  115  121  119  124  131  125  130  128  133  138  145  130  148  138  151  151  151  128  148  157  157  169  172  163  163  172  163  172  128  166   30
ch: 119     115  121  125  122  124  122  122  130  124  125  130  136  137  131  131  138  135  128  136  128  145  148  163  163  157  154  157  163  163  163  151    9
ch: 120     121  120  124  123  122  124  119  119  145  148  135  137  134  148  128  132  138  135  151  154  163  157  145  169  154  169  163  163  166  169  172   32
ch: 121     115  115  121  122  119  123  122  123  122  125  119  134  136  137  134  135  145  148  138  138  145  154  151  154  151  154  163  151  157  166  157    7
ch: 122     115  124  134  121  115  119  136  126  132  130  132  135  135  138  133  148  134  157  145  135  160  148  166  157  166  172  169  163  166  172  169   21
ch: 123     121  122  123  124  123  119  123  123  123  125  135  138  133  137  148  128  145  138  148  148  151  154  163  154  148  157  163  151  163  157  169    5
ch: 124     115  113  129  127  131  125  129  132  113  122  134  128  138  135  131  148  148  163  154  154  157  157  163  163  163  163  166  172  169  172  166   22
ch: 125     119  121  117  124  105  123  131  125  119  124  128  136  129  138  129  136  130  128  154  154  151  145  145  148  163  157  160  157  163  163  166    8
ch: 126     123  117  123  124  128  126  132  128  129  138  125  130  137  133  151  154  148  151  157  145  148  163  157  163  157  157  166  157  128  157  157   28
ch: 127     115  123  115  105  133  129  129  122  126  124  137  126  137  138  148  132  135  148  148  151  151  148  148  154  154  166  166  166  169  172  172    7
