# TRIM CALIBRATION    FEB6_3_5    pulse_ampl_min=40    pulse_ampl_max=200    pulse_ampl_fast=40
#
ch:   0     115  117  121  121  128  129  132  119  132  135  121  142  132  134  139  154  145  148  145  151  148  157  154  154  163  157  154  172  163  128  172   22
ch:   1     117  115  119  121  119  121  129  119  128  137  134  129  134  136  135  148  148  142  154  151  148  151  148  163  166  145  148  151  169  169  166    5
ch:   2     107  117  121  121  122  119  128  131  136  134  138  136  136  145  148  154  139  145  148  142  148  163  148  166  166  169  163  169  163  169  128   32
ch:   3     121  107  117  117  129  121  109  128  145  129  151  139  139  136  138  121  137  148  145  151  136  163  166  148  169  151  151  166  166  172  128    8
ch:   4     128  121  117  131  131  128  129  129  139  137  139  145  157  135  139  138  132  136  154  148  151  157  154  163  151  163  166  169  169  169  128   17
ch:   5     129  113  131  119  122  133  137  121  135  130  133  128  148  136  132  148  148  145  148  145  139  145  157  154  151  166  154  169  172  154  169   15
ch:   6     129  107  131  134  132  128  129  129  130  145  137  139  151  151  145  128  148  145  145  151  163  151  157  154  157  157  166  169  169  169  128   24
ch:   7     115  122  117  121  109  139  134  115  130  136  128  137  134  128  133  151  154  137  148  145  154  145  145  163  163  151  166  163  163  166  128    8
ch:   8     119  117  119  131  122  129  122  132  135  135  128  136  128  148  154  145  145  145  154  145  151  169  154  163  172  169  157  169  154  166  128   19
ch:   9     113  113  119  115  121  137  135  119  137  132  117  148  121  136  145  128  148  148  148  148  145  148  154  154  154  163  163  163  128  148  172   10
ch:  10     122  129  119  122  137  133  128  130  131  134  138  133  145  131  145  145  148  139  163  157  151  163  163  157  166  166  169  163  169  166  128   35
ch:  11     105  117  117  129  115  130  121  117  115  128  131  131  135  139  137  145  139  154  148  145  154  148  154  154  151  166  166  166  163  172  169    9
ch:  12     117  113  129  107  119  105  134  133  148  133  137  151  133  148  151  137  151  157  145  151  151  154  169  154  166  166  169  172  163  128  128   36
ch:  13     128  107  107  121  134  131  132  131  137  137  131  137  133  134  133  145  138  142  148  151  148  151  148  151  148  154  169  169  128  163  128   15
ch:  14     117  128  121  117  129  128  130  134  145  135  134  145  134  128  132  139  157  148  148  148  151  151  163  154  163  166  166  163  166  169  128   19
ch:  15     113  122  119  121  122  121  128  119  121  134  133  148  145  131  145  145  148  157  128  148  137  148  166  166  163  154  169  166  166  169  163   14
ch:  16     117  115  115  128  132  119  148  122  131  137  128  128  148  145  148  139  154  154  128  157  151  169  157  157  128  163  172  172  172  169  128   32
ch:  17     115  117  122  121  119  130  134  130  122  128  134  135  137  145  139  138  128  142  151  145  148  151  151  151  166  154  166  157  166  172  166    5
ch:  18     128  120  121  132  131  119  128  117  135  138  128  128  139  137  138  148  154  151  151  151  154  154  166  169  154  163  172  172  169  172  172   23
ch:  19     123  129  117  134  131  133  133  115  133  122  134  135  135  139  139  133  148  139  148  138  145  157  154  154  157  169  166  163  166  128  157   14
ch:  20     117  117  115  121  120  120  121  133  129  132  133  133  145  138  148  145  145  169  151  154  148  166  151  128  169  166  169  172  163  166  172   22
ch:  21     129  123  113  122  130  129  133  129  145  133  134  138  135  128  128  136  134  137  145  145  148  154  151  148  157  154  128  166  157  163  166   10
ch:  22     129  119  128  128  135  129  122  137  145  145  121  136  154  135  145  145  151  154  148  148  151  163  157  157  163  154  157  172  128  128  128   36
ch:  23     117  119  121  130  113  117  119  123  130  117  129  134  135  136  138  132  135  139  151  145  151  136  145  154  148  154  154  154  157  151  154   11
ch:  24     119  117  119  134  122  129  137  129  128  133  145  134  145  136  145  148  145  166  154  163  154  154  163  157  169  163  172  128  169  128  128   31
ch:  25     119  119  113  117  117  123  130  128  128  136  135  137  139  136  128  148  131  139  151  148  148  154  157  151  166  166  157  172  163  163  169   10
ch:  26     128  121  121  122  131  130  132  136  121  133  137  137  142  139  148  145  151  148  138  157  139  154  157  163  163  169  169  163  166  169  172   30
ch:  27     117  115  123  117  119  123  128  115  115  121  132  131  134  134  135  138  128  139  139  135  148  145  148  154  163  154  163  151  166  163  172   14
ch:  28     117  117  132  121  120  119  119  117  137  134  128  145  145  137  154  148  151  151  148  148  148  172  163  157  157  169  163  128  128  128  172   27
ch:  29     113  121  121  119  113  122  130  117  120  137  135  137  136  129  134  134  145  151  139  136  145  145  148  163  157  163  151  154  151  157  169   15
ch:  30     121  122  131  132  134  128  133  131  135  134  145  139  145  148  142  145  145  151  154  157  145  166  157  163  157  166  172  163  128  128  169   25
ch:  31     113  129  115  122  117  121  122  121  113  135  136  132  138  145  136  139  134  133  148  145  148  154  145  163  145  157  166  166  166  166  128   19
ch:  32     129  121  117  121  128  129  119  119  131  133  148  134  138  151  139  148  145  145  154  139  166  151  154  128  154  166  163  169  172  128  128   29
ch:  33     138  113  129  121  131  122  121  130  135  132  148  138  131  129  134  137  117  139  151  138  151  145  151  148  154  163  169  157  169  157  169   13
ch:  34     117  117  119  115  133  145  122  119  121  130  135  134  139  148  139  148  148  151  148  148  157  151  148  166  163  169  163  163  166  128  128   33
ch:  35     117  117  131  121  117  119  130  128  129  135  136  130  131  138  137  137  139  136  148  145  148  163  145  148  148  151  157  163  166  166  169   17
ch:  36     117  119  121  119  129  135  130  138  131  131  133  154  135  148  145  136  151  151  157  166  154  154  154  154  172  163  172  163  172  172  157   34
ch:  37     119  128  119  120  121  130  137  131  148  128  128  133  136  137  132  148  145  139  137  145  145  154  151  151  154  154  163  163  169  163  169   10
ch:  38     117  131  122  121  129  138  122  130  131  139  131  129  137  128  145  145  148  154  157  148  157  157  166  157  157  154  169  169  157  166  128   33
ch:  39     119  122  122  119  117  119  133  119  137  122  129  145  137  134  138  135  136  138  139  145  145  151  154  151  142  151  157  145  169  169  172   10
ch:  40     119  131  119  136  131  131  133  128  134  136  135  132  139  145  151  135  154  151  145  154  157  154  169  163  166  172  163  154  157  169  169   26
ch:  41     121  103  122  130  119  117  117  128  128  122  132  134  145  134  128  133  145  151  154  145  154  148  148  151  154  154  154  166  166  163  169    7
ch:  42     119  117  119  129  117  129  136  123  135  132  131  123  139  148  145  137  148  148  163  148  163  151  166  151  169  172  169  169  172  169  128   27
ch:  43     115  128  121  119  119  120  119  128  115  122  123  134  136  130  137  134  139  137  145  145  148  148  148  151  128  154  166  163  169  163  128    9
ch:  44     134  121  119  121  117  130  131  129  137  136  148  119  138  136  139  154  138  148  139  151  154  154  151  151  166  163  154  169  172  172  157   27
ch:  45     113  128  121  121  122  133  119  129  119  134  131  132  135  138  136  148  145  142  128  145  145  148  154  154  148  154  163  169  169  157  128   15
ch:  46     119  128  133  113  115  131  121  131  136  131  135  131  145  134  138  151  138  148  151  154  163  151  154  169  166  154  163  166  169  128  172   29
ch:  47     120  122  129  113  117  115  132  119  129  130  142  145  145  131  135  138  145  145  137  145  145  137  145  163  154  163  157  166  163  172  172   10
ch:  48     119  119  117  129  128  131  134  137  139  145  139  145  133  145  136  133  154  163  151  157  163  148  166  163  163  172  172  169  169  172  157   42
ch:  49     115  119  117  113  117  119  134  119  133  138  134  145  138  134  145  131  136  142  145  151  148  154  139  139  148  172  166  166  163  128  169    9
ch:  50     122  129  131  122  122  128  131  130  123  130  128  136  138  151  142  139  154  148  148  151  151  157  151  166  166  157  163  172  128  169  166   36
ch:  51     107  113  131  115  145  117  128  117  123  122  135  145  132  148  132  139  145  145  148  139  133  151  154  163  148  148  163  145  154  157  157   12
ch:  52     119  113  129  131  134  129  136  135  137  133  137  137  134  134  145  151  151  148  151  148  166  154  148  151  163  157  157  163  128  128  128   38
ch:  53     113  115  128  132  122  131  120  130  131  119  136  130  136  136  136  134  148  151  148  148  145  154  151  151  151  166  128  163  157  169  169   10
ch:  54     109  119  119  123  117  117  115  129  136  132  133  133  131  135  148  128  157  163  154  148  151  163  169  166  166  163  172  169  163  128  172   24
ch:  55     113  115  122  128  120  134  129  132  132  134  136  132  132  134  145  134  139  145  145  163  145  148  151  154  139  154  154  154  163  166  163   22
ch:  56     119  130  128  132  131  133  131  129  132  132  138  145  145  145  148  151  151  148  151  145  148  154  151  166  157  163  166  163  128  169  172   38
ch:  57     117  113  121  135  119  119  122  128  145  122  129  130  119  137  131  138  145  145  138  148  154  145  128  151  157  166  154  166  163  163  172   19
ch:  58     115  122  120  115  119  123  128  138  136  133  137  148  139  137  139  135  148  145  148  157  148  163  163  166  154  166  166  172  172  172  128   33
ch:  59     113  121  117  119  119  135  121  123  129  128  130  134  137  130  133  133  136  148  154  136  145  151  151  154  154  163  163  166  157  172  163   10
ch:  60     113  117  120  123  134  117  129  134  134  145  136  138  134  137  128  138  154  148  151  151  157  169  166  163  163  172  166  163  172  128  172   27
ch:  61     117  113  122  113  132  121  134  119  134  131  128  138  139  134  138  128  148  145  145  138  148  151  151  163  154  163  169  172  172  172  169   15
ch:  62     128  107  128  117  115  119  131  137  132  135  132  151  134  128  134  151  166  145  145  148  154  148  154  151  163  166  166  166  172  172  128   20
ch:  63     113  113  117  128  117  130  137  129  134  137  137  128  128  145  148  138  133  148  137  128  145  148  148  151  154  154  163  154  154  169  169   28
ch:  64     119  120  115  122  134  121  130  135  129  135  129  139  154  134  138  157  145  151  151  148  166  151  154  166  163  154  166  166  128  166  128   34
ch:  65     117  121  119  117  129  128  128  129  129  123  132  139  135  121  132  134  134  128  136  145  163  139  138  166  157  154  154  172  166  169  128   10
ch:  66     115  120  121  132  120  130  137  117  137  129  133  148  133  142  148  145  148  151  145  139  154  163  169  157  163  163  128  172  172  172  128   33
ch:  67     115  121  115  121  119  128  134  121  134  133  131  130  132  145  135  138  139  138  151  135  151  151  145  154  154  148  157  154  163  166  128   10
ch:  68     115  119  109  113  132  121  133  135  136  136  135  145  139  139  145  142  139  145  151  157  151  148  154  166  163  154  172  169  166  169  166   31
ch:  69     113  121  119  123  119  122  117  121  132  132  134  122  137  136  138  145  139  145  145  148  145  151  148  154  151  166  151  166  154  163  172   13
ch:  70     115  134  121  128  122  130  139  130  134  148  133  138  154  139  145  154  145  148  139  139  157  166  166  151  163  157  172  172  166  128  128   39
ch:  71     113  117  115  128  129  121  130  123  121  119  131  137  148  145  128  137  128  148  135  145  148  137  151  148  148  166  157  157  163  166  166   14
ch:  72     115  120  130  119  128  138  132  132  119  132  135  136  135  132  145  148  139  145  148  157  163  154  151  163  166  154  163  157  172  166  128   34
ch:  73     115  122  122  121  132  121  123  128  132  123  135  135  135  130  128  139  148  148  145  151  148  145  154  148  157  151  157  148  169  154  172   15
ch:  74     105  113  119  119  128  137  132  131  131  137  134  139  138  130  151  145  151  151  151  145  163  157  151  157  163  169  169  128  166  169  128   33
ch:  75     113  115  117  117  113  129  131  117  122  138  131  135  129  145  133  151  136  139  145  138  151  151  154  154  163  157  148  163  166  169  166   15
ch:  76     119  117  121  119  119  115  131  122  115  136  145  148  145  133  151  145  136  151  148  163  154  163  145  166  163  154  166  154  128  154  172   18
ch:  77     121  105  120  113  119  121  123  121  133  119  128  136  132  148  163  128  148  145  138  148  145  128  154  151  169  151  163  154  163  163  169   27
ch:  78     117  113  117  131  129  138  128  130  139  133  145  137  148  148  151  154  142  154  154  148  151  166  148  154  163  154  169  154  163  128  128   32
ch:  79     121  113  120  123  121  122  119  119  132  122  138  137  128  133  132  136  151  145  137  145  148  145  145  151  154  166  163  154  169  169  169   23
ch:  80     121  113  132  129  119  121  137  122  139  131  148  130  145  135  154  154  148  145  151  154  157  148  157  166  154  166  163  128  172  172  163   33
ch:  81     117  121  131  119  134  121  131  121  133  135  119  134  148  145  129  139  151  148  148  148  139  154  151  163  163  128  163  148  154  163  172   13
ch:  82     117  121  128  115  115  133  134  121  135  130  137  137  148  145  148  136  148  154  151  148  154  166  154  166  166  163  151  172  169  128  169   21
ch:  83     119  113  117  121  128  122  121  132  128  128  129  137  132  130  133  145  133  148  135  134  145  145  157  166  157  148  154  163  163  163  128   16
ch:  84     115  128  122  129  117  130  121  130  132  148  133  132  139  148  148  151  151  145  139  166  148  154  154  163  163  172  163  166  172  172  128   25
ch:  85     132  113  107  113  128  138  121  131  131  122  131  130  131  134  148  129  128  134  148  145  151  145  154  154  166  157  151  169  169  166  163   19
ch:  86     119  119  121  132  123  130  121  134  122  138  134  136  134  139  154  137  151  133  154  157  148  151  166  148  172  166  166  157  169  172  128   28
ch:  87     113  119  115  119  130  121  131  130  121  120  130  130  135  138  145  136  135  157  145  139  154  154  151  148  172  154  163  169  154  166  128   12
ch:  88     115  117  130  119  138  119  136  129  131  148  148  138  137  133  151  145  148  148  157  154  148  163  128  163  166  166  172  166  172  166  172   26
ch:  89     115  115  107  117  121  107  129  128  136  133  134  136  138  154  145  139  151  154  132  145  154  148  148  166  151  166  172  157  166  166  163   13
ch:  90     122  119  123  122  123  128  134  136  133  133  132  134  142  145  148  151  145  142  151  154  148  163  151  154  154  163  151  169  172  169  169   20
ch:  91     113  115  113  132  117  131  122  121  121  133  131  134  145  136  133  139  137  148  145  138  145  145  151  166  154  166  145  163  166  172  163   11
ch:  92     129  117  119  132  133  135  128  134  136  137  135  128  138  145  135  148  136  151  151  145  151  166  172  154  163  172  151  172  128  128  128   23
ch:  93     122  115  121  115  129  129  129  128  138  130  130  133  134  132  136  130  134  137  136  139  151  148  151  148  166  157  157  154  163  169  166   21
ch:  94     109  109  119  131  115  136  122  139  134  134  131  132  128  133  151  154  145  148  145  154  157  148  157  154  151  163  169  172  172  172  128   41
ch:  95     115  115  113  132  117  120  117  117  122  137  119  139  136  137  145  137  137  151  148  148  145  145  151  154  148  166  163  166  163  163  163   13
ch:  96     117  121  109  119  122  134  136  129  133  138  133  145  145  145  145  145  136  154  163  131  151  157  154  169  166  166  166  169  169  172  128   27
ch:  97     119  115  122  113  123  130  119  122  122  133  138  134  128  137  139  148  137  148  151  135  157  145  145  148  163  163  163  163  169  166  128    7
ch:  98     105  130  119  117  122  128  135  134  133  135  137  132  132  135  145  148  145  148  151  154  151  163  154  163  163  163  169  169  169  169  172   36
ch:  99     113  117  122  113  117  128  130  117  132  133  123  128  117  134  119  138  138  145  154  148  134  148  151  154  154  154  163  166  166  163  128   17
ch: 100     115  121  107  132  132  137  128  136  129  130  137  145  135  151  139  135  151  151  151  154  148  148  163  128  163  166  172  166  163  172  163   27
ch: 101     109  129  115  115  129  132  119  133  119  119  128  131  138  135  133  136  131  148  137  137  142  145  151  154  139  151  148  154  154  157  157   15
ch: 102     115  132  129  130  119  137  134  130  131  145  136  131  137  145  128  148  151  154  145  154  163  154  163  166  166  151  163  128  128  172  128   23
ch: 103     113  113  117  129  128  115  121  132  121  121  136  128  136  136  151  128  134  151  151  145  148  151  154  151  163  169  163  154  172  166  128    6
ch: 104     113  131  122  117  134  129  128  128  123  119  122  132  139  151  137  145  145  154  148  157  151  154  157  154  169  154  163  169  172  128  128   22
ch: 105     129  128  105  115  117  128  122  122  128  136  138  119  128  123  148  139  139  137  148  151  151  154  151  148  157  148  154  166  154  169  172   13
ch: 106     121  128  119  132  121  121  119  131  145  131  136  145  142  151  136  134  148  148  148  148  148  151  163  154  163  172  163  172  169  169  128   19
ch: 107     113  119  117  115  115  117  135  128  131  134  136  129  134  135  136  151  128  145  151  148  148  148  148  151  151  166  154  163  172  172  151   17
ch: 108     117  105  119  122  128  139  132  132  132  137  134  138  148  138  128  148  148  148  148  148  151  145  151  154  166  169  166  163  169  128  169   30
ch: 109     105  113  105  121  137  129  122  121  136  138  128  136  133  137  148  133  128  148  145  154  151  154  163  148  154  154  154  163  169  169  169   19
ch: 110     103  119  121  121  133  120  135  133  132  128  135  134  139  145  145  148  148  154  166  148  151  154  157  172  163  128  163  166  172  169  128   23
ch: 111     113  113  135  113  119  121  128  121  134  129  121  139  130  136  145  139  139  132  142  148  151  145  145  151  163  145  166  157  166  169  154   19
ch: 112     115  115  117  119  131  115  138  132  135  128  134  139  145  137  142  151  151  151  145  154  166  166  163  157  169  169  172  128  169  169  128   30
ch: 113     115  107  121  129  119  117  122  133  132  128  128  148  136  136  132  148  151  148  137  151  136  151  154  154  157  166  169  166  163  163  166   15
ch: 114     130  122  117  128  121  123  132  132  133  145  139  136  151  136  157  151  154  145  151  163  157  166  148  151  166  169  163  163  172  169  128   29
ch: 115     119  122  121  120  120  121  133  128  142  130  135  136  133  139  145  128  135  137  145  145  148  139  154  148  157  154  157  154  166  169  172   17
ch: 116     113  128  122  117  107  129  121  133  134  134  133  139  139  139  148  154  145  145  151  157  154  163  128  148  157  169  157  154  166  128  128   28
ch: 117     117  113  121  117  119  119  132  119  131  128  121  121  122  134  148  139  145  128  145  154  154  148  151  154  148  151  163  151  148  166  172   11
ch: 118     115  119  115  123  119  130  128  135  132  145  148  132  128  135  145  148  151  148  151  148  151  148  166  151  154  166  151  157  166  128  169   33
ch: 119     119  120  115  128  119  119  122  128  128  135  131  133  145  135  145  145  139  145  145  139  148  151  166  151  154  157  166  169  154  128  172   14
ch: 120     129  117  105  131  128  132  130  131  130  145  138  145  138  151  151  154  148  148  148  151  154  148  163  166  169  166  172  172  128  128  166   38
ch: 121      99  130  121  115  129  133  123  115  121  145  130  121  135  138  121  139  133  136  154  148  154  148  154  154  154  154  163  169  166  172  166   12
ch: 122     117  103  128  136  130  133  132  121  133  122  145  131  128  137  128  148  138  163  154  154  151  145  163  157  166  172  166  169  169  172  169   25
ch: 123     113  128  119  119  121  128  134  135  122  122  138  130  130  148  135  142  139  139  148  154  145  148  157  163  148  157  154  154  166  157  172   15
ch: 124     128  119  109  131  121  129  131  137  128  145  134  132  148  139  145  139  145  148  154  154  157  154  157  154  166  169  169  157  128  172  128   27
ch: 125     113  109  130  134  115  130  119  121  120  130  129  130  136  139  139  139  136  128  148  148  148  136  157  151  154  157  151  163  154  163  154   10
ch: 126     105  117  129  128  123  133  132  122  128  132  131  145  135  136  151  148  139  163  157  145  151  154  163  157  163  163  163  166  166  169  169   28
ch: 127     109  107  117  119  129  131  129  123  128  132  130  120  134  136  128  122  148  148  145  148  142  163  151  163  163  154  163  163  166  163  166   19
