# TRIM CALIBRATION    FEB_C_247_0    pulse_ampl_min=40    pulse_ampl_max=200    pulse_ampl_fast=40
#
ch:   0     123  119  121  131  123  128  121  131  137  148  137  148  148  154  157  151  154  163  163  151  169  169  128  128  128  128  172  128  128  128  128    0
ch:   1     121  117  121  123  117  128  135  123  134  130  145  148  145  148  136  157  145  163  151  163  154  148  166  157  157  166  172  172  172  166  128    6
ch:   2     117  121  120  130  122  131  135  130  134  163  154  145  135  154  157  154  154  148  169  163  157  169  169  169  128  128  128  128  128  128  128   27
ch:   3     117  121  119  125  117  129  128  119  130  130  138  148  138  124  138  145  134  154  148  145  151  154  154  163  169  169  172  163  128  169  169   11
ch:   4     121  121  121  117  129  122  136  135  131  134  145  148  145  151  137  151  166  163  157  163  163  169  172  172  172  128  128  128  128  128  128   27
ch:   5     119  129  105  122  124  128  135  124  137  122  124  133  138  151  154  145  128  148  137  145  154  163  145  157  157  172  163  154  128  166  172   11
ch:   6     115  128  117  133  136  132  132  137  128  136  145  148  145  148  151  154  154  151  163  166  166  154  172  169  128  128  128  128  128  128  128   32
ch:   7     119  117  123  123  128  123  123  133  133  148  134  132  145  138  134  145  163  148  154  148  157  163  169  157  154  169  169  169  169  128  172    7
ch:   8     132  119  121  115  129  135  138  135  128  135  145  148  151  137  148  151  154  154  163  154  154  128  169  172  128  128  128  128  128  128  128   20
ch:   9     122  103  115  123  113  128  132  128  123  134  145  134  136  145  128  145  148  137  157  148  157  157  166  166  163  163  172  166  163  128  128    7
ch:  10     123  124  122  122  130  128  134  136  135  145  135  151  145  151  151  151  154  157  169  169  169  128  172  128  128  128  128  128  128  128  128   23
ch:  11     115  113  117  121  133  137  121  121  136  123  131  139  151  138  148  151  145  151  151  154  154  157  163  172  163  163  166  163  169  166  169   21
ch:  12     115  121  130  119  128  129  136  138  131  151  136  154  151  135  157  154  154  163  157  163  166  169  172  128  128  169  128  128  128  128  128   29
ch:  13     115  117  117  115  123  128  132  136  123  129  134  138  137  148  138  154  151  148  148  148  166  148  166  154  157  166  154  172  172  172  172    4
ch:  14     117  119  121  117  130  145  132  128  136  130  148  145  137  157  157  154  151  163  169  157  169  128  169  128  169  128  172  128  128  128  128   20
ch:  15     121  115  129  121  133  117  128  130  121  130  130  148  137  135  124  145  163  151  163  148  154  151  145  154  148  157  154  128  128  169  172   13
ch:  16     123  128  123  117  145  136  135  148  135  134  148  148  148  136  154  154  157  151  163  128  169  128  166  128  128  128  128  128  128  128  128   32
ch:  17     113  121  105  132  129  130  124  133  135  129  145  128  137  148  145  132  137  137  131  148  163  163  169  154  166  172  172  163  172  166  172   21
ch:  18     113  121  122  145  124  130  145  128  145  139  151  157  154  148  160  157  154  154  154  163  166  166  166  172  128  172  128  172  169  128  128   26
ch:  19     113  115  105  121  121  123  124  107  117  133  133  134  134  134  151  151  151  148  151  148  151  154  151  163  169  163  163  163  166  128  169   10
ch:  20     122  123  123  119  128  128  122  124  136  145  124  145  151  154  151  148  154  163  160  163  154  169  169  163  128  128  128  128  128  128  172   33
ch:  21     125  125  122  105  123  121  132  134  125  132  139  128  138  128  137  145  157  145  163  151  154  151  166  166  154  163  166  128  154  169  169   15
ch:  22     119  105  123  124  117  129  134  138  132  148  148  145  151  151  163  169  154  166  166  163  163  166  169  128  128  128  172  128  128  128  128   34
ch:  23     121  115  115  120  124  129  117  122  122  134  129  121  129  145  145  148  151  157  154  163  157  151  154  169  172  166  166  169  128  166  166   11
ch:  24     124  128  121  121  135  129  138  133  134  148  145  151  145  148  148  154  172  148  151  172  166  166  169  128  128  128  172  169  128  128  128   25
ch:  25     113  119  122  115  123  119  117  123  132  133  151  138  148  133  138  145  148  151  151  145  148  166  157  163  154  172  172  169  169  175  172   11
ch:  26     107  109  123  119  132  134  124  135  131  138  163  154  145  151  163  148  151  157  166  163  169  169  128  128  169  128  128  128  128  128  128   23
ch:  27     115  128  115  121  129  123  123  124  131  130  133  134  129  132  145  151  151  151  151  163  148  169  157  166  157  169  166  172  128  128  128   13
ch:  28     123  107  119  128  133  135  125  129  137  148  151  132  133  154  154  154  166  163  160  154  166  169  128  128  169  128  172  128  128  172  128   26
ch:  29     105  121  131  115  124  117  121  145  128  145  134  132  132  145  151  148  163  148  132  148  148  163  157  157  154  157  157  169  169  172  166   22
ch:  30     105  122  119  130  136  123  131  134  145  133  148  148  151  157  157  157  151  163  169  169  163  169  166  128  172  128  128  128  128  128  128   32
ch:  31     115  115  103  119  115  123  119  115  123  133  132  139  138  132  154  148  139  154  151  151  151  157  172  154  166  172  166  163  169  163  128    7
ch:  32     121  119  119  121  137  132  130  137  145  145  136  148  166  145  154  157  157  154  157  166  157  169  169  169  169  172  172  128  128  128  128   29
ch:  33     117  120  123  128  117  123  134  124  128  122  133  136  135  131  157  137  145  151  148  157  151  151  166  154  157  157  166  163  128  166  128   22
ch:  34     113  119  134  120  113  138  134  145  134  136  148  145  148  148  145  145  157  172  157  163  166  172  166  169  128  128  128  128  128  128  128    0
ch:  35     124  117  119  128  119  131  124  123  128  135  137  129  133  148  145  131  148  154  145  148  145  148  157  163  163  172  157  169  128  128  128   15
ch:  36     117  124  134  121  129  135  132  135  128  134  148  136  154  151  151  151  166  151  154  157  151  172  172  128  169  128  128  128  128  128  128   29
ch:  37     122  117  115  107  129  107  135  121  130  128  136  130  131  128  154  145  145  154  154  166  154  163  151  166  163  169  163  128  128  166  166   16
ch:  38     115  121  119  129  129  124  125  145  145  128  148  128  148  139  166  151  154  157  163  166  169  172  128  169  128  169  128  128  128  128  128   22
ch:  39     117  117  129  130  115  129  124  131  136  124  128  148  139  145  135  148  145  154  148  154  163  157  163  172  166  166  128  157  172  128  128    8
ch:  40     122  117  124  129  135  135  135  145  128  138  137  154  151  145  154  154  169  154  163  157  172  172  128  172  169  128  169  128  128  128  128   36
ch:  41     120  113  119  129  124  122  117  121  129  124  138  128  145  137  132  145  151  148  128  157  148  163  160  157  166  166  128  166  163  166  128   17
ch:  42     119  121  115  128  132  119  131  130  139  131  128  154  154  145  145  169  154  154  154  172  151  166  169  128  172  128  128  128  128  128  128   39
ch:  43     113  113  113  117  130  121  124  131  133  134  151  137  135  148  145  145  139  154  151  154  154  151  157  166  163  157  163  154  128  169  163    9
ch:  44     119  121  130  136  131  124  122  132  148  151  148  151  145  157  136  166  154  166  169  154  169  154  172  166  172  128  172  128  128  128  128   35
ch:  45     105  121  119  117  121  117  133  128  128  134  136  128  145  136  151  163  136  151  160  154  163  148  163  172  166  163  163  172  169  128  169   21
ch:  46     107  130  132  130  128  129  121  145  145  128  130  151  148  154  154  163  157  163  172  128  169  169  172  172  172  128  128  128  128  128  128   28
ch:  47     117  117  117  115  121  117  128  135  132  133  148  133  134  131  151  151  145  133  151  148  151  154  154  148  154  172  163  163  172  169  169   19
ch:  48     119  130  124  117  130  121  124  138  148  138  128  145  137  154  151  157  166  157  169  166  172  166  172  172  172  172  128  128  128  128  128   30
ch:  49     120  113  117  119  128  121  115  130  123  137  121  138  136  135  154  145  139  154  148  148  151  151  169  157  166  163  157  163  172  128  172   13
ch:  50     113  113  122  119  122  145  128  126  135  145  133  128  151  157  145  163  157  163  163  151  157  169  128  169  172  128  128  128  172  128  128   38
ch:  51     115  115  122  131  133  133  136  131  134  125  133  136  137  145  138  151  145  136  154  145  154  154  151  166  157  154  172  172  169  169  128   23
ch:  52     119  123  122  131  132  120  133  128  135  137  131  151  136  145  135  163  154  148  151  166  166  172  172  169  172  172  172  128  128  128  128   28
ch:  53     117  123  117  121  133  130  133  123  120  137  132  132  151  135  148  148  145  139  157  154  166  154  157  169  166  163  169  169  169  172  166   19
ch:  54     125  119  117  131  123  123  134  137  145  139  145  145  145  128  154  145  163  166  169  154  157  169  169  128  172  128  128  128  128  128  128   29
ch:  55     123  117  122  119  121  115  133  121  130  130  129  129  137  148  145  132  148  151  139  145  151  157  163  169  157  163  160  172  128  166  128   15
ch:  56     113  117  123  128  131  133  137  130  131  136  133  148  148  163  154  148  169  163  163  148  163  128  175  128  172  172  172  128  128  128  128   50
ch:  57     121  117  121  113  130  123  124  128  130  132  137  145  154  137  138  138  151  154  154  154  157  163  169  128  166  154  163  169  169  163  172   15
ch:  58     121  123  119  133  136  134  128  128  128  137  139  135  151  151  163  157  163  166  163  169  166  128  172  163  128  128  128  128  128  128  128   41
ch:  59     113  121  117  123  124  121  123  119  122  134  134  136  145  139  124  145  145  145  151  148  148  169  154  157  157  172  154  172  166  172  128   11
ch:  60     128  119  121  124  117  117  128  138  145  133  145  145  151  148  157  157  163  154  172  163  166  169  169  169  128  128  172  128  128  128  128   39
ch:  61     121   99  120  119  122  123  129  131  124  137  132  130  135  137  134  145  151  148  145  157  148  151  166  157  166  163  154  169  172  169  172   22
ch:  62     117  121  119  124  135  129  131  135  134  145  145  145  151  151  151  148  157  166  154  169  163  128  166  128  128  172  128  128  128  128  128   31
ch:  63     119  115  123  122  128  129  119  117  133  139  139  131  136  134  145  138  148  154  154  134  151  163  157  151  169  163  166  163  166  166  169   17
ch:  64     121  119  128  128  131  128  145  133  136  148  129  148  148  145  163  148  166  157  154  163  166  128  169  172  128  128  128  169  128  128  128   32
ch:  65     113  135  119  119  130  128  148  121  134  130  132  131  145  130  145  128  151  151  137  151  157  163  154  157  157  163  154  169  128  169  128   22
ch:  66     115  115  136  131  132  128  128  121  136  157  145  148  135  137  148  166  145  163  166  154  169  157  175  128  128  128  172  128  128  128  128   23
ch:  67     117  119  119  117  128  119  135  122  135  134  138  136  148  145  148  139  135  154  154  125  148  148  154  163  154  169  169  169  166  169  172   24
ch:  68     117  115  113  130  135  121  145  134  148  148  148  137  154  148  154  154  151  151  172  163  172  169  166  166  172  128  128  128  128  128  128   42
ch:  69     119  124  119  121  123  138  128  129  129  135  145  145  134  138  163  138  151  154  148  154  151  154  151  157  172  166  169  163  154  151  128   23
ch:  70     120  119  136  134  129  137  113  130  128  135  138  136  151  154  163  160  163  166  154  128  163  163  172  166  172  128  128  128  128  128  128   44
ch:  71     117  117  107  119  119  132  131  136  131  124  136  145  148  134  139  148  145  139  134  148  154  163  163  157  157  151  157  128  166  172  128   12
ch:  72     123  130  117  136  121  135  145  131  137  139  145  148  154  148  139  157  151  163  163  166  160  172  163  166  172  175  172  128  128  128  128   38
ch:  73     123  121  129  123  121  137  128  119  135  136  135  132  145  145  151  151  128  154  151  148  160  145  151  166  154  166  163  172  172  128  128   17
ch:  74     117  107  129  122  134  137  148  135  129  133  125  148  145  151  148  151  166  163  166  169  163  163  166  128  163  172  128  128  128  128  128   39
ch:  75     119  117  117  119  124  131  133  125  129  151  133  145  145  148  132  139  145  154  151  154  151  151  157  145  163  163  172  169  166  128  128   24
ch:  76     131  117  130  121  131  136  138  132  148  136  138  151  151  154  151  169  166  163  169  169  166  163  172  172  128  128  169  128  128  128  128   48
ch:  77     128  107  121  128  121  128  122  136  145  136  136  138  138  134  145  154  151  145  154  148  154  163  157  169  166  166  166  172  172  169  128   15
ch:  78     122  121  130  119  122  136  134  139  134  130  151  135  154  138  163  157  163  163  169  166  166  160  166  172  128  172  128  128  128  128  128   49
ch:  79     115  115   99  128  121  125  122  134  128  125  131  151  135  139  145  148  148  128  148  154  151  154  166  163  157  154  169  166  157  166  172   15
ch:  80     117  122  119  133  125  132  145  134  137  151  138  128  151  139  154  169  157  154  160  166  128  128  166  128  128  128  128  128  128  128  128    0
ch:  81     129  113  121  115  119  132  130  128  148  129  135  134  135  136  148  148  145  151  154  151  145  163  163  154  157  128  166  172  172  169  166   21
ch:  82     119  120  123  130  128  131  136  145  138  137  128  148  154  154  154  163  151  154  172  169  169  172  169  172  128  128  128  128  128  128  128   38
ch:  83     121  129  113  119  121  129  130  117  119  132  132  136  145  135  137  136  145  145  145  151  148  154  172  154  151  145  166  172  157  163  172   13
ch:  84     117  117  123  131  135  131  123  128  137  132  145  138  134  134  154  154  157  166  163  154  166  128  128  128  128  128  128  172  128  128  128   38
ch:  85     115  115  128  123  128  137  121  128  131  129  119  138  139  135  145  136  151  148  148  157  151  157  163  154  157  163  166  163  163  172  128    9
ch:  86     125  122  121  120  124  133  138  151  129  151  137  136  151  148  148  157  157  157  154  163  169  172  172  128  175  172  128  128  128  128  128   45
ch:  87     105  128  131  120  131  134  123  129  130  138  132  145  128  136  136  148  148  154  151  148  163  163  166  163  166  154  169  172  128  128  172   15
ch:  88     131  121  121  131  129  132  133  145  128  145  151  135  154  148  148  163  151  169  169  128  166  169  172  163  172  128  128  128  128  128  128   48
ch:  89     113  117  128  115  120  128  124  124  129  145  123  139  139  137  135  138  137  157  157  154  151  163  151  172  163  169  166  169  169  128  128   28
ch:  90     115  124  120  130  124  135  134  131  135  148  145  134  148  138  166  157  157  163  154  166  163  166  172  172  128  128  128  128  128  128  128   35
ch:  91     121  117  117  122  121  119  117  139  131  136  124  136  131  134  154  154  145  145  145  151  151  151  154  163  166  166  169  163  163  169  172   21
ch:  92     128  121  123  117  121  136  130  134  137  145  145  148  148  148  154  163  157  166  172  163  163  169  128  163  128  128  128  128  128  128  128   26
ch:  93     105  117  121  123  130  132  131  133  134  133  134  145  133  131  151  145  154  151  154  154  163  154  157  163  154  157  163  166  172  172  169   13
ch:  94     113  117  121  122  128  137  123  128  145  133  151  151  154  148  145  154  157  169  157  172  157  166  169  166  128  128  128  128  128  128  128   38
ch:  95     119  119  128  121  119  131  130  129  128  121  139  148  148  137  145  145  154  148  157  169  154  145  148  166  172  157  172  128  169  128  128   13
ch:  96     128  131  131  121  129  136  136  138  154  130  145  145  136  154  154  157  166  154  154  163  154  172  169  128  166  163  128  128  128  128  128   32
ch:  97     129  107  113  115  121  115  123  130  131  119  129  123  136  148  138  148  163  137  163  169  154  163  154  169  166  169  172  172  172  128  172   22
ch:  98     117  107  107  107  130  134  133  148  139  133  151  148  157  148  157  151  157  157  163  169  154  166  128  172  128  128  128  128  128  128  128   41
ch:  99     119  117  117  119  117  136  117  132  123  137  131  134  137  135  148  148  154  151  145  128  163  163  163  157  166  169  172  157  169  128  128   19
ch: 100     117  117  134  117  145  131  145  134  132  138  154  145  154  148  154  157  157  166  154  154  166  172  172  128  172  128  128  128  128  128  128   30
ch: 101     115  121  113  119  122  131  122  132  119  145  137  128  139  134  145  148  137  148  151  163  151  157  166  166  169  163  157  128  166  128  128   17
ch: 102     113  115  121  122  132  135  133  128  145  128  131  154  148  148  151  145  154  151  157  166  151  166  128  128  128  128  128  128  128  128  128   34
ch: 103     107  117  121  129  132  123  133  129  123  133  132  136  138  138  151  145  137  151  128  148  148  151  166  169  163  169  166  157  166  169  128   19
ch: 104     115  121  129  134  133  145  134  132  136  124  137  137  154  148  154  151  166  163  166  169  169  172  169  128  128  128  128  166  128  128  128   37
ch: 105     117  113  119  131  117  128  134  133  131  130  136  137  145  137  148  148  133  157  151  148  163  154  151  172  163  169  128  166  172  128  128   11
ch: 106     115  121  133  123  128  134  123  119  124  148  135  138  145  145  154  157  154  172  157  163  154  169  172  169  169  128  128  128  128  128  128   36
ch: 107     103  121  123  123  117  121  134  125  128  139  145  131  154  145  148  132  160  166  148  154  145  151  154  163  163  166  172  166  128  128  128   17
ch: 108     117  121  130  128  137  135  137  131  134  132  136  145  145  151  151  151  154  169  154  169  166  128  169  163  128  172  172  128  128  128  128   24
ch: 109     117  117  103  117  130  128  125  129  122  134  137  137  128  135  145  139  145  148  148  148  154  151  166  157  154  172  160  166  157  172  128   14
ch: 110     120  117  123  122  132  137  135  132  136  145  148  145  154  151  148  148  157  163  169  166  157  128  166  172  172  128  128  128  128  128  128   26
ch: 111     107  117  123  124  119  119  121  132  134  130  135  129  128  145  151  128  148  151  151  139  163  151  157  166  157  163  157  166  166  163  172   12
ch: 112     117  121  119  129  137  122  119  135  145  128  136  138  148  151  145  151  157  163  166  154  166  166  128  163  172  128  128  128  128  128  128   36
ch: 113     113  128  121  113  124  122  124  119  128  134  133  134  139  131  145  145  151  154  157  148  148  154  154  163  166  172  166  172  128  128  128   15
ch: 114     132  121  119  128  129  134  148  136  128  131  145  145  148  151  151  163  151  151  154  163  166  172  128  166  128  128  128  128  128  128  128   37
ch: 115     119  115  117  123  117  128  121  130  128  132  134  134  135  148  136  148  148  145  151  148  145  163  166  163  154  166  128  128  169  172  169   13
ch: 116     117  115  121  124  133  117  131  132  136  137  131  145  151  148  151  154  172  151  169  163  163  166  166  128  128  172  128  128  128  128  128   49
ch: 117     115  121  130  122  121  133  134  123  145  121  134  134  136  151  138  145  145  148  154  163  166  157  169  154  163  163  172  169  128  169  169   17
ch: 118     121  117  121  119  136  128  145  132  145  131  145  148  148  145  166  157  163  151  169  166  169  128  172  169  128  172  128  128  128  128  128   42
ch: 119     107  107  117  130  132  128  124  133  128  135  130  129  131  145  134  151  148  128  148  151  151  157  157  157  163  166  163  172  166  128  172   15
ch: 120     119  129  121  121  119  124  145  132  139  138  134  138  148  148  154  163  163  166  163  166  172  166  128  169  172  128  128  128  128  128  128   29
ch: 121     117  113  128  119  125  121  130  122  131  145  133  138  138  157  136  142  163  157  145  154  166  163  157  163  163  163  166  128  169  128  172    9
ch: 122     115  119  122  130  145  124  132  135  139  148  139  134  138  151  148  154  157  163  151  166  163  166  172  128  128  172  128  128  128  128  128   31
ch: 123     119  121  117  122  107  121  129  123  130  128  136  131  122  137  145  135  145  138  148  145  154  154  154  169  157  166  166  163  163  128  128   12
ch: 124     117  123  130  119  128  137  148  138  136  139  145  151  148  157  151  151  151  166  166  166  160  128  169  128  172  172  172  128  128  128  128   38
ch: 125      99  113  115  121  130  122  131  120  124  133  137  128  139  145  134  145  148  148  139  154  151  166  163  163  166  166  128  163  128  166  128   13
ch: 126     115  135  130  129  148  128  134  119  132  136  145  148  148  154  151  151  163  166  163  169  169  169  128  169  128  169  128  128  128  128  128   21
ch: 127      99   99  105  105  107   99  102  115   90  103  115  107  105  109  115  105   93  117  115  123  123  128  119  122  123  128  131  132  145  131  133    0
