# TRIM CALIBRATION    FEB2_2_0    pulse_ampl_min=10    pulse_ampl_max=220    pulse_ampl_fast=10
#
ch:   0     128  124  124  127  105  126  121  125  119  128  139  138  123  128  126  131  134  135  147  129  130  120  124  141  128  149  149  138  144  138  145    0
ch:   1     128  123  128  119  138  134  125  134  123  132  131  129  129  137  123  129  128  121  147  121  135  133  123  131  146  131  137  139  147  147  153    0
ch:   2     128  136  132  131  129  118  129  132  136  135  117  135  131  120  128  123  131  133  135  130  138  129  148  135  137  133  149  134  135  149  134    0
ch:   3     128  122  119  120  119  120  124  127  131  131  135  134  129  140  131  124  131  127  134  145  147  147  137  138  148  160  135  141  138  149  152    0
ch:   4     128  120  126  127  120  131  148  125  117  107  126  130  120  127  127  123  129  135  133  128  137  143  138  137  132  138  139  147  147  150  149    0
ch:   5     133  133  117  117  116  129  131  117  131  131  123  123  134  123  133  131  133  137  140  131  137  135  134  139  134  139  146  139  133  131  151    0
ch:   6     128  118  119  126  126  134  126  126  128  124  131  131  128  131  138  137  130  131  133  129  135  131  138  140  134  148  139  137  135  147  141    0
ch:   7     128  128  124  119  134  128  131  127  135  134  133  124  124  129  149  135  131  131  136  135  137  137  134  129  135  148  138  135  141  152  156    0
ch:   8     128  130  118  125  128  120  125  133  128  123  121  134  116  138  143  120  130  120  138  138  130  130  142  135  147  153  118  139  140  134  139    0
ch:   9     128  130  133  132  124  127  120  131  128  120  120  134  123  127  131  131  134  129  138  135  134  135  133  135  139  140  147  134  138  161  152    0
ch:  10     128  125  125  122  120  126  119  124  129  135  126  121  122  134  137  131  135  138  139  138  148  132  128  135  131  135  139  132  133  139  152    0
ch:  11     128  131  129  146  128  134  128  129  121  138  119  129  140  130  131  128  133  134  135  134  134  131  149  147  133  147  147  139  146  137  141    0
ch:  12     128  133  126  126  126  123  134  123  125  131  115  132  124  128  129  131  135  131  135  138  129  128  137  138  131  133  140  139  135  148  138    0
ch:  13     128  128  128  119  140  122  128  123  123  138  124  123  133  134  123  127  131  127  139  130  134  131  139  132  135  135  135  145  151  152  139    0
ch:  14     128  134  132  128  131  130  120  128  134  128  119  134  131  135  134  129  127  135  131  146  135  133  137  138  140  133  134  154  149  134  138    0
ch:  15     128  120  124  130  131  131  126  124  126  131  130  135  118  136  135  126  134  135  137  135  138  134  144  133  148  131  137  145  137  151  148    0
ch:  16     128  123  118  115  128  123  126  118  134  130  118  131  128  123  134  138  128  137  140  121  145  141  134  139  132  140  135  137  145  150  137    0
ch:  17     128  128  118  118  128  123  135  131  129  124  131  131  137  131  137  137  131  126  138  124  130  130  147  138  135  147  137  147  145  152  145    0
ch:  18     128  130  131  124  123  129  131  124  135  134  137  138  121  128  124  131  137  133  135  135  123  131  129  137  147  138  128  135  148  157  137    0
ch:  19     128  120  124  121  117  123  123  123  130  134  134  134  131  131  130  123  129  131  134  138  128  140  129  138  131  137  137  151  147  144  146    0
ch:  20     128  129  134  136  130  133  134  134  108  134  121  134  124  129  134  124  131  123  127  148  124  134  134  148  134  139  135  146  138  130  148    0
ch:  21     128  123  131  129  126  129  131  121  134  126  131  131  127  137  126  147  135  129  134  140  139  131  138  146  135  134  147  140  150  153  147    0
ch:  22     128  120  125  123  134  131  131  126  131  120  135  127  129  124  133  134  135  128  134  135  133  120  135  138  127  135  134  135  148  142  158    0
ch:  23     128  130  116  124  129  117  124  105  129  127  128  134  137  122  129  127  131  129  134  127  128  134  137  147  133  137  138  147  149  138  133    0
ch:  24     128  134  134  133  131  118  134  133  123  127  138  128  135  127  127  132  135  135  127  131  133  126  138  135  139  145  137  139  140  138  140    0
ch:  25     128  134  131  128  146  131  123  131  123  130  134  134  129  119  135  134  135  121  135  137  148  137  139  145  135  135  149  134  140  153  148    0
ch:  26     128  120  124  124  115  146  123  129  135  131  133  126  126  128  127  131  128  133  138  126  135  127  131  137  139  137  147  152  150  137  153    0
ch:  27     128  132  121  133  128  131  131  133  121  131  123  119  125  120  136  134  137  128  130  145  123  145  137  138  145  130  139  137  139  138  141    0
ch:  28     128  120  124  138  131  119  131  128  121  120  124  104  135  135  134  135  119  124  138  132  136  138  130  138  134  131  127  147  135  140  145    0
ch:  29     128  134  128  126  132  128  128  124  130  131  127  121  130  129  123  131  147  134  138  143  131  139  133  138  134  134  128  139  141  148  139    0
ch:  30     128  125  126  126  123  131  126  139  113  127  127  127  120  125  137  126  135  132  134  129  131  124  139  131  128  131  131  151  138  138  136    0
ch:  31     128  120  124  126  117  124  123  134  129  120  135  131  117  147  130  137  132  132  135  133  133  143  137  135  145  148  141  147  148  145  140    0
ch:  32     128  120  127  122  124  129  120  122  128  123  121  138  127  126  135  131  131  126  131  137  131  126  128  134  133  138  139  135  138  138  134    0
ch:  33     128  134  137  124  122  123  123  117  131  135  135  119  131  138  128  148  134  139  123  131  148  138  123  141  138  137  140  145  135  135  134    0
ch:  34     128  129  118  129  131  118  123  131  124  134  134  131  129  124  127  133  130  131  131  126  138  137  131  134  129  135  133  126  150  147  130    0
ch:  35     128  135  137  120  130  123  121  133  117  128  131  119  134  135  131  135  130  133  142  131  135  138  135  128  150  137  138  146  147  146  149    0
ch:  36     140  132  134  144  127  129  135  134  124  126  126  125  127  130  135  128  129  133  131  131  137  130  134  138  139  140  150  154  135  149  138    0
ch:  37     151  122  122  120  123  131  123  123  126  131  131  138  126  129  134  130  133  134  138  134  127  137  132  145  139  139  135  139  147  148  151    0
ch:  38     128  134  130  125  128  127  118  131  120  130  134  117  131  126  128  134  133  131  134  132  140  141  128  134  134  135  131  137  148  133  133    0
ch:  39     138  133  127  118  124  132  115  132  128  128  118  123  138  131  133  131  135  128  135  131  133  148  134  134  134  139  148  146  151  135  137    0
ch:  40     128  122  126  126  119  134  131  128  135  123  131  120  129  139  137  134  135  130  134  135  134  129  138  134  129  147  139  142  147  144  133    0
ch:  41     128  120  131  131  134  133  132  130  134  124  131  129  121  137  139  137  135  148  135  138  134  126  138  138  137  137  146  147  147  148  149    0
ch:  42     128  125  121  124  106  120  132  121  127  131  118  131  131  137  139  122  127  135  134  138  138  124  150  125  135  134  149  143  139  147  148    0
ch:  43     128  131  131  116  133  127  128  121  131  131  135  131  128  126  130  128  129  134  128  138  134  134  134  135  140  134  141  145  134  137  147    0
ch:  44     128  122  114  128  123  128  127  121  123  126  119  131  134  130  131  131  131  126  138  134  135  130  129  135  129  135  147  131  144  142  147    0
ch:  45     128  120  118  118  123  137  130  123  123  137  132  129  135  134  132  135  128  134  132  134  128  138  134  134  147  135  146  138  140  138  146    0
ch:  46     128  132  119  133  123  123  119  128  137  123  133  123  129  131  131  128  135  133  146  120  127  137  135  130  136  128  129  147  135  148  138    0
ch:  47     128  123  123  131  123  131  131  124  131  134  138  128  131  130  140  126  128  137  129  139  129  134  139  145  145  148  134  138  138  153  145    0
ch:  48     128  120  122  123  123  117  135  128  129  123  120  129  134  128  133  135  135  131  131  130  131  131  150  131  140  135  147  148  139  137  139    0
ch:  49     128  120  137  124  131  133  121  135  133  139  130  123  130  138  132  121  133  133  138  134  134  138  141  149  154  129  137  141  138  135  145    0
ch:  50     128  132  123  123  129  126  134  131  117  129  129  138  128  135  134  121  134  146  137  133  129  126  135  131  144  144  119  135  148  154  145    0
ch:  51     128  123  121  125  123  135  130  133  118  123  131  120  128  137  123  138  134  125  131  140  147  127  139  119  148  154  134  149  134  146  147    0
ch:  52     128  126  126  123  118  120  127  131  125  131  118  128  130  133  145  131  131  137  124  133  153  138  138  147  130  139  148  139  151  138  147    0
ch:  53     128  128  132  128  127  123  123  130  135  129  128  133  126  128  133  140  136  135  131  126  135  153  144  139  135  135  139  135  140  151  134    0
ch:  54     128  120  124  123  121  118  123  110  131  140  131  134  135  126  138  128  131  131  129  131  134  133  139  134  148  145  136  151  138  138  157    0
ch:  55     128  130  124  132  123  126  131  134  131  132  129  131  137  130  135  134  133  130  135  134  131  138  134  138  140  137  138  135  146  137  152    0
ch:  56     128  129  131  121  119  130  123  128  138  124  129  129  134  127  133  130  121  131  131  139  131  118  139  134  131  135  146  139  148  149  147    0
ch:  57     128  128  115  130  134  128  130  126  126  127  121  132  120  123  143  131  135  127  123  134  134  137  142  139  144  133  143  138  148  142  147    0
ch:  58     128  123  118  130  125  128  130  123  126  129  134  131  133  131  130  135  134  133  134  134  128  134  141  142  140  139  134  134  138  135  136    0
ch:  59     128  123  124  121  119  132  131  127  120  134  134  124  135  130  147  130  131  137  123  134  133  123  134  148  135  138  140  131  140  139  135    0
ch:  60     128  120  133  119  123  134  117  121  131  133  121  128  131  128  138  134  131  138  146  123  134  140  131  133  133  131  138  134  137  138  130    0
ch:  61     128  120  120  135  122  138  119  117  123  123  131  126  125  133  146  149  126  137  131  126  132  147  129  131  149  135  151  149  139  138  153    0
ch:  62     128  128  130  128  128  134  133  139  115  131  134  132  130  130  135  126  146  135  135  134  128  134  139  123  138  138  124  137  149  153  133    0
ch:  63     128  133  129  126  128  120  123  137  138  127  123  134  138  128  137  132  140  134  138  137  137  131  134  146  147  135  138  132  138  153  150    0
ch:  64     128  120  127  120  131  138  137  131  131  129  123  134  133  130  138  134  129  131  137  125  131  131  135  131  148  127  133  139  142  141  153    0
ch:  65     134  123  133  131  130  127  131  126  118  128  127  126  135  135  131  131  133  144  123  147  138  147  147  148  130  138  154  148  147  154  138    0
ch:  66     128  120  129  129  126  134  125  131  131  137  127  128  128  130  135  118  127  138  129  132  137  124  132  138  133  142  135  135  152  146  148    0
ch:  67     128  126  136  133  120  131  120  130  129  131  131  138  131  130  147  131  135  131  133  131  134  135  134  133  128  134  139  148  134  148  143    0
ch:  68     128  120  137  136  128  121  131  134  126  137  133  138  133  126  138  131  135  127  138  144  130  133  147  120  133  139  142  138  136  150  154    0
ch:  69     128  122  131  128  133  130  119  138  121  131  135  125  131  137  131  129  137  134  131  138  135  135  132  139  134  130  154  148  150  147  137    0
ch:  70     128  132  129  136  121  135  121  129  135  128  133  131  131  134  127  128  128  132  133  145  138  143  134  138  137  147  134  132  131  143  148    0
ch:  71     128  120  124  133  135  134  129  134  133  134  117  138  129  134  135  128  133  144  134  138  131  134  148  135  134  151  149  147  149  151  147    0
ch:  72     128  133  134  131  123  125  131  128  122  128  123  124  134  133  138  145  121  138  134  148  128  135  137  135  139  137  138  140  138  130  137    0
ch:  73     128  120  133  121  131  138  139  133  144  128  145  138  126  131  145  131  125  137  138  144  146  148  146  138  146  136  137  137  146  146  153    0
ch:  74     128  128  130  124  125  134  128  134  122  121  131  128  129  118  135  134  132  134  138  131  131  146  140  148  147  145  153  138  150  147  147    0
ch:  75     128  147  120  122  128  135  131  126  123  129  146  135  129  137  133  131  130  131  128  138  147  123  135  133  133  139  145  148  159  154  138    0
ch:  76     128  120  118  131  123  130  125  134  123  120  124  146  128  131  131  125  148  123  145  138  137  127  131  135  130  139  138  146  148  138  153    0
ch:  77     134  120  123  131  131  126  129  130  133  129  135  135  135  135  131  140  135  149  135  147  137  126  138  135  135  125  134  147  147  143  151    0
ch:  78     128  127  130  127  126  123  121  128  115  127  138  129  124  131  135  148  140  134  123  126  134  141  139  148  138  137  134  135  140  152  145    0
ch:  79     128  128  124  118  127  121  123  130  131  131  134  128  131  133  129  138  138  135  132  138  138  131  133  134  136  135  135  138  138  148  149    0
ch:  80     128  133  130  123  118  107  135  128  126  130  134  127  107  127  136  134  134  123  135  137  127  135  132  132  144  134  143  137  151  148  140    0
ch:  81     128  123  133  133  123  129  125  130  135  130  130  133  134  134  126  131  138  131  135  128  130  135  132  152  141  139  147  145  147  150  147    0
ch:  82     128  120  131  127  117  131  131  128  130  121  133  116  133  132  128  126  128  138  133  135  138  139  134  134  140  138  138  130  149  139  153    0
ch:  83     128  128  125  134  123  134  134  128  147  127  126  128  131  135  134  133  131  138  135  137  132  129  134  139  123  138  135  139  153  145  159    0
ch:  84     128  120  133  124  135  123  127  129  130  131  124  124  132  134  131  128  135  134  126  131  138  134  137  137  136  137  149  137  153  150  138    0
ch:  85     128  132  136  121  123  129  137  134  124  129  126  126  122  122  126  130  135  130  134  134  139  134  138  139  152  150  147  151  163  148  148    0
ch:  86     128  133  121  121  129  119  131  131  121  130  134  131  134  131  134  123  136  134  139  131  131  123  145  132  133  126  138  138  151  149  148    0
ch:  87     128  120  131  134  120  126  130  132  123  135  129  127  131  138  129  141  150  128  138  114  138  134  139  137  136  134  140  153  135  148  147    0
ch:  88     128  122  137  119  127  134  137  126  121  117  117  134  138  135  134  123  131  132  150  139  134  145  126  137  138  149  148  135  143  145  148    0
ch:  89     128  123  118  120  126  130  135  130  127  124  134  131  135  121  137  131  132  148  136  130  136  143  131  138  131  135  135  145  140  157  148    0
ch:  90     128  128  129  120  121  136  118  135  133  134  135  120  138  124  129  135  134  148  126  140  137  131  147  128  134  137  147  151  148  140  138    0
ch:  91     128  128  124  129  131  128  134  124  123  128  129  131  129  138  134  123  130  130  132  135  134  137  138  135  137  145  150  145  146  147  139    0
ch:  92     128  122  128  124  136  128  131  131  131  133  126  128  126  133  123  128  136  130  134  133  134  135  123  135  134  142  153  138  147  135  153    0
ch:  93     128  137  121  121  132  131  120  133  126  125  131  135  138  138  121  131  149  134  131  131  140  138  131  126  147  137  139  124  146  147  163    0
ch:  94     128  120  123  123  128  120  119  117  123  134  137  135  130  122  123  127  135  138  150  136  126  132  135  134  140  137  139  145  149  139  130    0
ch:  95     128  137  118  121  134  129  131  128  137  128  137  120  132  135  136  123  134  134  123  132  128  138  129  150  137  148  131  138  146  151  147    0
ch:  96     128  122  132  132  131  128  137  134  132  127  130  136  130  121  134  138  134  134  131  138  134  139  130  134  137  131  136  135  135  147  131    0
ch:  97     128  132  127  119  120  137  118  130  126  135  127  124  134  128  134  134  135  139  138  131  128  131  138  131  131  138  138  139  142  145  145    0
ch:  98     128  136  131  133  128  126  123  134  119  131  120  129  122  124  137  133  126  134  126  128  137  141  134  133  141  122  137  148  135  148  143    0
ch:  99     128  120  126  127  130  132  129  117  133  135  130  138  133  115  137  133  147  149  144  145  134  137  148  134  131  138  142  138  137  153  146    0
ch: 100     128  131  128  123  123  131  120  123  128  129  121  132  123  123  124  129  121  120  133  133  138  133  138  123  136  154  131  146  146  138  149    0
ch: 101     128  122  118  127  128  130  129  123  118  124  123  141  134  129  147  130  132  148  138  137  137  138  131  134  127  144  161  135  139  140  143    0
ch: 102     128  130  121  128  135  137  120  131  121  135  122  134  131  134  134  131  129  126  128  125  125  131  135  133  135  147  135  152  147  139  145    0
ch: 103     128  122  129  131  130  128  129  129  128  131  131  133  128  127  150  139  135  135  137  134  148  149  147  138  131  132  133  139  150  153  150    0
ch: 104     128  122  122  129  130  120  139  131  126  121  123  134  137  128  134  145  124  137  135  132  137  134  128  140  134  144  139  148  137  139  145    0
ch: 105     128  120  125  123  118  118  123  129  128  133  137  127  132  135  137  130  133  131  138  139  120  134  133  146  140  147  138  138  149  151  145    0
ch: 106     128  137  134  134  123  135  118  131  134  126  135  131  128  135  128  143  121  131  134  135  143  134  135  135  130  148  146  150  145  152  140    0
ch: 107     128  120  107  126  121  131  119  130  117  135  123  126  138  135  136  125  148  138  148  137  138  131  130  135  154  150  146  139  139  147  140    0
ch: 108     128  123  130  120  133  126  131  120  129  137  134  126  125  134  134  121  131  128  134  138  138  135  134  137  137  137  142  147  148  150  153    0
ch: 109     128  133  122  122  117  125  125  134  127  128  123  124  124  131  129  134  131  131  153  135  138  132  147  144  123  135  135  147  148  135  140    0
ch: 110     128  120  124  127  120  119  135  118  121  126  128  119  138  123  132  129  124  128  135  133  135  137  137  131  134  145  144  138  145  149  142    0
ch: 111     128  129  124  135  106  116  135  129  120  130  134  127  131  131  137  137  135  134  132  138  151  148  136  132  135  154  138  162  134  139  148    0
ch: 112     128  170  134  134  120  128  148  126  119  146  131  129  134  131  131  127  129  134  121  127  132  139  138  129  131  135  149  135  140  140  152    0
ch: 113     135  133  130  113  123  133  131  129  121  134  123  125  128  129  138  134  118  134  130  131  131  138  135  138  146  147  150  129  152  148  150    0
ch: 114     128  124  117  123  122  139  123  129  132  121  137  134  128  131  138  134  131  130  130  135  145  127  124  146  134  147  138  148  138  137  134    0
ch: 115     128  128  124  132  114  139  131  135  122  133  129  129  131  124  134  139  135  131  129  145  134  148  139  129  150  135  138  147  153  139  145    0
ch: 116     128  120  121  133  129  130  134  131  131  125  115  128  135  131  141  131  133  137  138  134  138  141  128  128  133  143  147  135  135  148  147    0
ch: 117     128  120  113  128  128  119  128  126  129  127  134  124  134  123  128  128  138  138  131  135  131  131  134  131  141  130  147  134  138  148  151    0
ch: 118     128  135  132  131  117  131  129  126  121  127  131  122  131  128  135  134  124  123  129  132  137  130  129  138  134  147  138  139  150  132  148   40
ch: 119     128  120  131  116  118  121  133  121  120  127  125  130  130  130  127  133  127  130  130  137  128  135  130  133  130  130  133  137  137  152  137    0
ch: 120     128  125  122  124  133  131  121  117  131  120  119  133  121  133  121  133  131  121  137  130  125  115  118  133  124  130  127  137  133  146  137    0
ch: 121     128  128  136  118  130  121  127  121  120  130  130  121  121  119  137  127  133  119  130  128  133  121  133  147  138  130  137  131  138  138  147    0
ch: 122     128  120  116  134  115  115  128  119  128  130  121  128  115  123  131  121  119  127  125  125  133  131  127  135  133  138  133  133  125  131  139    0
ch: 123     128  120  122  125  115  131  127  131  133  115  115  115  119  115  133  127  133  105  130  123  130  130  125  123  125  125  133  130  133  133  129    0
ch: 124     128  131  119  125  117  118  130  130  123  130  130  127  128  119  130  133  124  131  131  121  121  127  124  137  125  120  137  123  139  137  147    0
ch: 125     128  136  122  121  123  128  127  125  128  121  131  121  119  115  121  125  133  119  133  137  130  133  124  130  139  130  130  147  130  137  125    0
ch: 126     128  124  122  125  115  130  121  123  121  129  123  123  127  121  123  135  130  133  130  137  130  123  124  131  130  130  137  133  137  133  130    0
ch: 127     128  130  121  127  121  131  113  118  124  123  121  121  133  133  121  147  141  121  133  118  137  137  137  133  130  137  124  140  131  131  151    0
