# TRIM CALIBRATION    FEB6_9_0    pulse_ampl_min=10    pulse_ampl_max=220    pulse_ampl_fast=10
#
ch:   0     128  120  118  118  115  117  121  123  124  114  120  115  117  128  105  123  115  127  104  115  115  117  115  105  117  113  121  120  133  133  117    0
ch:   1     128  120  116  124  121  118  117  119  112  124  115  109  108  117  128  118  121  115  112  120  117  133  120  124  118  127  123  115  130  145  121    0
ch:   2     128  120  130  118  121  115  118  115  118  119  109  115  117  105  123  113  125  112  128  118  115  115  110  121  121  115  124  115  118  119  124    0
ch:   3     128  127  128  106  123  128  121  123  113  119  127  121  127  128  113  124  109  121  121  117  119  118  121  119  127  117  115  128  130  128  133    0
ch:   4     128  140  119  127  120  115  117  108  118  121  105  119  118  108  115  108  117  115  110  119  123  112  109  121  118  121  121  125  115  128  130    0
ch:   5     128  120  118  121  109  124  123  121  118  121  118  114  109  121  118  128  123  121  121  118  119  117  114  121  127  121  115  115  127  121  137    0
ch:   6     128  128  134  121  117  115  115  105  108  123  107  108  120  110  121  114  127  105  114  127  105  115  128  105  119  114  115  129  133  123  133    0
ch:   7     128  131  118  119  112  109  106  128  115  105  137  115  118  121  117  118  112  121  128  124  114  106  115  119  124  120  121  115  137  123  137    0
ch:   8     128  120  118  127  114  108  121  112  115  105  127  129  126  119  121  113  118   98  113  128  107  105  119  124  127  124  123  130  133  137  134    0
ch:   9     128  128  106  116  118  114  127  133  118  121  106  108  110  123  117  117  118  118  117  115  123  137  105  130  115  128  123  133  121  131  119    0
ch:  10     128  120  122  116  124  105  105  121  121  129  131  118  104  115  133  123  101  119  115  121  117  117  119  123  112  123  117  130  133  133  131    0
ch:  11     128  120  116  121  126  115  120  124  118  119  105  117  118  117  118  120  108  124  119  130  120  121  118  119  117  124  133  133  128  133  133    0
ch:  12     128  120  119  121  104  127  105  120  121  113  123  106  114  105  120  105  117  127  118  105  119  121  119  119  128  121  130  124  127  121  147    0
ch:  13     128  120  124  123  119  114  105  121  121  121  123  117  121  119  119  121  117  130  128  115  115  128  120  118  117  118  133  123  121  134  128    0
ch:  14     128  120  114  121  115  131  109  119  115  120  120  123  123  118  121  119  103  123  120  117  108  117  118  117  119  121  121  121  121  131  133    0
ch:  15     128  132  106  113  127  120  131  123  128  118  110  126  110  131  123  118  113  128  121  131  115  127  113  115  121  123  121  130  124  127  133    0
ch:  16     128  120  124  116  121  115  115  116  121  120  121  107  116  119  115  120  118  123  119  114  131  128  115  131  128  128  124  123  123  123  131    0
ch:  17     140  118  122  121  115  115  126  119  130  128  115  108  121  112  105  115  128  129  123  121  118  115  115  127  117  127  105  130  118  127  124    0
ch:  18     128  120  122  116  123  120  121  123  118  124  118  105  112  119  121  117  121  123  119  123  119  113  121  114  128  104  115  121  121  129  115    0
ch:  19     128  122  122  114  123  127  115  117  115  133  115  118  119  121  121  105  121  118  121  115  123  114  121  131  115  121  131  131  131  133  133    0
ch:  20     128  117  116  121  127  118  117  118  119  117  115  117  115  121  130  121  119  126  114   96  130  118  118  127  117  120  119  117  121  133  143    0
ch:  21     128  128  120  106  117  119  130  118  115  117  120  113  130  120  120  111  115  121  114  114  121  120  105  118  121  118  123  121  131  130  129    0
ch:  22     128  120  119  103  118  112  117  109  121  112  119  124  110  121  103  117  113  119  105  108  121  120  117  121  117  124  115  131  107  123  130    0
ch:  23     128  131  116  121  121  129  121  119  105  119  129  127  117  115  130  121  123  114  119  121  112  101  124  119  116  121  121  121  133  128  147    0
ch:  24     128  114  124  114  121  119  120  117  121  105  124  115  120  121  121  115  105  123  118  117  121  121  120  115  115  117  120  131  128  130  123    0
ch:  25     128  117  122  112  119  121  115  127  113  128  114  121  121  118  115  124  110  126  121  115  125  133  121  123  119  107  118  124  120  121  135    0
ch:  26     128  128  122  131  115  133  137  128  115  130  121  119  127  115  123  115  118  121  129  123  107  118  118  119  124  105  121  131  137  127  130    0
ch:  27     140  120  116  118  120  114  114  113  121  115  129  105  115  117  120  130  115  103  115  123  124  119  105  127  130  119  135  128  121  123  133    0
ch:  28     128  114  119  127  117  117  107  108  105  118  107  117  120  119  123  112  121  119  113  121  115  120  115  115  119  108  121  124  127  115  117    0
ch:  29     128  120  128  132  117  121  118  117  128  121  108  119  115  106  119  114  118  105  115  108  118  121  130  118  114  123  121  121  130  133  128    0
ch:  30     128  120  118  121  117  123  123  121  117  116  127  118  121  116  118  118  115  121  120  103  115  119  115  114  121  115  121  133  117  128  133    0
ch:  31     128  120  119  118  123  123  106  119  128  115  104  117  114  124  130  121  128  123  115  121  117  115  117  105  115  120  119  131  125  123  130    0
ch:  32     128  124  124  116  115  117  114  131  121  121  121  118  108  124  114  121  115  112  118  117  118  115  118  117  117  119  119  133  121  116  128    0
ch:  33     128  127  122  121  105  115  120  123  114  114  121  105  119  121  127  115  121  123  121  115  113  106  115  119  114  123  118  124  126  124  134    0
ch:  34     128  123  115  130  124  119  113  121  121  128  127  119  113  121  120  127  115  129  118  115  118  119  118  115  125  127  129  123  128  129  125    0
ch:  35     128  120  116  130  119  119  121  119  115  137  130  128  121  117  121  115  120  125  119  108  109  121  121  133  124  131  115  130  120  133  134    0
ch:  36     128  130  121  120  128  121  121  121  112  112  130  121  115  117  113  111  121  115  121  117  112  120  121  121  123  121  115  121  126  130  118    0
ch:  37     128  111  116  116  131  128  130  130  118  121  120  133  115  115  121  113  118  125  116  106  124  121  117  121  121  120  131  119  121  121  127    0
ch:  38     128  120  117  128  114  113  118  113  121  115  107  118  114  114  113  105  115  101  118  116  117  119  117  119  121  115  114  131  115  133  121    0
ch:  39     128  128  133  120  121  114  130  128  118  114  119  117  118  117  116  117  118  118  121  115  119  105  108  117  113  123  121  131  126  131  127    0
ch:  40     128  114  116  121  108  135  138  118  112  128  120  112  108  120  115  130  118  112  111  114  115  115  112  118  121  115  115  131  121  128  130    0
ch:  41     128  132  118  121  115  121  124  128  117  121  121  123  121  113  119  118  113  128  114  108  113  118  106  120  119  128  121  119  121  140  138    0
ch:  42     128  132  113  115  117  113  124  127  115  115  114  119  115  120  128  115  114  131  120  121  121  109  114  117  118  117  120  130  127  115  123    0
ch:  43     128  124  122  118  119  133  119  108  117  118  121  115  105  128  128  118  112  128  119  121  115  121  123  114  118  121  121  121  134  133  121    0
ch:  44     128  120  116  119  128  127  105  121  115  114  128  120  121  118  115  117  123  115  118  121  128  119  121  119  123  121  113  130  130  130  127    0
ch:  45     128  114  116  114  121  121  129  121  119  123  117  110  105  130  126  121  118  121  109  114  108  119  123  119  121  127  121  108  130  124  128    0
ch:  46     128  120  117  120  118  133  117  118  119  115  115  120  123  113  119  114  117  119  119  110  120  114  118  114  121  115  117  124  130  128  125    0
ch:  47     131  120  122  123  104  117  118  119  119  118  121  120  121  121  119  121  115  125  121  131  120  121  117  121  130  123  118  121  130  133  137    0
ch:  48     128  120  130  114  121  121  126  121  119  121  121  117  113  118  117  117  105  110  105  121  105  123  121  128  117  121  114  133  124  123  133    0
ch:  49     128  129  124  121  118  123  131  119  114  130  121  121  117  118  117  115  127  128  123  128  117  113  105  119  121  128  115  128  130  133  121    0
ch:  50     131  139  118  124  121  118  117  133  113  127  120  105  115  114  127  124  119  120  117  119  115  123  121  117  130  123  118  126  126  121  131    0
ch:  51     128  120  113  121   99  123  117  117  117  118  128  115  113  121  129  124  121  121  117  119  133  121  121  121  109  121  118  123  121  135  133    0
ch:  52     128  125  108  132  109  128  119  117  121  131  133  124  113  123  121  118  119  117  121  118  120  118  114  129  114  123  121  133  131  127  141    0
ch:  53     128  128  132  130  115  121  126  133  108  115  118  121  123  119  123  121  117  118  115  115  121  119  117  123  119  123  130  125  121  130  133    0
ch:  54     128  120  120  105  119  119  115  121  105  105  114  120  105  119  123  119  106  119  123  105  114  121  119  120  114  106  117  124  118  137  123    0
ch:  55     128  120  118  114  120  118  121  116  119  118  117  120  124  105  123  115  119  115  123  107  116  115  105  127  123  131  120  121  124  130  134    0
ch:  56     128  128  156  128  128  128  128  128  128  128  128  128  128  128  128  128  128  128  128  128  128  128  128  128  128  128  128  128  128  128  128    0
ch:  57     128  120  115  119  133  117  128  125  123  120  118  119  127  117  131  127  117  117  120  114  118  127  117  134  121  128  125  127  131  133  120    0
ch:  58     128  124  120  112  115  110  112  121  121  119  131  115  117  104  121  128  128  133  118  115  118  107  123  118  121  121  127  115  128  123  137    0
ch:  59     128  132  122  119  118  123  120  120  123  123  119  120  121  121  130  119  107  115  121  130  123  119  119  119  115  133  133  130  134  123  123    0
ch:  60     128  126  131  113  114  115  119  121  115  120  121  118  121  117  115  123  117  118  119  113  105  113  121  121  121  124  130  108  127  124  147    0
ch:  61     128  130  119  114  120  121  120  117  115  115  120  118  125  128  128  118  118  105  123  121  118  105  121  117  117  124  113  121  121  127  121    0
ch:  62     128  120  111  123  117  121  123  115  115  123  121  118  104  115  118  123  124  123  120  118  115  123  116  117  119  119  121  128  121  123  133    0
ch:  63     128  116  128  121  131  124  112  108  113  132  121  118  121  118  115  117  126  126  120  118  119  128  123  119  115  121  123  127  124  132  137    0
ch:  64     128  120  125  116  120  123  117  118  108  114  119  117  108  113  114  121  118  120  118  121  105  121  124  117  118  119  115  121  121  133  137    0
ch:  65     128  128  113  137  127  130  120  110  121  125  124  114  113  123  130  128  120  118  118  140  115  112  119  105  119  133  124  130  127  137  131    0
ch:  66     128  118  124  116  121  128  118  112  120  108  131  121  114  115  115  120  130  119  115  117  118  115  121  119  123  119  113  119  118  137  127    0
ch:  67     128  120  131  121  115  105  119  121  117  121  117  105  117  118  115  115  121  108  112  131  120  124  114  105  123  121  113  133  133  128  118    0
ch:  68     128  117  132  124  117  120  124  112  105  125  119  135  108  129  133  114  127  119  120  119  115  112  115  117  121  121  123  123  118  123  133    0
ch:  69     128  120  119  121  121  112  118  117  123  119  124  105  119  130  121  119  119  121  112  120  121  127  123  135  120  114  118  126  130  134  134    0
ch:  70     128  128  116  105  123  121  121  127  120  128  133  120  105  118  105  117  119  104  121  118  114  113  105  121  115  118  131  115  134  127  133    0
ch:  71     128  130  116  108  121  131  115  130  123  125  121  128  118  111  126  133  123  114  120  119  117  123  128  118  120  103  125  135  133  134  138    0
ch:  72     128  133  134  126  129  120  120  117  124  115  108  123  115  115  121  108  124  127  120  121  119  115  117  134  119  134  134  123  130  118  133    0
ch:  73     131  120  132  124  123  120  121  115  121  108  112  123  124  125  124  111  115  112  119  121  114  121  113  120  118  120  118  128  129  105  133    0
ch:  74     128  112  127  116  123  114  115  120  123  117  120  134  130  110  128  129  133  123  117  115  115  121  130  130  115  118  114  119  130  142  127    0
ch:  75     128  120  125  119  125  125  115  105  115  115  121  121  121  121  119  119  121  131  115  117  131  103  123  121  131  121  124  123  127  135  133    0
ch:  76     128  120  115  126  119  115  119  123  120  117  121  119  118  121  100  115  118  119  120  128  115  116  118  118  125  117  115  127  126  128  130    0
ch:  77     128  132  115  121  129  127  123  128  123  115  120  108  118  119  123  120  119  117  119  113  121  130  130  118  121  120  135  123  121  123  123    0
ch:  78     128  132  119  121  115  115  128  117  131  121  120  118  115  115  103  115  105  115  119  113  131  115  119  131  121  120  114  121  121  135  131    0
ch:  79     128  125  115  112  117  120  128  120  123  105  119  114  133  114  118  121  114  119  128  115  113  128  117  120  114  124  134  121  130  130  118    0
ch:  80     128  130  116  120  123  133  121  124  130  121  121  117  121  105  129  115  115  121  121  133  124  128  105  121  121  115  121  133  127  119  145    0
ch:  81     128  120  119  133  133  115  127  137  115  121  128  130  120  119  124  133  123  108  128  121  117  126  121  105  128  128  131  119  133  147  131    0
ch:  82     128  120  122  121  115  123  121  114  115  118  118  101  130  121  130  107  124  121  127  117  118  121  123  117  115  133  119  130  121  131  113    0
ch:  83     128  122  121  123  126  118  127  124  118  112  105  105  133  113  105  121  115  124  117  121  133  114  119  104  124  115  123  125  138  137  123    0
ch:  84     128  120  124  116  121  117  105  118  115  117  112  121  133  107  118  118  118  120  115  120  110  118  118  115  115  135  121  112  126  123  127    0
ch:  85     128  120  133  125  121  121  115  118  119  121  121  121  119  123  123  118  105  117  128  108  130  112  121  113  133  121  118  131  134  133  133    0
ch:  86     128  130  132  116  121  131  117  115  117  121  118  130  117  118  123  115  115  108  128  121  118  121  121  123  121  120  120  138  130  135  126    0
ch:  87     128  120  124  115  119  120  120  127  112  130  130  118  124  123  119  115  123  123  119  133  127  121  115  130  130  129  117  127  120  137  128    0
ch:  88     128  120  114  118  123  118  113  127  123  119  108  124  118  133  123  125  120  123  121  121  115  128  115  118  123  133  128  121  125  125  123    0
ch:  89     128  120  120  121  113  121  120  128  133  119  119  117  128  119  126  133  120  120  121  113  127  115  120  118  118  135  123  118  128  128  133    0
ch:  90     128  111  119  116  128  121  105  121  123  119  120  115  131  119  122  129  121  114  121  118  110  119  121  124  114  120  112  130  137  137  120    0
ch:  91     128  120  119  133  126  115  130  115  121  120  118  127  133  117  118  123  120  105  121  117  112  119  121  121  131  123  121  131  124  123  123    0
ch:  92     128  130  108  121  105  121  115  123  128  131  115  120  118  115  115  128  114  117  124  121  133  123  124  123  121  120  121  123  130  123  130    0
ch:  93     128  130  120  113  121  118  120  115  121  118  128  130  121  115  125  133  127  104  133  117  120  121  120  121  119  121  131  121  128  125  123    0
ch:  94     128  130  130  121  123  134  118  114  127  119  121  125  121  124  118  110  128  118  121  119  117  119  115  121  117  120  121  121  130  121  123    0
ch:  95     128  120  122  121  133  118  121  121  121  121  117  121  118  115  115  121  124  128  118  121  116  112  121  121  133  121  130  119  130  121  135    0
ch:  96     128  120  122  116  121  115  115  130  112  121  117  105  121  115  128  121  121  119  118  115  121  121  105  125  131  115  115  121  128  133  131    0
ch:  97     128  120  121  116  117  121  119  118  119  126  121  133  133  123  113  123  117  124  128  123  123  119  119  124  131  121  127  118  127  130  133    0
ch:  98     131  120  126  115  118  129  128  115  115  115  118  117  118  108  115  124  121  123  117  128  121  119  123  119  115  130  137  130  131  133  133    0
ch:  99     128  123  133  119  117  120  129  121  119  120  119  119  123  118  119  128  134  121  133  115  121  121  117  120  130  124  121  117  117  131  128    0
ch: 100     128  120  119  121  120  119  120  117  110  121  124  119  123  121  119  137  119  123  128  105  115  121  115  131  131  124  121  121  121  133  137    0
ch: 101     128  120  116  121  119  128  121  115  121  113  128  116  114  115  121  118  119  128  134  127  123  128  120  118  130  117  119  121  121  127  131    0
ch: 102     128  120  125  124  115  120  118  120  118  121  121  119  117  130  113  130  117  115  118  123  130  120  112  119  124  130  128  130  130  118  139    0
ch: 103     128  120  122  123  114  123  128  121  110  128  128  117  118  117  124  113  130  128  117  117  115  115  120  133  113  133  124  147  132  133  134    0
ch: 104     128  130  119  105  128  121  118  123  123  120  121  123  123  119  119  117  134  115  117  115  121  112  119  119  119  121  121  124  121  133  133    0
ch: 105     140  132  122  128  123  123  118  118  121  123  121  126  121  120  133  121  117  115  115  119  107  117  117  123  128  127  133  123  133  133  135    0
ch: 106     128  125  121  115  121  128  124  118  123  120  119  116  119  115  104  133  117  109  120  127  118  121  121  108  119  114  126  124  118  133  128    0
ch: 107     128  133  115  120  126  114  119  130  119  133  123  123  117  128  130  118  124  123  112  121  119  120  135  123  117  118  137  137  124  130  131    0
ch: 108     128  123  132  133  120  121  117  129  114  123  121  129  119  117  115  123  105  121  123  121  131  133  118  120  112  118  123  133  119  117  134    0
ch: 109     128  128  128  128  128  128  128  128  128  128  128  128  128  128  128  128  128  128  128  128  128  128  128  128  128  128  128  128  128  128  128    0
ch: 110     128  131  122  121  118  137  129  128  121  109  119  118  131  124  117  133  134  112  123  123  118  118  124  115  119  118  131  135  130  133  135    0
ch: 111     128  130  126  102  128  119  123  118  118  121  115  130  128  123  117  128  124  121  119  121  123  118  121  115  121  130  133  133  135  123  129    0
ch: 112     128  125  116  121  121  120  133  120  134  121  105  121  118  120  105  121  114  123  118  123  117  126  121  121  121  133  127  121  129  139  130    0
ch: 113     128  125  122  118  130  133  123  119  128  118  123  115  119  127  131  121  120  120  117  127  118  128  117  118  120  131  120  134  134  127  139    0
ch: 114     128  120  126  114  124  124  123  118  118  115  121  112  115  117  117  111  115  107  119  118  130  135  115  121  114  119  117  129  134  134  138    0
ch: 115     128  120  114  125  118  115  115  118  123  121  118  130  123  120  115  113  133  119  127  115  131  108  123  128  130  120  119  113  128  128  133    0
ch: 116     128  126  136  121  121  105  121  121  118  128  123  118  104  115  115  121  105  115  120  127  117  123  118  126  119  128  133  133  137  135  121    0
ch: 117     128  147  122  116  130  118  121  119  123  118  118  115  118  123  117  127  126  119  129  121  118  119  121  125  127  123  128  119  121  133  140    0
ch: 118     128  120  116  134  119  130  117  107  128  133  131  128  120  115  118  120  128  117  127  110  115  127  130  115  121  130  131  128  119  137  120    0
ch: 119     128  125  121  123  120  133  123  119  119  121  117  115  115  114  115  138  133  117  119  129  110  115  121  133  119  115  123  125  119  133  133    0
ch: 120     128  114  116  120  124  121  118  124  121  114  115  119  137  121  128  123  124  108  127  118  124  123  117  115  113  115  121  134  131  134  135    0
ch: 121     128  132  131  135  123  115  119  121  123  123  127  124  121  115  127  115  115  115  115  124  124  128  131  105  125  130  129  130  121  133  144    0
ch: 122     128  120  121  121  133  119  121  118  130  120  124  121  119  130  134  131  130  131  132  118  121  121  118  127  121  121  127  115  133  128  137    0
ch: 123     128  120  129  130  130  123  119  128  117  120  114  128  121  115  130  119  119  113  118  119  128  107  130  121  117  128  130  124  131  129  145    0
ch: 124     128  120  119  127  120  133  121  114  118  115  119  125  119  131  118  118  116  121  120  134  130  119  126  119  120  119  108  135  130  124  128    0
ch: 125     128  126  122  133  121  133  123  117  119  119  116  123  115  110  117  118  123  118  121  128  121  118  130  123  130  135  128  121  134  121  145    0
ch: 126     128  120  120  130  120  119  119  120  115  117  115  119  115  115  120  131  133  127  118  133  118  131  123  130  115  125  133  130  130  137  130    0
ch: 127     128  128  119  133  115  125  120  117  117  133  123  117  121  117  120  112  127  127  123  130  124  128  121  133  127  128  131  134  134  131  134    0
