# TRIM CALIBRATION    FEB6_9_4    pulse_ampl_min=10    pulse_ampl_max=220    pulse_ampl_fast=10
#
ch:   0     128  121  122  130  105  119  121  118  115  133  134  118  119  123  121  113  117  121  117  114  115  123  131  130  115  118  131  118  130  128  137    0
ch:   1     128  121  116  126  129  121  113  118  121  119  121  121  105  121  109  119  115  128  115  117  119  125  121  130  117  119  123  126  138  118  131    0
ch:   2     128  120  133  106  123  108  121  117  108  126  121  121  121  115  130  117  133  119  130  119  115  117  105  118  115  118  108  120  125  133  137    0
ch:   3     132  120  121  117  115  115  110  117  118  121  131  121  110  114  119  121  114  121  121  121  115  114  115  123  137  119  131  141  135  135  138    0
ch:   4     128  136  113  114  115  124  124  123  121  121  117  115  121  123  130  121  126  121  120  118  120  120  120  121  133  130  121  119  128  124  135    0
ch:   5     128  128  122  112  120  113  121  121  120  130  118  118  118  115  118  115  126  133  112  115  124  134  117  115  120  134  130  119  118  117  133    0
ch:   6     131  122  119  112  117  133  130  119  115  121  105  128  105  115  117  123  115  128  108  115  130  121  115  121  113  133  121  134  131  137  137    0
ch:   7     131  122  132  107  107  137  123  119  124  110  118  121  133  113  120  107  107  115  115  121  123  117  120  115  118  115  123  123  139  130  139    0
ch:   8     128  122  121  118  112  133  120  127  114  121  121  121  121  115  121  115  105  119  131  109  123  130  121  133  119  123  119  131  137  121  121    0
ch:   9     128  124  119  121  119  115  119  123  121  113  118  119  133  113  115  133  121  117  133  105  112  108  120  119  133  120  121  137  131  134  135    0
ch:  10     128  115  132  121  107  113  115  117  121  131  121  119  128  114  131  121  118  121  107  118  120  121  121  118  119  121  114  133  129  128  133    0
ch:  11     128  115  121  121  121  139  119  133  114  117  115  115  118  112  119  121  119  121  123  121  126  114  107  124  121  114  130  134  135  121  137    0
ch:  12     128  120  121  121  118  105  118  124  120  123  137  134  118  104  118  128  107  123  103  115  115  128  133  110  115  115  133  133  105  130  133    0
ch:  13     128  124  118  131  123  105  113  119  114  112  121  114  128  115  117  120  117  119  121  107  117  117  121  118  137  130  133  134  121  121  133    0
ch:  14     128  152  120  121  119  121  132  119  121  134  120  115  120  118  115  121  117  118  118  121  115  128  115  127  133  134  115  120  123  117  135    0
ch:  15     131  127  119  133  121  120  107  115  119  118  121  120  114  121  121  121  126  123  121  115  118  133  130  133  137  130  121  135  119  121  137    0
ch:  16     128  124  121  123  117  107  118  118  119  121  107  117  105  128  113  134  121  118  117  118  115  112  120  115  119  131  121  133  130  121  134    0
ch:  17     131  120  122  116  121  133  125  112  115  128  121  110  131  108  119  135  123  130  110  121  117  119  120  133  107  108  121  137  130  133  133    0
ch:  18     128  120  120  121  117  121  118  130  133  115  119  119  117  134  124  121  121  128  118  140  128  118  108  119  119  124  117  119  121  133  121    0
ch:  19     128  124  120  121  114  128  123  121  120  130  114  121  123  115  105  121  125  121  121  124  130  119  108  121  130  117  118  130  128  137  134    0
ch:  20     128  120  116  120  119  113  118  120  105  121  121  118  130  115  120  113  124  115  130  120  115  118  121  129  117  115  133  130  133  133  140    0
ch:  21     128  125  132  116  133  121  121  107  118  124  117  117  117  121  115  129  120  119  101  118  120  137  118  115  128  130  120  121  116  130  124    0
ch:  22     128  121  116  115  120  125  115  121  140  133  118  129  128  115  118  126  123  119  114  126  118  111  120  121  121  120  118  121  134  133  138    0
ch:  23     128  128  132  130  123  119  120  121  130  130  112  120  123  121  128  120  107  119  112  123  128  115  133  131  118  128  130  124  139  152  121    0
ch:  24     128  120  122  116  114  121  121  121  121  128  120  113  115  119  120  115  121  121  117  130  121  113  120  123  115  123  119  133  121  121  133    0
ch:  25     128  128  119  119  123  130  115  123  121  126  118  119  123  120  123  121  120  108  117  121  130  120  127  119  123  115  113  120  133  138  138    0
ch:  26     128  120  108  128  113  129  137  123  121  121  117  119  110  113  130  112  120  121  115  129  115  107  131  123  119  126  107  131  117  145  133    0
ch:  27     128  124  122  130  118  131  131  121  121  115  137  117  120  110  125  118  117  118  133  117  114  115  118  124  121  121  120  118  130  121  133    0
ch:  28     140  120  136  122  128  119  130  124  121  105  131  120  128  119  121  118  115  131  108  105  115  133  121  134  123  125  119  119  133  133  126    0
ch:  29     128  120  122  132  121  123  128  121  129  133  118  121  121  115  114  105  119  120  133  115  121  144  115  130  113  130  118  118  130  121  137    0
ch:  30     128  120  118  121  133  117  108  119  130  119  120  105  110  119  117  128  121  121  110  137  114  128  120  117  115  133  118  121  131  132  133    0
ch:  31     128  132  129  119  131  118  131  118  125  131  121  111  123  118  131  135  117  115  110  115  114   99  115  119  127  117  124  121  134  133  137    0
ch:  32     128  120  131  106  119  107  121  117  115  119  115  125  128  137  120  118  128  118  100  114  115  121  119  117  118  130  123  127  115  134  137    0
ch:  33     128  122  132  133  112  120  121  130  119  113  128  113  118  121  115  118  114  126  117  115  129  124  121  121  121  124  115  121  134  133  123    0
ch:  34     128  128  131  120  121  128  128  134  130  120  118  122  118  119  121  120  118  115  130  125  115  115  128  124  121  123  117  120  123  133  130    0
ch:  35     128  120  121  113  115  123  133  128  124  133  112  126  110  110  117  115  134  133  121  112  128  123  115  133  119  133  115  120  118  123  130    0
ch:  36     128  120  102  121  120  118  129  131  123  123  134  118  121  107  118  127  118  131  121  121  133  121  117  133  111  114  121  141  138  126  137    0
ch:  37     128  123  116  130  117  115  106  133  113  121  121  118  115  119  120  119  117  108  128  118  121  121  115  130  117  130  118  118  137  119  119    0
ch:  38     128  131  130  118  123  115  130  121  121  115  121  118  121  104  121  115  126  115  112  108  118  105  115  119  121  121  115  119  133  131  133    0
ch:  39     128  120  122  126  104  131  128  126  125  119  117  121  123  108  117  131  120  121  118  114  120  115  121  118  131  118  117  126  137  118  130    0
ch:  40     128  132  122  130  120  115  115  133  120  119  118  118  130  130  117  119  121  119  133  133  121  121  115  115  121  118  121  133  131  118  124    0
ch:  41     128  120  122  121  133  120  115  121  107  118  123  114  113  113  118  119  118  123  128  117  121  131  121  126  133  138  110  121  128  140  126    0
ch:  42     128  120  121  120  115  119  115  115  113  131  119  121  115  121  139  124  117  115  121  107  124  121  117  115  121  108  123  120  121  130  133    0
ch:  43     128  124  118  119  128  120  121  134  115  121  119  128  118  119  121  118  103  124  131  123  121  118  123  115  115  121  130  123  134  133  130    0
ch:  44     128  111  122  118  105  114  128  124  121  133  119  118  119  115  115  115  119  131  115  119  119  119  123  119  119  125  121  134  133  144  131    0
ch:  45     128  136  115  116  130  115  133  119  132  118  108  121  119  105  118  130  112  115  131  121  114  117  121  119  119  119  126  128  133  128  133    0
ch:  46     128  120  118  110  121  119  110  123  115  123  126  121  115  121  115  108  115  125  121  128  134  115  107  119  131  118  118  118  121  137  130    0
ch:  47     128  128  119  116  117  135  117  119  121  120  118  127  131  108  109  112  117  131  115  115  111  121  123  120  124  130  131  131  127  133  131    0
ch:  48     128  124  106  121  128  121  127  117  121  121  108  105  119  128  110  115  120  115  131  134  130  119  114  123  115  123  126  119  121  126  137    0
ch:  49     128  120  119  126  106  121  115  121  113  133  121  131  121  119  114  121  114  119  133  123  128  119  115  123  121  131  133  130  130  133  128    0
ch:  50     128  115  116  121  115  121  126  123  118  108  128  118  121  120  128  117  114  121  119  118  121  124  108  133  118  120  120  131  121  133  119    0
ch:  51     128  120  118  121  121  113  126  131  118  118  120  120  121  115  126  130  118  117  118  132  112  119  128  117  131  119  121  129  130  133  138    0
ch:  52     128  126  119  128  115  121  127  117  128  119  121  133  113  111  121  128  117  107  118  123  120  130  115  134  119  123  135  121  121  121  137    0
ch:  53     128  120  123  123  134  105  133  121  118  115  120  119  120  130  121  121  131  113  130  121  121  123  119  121  121  121  123  131  128  121  134    0
ch:  54     128  118  118  133  105  134  123  114  123  121  130  130  131  116  115  124  130  115  124  119  118  120  121  131  121  133  118  120  121  121  117    0
ch:  55     128  140  119  119  120  123  121  123  123  119  115  120  115  130  115  121  114  137  127  125  119  121  117  123  117  121  127  133  105  117  134    0
ch:  56     128  120  133  121  130  121  118  131  119  115  101  131  112  119  129  130  111  131  123  103  119  115  119  121  118  121  119  123  129  137  147    0
ch:  57     131  116  122  113  120  120  115  115  120  121  115  113  121  121  121  131  115  120  115  121  107  120  119  121  118  126  125  115  121  130  137    0
ch:  58     128  132  122  132  120  120  130  115  114  118  130  119  118  126  105  117  132  126  133  115  105  118  121  131  131  117  115  123  130  121  133    0
ch:  59     128  117  120  118  115  121  117  133  112  117  130  121  137  114  119  115  119  121  111  125  126  118  118  121  121  115  115  135  133  112  131    0
ch:  60     128  128  127  128  128  121  115  130  114  121  119  119  108  121  110  121  120  104  119  123  130  119  120  119  117  128  109  135  121  130  137    0
ch:  61     128  111  120  115  121  115  109  130  121  115  127  119  105  119  121  125  118  119  131  123  117  121  123  121  115  121  120  123  123  126  137    0
ch:  62     128  129  122  121  118  117  118  117  115  117  120  118  118  115  130  125  115  121  114  131  129  119  131  117  114  120  118  131  121  121  128    0
ch:  63     128  134  121  130  130  108  121  120  117  123  121  120  115  115  121  118  119  133  121  128  121  121  121  123  123  121  121  133  133  128  139    0
ch:  64     128  120  120  116  118  121  128  113  120  120  118  117  113  124  117  128  110  118  105  115  128  120  123  130  131  121  115  121  131  115  121    0
ch:  65     128  128  122  135  120  113  128  121  121  119  130  121  125  115  121  117  114  119  112  115  131  117  114  137  131  118  121  121  119  133  126    0
ch:  66     128  120  136  120  123  114  128  114  113  121  108  121  123  128  119  120  119  120  118  133  117  127  118  128  121  131  120  137  120  135  137    0
ch:  67     128  120  133  118  121  117  115  120  117  130  124  121  129  114  117  128  117  118  114  112  124  121  118  117  133  117  119  128  133  128  133    0
ch:  68     128  120  116  115  115  115  119  117  115  118  114  119  109  115  117  119  115  110  120  137  118  131  133  130  114  121  115  128  121  130  127    0
ch:  69     128  130  122  118  130  128  115  119  117  109  109  121  110  115  113  121  129  131  114  115  115  120  108  126  117  105  119  123  133  137  131    0
ch:  70     128  117  121  119  114  121  131  106  121  114  121  107  130  115  115  128  133  115  133  108  120  121  115  117  114  121  124  117  131  118  133    0
ch:  71     128  128  125  121  104  117  117  119  121  129  128  123  128  113  137  113  115  117  117  131  121  119  127  120  120  123  118  130  137  137  130    0
ch:  72     128  111  106  123  118  134  117  121  130  123  115  114  124  120  125  121  120  133  115  118  111  130  115  108  121  118  121  119  127  133  137    0
ch:  73     128  120  119  124  123  118  121  118  118  121  131  115  115  118  126  121  121  121  133  123  115  127  130  127  121  115  128  121  137  128  128    0
ch:  74     128  132  118  106  115  124  121  121  118  115  115  115  112  121  133  117  120  118  130  137  123  117  108  120  119  117  120  123  139  137  133    0
ch:  75     128  128  116  133  123  128  118  114  103  130  133  122  112  112  119  121  115  128  115  119  115  121  115  133  118  131  130  127  133  121  130    0
ch:  76     128  120  137  117  120  115  133  115  120  110  118  117  120  119  115  117  111  124  118  111  115  115  115  121  124  115  130  121  133  128  137    0
ch:  77     128  124  133  116  118  133  115  115  132  133  115  103  121  117  119  120  118  119  115  105  121  121  121  128  110  117  123  121  130  121  124    0
ch:  78     128  124  131  118  120  128  121  119  133  121  113  117  119  118  117  118  115  118  115  107  115  127  119  107  119  130  123  127  125  119  121    0
ch:  79     128  120  120  124  119  115  121  119  118  107  128  134  119  121  127  118  105  121  121  137  120  131  119  120  134  126  121  120  135  131  129    0
ch:  80     128  133  118  131  114  120  115  130  119  129  111  115  117  121  115  119  105  118  105  127  118  130  120  130  121  121  115  121  145  121  133    0
ch:  81     128  120  130  119  121  109  117  114  130  113  123  130  115  115  124  115  124  117  115  108  128  115  116  129  119  121  118  124  132  137  121    0
ch:  82     128  120  126  116  121  130  115  119  119  123  115  107  118  130  118  101   99  115  115  128  115  124  107  105  119  115  108  133  130  139  131    0
ch:  83     128  124  119  115  121  123  120  134  126  120  113  124  107  119  119  121  121  115  115  126  118  130  119  121  121  124  128  127  121  133  133    0
ch:  84     128  137  124  119  130  124  119  114  128  115  119  115  119  118  123  114  117  119  121  105  121  123  113  133  128  133  121  121  131  131  127    0
ch:  85     128  131  122  121  115  115  118  115  117  128  121  118  114  118  121  115  117  117  120  131  121  119  121  117  121  120  105  134  121  137  130    0
ch:  86     128  130  120  123  121  118  118  133  123  128  134  114  108  130  115  128  130  123  130  128  115  123  105  121  115  119  117  127  127  137  131    0
ch:  87     128  131  102  130  120  114  119  130  121  106  115  120  117  115  119  118  120  130  131  121  118  128  121  115  130  115  122  121  130  133  131    0
ch:  88     128  120  134  119  121  110  133  113  121  117  121  120  121  101  115  126  114  121  118  120  115  121  118  121  121  119  114  119  124  130  137    0
ch:  89     128  129  118  128  121  131  121  134  121  123  115  121  115  105  115  126  129  119  115  130  110  123  110  135  121  121  121  130  131  137  139    0
ch:  90     131  123  112  113  121  133  131  110  118  121  121  119  121  121  110  123  118  118  115  117  117  105  123  115  123  121  121  121  137  128  134    0
ch:  91     128  128  133  128  119  115  117  105  115  129  105  119  117  119  118  120  128  112  119  114  123  128  115  119  130  121  133  130  127  123  119    0
ch:  92     128  120  116  135  128  120  120  115  130  134  115  123  115  131  121  128  130  133  130  133  115  120  128  126  127  121  119  121  121  137  131    0
ch:  93     128  120  120  116  121  123  131  118  121  115  121  130  117  121  120  134  117  118  109  115  115  121  128  133  133  127  123  128  123  138  137    0
ch:  94     128  115  125  120  133  123  117  120  119  128  119  117  121  119  121  133  117  119  121  121  119  118  110  121  121  118  113  115  130  133  131    0
ch:  95     128  132  137  121  121  121  115  112  118  128  131  135  128  119  129  121  131  115  118  107  119  130  121  137  133  123  130  139  121  133  139    0
ch:  96     140  120  124  126  133  120  113  137  121  112  117  128  115  120  129  118  117  115  118  110  114  117  110  115  121  120  120  131  133  131  134    0
ch:  97     128  136  106  118  119  126  121  129  119  121  118  119  128  126  122  107  120  114  119  133  128  121  115  121  115  130  133  121  128  115  130    0
ch:  98     128  121  123  132  121  119  119  120  121  118  114  124  115  118  115  120  115  112  113  114  115  115  110  121  111  120  125  107  133  131  137    0
ch:  99     128  133  118  118  123  130  130  130  117  107  113  124  117  112  117  130  119  126  128  121  118  115  117  121  118  133  121  135  137  134  133    0
ch: 100     128  118  116  121  115  137  129  133  118  130  121  121  130  119  119  133  118  119  121  131  119  115  115  117  115  115  120  121  121  130  137    0
ch: 101     128  130  116  108  121  120  121  129  131  117  117  118  130  117  119  123  115  120  114  130  117  123  131  131  119  130  130  108  132  120  133    0
ch: 102     128  120  119  120  127  115  118  120  121  115  115  119  104  133  133  115  112  112  118  115  115  121  107  119  127  117  123  119  115  133  133    0
ch: 103     128  120  129  119  135  131  133  106  115  120  118  121  121  115  114  121  133  120  121  110  124  126  130  133  130  121  118  117  134  135  135    0
ch: 104     140  111  122  115  115  120  130  128  120  119  117  128  121  115  121  115  117  120  121  118  128  124  115  123  118  133  128  130  128  121  123    0
ch: 105     128  120  116  124  123  115  134  111  128  121  110  115  114  108  125  113  111  114  133  121  108  117  115  121  133  115  115  128  127  130  126    0
ch: 106     128  128  120  121  117  121  129  115  119  117  121  117  114  115  118  121  123  131  119  118  128  115  117  111  128  110  130  123  119  137  130    0
ch: 107     131  128  116  130  114  131  121  121  128  118  130  131  121  113  114  115  117  131  128  115  115  115  118  117  121  120  120  128  121  133  137    0
ch: 108     128  120  129  121  114  134  118  123  125  119  114  121  119  107  129  120  121  115  121  121  115  107  129  121  121  115  120  126  126  133  123    0
ch: 109     128  120  119  118  124  120  128  121  130  112  119  114  123  121  123  118  121  121  121  115  105  118  115  128  124  125  144  133  120  127  137    0
ch: 110     128  130  122  123  115  133  120  133  109  121  115  127  119  118  118  121  119  121  121  113  121  123  115  135  110  125  115  134  130  133  133    0
ch: 111     128  120  130  118  118  121  113  118  116  121  131  130  115  119  117  121  117  121  108  114  120  121  118  113  120  127  121  126  121  130  121    0
ch: 112     137  130  106  130  121  133  118  118  120  115  121  129  115  115  115  113  130  113  123  112  119  118  123  107  121  121  121  117  120  147  133    0
ch: 113     128  131  112  115  120  126  121  115  123  119  123  119  115  115  121  115  126  131  128  133  118  130  118  113  121  137  119  133  118  127  134    0
ch: 114     128  132  132  133  133  103  121  121  115  108  120  115  119  115  119  114  121  109  118  112  111  115  105  113  121  117  119  128  130  133  137    0
ch: 115     128  126  122  119  128  118  121  125  128  115  118  105  133  110  128  121  121  121  119  118  121  121  118  115  121  119  109  121  123  141  137    0
ch: 116     128  120  118  133  123  113  120  128  123  121  128  115  115  115  120  105  118  120  121  125  121  126  115  121  115  125  118  123  118  130  137    0
ch: 117     128  120  122  133  119  119  114  118  108  127  123  121  119  123  126  113  117  114  119  117  123  121  119  134  119  117  126  121  118  124  123    0
ch: 118     128  127  122  118  120  130  119  121  104  132  130  126  131  124  115  120  115  123  110  105  115  117  113  123  124  113  119  120  119  137  133    0
ch: 119     128  120  134  126  128  119  119  119  115  123  120  104  121  121  118  110  126  115  118  140  121  119  115  130  128  131  119  121  137  133  134    0
ch: 120     128  133  122  130  115  119  130  128  130  117  115  130  108  122  115  114  121  121  121  117  115  117  119  123  117  131  117  120  133  134  133    0
ch: 121     128  120  122  116  121  127  119  117  121  108  120  126  115  114  117  126  123  115  114  120  123  131  120  132  131  121  130  121  118  130  128    0
ch: 122     128  121  131  120  117  118  128  119  120  128  119  115  133  115  105  121  121  115  121  110  123  107  120  126  129  121  128  133  108  131  123    0
ch: 123     128  120  115  120  115  121  112  115  118  120  131  119  110  131  121  121  130  115  130  127  114  115  113  120  135  115  119  123  118  130  131    0
ch: 124     128  120  116  130  118  118  115  130  121  115  121  118  115  105  123  115  123  124  115  113  131  119  118  118  117  121  119  125  147  133  131    0
ch: 125     128  111  122  121  129  123  131  117  100  117  121  118  121  121  123  110  119  121  112  118  120  121  120  121  130  123  134  119  130  137  140    0
ch: 126     128  120  113  123  121  129  117  123  119  115  118  130  120  107  119  119  113  118  115  124  121  110  121  109  133  118  121  123  130  135  119    0
ch: 127     128  131  131  116  119  133  118  120  117  133  120  119  127  131  119  119  121  123  131  118  115  123  118  134  125  124  126  127  123  121  131    0
