# TRIM CALIBRATION    FEB6_2_4    pulse_ampl_min=10    pulse_ampl_max=220    pulse_ampl_fast=10
#
ch:   0     133  120  122  130  128  129  126  121  130  133  124  130  131  115  126  141  131  137  134  137  131  115  131  129  127  131  138  137  137  137  126    0
ch:   1     128  130  133  128  124  124  133  128  121  131  130  128  133  118  128  131  131  135  127  108  121  123  130  145  143  128  137  133  130  152  147    0
ch:   2     128  122  119  137  115  124  126  121  147  137  130  133  123  130  133  117  133  121  135  126  133  113  130  138  121  137  130  147  118  137  137    0
ch:   3     131  120  130  118  131  131  128  133  121  134  137  120  129  134  131  141  133  135  137  119  131  130  133  128  140  126  126  146  133  140  147    0
ch:   4     128  132  122  121  128  130  133  134  118  128  121  128  131  132  123  137  130  134  147  124  121  134  138  120  130  121  137  137  133  131  134    0
ch:   5     128  136  137  130  124  135  130  135  137  131  119  133  126  128  117  121  129  131  134  138  130  137  126  131  137  129  128  128  137  127  137    0
ch:   6     128  132  131  137  130  130  137  133  120  133  118  131  131  120  128  134  115  129  133  125  138  121  131  130  121  138  135  134  134  139  135    0
ch:   7     140  130  133  121  106  135  117  118  128  133  133  134  127  135  127  131  128  118  123  117  139  130  121  138  137  131  147  137  137  133  147    0
ch:   8     128  130  139  119  119  135  133  130  121  138  131  133  133  131  130  137  123  121  131  133  134  124  125  134  134  138  121  137  133  133  140    0
ch:   9     128  124  129  137  129  121  123  133  127  147  133  120  133  129  140  123  130  135  135  137  109  131  148  130  133  133  144  135  137  142  149    0
ch:  10     128  128  149  157  164  128  128  128  128  128  128  128  128  128  128  128  128  128  128  128  128  128  128  128  128  128  128  128  128  128  128    0
ch:  11     128  126  122  121  121  121  133  134  119  134  137  121  134  129  133  147  147  133  133  145  138  133  131  147  145  133  138  139  137  135  139    0
ch:  12     128  120  122  124  135  131  121  133  133  119  133  119  139  121  128  139  133  134  123  124  121  137  134  133  138  137  130  147  130  147  137    0
ch:  13     128  133  116  121  133  128  128  127  128  124  123  115  128  130  133  133  137  137  137  138  128  137  128  134  133  118  123  133  137  135  137    0
ch:  14     128  132  133  116  120  134  121  115  121  133  121  119  130  129  123  133  124  130  128  131  134  134  120  137  127  128  133  138  133  137  133    0
ch:  15     128  120  133  118  137  137  124  121  139  138  122  121  133  130  121  131  130  139  127  131  130  139  137  137  147  134  137  133  130  130  139    0
ch:  16     128  124  124  121  137  121  147  139  121  127  121  119  133  124  138  133  127  128  126  128  138  129  130  130  130  133  131  133  131  134  133    0
ch:  17     128  130  130  116  119  123  127  129  120  121  128  123  134  133  130  126  133  124  133  121  133  135  126  134  121  131  130  121  137  115  143    0
ch:  18     128  136  122  124  131  131  133  124  130  131  120  137  128  126  130  134  133  133  133  131  124  133  130  128  128  121  133  147  129  147  139    0
ch:  19     128  120  118  124  117  130  124  119  131  135  126  133  127  131  123  137  138  131  147  131  133  124  133  131  133  125  133  130  133  140  145    0
ch:  20     128  132  124  133  124  135  137  131  133  121  138  123  130  128  131  130  140  121  118  137  131  134  128  120  130  128  123  141  134  145  137    0
ch:  21     128  133  133  121  133  117  137  131  133  121  137  119  127  147  121  135  128  147  130  133  133  133  134  133  135  140  121  133  137  135  133    0
ch:  22     128  120  124  121  117  123  131  137  120  120  121  121  125  135  135  127  128  133  115  115  128  133  130  140  121  138  121  134  131  131  139    0
ch:  23     128  132  147  132  137  131  135  133  130  128  123  121  118  133  140  148  128  139  128  126  147  137  133  126  128  134  135  138  148  135  151    0
ch:  24     128  120  136  137  135  128  137  124  134  138  121  131  128  137  140  133  123  133  125  133  125  138  135  130  119  126  137  134  150  148  138    0
ch:  25     128  133  124  130  121  133  128  123  137  127  121  133  123  121  138  124  121  115  133  130  119  130  134  135  125  124  130  133  128  131  133    0
ch:  26     128  132  131  152  133  118  132  133  130  131  118  121  121  115  134  132  133  134  124  132  130  121  134  118  131  133  139  124  135  137  147    0
ch:  27     140  129  115  124  139  138  121  131  137  131  125  134  137  130  121  140  121  137  130  123  121  120  137  143  134  135  133  134  137  134  133    0
ch:  28     140  120  130  125  133  121  123  130  121  121  105  133  117  131  124  134  135  133  138  127  133  133  133  133  143  137  130  128  133  137  148    0
ch:  29     138  126  124  133  117  128  133  115  133  123  129  109  130  118  133  126  127  147  133  133  121  130  130  134  133  133  124  133  129  130  147    0
ch:  30     128  125  130  132  125  131  123  134  121  133  120  123  108  131  147  137  134  133  123  128  124  128  130  121  119  121  137  139  137  133  133    0
ch:  31     128  133  133  126  124  125  123  124  118  121  130  130  131  131  128  133  131  135  134  127  135  117  133  133  137  123  133  149  147  138  154    0
ch:  32     128  120  133  132  123  121  119  141  133  142  143  133  131  132  134  134  135  130  131  131  133  133  133  135  133  135  137  137  149  143  130    0
ch:  33     128  138  124  132  134  130  130  118  121  133  128  126  137  135  133  118  133  137  131  133  128  137  135  133  131  137  141  130  133  134  147    0
ch:  34     128  132  122  132  117  138  133  133  123  137  133  127  129  121  121  133  126  123  121  137  138  119  139  133  134  137  137  133  134  121  125    0
ch:  35     128  134  124  128  133  130  130  121  121  137  133  131  139  126  138  137  128  131  133  131  133  130  128  130  137  130  121  137  133  133  140    0
ch:  36     133  136  130  120  123  131  121  131  128  134  137  143  125  135  133  133  137  119  137  137  130  133  129  135  127  133  131  135  134  139  147    0
ch:  37     128  134  126  123  131  139  128  121  133  138  134  128  127  135  135  117  137  137  127  133  121  121  130  121  130  138  139  130  131  130  131    0
ch:  38     128  131  131  124  121  129  137  130  133  128  121  129  121  134  118  133  128  120  138  117  133  125  131  130  134  126  134  139  133  138  147    0
ch:  39     128  120  122  133  137  128  125  140  134  130  130  147  134  130  120  129  126  133  135  134  133  138  137  131  135  131  133  126  133  145  140    0
ch:  40     128  133  127  132  137  121  134  135  130  130  115  120  133  117  129  118  129  121  133  127  121  118  134  117  135  124  130  137  147  133  134    0
ch:  41     128  137  122  121  121  133  128  129  117  131  133  127  135  130  127  123  126  119  111  127  134  127  133  130  133  133  139  131  121  139  138    0
ch:  42     128  120  133  116  133  129  133  133  127  133  128  121  127  137  140  126  134  134  134  112  139  129  115  118  127  130  141  138  124  135  145    0
ch:  43     128  128  125  121  130  129  128  121  133  140  118  118  130  133  128  138  133  135  133  133  151  133  152  141  130  133  119  137  134  133  133    0
ch:  44     128  130  122  128  134  133  131  119  129  133  132  137  131  120  133  135  130  123  137  131  130  137  131  137  130  133  137  146  139  135  133    0
ch:  45     128  130  129  128  133  119  134  139  131  125  113  133  130  137  126  143  137  128  125  131  135  130  117  138  133  137  134  134  130  141  137    0
ch:  46     138  130  120  126  130  126  133  137  130  130  118  131  128  134  133  128  131  128  137  137  115  123  134  133  123  133  131  137  133  139  135    0
ch:  47     128  132  136  128  130  126  121  119  129  130  131  133  137  137  128  134  134  130  128  133  119  135  133  133  137  131  139  138  147  152  135    0
ch:  48     128  128  132  130  121  130  124  128  121  137  131  130  133  123  133  124  121  123  124  134  115  121  135  133  134  126  133  131  137  137  133    0
ch:  49     131  129  126  134  135  137  129  131  133  128  135  117  133  133  130  124  134  137  133  139  130  133  121  135  135  149  133  135  137  133  140    0
ch:  50     128  130  120  133  133  129  133  121  134  123  133  121  119  126  114  137  117  133  130  131  119  129  116  131  145  137  130  137  133  134  137    0
ch:  51     138  120  119  121  134  118  133  128  133  133  135  137  121  133  145  137  137  124  145  119  147  125  127  137  138  141  127  137  135  140  139    0
ch:  52     137  136  138  139  121  139  131  124  121  133  135  133  121  129  128  126  128  135  119  121  124  130  135  125  133  135  139  151  147  123  137    0
ch:  53     128  136  133  121  129  133  123  131  119  133  138  131  134  119  119  121  120  133  135  133  133  118  137  123  127  126  128  131  137  135  150    0
ch:  54     133  136  130  118  121  133  126  137  133  135  123  133  131  131  130  135  137  129  119  139  137  126  124  133  128  128  138  121  134  138  137    0
ch:  55     128  132  131  124  120  134  124  133  123  128  131  133  133  135  123  127  134  113  130  133  147  137  137  130  119  131  137  128  137  137  149    0
ch:  56     128  120  132  135  134  128  120  121  133  130  131  125  128  131  122  153  121  137  133  137  133  137  124  133  141  133  135  135  135  139  140    0
ch:  57     128  126  133  128  128  129  137  121  109  133  135  121  120  131  131  126  121  125  119  133  135  135  137  124  121  115  134  137  139  134  137    0
ch:  58     128  130  133  130  137  131  133  137  123  128  137  130  135  127  130  129  119  131  131  119  133  130  138  147  133  138  123  139  131  133  123    0
ch:  59     140  120  121  121  128  135  130  123  121  135  119  121  131  133  133  137  131  130  128  133  138  134  138  121  135  133  141  134  137  138  125    0
ch:  60     140  120  140  130  123  134  134  134  123  133  130  119  124  121  118  131  117  121  119  134  128  133  118  139  130  137  137  137  131  137  147    0
ch:  61     128  129  122  130  128  121  133  131  120  125  128  121  130  130  130  121  134  128  137  117  130  129  124  135  131  134  133  135  139  151  139    0
ch:  62     128  123  136  121  118  133  131  137  128  137  133  137  115  128  131  123  130  123  121  135  129  127  139  131  137  133  118  137  130  133  133    0
ch:  63     128  136  130  135  120  134  133  131  140  149  128  133  123  137  135  127  128  118  130  140  131  134  133  141  133  137  143  147  133  141  150    0
ch:  64     128  130  128  133  130  145  133  133  138  133  128  137  133  128  131  129  131  134  133  133  123  134  139  133  133  129  133  137  124  139  148    0
ch:  65     138  122  118  149  130  133  123  137  139  128  133  134  137  134  137  135  134  118  128  135  137  128  130  131  145  133  133  145  135  130  137    0
ch:  66     128  134  122  121  133  129  133  133  137  119  121  123  137  121  128  133  121  134  126  130  133  117  135  126  130  135  128  128  125  137  121    0
ch:  67     138  136  129  123  132  118  134  137  137  131  123  138  139  134  137  134  134  137  133  123  139  137  130  133  120  137  129  147  135  131  137    0
ch:  68     128  134  122  123  119  133  131  138  133  140  139  137  135  131  124  135  147  119  137  129  121  119  137  131  137  135  137  134  145  138  137    0
ch:  69     140  129  134  132  130  133  115  121  130  133  134  130  135  121  121  123  121  134  121  130  130  135  131  135  130  138  137  130  141  133  141    0
ch:  70     128  136  124  118  134  129  130  133  137  124  137  121  133  134  133  128  133  130  135  120  133  124  118  135  121  133  133  135  133  137  133    0
ch:  71     128  130  133  138  133  118  120  130  121  128  127  128  127  131  133  137  140  139  134  138  128  138  133  133  131  140  137  133  135  133  127    0
ch:  72     128  132  127  121  121  133  132  134  128  137  123  137  134  131  133  131  133  129  133  138  135  131  134  134  129  138  137  130  127  150  138    0
ch:  73     128  130  121  128  124  133  135  118  130  133  137  128  129  131  121  128  135  121  130  121  121  133  133  119  134  130  121  137  138  138  137    0
ch:  74     128  134  122  128  123  137  137  123  133  137  139  124  135  126  127  144  130  137  133  133  113  130  133  131  137  137  139  139  128  137  139    0
ch:  75     128  120  130  119  121  121  121  131  131  134  124  130  133  134  126  130  124  123  131  147  121  134  141  133  130  133  150  130  137  137  137    0
ch:  76     128  130  130  137  128  139  133  130  128  123  121  127  137  131  140  133  120  131  137  130  137  127  133  131  137  137  148  135  137  155  139    0
ch:  77     128  128  120  121  133  121  147  126  124  129  128  137  126  129  126  135  128  139  129  118  131  118  121  115  124  134  131  130  133  151  138    0
ch:  78     140  120  130  119  121  130  134  121  138  130  133  126  138  134  120  133  137  140  130  130  120  137  138  130  130  133  127  137  137  137  133    0
ch:  79     128  130  121  116  143  108  137  134  125  139  108  133  126  137  118  133  135  133  130  133  123  131  135  127  130  134  137  130  133  133  134    0
ch:  80     128  130  118  132  123  121  135  133  129  126  128  130  138  138  133  121  125  147  137  150  127  137  126  121  131  134  133  150  137  149  131    0
ch:  81     128  120  133  128  128  130  123  133  128  128  141  121  128  133  123  130  135  124  133  129  135  137  133  145  121  133  128  137  134  135  129    0
ch:  82     128  137  120  132  128  130  123  137  121  135  133  128  137  124  121  130  121  130  137  123  113  119  130  134  131  133  133  134  137  137  140    0
ch:  83     135  129  133  130  120  118  139  129  121  133  131  137  123  133  121  137  134  121  133  140  128  133  133  132  138  147  124  145  133  147  145    0
ch:  84     140  138  139  129  130  123  124  128  137  133  123  123  131  121  131  131  131  137  139  137  137  128  130  137  131  133  130  134  147  145  137    0
ch:  85     128  120  136  130  133  124  133  131  129  124  118  121  133  133  128  121  137  123  144  118  133  130  131  131  133  130  133  128  131  139  147    0
ch:  86     140  134  124  135  129  133  123  128  120  138  133  130  133  130  127  118  133  118  130  131  149  133  128  133  137  133  133  134  135  142  137    0
ch:  87     128  136  122  129  133  124  130  147  121  130  139  139  128  123  129  145  128  130  133  131  137  138  128  137  138  135  134  134  134  137  149    0
ch:  88     128  128  116  128  130  134  137  139  117  125  135  145  128  121  133  130  134  130  121  123  126  120  131  121  124  140  130  127  128  139  131    0
ch:  89     128  120  133  121  128  128  121  121  126  141  124  139  140  133  134  127  137  134  127  130  139  130  130  124  145  131  126  131  139  133  130    0
ch:  90     128  120  122  135  120  133  121  121  133  130  149  121  133  118  121  133  130  124  123  127  123  131  121  128  139  133  134  135  131  135  133    0
ch:  91     128  132  138  137  131  121  128  123  127  129  118  133  130  131  133  140  126  133  120  133  135  137  121  137  135  139  138  145  145  138  135    0
ch:  92     140  137  126  127  123  128  137  126  131  137  134  121  137  121  131  127  121  133  123  121  138  130  143  137  142  144  133  133  139  131  139    0
ch:  93     128  128  122  119  134  127  133  123  135  133  131  130  133  134  131  133  147  131  139  141  128  133  128  134  121  139  133  130  138  139  147    0
ch:  94     128  140  130  130  138  129  131  131  121  137  123  133  133  135  121  126  133  121  133  135  117  131  121  121  120  135  135  128  133  128  145    0
ch:  95     140  123  122  133  128  110  130  137  129  123  121  127  130  121  137  133  127  133  135  139  130  134  137  133  133  130  137  137  145  138  126    0
ch:  96     128  129  133  128  121  134  133  138  133  137  135  119  134  130  137  133  130  134  133  140  123  137  130  120  117  131  120  133  121  123  133    0
ch:  97     128  122  128  121  124  137  128  124  137  134  128  128  131  120  131  129  137  133  119  138  137  139  135  129  125  134  134  128  139  133  138    0
ch:  98     128  137  129  137  134  133  128  120  121  130  131  130  140  133  140  137  124  123  133  118  121  130  118  137  121  119  140  147  147  135  147    0
ch:  99     140  131  122  123  133  147  123  133  124  121  138  118  123  142  130  134  135  131  130  130  121  135  131  121  130  137  145  133  130  133  144    0
ch: 100     138  126  130  137  132  117  129  123  121  139  119  134  121  135  130  133  134  137  138  127  120  123  130  131  119  128  131  137  133  138  144    0
ch: 101     128  134  130  132  134  133  121  138  130  134  128  128  147  133  137  123  134  140  130  115  130  134  137  138  130  131  120  133  147  149  133    0
ch: 102     140  129  130  121  118  121  133  133  131  119  131  133  135  133  123  123  123  119  137  147  124  133  121  117  134  131  147  124  131  133  137    0
ch: 103     128  129  122  120  131  126  130  129  130  128  140  135  137  123  135  129  130  121  133  131  121  129  133  123  135  147  137  145  133  133  151    0
ch: 104     128  120  119  120  127  138  121  118  134  128  129  131  130  130  121  133  130  123  131  123  135  131  126  133  129  133  133  137  137  133  133    0
ch: 105     128  120  122  112  115  137  147  131  133  129  134  118  124  124  120  133  123  128  133  135  131  133  128  131  133  140  123  141  137  138  135    0
ch: 106     140  132  134  123  114  137  133  118  127  128  133  134  121  119  131  127  124  130  115  134  131  130  130  134  127  133  129  137  133  128  139    0
ch: 107     128  120  144  130  126  130  126  128  135  126  133  131  135  133  127  121  134  128  135  133  133  129  128  145  141  134  135  150  147  137  149    0
ch: 108     138  136  126  130  123  130  141  128  118  120  133  134  137  123  133  131  131  121  130  133  133  127  130  133  135  130  137  139  111  145  134    0
ch: 109     128  120  122  121  120  140  118  130  138  126  134  130  137  128  147  135  134  134  134  128  121  135  133  131  134  125  137  137  133  134  137    0
ch: 110     128  120  122  132  131  131  134  124  119  133  120  125  128  131  138  133  133  133  121  128  135  120  134  137  133  130  124  124  133  133  133    0
ch: 111     128  120  121  128  115  131  130  124  125  123  119  120  121  128  131  135  121  147  147  138  133  137  138  144  139  147  129  137  139  133  135    0
ch: 112     128  122  133  121  121  139  124  137  120  119  133  126  137  131  128  133  121  124  129  131  123  147  134  133  123  137  135  131  131  130  139    0
ch: 113     128  120  133  128  125  121  133  134  135  117  134  120  133  135  134  134  123  131  133  129  123  131  137  128  133  135  126  137  135  135  133    0
ch: 114     128  116  120  130  133  130  133  137  121  133  132  130  130  134  131  133  130  121  121  133  134  137  134  129  133  133  137  128  147  119  137    0
ch: 115     128  128  125  128  133  134  119  128  117  140  137  138  129  128  148  124  128  138  127  134  129  133  134  133  137  137  144  145  134  142  133    0
ch: 116     128  125  136  130  118  121  128  127  139  128  127  131  140  128  129  140  127  123  131  133  128  131  121  133  129  145  120  134  137  151  141    0
ch: 117     128  134  125  132  131  134  126  135  133  131  121  115  133  128  118  133  133  133  126  133  126  121  129  133  131  115  133  135  137  133  137    0
ch: 118     128  138  122  121  133  127  128  126  131  126  133  130  125  119  118  116  123  121  137  118  131  134  133  117  137  134  120  131  140  137  137    0
ch: 119     128  132  124  132  128  137  128  141  131  137  130  117  124  133  133  128  134  130  121  137  135  135  131  128  133  134  134  153  138  135  141    0
ch: 120     128  133  125  133  120  129  114  135  118  135  121  121  134  126  124  123  134  130  137  131  138  121  137  133  147  138  133  134  151  145  153    0
ch: 121     128  132  126  134  131  118  139  131  130  130  117  135  121  133  131  135  130  123  127  131  131  133  140  130  129  140  138  137  128  134  145    0
ch: 122     140  120  131  116  119  124  133  123  121  121  117  129  128  131  130  133  133  137  124  134  126  133  130  137  125  125  137  126  144  126  130    0
ch: 123     128  120  120  134  128  133  133  137  133  133  133  126  137  139  133  145  129  133  125  121  135  123  137  134  128  135  137  147  130  133  139    0
ch: 124     128  122  132  131  120  123  128  120  119  128  129  121  121  125  128  131  133  123  124  135  134  121  140  135  127  127  131  139  139  135  140    0
ch: 125     128  136  122  121  126  121  134  126  118  133  125  128  133  127  133  133  121  133  133  129  127  121  128  137  133  134  138  140  137  149  139    0
ch: 126     128  120  134  116  130  130  133  133  126  121  128  128  128  130  130  140  121  137  135  119  123  126  118  129  137  147  130  137  135  137  133    0
ch: 127     128  123  130  130  131  137  137  133  121  131  133  135  137  131  147  141  133  124  142  128  128  140  145  138  135  147  140  140  147  131  147    0
