# TRIM CALIBRATION    FEB6_9_3    pulse_ampl_min=10    pulse_ampl_max=220    pulse_ampl_fast=10
#
ch:   0     140  120  119  141  120  127  128  121  131  140  130  123  128  135  133  139  130  139  121  135  137  127  128  134  133  123  133  138  141  138  153    0
ch:   1     140  120  124  123  133  121  135  128  137  124  123  135  144  121  120  133  133  135  137  133  128  138  126  133  128  121  140  140  147  137  152    0
ch:   2     128  120  129  138  119  137  124  130  121  133  128  121  133  121  137  133  133  138  140  135  138  133  125  131  131  137  147  131  133  141  137    0
ch:   3     128  120  122  123  118  137  133  133  127  130  128  138  129  123  137  131  121  134  130  134  138  131  121  131  133  121  141  135  148  141  145    0
ch:   4     128  130  119  121  124  129  137  131  137  137  140  121  124  133  135  133  120  122  137  122  121  145  147  137  138  121  133  139  137  135  133    0
ch:   5     128  120  133  132  123  133  130  119  133  126  133  121  133  137  128  129  134  114  133  131  145  130  141  138  133  138  137  145  137  156  147    0
ch:   6     153  120  133  139  128  131  126  118  130  123  129  133  137  121  121  134  137  121  129  137  133  137  137  131  137  146  139  144  147  156  140    0
ch:   7     128  126  122  131  131  129  130  133  121  133  121  133  135  137  138  135  140  130  123  121  129  121  127  131  134  133  139  137  133  152  150    0
ch:   8     128  120  127  132  120  120  121  133  119  121  134  131  132  121  130  124  131  130  133  128  121  137  129  147  137  135  134  148  138  137  155    0
ch:   9     128  120  116  127  133  138  119  134  133  133  117  131  121  133  134  121  134  137  133  130  120  135  134  137  133  149  133  149  147  135  140    0
ch:  10     128  120  122  134  133  123  130  133  134  130  133  129  115  140  103  121  133  121  125  137  135  123  124  137  135  137  147  131  150  133  156    0
ch:  11     128  134  121  121  133  121  133  133  134  119  134  135  133  124  131  133  135  134  123  147  130  137  147  135  121  146  138  134  137  137  147    0
ch:  12     128  120  122  132  119  134  120  131  130  133  133  131  113  123  132  140  133  126  135  148  147  131  130  129  134  135  133  135  133  147  140    0
ch:  13     128  132  130  118  129  133  128  133  117  133  121  119  145  133  123  118  131  137  133  141  128  148  138  138  134  138  128  147  147  140  153    0
ch:  14     133  128  118  119  121  130  128  126  121  138  123  123  138  133  121  137  129  129  126  115  133  131  133  134  137  133  144  138  151  140  147    0
ch:  15     128  120  122  127  115  128  133  123  133  131  123  124  131  128  130  118  130  137  134  134  133  127  134  131  135  133  148  137  147  137  144    0
ch:  16     128  132  137  128  130  121  131  131  121  128  130  124  131  131  128  134  139  134  124  134  138  133  147  127  133  145  137  133  139  139  141    0
ch:  17     128  136  132  131  126  126  134  119  135  135  137  126  123  119  133  125  133  137  130  135  124  120  135  131  135  140  135  139  152  137  146    0
ch:  18     128  120  129  132  128  126  134  121  131  119  127  115  133  133  130  130  130  123  133  131  135  130  125  147  130  135  139  141  145  140  139    0
ch:  19     128  120  130  137  121  118  129  115  130  121  121  134  130  125  124  128  131  133  126  124  137  137  128  143  137  133  140  137  137  134  139    0
ch:  20     128  120  122  133  128  121  119  123  120  134  130  123  149  139  145  128  125  130  123  137  119  135  133  149  121  130  128  138  140  147  138    0
ch:  21     128  120  122  115  137  121  127  130  121  133  124  133  123  133  131  124  130  135  131  133  133  133  137  124  141  130  140  153  143  147  139    0
ch:  22     128  126  124  119  133  127  115  131  116  133  130  124  130  137  137  135  128  119  123  140  149  128  126  121  137  133  130  134  149  147  137    0
ch:  23     128  137  119  132  134  119  128  137  123  137  141  130  121  130  137  139  134  133  130  130  133  134  133  133  135  133  129  138  124  149  147    0
ch:  24     128  130  119  128  123  120  119  137  128  133  120  131  118  126  134  123  123  110  131  139  147  144  133  133  135  137  137  141  147  137  141    0
ch:  25     128  129  116  133  133  128  131  119  123  133  133  131  145  131  131  131  137  131  137  133  131  128  135  145  121  128  130  130  137  151  139    0
ch:  26     128  120  134  126  121  134  121  128  133  123  134  131  135  140  139  130  118  131  137  130  131  133  140  133  135  134  137  147  137  151  139    0
ch:  27     128  133  133  130  133  118  123  129  129  134  119  133  134  123  137  133  121  134  143  135  137  137  138  121  131  139  137  133  133  137  148    0
ch:  28     128  120  124  121  133  128  128  129  119  128  131  133  131  126  135  130  128  118  137  137  133  120  117  121  135  137  137  147  140  148  137    0
ch:  29     128  138  122  133  119  121  137  147  128  137  128  133  120  121  147  121  134  121  133  121  135  123  131  138  137  150  133  124  147  145  133    0
ch:  30     128  133  125  132  130  119  128  134  121  129  131  121  121  137  133  128  135  128  123  130  131  123  145  137  145  137  133  137  147  138  140    0
ch:  31     140  130  122  132  124  129  121  137  119  133  115  137  137  137  134  133  125  130  139  133  130  137  133  133  134  139  140  139  151  139  148    0
ch:  32     128  136  122  121  137  131  117  124  131  130  133  128  133  129  134  133  138  120  131  135  135  133  135  133  130  141  130  140  140  149  151    0
ch:  33     128  130  127  123  133  135  130  128  127  137  128  137  123  148  144  137  137  135  137  133  124  137  147  133  138  133  133  140  133  145  148    0
ch:  34     128  132  130  118  123  133  133  120  124  133  133  130  130  138  133  121  119  130  137  135  129  134  137  133  131  123  145  137  148  139  152    0
ch:  35     128  139  133  118  137  130  137  118  130  128  121  121  134  128  133  117  137  133  121  130  133  137  133  121  140  150  133  142  156  147  135    0
ch:  36     128  131  133  119  115  131  126  133  121  135  121  133  126  121  131  130  121  137  118  140  126  137  123  131  133  124  137  135  130  139  140    0
ch:  37     128  122  136  137  137  138  133  133  138  130  118  128  138  121  137  127  129  121  135  121  130  134  137  140  135  138  121  147  139  147  149    0
ch:  38     128  125  129  118  139  144  131  115  133  133  119  121  131  130  135  134  133  145  134  127  129  133  137  123  133  140  140  141  145  137  133    0
ch:  39     128  120  136  121  130  121  137  130  134  131  145  121  126  133  145  133  134  137  143  141  133  130  138  147  124  133  135  147  131  154  147    0
ch:  40     128  120  120  132  124  126  133  124  119  133  133  139  133  115  137  134  131  138  133  128  129  137  130  117  133  137  131  140  138  150  152    0
ch:  41     128  136  133  133  115  128  131  133  137  133  126  135  133  128  133  128  133  121  139  128  142  137  123  133  131  128  131  147  145  137  139    0
ch:  42     128  133  122  137  121  119  130  137  121  137  127  121  127  128  114  133  124  133  147  121  129  137  130  135  138  130  130  138  147  130  137    0
ch:  43     138  120  130  126  124  137  121  121  133  135  135  130  139  137  131  133  129  133  128  133  137  133  137  135  135  135  135  138  134  157  144    0
ch:  44     128  130  122  121  115  134  130  133  134  121  128  133  133  146  134  134  131  137  134  123  135  121  131  133  131  131  143  137  139  147  147    0
ch:  45     128  132  134  121  120  123  121  133  129  123  131  119  115  134  130  133  121  124  133  131  133  134  137  138  144  139  145  134  145  138  139    0
ch:  46     140  120  136  137  124  129  121  123  131  137  123  121  137  133  134  135  121  124  140  132  133  128  120  133  128  138  126  133  139  139  145    0
ch:  47     140  120  130  121  131  121  128  133  121  133  121  133  133  133  137  137  130  128  137  128  131  135  137  135  133  134  121  152  140  141  147    0
ch:  48     128  132  133  126  133  123  137  126  138  133  133  133  115  118  137  130  113  115  134  137  137  144  133  130  128  128  134  131  134  137  152    0
ch:  49     128  120  132  116  134  134  134  138  133  133  134  137  133  131  121  140  130  123  134  137  134  121  133  137  147  147  147  138  134  137  140    0
ch:  50     128  130  133  120  119  135  133  138  131  133  125  130  131  121  131  134  121  133  132  133  126  130  130  131  139  130  133  139  152  139  143    0
ch:  51     133  133  122  124  124  135  137  137  123  133  130  130  134  133  139  130  121  126  135  135  141  133  130  139  139  130  139  137  140  146  137    0
ch:  52     128  132  131  121  131  122  122  131  123  137  130  133  130  133  133  135  133  137  133  149  137  133  133  135  133  137  137  137  140  149  139    0
ch:  53     128  132  118  123  131  121  133  124  137  129  133  135  139  133  137  135  118  138  124  135  137  121  129  137  135  134  137  133  138  147  147    0
ch:  54     128  136  122  116  130  137  121  138  120  133  115  124  137  134  121  132  133  134  134  133  138  135  135  128  131  133  128  147  133  147  135    0
ch:  55     128  130  124  134  135  126  135  137  121  133  126  133  121  124  137  129  127  137  147  145  121  123  121  135  140  137  128  141  145  141  153    0
ch:  56     128  128  136  118  130  134  115  121  115  131  131  130  134  135  123  139  121  137  134  125  138  130  137  125  128  137  137  140  142  140  134    0
ch:  57     128  124  116  126  133  124  130  131  124  128  131  134  123  137  142  133  134  125  134  130  133  117  131  137  131  135  140  139  151  137  138    0
ch:  58     128  137  127  137  123  133  119  120  133  137  137  130  118  130  137  128  121  119  137  121  130  140  131  139  133  119  140  138  148  141  147    0
ch:  59     128  120  136  135  133  133  134  137  133  133  128  131  133  131  133  128  133  131  131  134  133  134  126  137  133  140  133  138  147  137  153    0
ch:  60     128  129  133  128  115  125  133  121  133  133  133  119  135  131  130  130  137  135  147  137  133  123  131  133  133  137  137  130  151  149  152    0
ch:  61     128  133  122  118  130  115  137  131  131  134  133  147  133  137  129  141  130  134  134  130  131  138  130  130  133  139  149  153  143  153  137    0
ch:  62     128  132  133  132  123  133  121  119  128  133  135  133  133  130  134  121  123  130  137  137  135  131  131  137  140  134  124  144  137  131  139    0
ch:  63     128  142  116  122  130  133  124  124  121  133  128  135  140  127  121  131  137  133  139  133  140  134  128  127  137  144  138  141  137  141  147    0
ch:  64     128  120  133  132  137  147  114  134  131  133  118  119  133  133  137  142  138  130  126  137  137  134  130  137  134  130  128  144  147  139  147    0
ch:  65     135  129  133  123  138  137  137  121  121  130  131  131  133  125  139  145  123  133  137  133  128  137  135  127  133  139  140  143  138  147  145    0
ch:  66     128  120  133  119  139  128  131  121  128  123  134  126  121  121  119  135  121  131  126  137  130  131  133  130  133  135  140  133  138  148  140    0
ch:  67     128  122  124  132  114  137  147  118  121  118  128  125  137  121  128  137  133  140  139  128  140  138  147  145  139  137  139  133  152  144  147    0
ch:  68     128  134  136  127  134  127  121  137  130  133  121  133  130  137  133  133  123  137  121  133  119  121  123  126  133  137  130  137  137  139  139    0
ch:  69     135  131  122  132  118  139  133  133  127  133  128  135  133  137  145  137  121  132  133  131  137  138  137  134  140  131  131  134  137  137  137    0
ch:  70     128  130  118  132  133  137  134  131  124  133  121  133  133  133  137  137  124  134  135  128  133  147  137  126  126  133  134  130  135  142  148    0
ch:  71     128  124  129  124  131  133  133  137  128  130  130  123  138  135  134  123  119  137  138  140  131  137  139  148  138  138  133  140  137  130  147    0
ch:  72     128  130  137  124  130  119  137  135  123  134  129  143  117  133  135  134  133  126  121  133  126  145  137  137  152  131  135  133  147  134  145    0
ch:  73     128  125  115  136  139  118  133  133  131  127  140  135  130  137  130  133  130  137  139  134  130  137  139  121  140  133  139  133  152  151  147    0
ch:  74     140  120  129  133  120  131  124  123  121  135  123  139  137  121  133  133  138  130  137  135  128  133  133  126  134  134  145  130  133  141  134    0
ch:  75     128  120  130  128  133  133  137  131  124  121  128  133  126  121  135  134  129  131  134  133  137  128  133  137  140  133  145  145  137  137  152    0
ch:  76     128  129  122  121  139  133  121  127  121  137  137  133  121  147  121  134  121  137  127  138  134  140  130  133  134  133  133  144  147  140  152    0
ch:  77     128  136  130  119  134  133  121  130  133  137  133  117  133  147  119  126  133  134  148  133  138  137  137  139  133  133  133  144  147  147  148    0
ch:  78     128  120  124  132  140  134  133  121  133  123  130  130  133  133  137  121  133  133  133  137  131  137  133  133  137  140  128  147  133  128  135    0
ch:  79     128  130  136  132  130  121  137  107  131  131  137  121  127  130  147  133  130  138  120  134  138  133  131  134  133  141  135  139  145  133  145    0
ch:  80     128  120  137  131  135  131  126  127  137  130  135  128  133  137  147  131  133  126  123  135  127  131  133  124  137  133  135  147  149  137  149    0
ch:  81     128  120  134  132  133  121  137  121  133  124  137  124  131  128  133  137  134  133  131  119  135  122  137  140  147  137  149  141  145  151  140    0
ch:  82     128  120  122  130  124  133  138  133  130  133  134  122  118  129  121  129  131  132  139  137  124  119  140  134  147  145  137  137  135  138  145    0
ch:  83     128  120  122  132  133  130  137  133  135  130  137  140  130  130  135  137  133  134  137  135  133  131  135  133  137  135  130  131  131  139  147    0
ch:  84     140  120  131  139  121  123  121  133  133  126  137  131  121  130  130  135  128  129  145  137  133  123  127  140  137  137  137  137  140  134  133    0
ch:  85     128  133  122  116  133  133  134  133  129  134  124  119  137  133  133  121  126  137  137  149  131  126  135  131  137  127  131  147  147  143  139    0
ch:  86     128  120  120  130  128  137  131  120  123  134  115  121  125  137  119  128  121  135  134  139  131  133  135  137  134  133  137  148  140  137  154    0
ch:  87     128  120  130  124  121  142  145  137  134  135  133  133  133  135  130  129  140  133  128  145  137  140  137  135  134  135  133  156  141  150  148    0
ch:  88     128  120  132  134  123  133  131  119  133  133  139  124  126  135  120  133  133  137  139  128  133  131  133  143  129  130  137  141  131  147  147    0
ch:  89     128  138  131  130  128  137  130  133  124  133  133  121  137  134  141  129  135  131  130  135  128  131  129  134  140  131  133  150  149  156  154    0
ch:  90     128  120  122  132  134  135  133  121  118  128  121  133  128  139  138  133  123  133  133  131  133  130  138  133  135  133  141  145  147  147  147    0
ch:  91     128  120  132  130  127  142  133  135  133  130  133  128  131  132  130  121  130  129  137  147  133  133  128  137  134  139  130  137  139  138  152    0
ch:  92     128  120  116  132  124  133  133  121  113  132  130  123  119  115  123  133  131  131  124  137  138  139  130  131  137  145  121  139  137  141  137    0
ch:  93     128  120  132  134  135  133  135  122  133  131  128  135  121  123  134  118  135  134  135  133  128  130  121  137  137  147  150  137  140  137  152    0
ch:  94     128  134  130  135  125  138  133  121  121  133  121  118  134  137  135  129  147  130  139  137  131  118  126  133  130  129  138  131  128  144  137    0
ch:  95     128  134  132  128  119  133  120  128  137  133  133  131  133  121  131  130  138  145  131  119  137  133  135  139  141  139  137  141  140  150  138    0
ch:  96     128  136  132  126  121  123  121  119  133  139  130  128  137  134  137  140  133  135  128  134  126  133  133  130  117  137  137  156  153  150  149    0
ch:  97     128  126  124  134  123  137  131  133  131  131  131  130  134  135  130  121  135  133  133  134  133  119  133  131  133  139  134  141  134  152  147    0
ch:  98     128  115  134  124  126  123  134  118  131  133  137  118  121  130  138  137  125  131  138  123  133  137  137  134  133  135  131  139  135  149  147    0
ch:  99     140  131  133  130  124  121  130  126  115  133  120  130  137  121  128  145  135  133  138  133  134  141  147  133  147  138  131  137  137  145  151    0
ch: 100     128  130  133  121  121  137  140  134  134  133  121  130  133  139  129  137  124  135  133  130  135  123  133  130  128  131  137  147  134  138  137    0
ch: 101     128  130  122  128  131  131  137  139  133  137  123  131  130  123  137  140  130  123  133  137  137  135  137  135  137  138  142  137  131  147  147    0
ch: 102     128  132  136  118  131  147  137  118  127  134  130  139  133  130  133  119  130  131  145  133  137  139  130  147  140  134  139  143  147  141  147    0
ch: 103     128  129  131  128  128  130  133  134  135  144  129  121  137  129  128  123  134  140  134  147  121  131  138  140  121  140  138  140  147  149  153    0
ch: 104     128  136  134  130  134  128  133  131  129  117  118  123  133  128  133  135  135  131  133  118  130  135  128  138  151  133  138  137  133  138  152    0
ch: 105     128  129  139  121  120  133  119  142  131  128  132  128  133  137  124  134  130  139  133  137  135  115  129  137  134  138  131  134  147  142  150    0
ch: 106     128  130  122  120  133  121  133  120  128  128  126  134  138  130  130  137  130  117  133  130  128  130  121  133  137  133  130  143  141  137  147    0
ch: 107     128  120  122  130  137  135  133  134  133  137  138  118  133  135  133  130  137  138  135  120  135  134  123  134  134  147  137  147  138  152  152    0
ch: 108     128  120  130  121  121  133  133  128  121  140  126  131  131  133  133  137  126  148  134  137  141  150  124  130  134  134  131  145  141  147  137    0
ch: 109     128  169  124  118  129  127  127  130  135  118  123  117  131  133  134  139  138  133  131  137  137  131  131  135  121  135  137  138  137  148  153    0
ch: 110     128  120  121  120  121  137  133  137  131  133  137  130  133  123  130  139  135  137  131  134  119  121  135  119  133  130  137  137  137  135  137    0
ch: 111     140  133  120  108  137  147  131  133  118  131  130  133  137  130  118  133  133  126  137  124  128  138  133  137  145  135  137  147  141  150  150    0
ch: 112     128  130  124  128  133  137  124  126  128  131  137  128  117  135  141  133  137  134  135  133  134  137  133  137  133  123  140  137  139  147  147    0
ch: 113     128  126  124  133  123  128  119  137  119  133  133  133  132  119  117  117  133  123  134  137  145  138  134  121  138  128  133  134  147  139  143    0
ch: 114     128  132  122  131  133  120  123  125  121  133  145  134  133  133  145  131  137  142  126  130  131  145  137  131  138  131  133  118  151  147  141    0
ch: 115     128  120  132  119  121  115  124  118  129  126  133  129  123  135  133  135  123  137  124  141  141  137  133  147  138  138  147  134  137  147  152    0
ch: 116     128  137  121  133  133  121  131  119  117  121  130  139  123  137  137  131  121  128  121  130  133  134  126  138  141  121  134  149  145  138  134    0
ch: 117     128  129  133  128  128  118  137  111  135  138  134  131  139  134  137  140  121  139  139  129  137  130  131  137  131  135  148  130  152  150  138    0
ch: 118     141  120  122  119  134  137  131  133  128  133  131  130  142  131  130  133  119  131  134  135  133  133  137  137  134  137  139  148  135  150  147    0
ch: 119     128  123  121  133  130  138  115  133  115  115  123  140  121  147  119  141  129  129  137  124  148  123  137  131  137  133  135  134  133  141  142    0
ch: 120     128  131  133  116  126  121  133  131  133  143  133  128  135  121  126  133  133  128  134  133  124  138  133  130  121  131  128  140  137  140  137    0
ch: 121     128  137  118  121  130  128  129  133  128  149  135  133  133  135  127  123  129  137  133  130  134  131  139  128  134  148  139  128  137  135  156    0
ch: 122     140  132  132  132  133  133  134  133  119  133  126  121  130  131  130  130  135  124  144  135  139  131  137  117  137  138  139  147  151  137  148    0
ch: 123     128  120  122  116  133  126  135  128  133  134  130  134  121  130  133  133  135  133  130  132  137  140  138  126  140  139  135  149  139  147  151    0
ch: 124     128  120  122  125  123  128  119  133  130  124  121  138  121  128  130  131  137  131  133  131  138  135  145  131  127  138  135  145  143  141  152    0
ch: 125     128  134  133  134  133  132  133  130  131  133  130  115  130  135  137  133  131  135  134  122  121  135  133  134  131  137  141  151  147  138  143    0
ch: 126     128  120  122  132  129  133  129  137  121  135  137  133  131  126  121  127  134  128  140  139  140  121  133  141  133  131  145  133  152  140  134    0
ch: 127     128  120  118  118  131  121  126  123  135  128  131  120  133  133  129  139  135  129  138  137  120  140  137  134  139  139  137  133  131  133  147    0
