# TRIM CALIBRATION    FEB6_2_5    pulse_ampl_min=10    pulse_ampl_max=220    pulse_ampl_fast=10
#
ch:   0     128  120  121  118  121  123  130  105  115  119  119  115  114  118  108  105  119  113  101  121  107  120  117  115  115  121  117  130  114  120  121    0
ch:   1     128  130  121  117  115  114  113  109  119  121  118  105  112  115  120  115  113  110  113  115  115  115  120  114  119  105  105  137  133  110  124    0
ch:   2     128  111  110  123  117  115  118  125  118  121  105  124  115  105  119  112  105  128  101  112  121  112  114  115  119  115  115  105  115  114  117    0
ch:   3     128  129  124  115  112  133  115  119  105  115  118  108  121  130  120  117  113  114  118  115  121  120  112  120  115  115  107  118  111  128  121    0
ch:   4     128  122  117  121  106  118  118  114  119  103  121  115  109  119  112  115  117  115  121  118  117  112  114  117  117  111  105  115  115  130  129    0
ch:   5     128  118  119  119  119  116  118  105  133  128  105  108  113  112  101  115  118  115  118  114  130  117  105  105  120  126  107  117  117  130  117    0
ch:   6     128  122  128  118  121  119  119  115  117  121  119  128  115  119  110  105  115  118  120  109  115  104  112  100  118  115  115  119  126  117  133    0
ch:   7     128  111  118  125  125  120  115  121  115  119  110  131  118  128  115  117  118  115  110  121  115  121  118  115  117  123  121  121  121  115  105    0
ch:   8     128  120  118  117  121  118  110  123  107  128  119  115  114  117  117  105  108  110  108  114  127  103  115  101  114  115  130  112  118  133  121    0
ch:   9     128  122  121  121  125  128  121  124  105  112  111  119  119  115  109  114  114  114  115  128  114  121  113  118  107  114  117  115  112  129  130    0
ch:  10     131  120  106  119  114  121  120  118  101  114  118  115  129  115  110  114  115  115  108  126  124  118  105  126  121  115  105  121  118  105  115    0
ch:  11     128  154  128  128  128  128  128  128  128  128  128  128  128  128  128  128  128  128  128  128  128  128  128  128  128  128  128  128  128  128  128    0
ch:  12     128  120  137  139  163  163  128  128  128  128  128  128  128  128  128  128  128  128  128  128  128  128  128  128  128  128  128  128  128  128  128    0
ch:  13     105  111  116  135  134  152  149  150  159  153  153  163  163  167  169  172  128  128  128  128  128  128  128  128  128  128  128  128  128  128  128    0
ch:  14     128  120  111  133  107  117  115  125  121  105  113  115  130  105  107  111  114  119  130  107  113  117  121  107  108  118  107  115  123  123  130    0
ch:  15     131  117  119  132  133  123  118  119  119  121  119  124  123  107  115  130  120  118  117  117  107  119  120  121  114  112  115  111  114  113  130    0
ch:  16     128  120  113  113  124  119  124  110  127  115  119  127  118  115  104  110  113  117  114  113  119  117  120  121  110  110  114  127  134  121  123    0
ch:  17     128  126  116  112  119  119  118  117  118  114  112  118  117  112  133  117  105  105  128  115  126  101  120  117  119  112  119  117  115  119  118    0
ch:  18     128  120  116  123  119  123  121  130  110  121  117  118  129  130  120  119  108  115  104  115  107  118  104  118  109  114  115  119  117  117  112    0
ch:  19     128  134  116  115  121  105  113  119  117  119  117  115  123  115  111  118  120  115  114  115  121  115  105  117  121  101  120  110  117  133  121    0
ch:  20     128  118  125  115  105  118  121  120  113  131  112  115  131  115  113  112  109  113  121  115  114  115  119  118  115  131  115  115  118  118  121    0
ch:  21     128  120  122  118  121  121  117  114  118  121  115  119  114  118  105  119  113  121  105  106  121  105  114  115  120  119  105  115  112  121  134    0
ch:  22     128  131  108  115  114  113  122  117  103  113  121  114  117  106  115  120  108  113  111  106  121  115  117   99  115  115  115  118  120  106  128    0
ch:  23     128  130  122  118  115  115  120  117  115  117  125  114  115  122  117  129  120  116  115  118  104  113  126  121  103  112  105  128  121  127  121    0
ch:  24     128  116  118  112  121  120  119  105  105  114  121  115  121  109  109  115  110  115  120  121  115  107  119  115  115  110  105  110  108  115  115    0
ch:  25     128  120  119  119  114  115  115  133  115  118  118  101  113  130  113  121  115  110  113  119  121  107  115  117  118  111  121  130  121  115  114    0
ch:  26     128  120  116  118  118  117  118  107  115  113  131  105  120  110  118  115  121  103  103  118  107  103  113  114  119  114  110  123  121  134  119    0
ch:  27     128  120  122  121  128  121  114  119  119  118  117  114  117  114  103  117  114  114  105  115  113  115  105  104  117  119  118  119  113  119  121    0
ch:  28     128  120  112  121  117  126  120  121  115  118  115  115  115  119  117  105  105  121  117  118  113  105  111  108  110  124  118  107  133  119  119    0
ch:  29     128  124  122  116  117  123  120  115  117  118  115  107  117  105  112  105  115  104  111  113  112  119  118  118  131  119  130  115  120  113  118    0
ch:  30     128  118  116  118  121  115  120  115  115  105  115  120  107  130  105  115  116  124  118  114  101  115  114  118  115  118  126  121  118  115  112    0
ch:  31     128  131  119  123  133  112  123  111  129  115  115  114  130  115  121  110  115  113  121  121  119  114  108  120  105  123  121  114  115  118  119    0
ch:  32     128  130  115  121  117  126  121  121  121  119  112  117  113  115  118  115  120  115  121  119  105  115  117  115  117  121  115  121  130  115  115    0
ch:  33     128  122  113  113  117  119  118  121  121  119  118  117  119  109  118  115  123  103  130  108  117  112  120  101  119  124  107  130  118  128  121    0
ch:  34     128  137  124  119  117  121  115  105  120  105  117  114  119  115  119  115   92  112  117  110  119  100  113  120  130  117  115  115  119  130  115    0
ch:  35     128  124  131  121  137  121  111  130  110  105  123  113  114  114  109  114  105  120  123  121  121  115  114  115  114  118  123  123  118  118  117    0
ch:  36     128  120  116  121  115  119  119  123  115  114  133  115  128  114  105  118  119  119  118  118  113  117  104  121  112  107  108  121  134  115  118    0
ch:  37     128  118  119  121  118  118  121  130  118  103  105  114  122  123  128  113  120  114  121  114  105  115  133  118  115  119  119  121  117  121  128    0
ch:  38     128  134  121  130  121  120  117  131  119  119  119  115  119  117  119  105  121  115  113  114  114  115  105  121  115  112  112  121  118  115  118    0
ch:  39     128  130  133  118  123  129  115  128  115  121  107  121  107  117  110  105  115  121  115  107  107  108  121  107  115  105  121  121  121  128  120    0
ch:  40     128  120  120  115  128  121  125  123  105  123  115  115  112  115  115  126  115  118  114  121  118  115  118  105  111  121  133  117  131  131  126    0
ch:  41     128  132  116  120  133  115  130  130  115  121  103  118  110  120  120  115  117  121  119  105  121  113  115  115  105  129  115  121  133  122  130    0
ch:  42     128  120  119  130  133  131  124  130  121  121  118  119  101  117  105  117  108  113  118  120  105  105  107  119  127  117  118  132  121  118  133    0
ch:  43     128  131  112  115  121  121  107  115  121  119  119  105  121  118  119  117  120  108  104  110  115  117   97  105  117  115  109  118  121  124  118    0
ch:  44     128  112  120  121  133  119  115  120  120  115  128  120  128  117  115  121  130  110  128  117  115  117  118  105  120  115  120  117  129  128  129    0
ch:  45     131  120  119  126  118  118  120  123  121  119  110  115  118  108  115  133  120  115  118  114  112  115  101  115  110  118  117  130  121  130  121    0
ch:  46     128  122  122  118  114  121  120  105  121  121  118  117  103  117  119  118  101  118  110  108  114  115  115  104  115  112  131  115  119  123  132    0
ch:  47     128  128  121  118  117  127  121  130  115  126  132  117  117  128  118  130  109  104  107  116  131  108  118  115  117  115  115  120  120  133  121    0
ch:  48     128  122  108  116  128  113  121  121  123  131  101  105  115  115  105  107  119  115  118  112  121  109  120  117  120  131  111  121  121  133  118    0
ch:  49     128  136  115  121  118  115  123  133  105  118  117  105  119  119  107  128  114  119  103  108  118  114   98  114  117  112  118  114  114  128  128    0
ch:  50     128  128  121  119  118  115  115  124  121  133  123  110  118  114  105  117  115  101  121  133  113  105  112  117  118  121  114  118  115  128  117    0
ch:  51     128  120  118  121  123  120  126  121  105  110  128  119  117  121  108  119  119  121  113  112  117  117  105  119  105  117  119  121  110  128  117    0
ch:  52     128  122  116  124  121  131  123  127  112  118  132  107  115  111  118  126  104  118  105  118  115  118  101  110  121  118  113  113  119  118  130    0
ch:  53     131  129  121  120  129  121  115  115  117  105  112  113  128  115  105  121  117  115  117  120  117  121  110  119  105  118  108  117  134  130  128    0
ch:  54     128  127  116  118  123  119  114  123  128  117  113  121  118  115  130  119  105  114  113  101  108  121  133  103  121  121  107  137  115  121  119    0
ch:  55     128  120  118  132  115  117  109  119  121  120  115  105  105  112  105  121  115  115  115  116  114  112  115  126  119  118  114  121  133  130  122    0
ch:  56     128  132  121  120  119  118  108  114  113  117  115  132  115  115  113  118  101  115  115  121  117  119  119  121  114  119  115  121  121  121  127    0
ch:  57     128  120  119  115  114  133  112  123  115  121  119  115  115  115  124  115  112  104  111  121  119  112  107  108  119  120  118  118  121  110  121    0
ch:  58     128  120  113  130  119  119  115  121  133  133  101  117  115  111  105  115  104  123  113  133  115  104  115  115  114  119  115  118  118  108  121    0
ch:  59     128  122  133  121  129  130  121  117  119  123  121  108  123  121  118  115  121  101  112  104  101  117  117  115  115  114  130  121  121  117  121    0
ch:  60     128  111  120  119  121  128  114  128  106  114  118  119  119  110  118  116  121  130  115  119  120  117  115  105  121  131  119  103  122  123  121    0
ch:  61     128  120  119  115  121  123  118  121  121  115  129  121  123  121  121  119  108  119  113  121  115  107  109  118  115  105  115  133  118  119  120    0
ch:  62     128  128  124  121  135  128  131  138  147  149  147  148  151  161  155  155  151  166  167  170  166  166  167  128  128  171  128  128  128  128  128    0
ch:  63     128  128  128  128  128  128  128  128  128  128  128  128  128  128  128  128  128  128  128  128  128  128  128  128  128  128  128  128  128  128  128    0
ch:  64     128  120  124  106  118  133  123  121  121  117  121  105  117  117  123  114  115  117  118  112  121  119  108  107  120  118  118  123  117  130  123    0
ch:  65     128  130  116  132  127  121  118  110  118  103  115  119  131  128  115  114  133  105  105  117  117  112  121  131  117  121  101  133  118  130  115    0
ch:  66     128  120  108  115  121  121  115  114  121  121  128  118  115  110  118  115  115  128  123  125  114  110  107  114  113  119  113  117  115  121  124    0
ch:  67     128  121  112  123  121  129  117  119  114  124  115  115  121  123  130  128  119  105  119  133  107  115  114  115  121  121  121  131  118  119  115    0
ch:  68     128  132  116  113  117  130  120  124  120  118  109  117  108  110  119  123  114  105  121  105  115  123  110  119  125  110  115  119  121  128  135    0
ch:  69     128  131  122  121  128  114  127  115  116  121  118  137  119  115  115  115  112  112  115  123  118  119  117  109  119  124  121  130  120  115  134    0
ch:  70     128  120  116  120  117  130  117  120  117  109  120  130  127  103  118  117  108  115  115  108  119  115  118  104  120  117  129  105  119  121  128    0
ch:  71     128  120  119  119  118  121  121  133  119  112  119  121  114  121  105  126  128  119  113  121  128  130  115  117  130  121  112  130  110  117  121    0
ch:  72     128  120  119  121  121  126  137  131  131  107  121  103  118  118  119  105  119  108  118  133  117  123  109  117  121  115  130  133  121  120  133    0
ch:  73     128  128  119  130  114  114  131  120  121  121  119  123  115  119  115  117  125  115  118  118  118  115  105  118  119  117  118  117  112  130  120    0
ch:  74     128  122  118  119  117  121  120  117  109  131  115  123  128  115  121  120  117  115  121  115  115  114  115  123  128  118  119  117  115  112  115    0
ch:  75     128  120  119  118  114  114  121  113  119  108  119  121  121  121  115  115  119  117  110  118  115  126  117  108  121  129  119  121  114  119  121    0
ch:  76     128  131  119  120  115  114  117  127  115  115  108  105  115  101  123  118  117  117  119  119  111  114  119  101  117  119  112  123  121  114  127    0
ch:  77     128  128  130  119  138  128  137  114  121  120  115  101  120  119  114  114  118  115  115  123  114  113  112  121  110  105  110  121  115  118  123    0
ch:  78     128  122  133  121  118  118  112  115  105  121  130  115  118  120  121  115  113  105  131  104  113  133  113  119  115  107  103  118  119  124  133    0
ch:  79     128  132  122  133  123  121  128  121  108  133  105  119  118  107  119  110  115  108  112  118  115  107  116  112  119  108  118  117  118  129  133    0
ch:  80     128  117  118  116  123  128  121  129  119  130  117  105  133  115  105  105  115  105  120  121  115  109  113  111  114  120  133  119  118  118  127    0
ch:  81     136  112  119  121  131  118  119  113  110  120  123  118  112  105  114  118  101  115  107  115  121  121  119  123  115  115  115  114  129  114  119    0
ch:  82     128  120  125  120  120  133  121  119  117  119  121  115  121  114  131  121  118  112  118  115  114  128  113  111  133  115  115  119  105  121  117    0
ch:  83     140  120  127  116  121  120  117  121  113  115  130  112  112  120  115  115  108  115  112  121  114  108  105  117  110  105  115  133  115  130  130    0
ch:  84     128  120  122  133  121  119  118  119  108  126  105  121  130  105  114  115  119  120  120  110  115  123  117  120  118  117  115  120  131  121  121    0
ch:  85     128  111  122  125  112  117  121  115  123  115  119  118  115  121  105  115  124  101  101  113  112  105  111   98  105  109  115  115  124  115  115    0
ch:  86     128  138  124  118  115  120  126  126  121  115  121  108  105  123  117  119  123  115  118  119  113  116  105  105  104  115  119  121  133  120  121    0
ch:  87     131  120  122  133  121  118  115  110  121  106  117  116  108  118  121  105  114  117  124  109  104  118  120  115  108  113  114  113  108  130  115    0
ch:  88     138  126  124  119  110  114  113  128  118  130  113  121  108  114  128  121  133  115  121  107  108  121  123  108  115  121  126  123  112  120  121    0
ch:  89     128  117  116  129  119  130  121  115  130  120  121  120  122  133  121  121  123  115  104  116  115  117  110  121  118  121  118  119  118  122  131    0
ch:  90     128  120  118  121  130  115  115  130  104  114  117  119  115  131  117  117  117  121  114  115  118  105  107  117  113  110  115  119  126  121  127    0
ch:  91     128  131  113  123  110  128  112  112  133  114  115  117  113  115  123  119  103  112  118  121  115  112  119  119  118  119  107  128  114  130  119    0
ch:  92     131  120  129  103  112  119  130  131  115  127  123  114  114  108  128  118  115  111  124  119  119  107  118  113  121  103  130  115  119  123  117    0
ch:  93     128  120  115  118  118  113  134  118  121  118  120  114  126  105  109  119  115  130  108  117  114  115  115  123  113  115  124  121  121  130  123    0
ch:  94     128  128  130  108  123  133  110  109  121  115  121  120  121  117  131  108  114  105  115  120  115  115  115  113  105  120  114  119  123  105  123    0
ch:  95     128  131  120  116  121  123  118  120  123  123  121  128  133  114  115  122  115  118  119  119  117  107  130  117  114  117  117  121  124  133  121    0
ch:  96     131  128  116  121  123  114  121  109  113  117  112  107  123  115  109  103  107  109  115  111  121  111  121  121  125  128  119  135  117  112  123    0
ch:  97     128  120  117  119  123  129  120  115  115  118  114  126  115  115  129  121  119  119  133  121  123  115  114  110  123  117  115  128  133  133  128    0
ch:  98     128  116  116  116  114  119  115  123  104  115  121  117  115  130  121  117  115  115  120  118  118  115  117  105  115  115  115  115  133  118  115    0
ch:  99     128  120  115  132  128  130  121  120  112  134  117  105  115  107  108  124  114  121  108  105  121  121  114  121  114  115  114  115  128  115  126    0
ch: 100     128  120  120  119  114  112  130  115  120  111  110  121  121  115  121  121  115  107  105  113  115  117  118  125  123  131  121  113  117  130  109    0
ch: 101     128  120  126  119  107  120  118  118  131  103  121  128  121  105  121  112  115  115  123  113  114  118  111  113  121  124  133  104  117  121  119    0
ch: 102     128  120  123  130  115  118  121  127  119  112  121  121  115  128  123  105  115  107  121  118  118  104  114  117  121  117  130  101  128  121  121    0
ch: 103     128  121  106  129  112  115  118  115  117  124  115  119  101  113  121  114  115  118  110  104  119  113  117  123  118  110  115  121  120  118  131    0
ch: 104     128  120  116  128  120  120  119  119  130  119  105  113  115  117  130  114  108  114  110  101  121  108  130  105  121  123  131  124  119  130  118    0
ch: 105     128  130  130  132  118  115  133  137  121  126  121  114  110  119  123  117  121  119  115  107  115  110  115  133  117  120  115  123  123  118  123    0
ch: 106     128  120  121  126  119  118  120  133  113  121  135  108  117  118  125  124  115  114  121  105  121  117  108  115  117  115  119  121  120  127  128    0
ch: 107     128  121  113  116  123  119  121  120  124  120  108  119  130  121  118  118  119  133  119  113  121  103  115  119  118  118  118  133  115  121  134    0
ch: 108     128  122  121  121  120  118  112  115  121  115  128  119  118  128  121  115  114  121  121  113  119  115  117  110  113  119  110  121  131  126  118    0
ch: 109     128  122  122  104  131  105  129  124  110  117  121  121  130  103  118  121  107  121  115  118  113  117  112  112  130  120  115  121  118  128  115    0
ch: 110     128  111  126  123  120  113  118  115  108  115  118  115  112  112  112  110  114  105  110  133  112  114  117  108  128  115  101  119  115  126  130    0
ch: 111     128  123  134  128  120  130  110  117  130  118  120  118  115  115  121  107  115  119  119  117  114  118  113  117  115  123  118  115  118  115  121    0
ch: 112     128  120  114  121  112  125  137  123  123  121  112  123  117  113  120  114  115  118  114  113  121  133  115  113  115  117  107  133  115  121  128    0
ch: 113     131  122  120  114  115  130  118  121  131  105  118  118  119  105  119  120  120  118  112  117  115  117  130  118  117  130  105  121  105  130  115    0
ch: 114     128  120  116  120  118  103  121  121  121  106  114  115  105  109  117  121  115  109  130  108  121  118  105  118  115  118  115  118  118  128  121    0
ch: 115     128  120  122  126  115  107  127  124  108  110  118  119  111  114  105  123  118  118  129  128  117  105  121  115  118  123  123  121  123  130  118    0
ch: 116     128  124  119  121  110  124  121  119  121  120  118  115  105  113  120  105  121  115  121  105  121  113  104  103  117  114  115  135  118  131  123    0
ch: 117     128  120  117  118  117  118  119  119  113  134  106  114  118  119  113  117  118  113  105  103  105  112  118  105  118  115  112  112  119  120  133    0
ch: 118     128  125  118  123  113  115  119  118  117  115  114  118  112  119  115  113  115  121  114  115  117  107  133  115  117  119  121  121  112  121  126    0
ch: 119     128  133  116  112  115  126  118  128  118  115  128  128  121  108  112  131  101  120  115  108  110  117  115  123  109  115  120  115  120  115  117    0
ch: 120     131  131  122  130  103  119  119  121  130  118  119  132  107  128  114  115  110  121  115  104  126  112  107  131  121  115  120  123  118  114  119    0
ch: 121     128  122  115  119  121  121  121  121  115  114  105  121  130  114  121  115  123  112  115  105  115  119  115  117  115  115  114  123  113  123  126    0
ch: 122     128  124  118  116  119  114  101  113  115  120  118  115  107  107  121  115  118  131  115  121  117  120  113  114  111  118  105  117  120  119  123    0
ch: 123     128  114  133  130  113  123  121  128  115  115  105  119  115  112  115  115  113  118  120  117  128  111  113  121  120  133  123  115  115  130  120    0
ch: 124     128  133  118  120  105  118  105  133  118  121  123  112  121  101  117  131  115  113  113  121  119  126  118  118  117  121  115  121  130  133  130    0
ch: 125     140  120  122  118  115  125  120  120  115  126  114  121  131  118  115  126  115  121  108  125  113  114  110  115  121  120  115  117  121  120  119    0
ch: 126     128  130  133  106  121  130  105  110  112  120  118  115  120  121  115  115  115  115  115  115  117  133  115  104  112  133  107  133  128  115  118    0
ch: 127     128  126  126  133  131  123  118  130  115  133  133  130  133  103  117  120  120  135  125  121  127  125  117  119  118  128  117  121  130  131  128    0
