# TRIM CALIBRATION    FEB6_1_1    pulse_ampl_min=10    pulse_ampl_max=220    pulse_ampl_fast=10
#
ch:   0     128  120  106  119  107  135  121  114  115  121  120  115  126  115  101  121  115  119  117  103  113  108  108  121  108  128  120  130  119  119  123    0
ch:   1     128  128  118  116  131  121  111  118  118  121  105  105  115  118  125  119  113  119  121  130  120  118  104  131  108  111  121  121  121  121  133    0
ch:   2     128  118  130  132  117  121  119  121  108  118  115  120  119  114  119  128  108  119  111  119  115  105  118  121  115  121  121  119  121  111  133    0
ch:   3     128  132  122  121  114  130  130  121  115  118  117  123  108  119  108  110  110  115  130  121  112  114  105  120  107  130  114  131  121  133  121    0
ch:   4     128  136  119  119  121  119  115  105  114  115  121  118  118  113  120  121  131  121  114  121  105  115  104  119  121  101  114  115  115  133  121    0
ch:   5     128  122  125  116  114  115  114  115  121  115  115  124  119  118  121  115  127  108  110  105  115  108  124  113  119  112  114  121  115  115  130    0
ch:   6     128  115  114  116  118  119  114  115  113  105  113  119  115  105  104  115  119  112  124  118  121  105  127  121  121  115  131  121  127  123  121    0
ch:   7     128  120  130  112  119  119  118  115  115  112  125  105  113  119  125  113  105  115  121  125  111  121  109  123  119  121  121  115  115  133  130    0
ch:   8     128  128  122  117  114  115  119  115  114  119  115  118  119  105  121  105  117  119  115  105  108  105  117  133  115  105  121  120  121  121  130    0
ch:   9     128  132  127  134  119  119  117  115  115  119  121  115  114  133  115  105  118  115  115  105  119  105  121  118  113  115  118  126  114  121  115    0
ch:  10     128  120  110  120  115  121  131  121  105  118  120  115  123  115  121  128  123  118  105  112  114  118  115  117  113  128  128  123  121  130  121    0
ch:  11     128  130  131  121  111  119  119  105  118  120  115  119  133  115  131  111  115  119  118  121  105  115  121  107  115  127  121  121  110  130  114    0
ch:  12     128  121  122  116  121  123  128  123  115  105  105  109  121  105  109  118  119  119  117  115  108  105  108  115  115  119  113  115  109  120  127    0
ch:  13     128  120  124  108  128  112  113  121  117  111  130  119  112  130  120  118  108  113  115  121  112  117  115  121  119  118  123  114  111  123  124    0
ch:  14     128  122  119  116  118  123  101  120  121  113  133  121  114  119  101  121  113  115  119   99  118  109  115  119  118  118  107  119  121  105  133    0
ch:  15     128  120  118  118  115  115  131  115  115  111  130  110  114  104  118  121  119  118  117  113  133  115  115  121  115  108  131  130  121  126  133    0
ch:  16     128  122  120  114  121  121  114  117  115  128  114  119  115  108  131  120  118  101  105  120  105  107  115  115  121  121  107  117  123  111  128    0
ch:  17     128  118  122  115  121  123  112  120  105  121  114  115  121  117  115  117  115  119  113  115  111  115  123  121  115  113  120  118  120  133  121    0
ch:  18     128  122  116  114  115  130  117  115  119  115  105  115  121  115  115  115  117  121  115  115  108  115  119  121  115  110  117  115  112  120  133    0
ch:  19     128  121  116  130  115  112  119  105  123  120  105  104  130  114  119  120  130  115  123  114  112  119  108  117  112  121  124  121  130  119  115    0
ch:  20     128  120  120  119  118  120  108  115  115  114  110  119  125  118  113  119  119  121  128  104  115  121  119  119  119  115  130  127  123  119  133    0
ch:  21     128  120  116  121  119  119  120  107  115  128  113  115  101  105  119  121  112  112  115  115  117  119  108  113  105  115  121  130  119  119  130    0
ch:  22     128  122  121  129  112  128  118  114  115  123  105  130  105  117  117  114  104  108  130  101  113  103  115  121  115  117  115  119  128  121  119    0
ch:  23     128  120  116  116  113  105  112  121  118  118  121  118  121  115  121  128  114  115  128  115  108  115  121  128  114  118  113  115  121  117  123    0
ch:  24     128  120  122  115  119  121  121  121  115  114  117  123  118  117  115  113  117  119  117  115  115  115  121  126  110  121  115  119  130  121  123    0
ch:  25     128  120  110  118  105  120  121  115  105  108  127  115  115  111  130  119  115  105  119  113  121  121  130  121  113  115  117  123  114  121  133    0
ch:  26     128  130  121  113  115  118  121  112  112  117  115  121  115  105  120  121  133  117  115  119  115  114  115  117  123  120  115  121  128  121  121    0
ch:  27     128  120  120  130  117  123  121  115  108  115  105  121  108  121  115  121  115  117  124  118  105  107  115  115  115  115  121  123  121  111  127    0
ch:  28     128  111  110  123  112  115  121  115  115  131  121  126  115  131  123  119  121  117  115  115  105  119  115  118  112  115  127  115  105  121  119    0
ch:  29     128  120  122  121  115  130  123  107  121  115  121  105  130  121  117  115  119  119  127  114  112  121  121  117  115  115  123  115  118  120  123    0
ch:  30     128  118  111  132  119  123  118  112  119  114  115  128  118  101  105  117  124  113  115  103  115  109  127  108  108  109  121  115  115  133  115    0
ch:  31     128  120  132  121  121  115  117  105  117  130  121  113  118  114  115  108  113  114  113  121  112  105  115  134  114  120  123  121  115  115  121    0
ch:  32     128  121  122  121  121  116  121  123   99  119  118  125  119  121  118  121  115  130  111  123  121  101  115  121  108  114  111  123  115  115  127    0
ch:  33     131  114  116  118  130  133  121  121  130  117  121  114  115  128  115  121  112  121  108  119  132  127  115  115  105  110  114  127  121  121  128    0
ch:  34     128  114  132  128  121  117  110  120  115  115  120  104  121  113  115  105  114  108  121  115  114  115  117  115  121  115  115  130  115  126  124    0
ch:  35     128  120  116  119  115  118  118  113  119  119  117  107  121  114  101  117  117  105  105  115  115  112  115  121  128  130  118  128  121  121  119    0
ch:  36     128  132  122  115  119  115  117  119  120  130  115  121  114  119  115  115  114  105  133  107  112  111  119  119  120  108  124  117  119  119  127    0
ch:  37     128  120  119  121  121  124  101  130  119  121  123  115  114  115  135  114  121  115  121  131  128  117  119  112  119  115  119  115  110  127  130    0
ch:  38     128  120  116  108  123  131  130  118  105  111  133  108  118  119  114  107  119  105  115  121  110  121  121  108  120  131  113  123  120  121  130    0
ch:  39     128  132  119  128  118  119  128  130  110  128  133  133  117  120  121  108  121  118  115  121  118  115  105  114  117  121  114  120  128  133  121    0
ch:  40     128  128  124  110  110  121  108  101  131  119  108  115  114  115  121  117  105  121  130  130  121  130  121  115  114  124  115  117  123  121  121    0
ch:  41     128  132  119  111  121  115  126  121  117  121  115  115  121  121  110  121  118  124  105  108  109  119  133  117  121  108  121  118  121  130  121    0
ch:  42     128  132  124  116  115  115  121  105  100  119  112  121  111  109  105  130  123  101  121  110  108  108  121  109  105  119  111  119  118  119  119    0
ch:  43     128  128  130  121  115  112  121  121  109  121  105  121  119  119  121  113  115  111  114  118  115  130  123  135  115  118  121  121  119  128  119    0
ch:  44     128  133  120  110  115  118  118  121  121  121  118  119  121  110  118  112  115  111  108  121  119  128  119  115  115  119  118  121  133  131  121    0
ch:  45     128  120  125  116  115  117  127  117  108  121  111  128  109  133  118  113  114  124  119  115  115  119  120  119  113  115  133  127  133  123  127    0
ch:  46     128  124  122  119  121  115   98  128  115  103  119  115  115  118  119  119  121  105  105  121  113  118  103  121  115  121  117  107  121  131  119    0
ch:  47     128  120  121  112  115  120  115  121  115  105  126  121  121  115  115  113  113  118  121  130  119  115  115  115  113  115  121  124  121  130  110    0
ch:  48     128  127  119  119  133  121  126  133  115  121  101  121  105  115  105  112  119  105  115  115  121  121  115  119  121  121  115  121  114  121  119    0
ch:  49     128  121  116  132  114  120  112  115  117  121  111  119  121  115  101  120  121  115  119  124  121  113  107  115  121  131  119  115  115  121  124    0
ch:  50     128  121  122  123  131  121  115  133  118  114  105  121  130  115  117  121  117  118  115  115  107  110  105  119  117  119  121  115  133  112  137    0
ch:  51     128  130  116  120  117  121  105  115  105  121  115  119  115  110  119  110  104  114  121  119  115  121  115  121  105  117  114  111  114  113  117    0
ch:  52     128  120  129  124  121  121  114  130  115  119  115  105  105  105  114  115  118  117  117  127  115  115  119  113  115  115  119  119  114  121  119    0
ch:  53     128  120  116  115  128  131  114  118  117  115  121  119  128  119  101  121  115  101  115  123  121  113  115  108  117  117  115  121  114  123  115    0
ch:  54     128  118  118  121  123  121  115  120  121  121  121  121  117  121  121  115  108  115  115  114  121  108  130  111  125  115  130  121  123  127  119    0
ch:  55     128  122  106  118  121  119  109  114  115  115  115  117  115  115  121  115  115  115  101  114  124  121  115  119  113  128  121  130  130  128  129    0
ch:  56     128  132  130  119  114  121  121  115  108  121  119  115  119  121  115  120  121  112  119  109  115  105  115  114  118  117  109  114  117  115  124    0
ch:  57     128  120  122  120  121  117  109  115  120  121  128  118  121  113  118  118  121  118  115  115  115  115  121  130  119  119  121  115  115  130  129    0
ch:  58     128  120  122  114  115  121  123  109  130  121  121  121  115  115  130  105  110  121  130  121  128  115  119  115  110  118  114  124  120  119  119    0
ch:  59     128  120  122  120  121  121  115  121  115  117  110  119  114  118   99  133  110  115  115  112  117  117  117  115  115  119  130  121  115  130  121    0
ch:  60     128  120  130  133  119  115  118  128  115  120  115  119  117  105  118  115  119  130  111  109  115  119  108  121  115  119  115  115  121  130  137    0
ch:  61     128  120  106  121  123  121  114  119  115  119  119  115  121  115  118  115  115  119  114  117  124  119  115  130  115  121  115  118  130  129  133    0
ch:  62     128  120  116  106  115  120  115  119  119  121  123  103  108  118  119  115  115  121  117  120  113  118  115  118  112  119  121  121  121  121  133    0
ch:  63     128  120  116  121  119  119  121  123  120  133  115  115  115  118  118  115  115  119  111  121  115  124  121  111  119  117  105  121  124  137  121    0
ch:  64     131  115  116  116  133  107  121  119  119  117  124  119  115  118  120  114  105  121  115  118  115  126  115  119  127  121  121  120  117  130  119    0
ch:  65     128  120  116  130  119  115  121  112  105  113  119  118  117   97  114  117  111  115  101  121  113  108  119  121  117  121  123  120  121  115  118    0
ch:  66     128  120  122  130  119  118  115  118  128  128  118  121  114  114  115  119  115  118  121  113  117  123  130  115  119  108  117  109  121  137  119    0
ch:  67     128  128  129  126  130  121  119  131  115  131  118  133  115  115  121  123  121  112  119  121  115  115  121  119  115  115  130  121  130  120  135    0
ch:  68     128  120  122  116  115  131  115  115  117  115  115  114  123  115  111  121  120  121  112  115  115  115  107  121  107  114  130  105  117  121  119    0
ch:  69     128  128  122  121  105  133  130  123  119  121  115  118  113  121  117  130  107  126  119  115  119  131  130  112  128  121  118  135  130  133  128    0
ch:  70     128  134  110  121  107  121  119  121  101  123  115  118  117  120  112  118  108  111  110  118  121  114  118  119  121  101  113  115  121  119  115    0
ch:  71     128  120  129  106  130  119  115  115  115  117  118  120  119  121  119  113  115  121  121  126  119  109  117  105  115  114  115  115  127  128  120    0
ch:  72     128  120  116  119  123  121  108  121  115  126  118  119  111  119  121  118  121  121  105  121  110  113  113  107  119  111  108  128  108  137  119    0
ch:  73     128  111  122  129  121  133  118  103  119  113  130  127  119  121  118  130  121  121  115  105  119  117  119  115  123  135  121  121  121  128  117    0
ch:  74     128  120  131  111  117  115  125  131  119  118  115  118  119  117  121  123  117  121  119  115  119  127  121  119  107  115  117  115  137  133  121    0
ch:  75     128  114  115  123  114  121  104  120  120  127  124  131  115  114  125  121  115  115  121  130  127  121  113  119  127  115  118  115  133  133  134    0
ch:  76     128  125  116  128  119  130  121  118  108  121  113  124  118  115  111  110  111  125  130  115  111  121  121  115  115  114  121  115  127  113  119    0
ch:  77     128  114  120  124  121  127  120  118  117  112  117  105  117  119  121  121  115  121  115  119  114  115  105  115  124  119  133  131  133  121  124    0
ch:  78     128  120  127  119  115  110  110  121  121  121  121  128  130  118  114  115  121  124  120  123  127  113  115  130  119  114  111  110  121  124  123    0
ch:  79     128  120  122  114  130  130  119  118  115  121  120  115  130  118  130  119  115  115  113  115  118  114  118  113  121  119  121  133  115  133  121    0
ch:  80     131  132  116  128  130  118  115  114  121  128  121  121  119  115  104  118  125  121  107  111  133  114  105  115  119  118  131  120  115  133  128    0
ch:  81     128  122  122  115  124  120  121  121  130  124  115  121  121  130  117  118  119  117  115  115  119  119  118  119  117  111  115  120  123  128  134    0
ch:  82     128  130  119  116  119  104  105  118  117  115  123  121  115  118  121  129  119  118  107  117  117  121  128  110  108  128  131  118  124  115  119    0
ch:  83     128  120  116  119  128  130  115  115  121  119  121  117  118  105  115  128  119  119  105  115  121  115  121  113  115  119  123  118  118  128  128    0
ch:  84     128  129  124  106  121  115  105  114  112  119  115  115  121  117  119  115  119  115  115  115  121  115  108  115  117  117  118  121  128  133  121    0
ch:  85     128  120  113  121  120  128  115  121  121  121  117  119  121  120  115  115  114  119  115  115  120  119  113  114  110  115  105  124  113  125  121    0
ch:  86     128  128  124  121  118  119  115  117  115  120  107  118  117  107  121  115  119  113  128  121  117  114  115  121  113  115  118  133  117  123  130    0
ch:  87     128  120  136  133  119  119  120  115  121  128  113  115  115  113  118  120  104  108  119  121  115  113  115  115  115  121  117  131  130  133  130    0
ch:  88     128  120  120  121  126  120  118  121  119  121  130  108  115  115  133  118  124  133  111  121  128  121  112  115  120  115  121  119  119  121  119    0
ch:  89     128  120  106  121  125  123  124  130  107  123  105  130  121  119  105  131  115  119  119  125  121  119  118  119  121  121  118  115  130  123  121    0
ch:  90     128  120  125  118  121  119  126  117  133  115  117  121  117  118  121  117  121  107  101  130  112  113  108  117  121  121  121  118  115  133  133    0
ch:  91     128  120  122  130  128  128  125  121  130  121  120  115  115  110  111  115  125  121  115  115  115  115  109  133  121  119  121  115  115  121  121    0
ch:  92     128  120  122  112  115  119  113  121  121  115  117  115  109  115  124  115  107  104  117  115  115  115  119  120  115  115  115  121  125  125  118    0
ch:  93     128  122  124  116  119  123  121  118  115  111  118  119  114  119  115  121  113  125  113  131  128  115  113  112  121  115  121  123  133  120  133    0
ch:  94     128  120  118  132  113  119  115  118  107  121  105  115  107  115  115  105  115  119  121  117  124  127  115  117  105  113  113  118  121  120  121    0
ch:  95     128  120  119  112  105  130  127  121  119  123  118  119  115  125  115  134  113  107  114  123  108  121  105  121  134  120  115  121  121  119  119    0
ch:  96     128  120  116  115  128  120  110  119  118  115  119  111  121  119  115  123  115  115  124  130  117  114  109  119  124  115  115  119  121  121  121    0
ch:  97     128  111  115  124  118  126  121  108  121  117  127  133  121  124  115  128  121  108  112  109  115  105  120  121  110  125  119  128  113  133  127    0
ch:  98     128  120  119  116  113  127  114  126  118  131  121  118  130  115  117  123  121  108  121  108  113  115  121  101  113  123  114  121  133  124  121    0
ch:  99     128  120  120  116  119  119  115  118  121  118  121  115  119  121  115  130  119  119  118  105  108  121  126  121  121  121  124  107  121  121  131    0
ch: 100     128  128  122  110  120  119  125  130  115  130  110  109  121  115  120  111  121  130  115  124  130  127  115  127  130  130  128  119  119  121  133    0
ch: 101     128  120  122  135  125  121  119  121  120  121  115  119  114  113  121  117  121  115  130  119  118  121  115  111  117  117  119  121  130  124  118    0
ch: 102     140  124  113  116  115  126  112  101  105  130  121  105  115  117  133  104  127  113  130  110  119  115  118  119  118  115  120  108  130  125  119    0
ch: 103     128  120  119  120  121  121  115  119  110  127  113  118  121  113  121  115  114  113  105  114  121  114  111  130  117  108  119  130  118  121  115    0
ch: 104     128  120  119  130  133  113  131  109  119  120  118  123  111  127  119  118  114  115  121  121  130  117  108  121  120  120  128  114  128  115  121    0
ch: 105     128  124  124  121  112  120  110  115  119  121  115  115  117  114  115  118  119  127  127  128  111  115  131  121  117  121  121  121  133  133  133    0
ch: 106     128  132  122  121  115  118  115  121  118  117  117  121  113  115  118  115  115  133  112  130  127  117  108  133  115  108  121  121  119  124  119    0
ch: 107     128  128  114  121  121  121  115  121  105  133  121  113  115  121  121  119  112  119  101  119  105  123  121  114  121  109  119  118  128  127  121    0
ch: 108     128  129  106  113  120  123  115  119   99  112  121  121  121  124  115  115  111  119  118  121  121  121  105  127  115  115  114  123  117  118  130    0
ch: 109     128  128  132  121  118  121  115  121  120  123  118  120  115  115  117  121  108  108  113  110  105  115  121  119  125  112  119  120  121  137  137    0
ch: 110     128  117  136  112  126  121  108  128  117  118  114  134  121  101  107  121  120  113  121  121  127  108  105  105  115  123  120  119  115  127  115    0
ch: 111     128  120  116  119  115  121  121  121  121  121  115  115  115  105  114  112  119  117  130  119  121  115  110  112  118  118  130  123  115  130  130    0
ch: 112     128  120  116  116  118  121  118  120  114  118  121  113  119  113  130  115  121  105  117  123  108  119  118  117  115  130  109  119  121  124  119    0
ch: 113     128  120  130  121  111  113  115  119  133  130  124  125  115  114  121  119  110  119  105  105  119  115  113  119  115  121  121  113  124  117  123    0
ch: 114     128  124  119  106  121  115  105  107  117  113  133  121  118  118  118  115  105  105  121  127  107  114  121  115  121  114  119  121  128  121  125    0
ch: 115     128  122  121  106  139  115  121  110  125  120  115  119  115  123  115  133  119  104  124  114  114  131  121  115  109  115  121  124  125  130  119    0
ch: 116     128  120  118  121  115  120  121  111  124  133  128  105  130  117  128  117  105  119  105  115  130  119  115  121  117  131  121  119  119  133  121    0
ch: 117     128  133  122  116  108  109  127  130  118  110  121  115  115  125  119  113  117  131  114  121  133  111  115  120  130  115  105  128  111  119  123    0
ch: 118     128  120  116  131  121  113  115  115  125  114  111  115  119  114  117  115  121  121  112  105  114  109  107  117  115  118  115  119  121  130  125    0
ch: 119     128  120  126  115  119  133  133  128  117  120  115  134  121  112  115  115  119  121  120  115  104  115  117  118  123  119  114  128  128  130  130    0
ch: 120     128  120  120  121  115  115  121  118  119  118  133  101  111  125  110  121  105  120  113  121  101  117  105  115  113  118  115  110  115  113  130    0
ch: 121     128  122  118  121  117  127  114  114  112  121  115  137  128  115  120  115  118  115  130  119  114  118  119  123  115  121  121  118  119  137  118    0
ch: 122     135  111  122  124  128  121  121  115  115  114  105  128  121  119  133  123  115  117  120  120  101  119  114  118  118  123  115  108  121  115  117    0
ch: 123     128  128  120  131  123  121  114  133  105  121  118  125  117  117  110  123  132  121  121  111  119  107  121  110  115  121  109  119  130  119  118    0
ch: 124     128  122  125  111  115  119  133  127  121  123  119  133  128  113  121  121  108  109  117  130  111  118  118  130  119  117  119  119  124  121  118    0
ch: 125     128  122  130  124  120  119  114  121  114  121  130  113  113  115  123  115  117  105  124  108  109  119  117  130  115  121  113  133  127  119  134    0
ch: 126     128  130  122  118  115  121  121  118  108  125  123  115  121  117  130  121  119  115  115  114  118  113  123  119  107  118  121  123  115  108  121    0
ch: 127     131  132  122  126  115  115  113  115  119  117  118  115  128  115  119  126  119  117  120  124  133  128  115  121  131  115  115  119  115  139  121    0
