# TRIM CALIBRATION    FEB6_2_0    pulse_ampl_min=10    pulse_ampl_max=220    pulse_ampl_fast=10
#
ch:   0     128  120  117  115  133  131  133  120  130  130  133  130  113  130  121  133  128  127  123  121  131  123  124  120  128  127  119  123  138  133  135    0
ch:   1     128  134  122  116  118  123  128  127  124  121  123  121  130  127  125  128  123  123  130  121  114  103  133  125  128  125  131  138  138  128  133    0
ch:   2     128  122  122  121  128  121  119  106  127  123  121  123  118  120  118  133  118  118  121  125  121  121  116  131  118  127  128  124  147  137  135    0
ch:   3     128  120  136  123  133  124  108  127  123  123  123  121  128  120  127  118  133  120  128  124  127  121  118  131  131  126  127  133  131  134  137    0
ch:   4     128  120  122  123  117  126  121  121  133  121  123  127  131  134  120  137  133  131  133  124  134  128  120  123  123  121  128  128  123  133  135    0
ch:   5     128  125  121  121  120  118  127  121  130  127  139  120  125  129  130  121  125  121  117  121  124  128  131  130  133  121  125  126  137  123  128    0
ch:   6     128  120  129  116  129  105  120  130  108  121  123  118  125  114  121  119  119  133  118  123  130  123  125  128  118  121  123  127  134  128  123    0
ch:   7     128  120  131  119  120  119  115  130  123  114  121  137  130  128  130  131  129  121  124  121  114  121  120  123  117  128  131  118  135  123  125    0
ch:   8     138  120  125  123  121  119  133  121  120  118  121  105  121  127  130  125  133  128  128  128  128  121  120  123  133  121  128  120  133  119  149    0
ch:   9     128  120  122  120  125  120  131  125  121  131  125  120  117  130  118  125  115  125  128  125  131  124  115  128  125  121  124  130  125  133  131    0
ch:  10     128  136  128  121  121  123  124  118  108  133  125  125  105  115  121  124  127  120  133  120  116  118  114  119  130  125  130  131  128  134  127    0
ch:  11     140  124  116  132  121  118  121  130  119  129  121  120  113  118  121  133  135  118  128  118  119  133  121  133  125  131  125  134  137  147  133    0
ch:  12     128  128  124  130  123  118  128  133  118  131  114  134  120  128  133  123  127  128  128  121  121  131  131  117  123  121  135  131  133  127  130    0
ch:  13     128  126  131  130  131  133  125  119  123  131  115  115  125  130  106  137  117  127  118  127  127  133  127  127  128  133  130  123  131  125  135    0
ch:  14     128  126  119  128  120  133  124  112  124  116  115  125  125  117  117  125  114  121  117  114  118  130  133  115  121  123  133  115  130  137  128    0
ch:  15     128  120  126  116  128  128  113  133  125  104  131  117  133  129  125  123  119  133  131  123  129  121  115  131  129  127  133  133  139  123  125    0
ch:  16     128  131  124  115  117  117  129  127  123  120  129  130  118  114  118  125  130  120  123  139  118  134  119  130  135  123  121  129  134  130  139    0
ch:  17     128  123  116  119  131  119  121  121  113  119  130  121  121  130  133  120  118  124  134  124  115  130  133  133  135  135  115  131  130  128  133    0
ch:  18     128  120  120  102  123  124  127  123  127  121  133  121  123  128  128  120  125  121  117  118  119  114  120  123  127  123  123  128  124  130  129    0
ch:  19     128  128  122  121  128  128  119  121  120  117  125  124  121  133  123  124  121  133  131  121  129  124  137  133  118  124  128  133  130  135  133    0
ch:  20     132  120  122  130  117  129  133  121  131  121  121  128  133  121  130  130  121  121  120  134  128  128  133  125  131  124  125  121  148  148  123    0
ch:  21     128  132  131  123  137  130  117  120  130  121  123  124  116  115  121  127  125  116  123  130  120  118  120  125  135  124  121  131  133  128  129    0
ch:  22     128  120  128  123  123  130  123  120  130  128  123  127  118  137  127  130  123  117  121  123  114  130  133  118  120  121  128  124  121  127  127    0
ch:  23     128  132  121  115  119  121  130  123  121  117  115  121  128  133  121  114  121  128  121  128  133  121  128  120  121  133  135  133  137  124  121    0
ch:  24     128  128  130  121  128  118  133  133  117  128  124  133  123  130  114  137  127  119  123  127  121  121  127  127  130  124  130  133  130  137  131    0
ch:  25     128  120  128  119  127  127  114  124  135  120  123  127  130  121  118  123  121  119  127  127  133  121  123  137  137  121  125  128  128  131  121    0
ch:  26     128  132  125  119  114  128  119  123  120  128  130  128  127  117  124  124  118  117  119  121  103  116  130  124  121  128  118  133  121  133  127    0
ch:  27     128  120  125  123  121  130  123  131  118  121  130  124  121  131  127  130  133  131  124  121  119  114  121  125  123  125  124  137  128  133  131    0
ch:  28     128  120  134  117  129  123  130  131  130  119  124  118  121  130  130  128  120  118  128  129  121  126  115  133  133  133  118  133  123  133  131    0
ch:  29     128  130  120  125  119  128  123  125  127  133  123  128  126  131  130  133  127  121  124  123  120  130  127  133  130  124  123  121  128  130  123    0
ch:  30     128  120  122  119  123  129  130  128  120  123  103  124  125  124  129  128  124  121  119  131  121  118  130  120  133  127  128  124  130  123  125    0
ch:  31     128  120  126  130  128  106  121  125  128  117  105  115  117  121  134  133  135  119  131  123  128  105  119  137  121  128  131  131  134  131  132    0
ch:  32     128  138  119  132  121  121  130  121  131  133  133  121  124  121  118  125  119  129  116  121  127  130  130  118  135  128  124  123  121  131  123    0
ch:  33     128  120  116  121  117  128  128  115  127  118  131  119  127  128  121  123  121  120  133  118  128  116  123  121  135  130  130  135  125  147  131    0
ch:  34     128  122  130  123  119  128  129  123  121  127  131  115  130  121  117  137  119  129  115  114  127  135  121  123  130  114  121  118  119  133  121    0
ch:  35     128  120  131  130  123  121  128  130  119  118  123  126  137  120  118  115  116  128  133  133  124  127  130  127  124  131  137  130  129  130  133    0
ch:  36     128  125  119  123  127  131  124  119  119  129  131  127  126  131  131  124  128  121  127  125  121  119  128  121  133  131  128  134  133  131  133    0
ch:  37     128  128  122  121  128  129  117  125  131  121  131  113  121  127  121  120  133  123  124  125  133  121  121  121  127  127  127  130  137  124  141    0
ch:  38     131  137  120  123  130  131  121  118  119  117  118  118  118  125  127  127  127  118  121  133  121  125  127  123  130  121  121  127  130  115  139    0
ch:  39     128  127  130  121  131  129  121  137  118  147  131  123  130  120  121  127  124  117  125  128  131  119  121  128  125  125  113  121  124  123  130    0
ch:  40     128  120  117  133  119  123  131  133  119  128  120  128  120  121  123  127  131  118  128  146  120  121  128  123  119  120  133  115  146  137  135    0
ch:  41     128  131  126  132  127  131  137  120  120  123  123  114  124  121  131  121  128  117  123  123  131  121  121  130  131  121  127  123  135  121  133    0
ch:  42     128  128  106  124  105  119  130  118  119  133  133  119  120  119  125  121  125  128  119  124  125  121  121  121  119  125  124  138  130  130  133    0
ch:  43     128  120  118  131  130  121  123  127  129  121  119  118  118  123  133  127  127  124  131  131  121  123  133  133  130  121  124  133  133  120  130    0
ch:  44     128  130  125  125  118  118  137  121  121  120  119  131  123  124  123  124  128  123  127  128  121  121  133  128  133  127  124  133  137  128  131    0
ch:  45     128  120  128  124  115  124  131  128  130  119  129  125  131  123  127  124  125  123  125  120  115  121  135  115  133  133  137  114  130  127  134    0
ch:  46     128  120  102  113  133  129  121  125  124  123  131  130  120  124  125  121  130  127  130  134  129  125  128  131  129  125  125  127  128  125  133    0
ch:  47     128  132  119  137  131  129  147  121  125  133  121  131  118  123  133  123  123  124  105  131  133  128  123  128  118  133  131  128  137  133  147    0
ch:  48     128  131  124  123  130  121  130  128  133  124  121  130  117  121  133  128  124  129  129  127  130  114  131  130  129  129  125  137  147  130  137    0
ch:  49     153  120  125  121  130  127  124  129  112  119  130  123  133  118  121  131  130  116  135  128  133  121  125  124  131  133  139  128  131  131  127    0
ch:  50     128  131  125  121  133  118  118  130  118  115  120  137  121  114  128  124  116  131  128  130  128  119  133  130  134  121  130  121  121  133  128    0
ch:  51     128  120  128  130  121  130  123  123  121  135  123  125  127  130  121  130  117  119  121  127  119  120  129  129  121  123  125  134  128  133  133    0
ch:  52     128  132  122  134  123  124  127  130  119  117  123  121  129  121  121  121  130  128  133  130  133  131  130  123  127  133  130  137  134  128  123    0
ch:  53     128  120  129  130  128  117  133  117  121  127  127  112  121  127  124  133  118  119  129  128  133  123  125  115  133  125  130  133  125  133  130    0
ch:  54     128  128  122  120  133  133  105  124  133  120  114  117  118  128  124  131  127  120  123  121  130  128  115  124  133  137  130  121  137  131  121    0
ch:  55     128  130  122  117  123  128  118  133  128  137  129  127  133  134  125  128  124  123  124  120  121  133  119  124  121  125  137  130  131  130  133    0
ch:  56     128  120  130  114  117  121  116  124  130  126  133  130  121  123  133  121  130  140  119  127  117  128  128  137  125  134  131  123  125  133  130    0
ch:  57     128  129  122  117  120  123  130  127  125  118  123  121  121  131  115  123  124  131  121  121  125  139  121  130  139  130  123  118  130  130  127    0
ch:  58     131  130  120  127  118  121  131  123  120  133  114  123  133  113  121  130  127  130  128  130  121  118  121  124  130  135  119  133  134  129  137    0
ch:  59     128  120  118  116  130  121  120  131  120  112  127  123  135  127  123  133  117  130  137  137  130  131  121  125  119  121  133  123  119  128  125    0
ch:  60     128  120  124  120  133  118  128  123  119  128  123  133  125  131  129  133  128  124  124  120  125  118  123  131  127  121  118  133  127  137  130    0
ch:  61     128  120  122  120  131  133  127  121  131  125  125  121  121  121  128  130  125  125  133  130  118  118  121  127  133  134  131  133  130  133  137    0
ch:  62     128  130  136  130  120  123  130  131  121  133  119  121  108  131  127  121  130  131  117  130  118  125  118  119  131  128  125  114  133  128  137    0
ch:  63     128  128  118  135  124  130  124  123  124  121  131  121  117  124  121  131  120  128  125  121  124  130  137  128  118  124  131  133  130  134  133    0
ch:  64     128  131  120  132  118  130  133  131  123  121  133  123  127  133  121  130  118  131  128  119  121  126  133  119  130  121  123  133  121  137  133    0
ch:  65     133  128  134  127  134  120  118  116  121  129  134  127  124  120  123  130  135  134  123  121  121  119  117  121  121  125  130  137  133  124  146    0
ch:  66     128  128  119  132  130  123  131  130  119  131  115  127  130  119  133  130  121  131  130  133  137  130  123  121  121  121  130  120  127  124  135    0
ch:  67     128  129  122  119  125  124  131  124  131  131  121  119  119  123  133  131  124  124  130  133  123  134  117  118  129  129  116  133  133  137  133    0
ch:  68     128  120  122  130  133  130  121  124  135  127  133  133  121  129  131  127  130  133  127  131  121  125  121  130  127  133  118  134  130  130  130    0
ch:  69     128  128  122  126  124  133  120  130  120  134  119  133  121  128  133  118  137  121  124  129  131  120  129  131  120  124  124  127  130  137  133    0
ch:  70     128  120  119  121  125  130  133  121  123  119  117  130  127  121  127  120  128  123  137  121  131  121  128  121  123  137  120  130  133  137  137    0
ch:  71     128  128  117  135  130  118  120  128  129  137  131  129  127  128  119  125  133  121  113  131  125  115  118  119  127  125  123  130  128  137  138    0
ch:  72     138  120  131  127  133  121  119  130  119  129  133  118  121  118  137  130  128  121  133  117  117  114  120  131  130  130  129  128  127  131  135    0
ch:  73     128  136  120  121  134  121  118  130  130  121  126  128  119  119  126  131  133  133  135  121  138  125  125  134  121  130  121  133  128  133  131    0
ch:  74     128  128  121  130  127  130  133  119  124  137  121  129  115  119  130  127  133  128  134  130  129  127  117  121  123  118  127  119  133  135  133    0
ch:  75     128  120  124  132  128  119  118  124  133  120  120  134  130  120  123  133  121  117  133  137  130  130  130  123  117  121  117  120  130  131  130    0
ch:  76     128  120  119  133  131  127  125  123  137  118  117  133  119  123  128  125  120  128  121  125  133  131  121  133  125  120  134  129  135  129  137    0
ch:  77     131  120  122  127  135  134  129  123  124  123  125  131  128  130  125  118  123  125  128  121  123  121  131  121  133  121  124  119  131  125  133    0
ch:  78     128  120  122  126  130  117  130  124  133  126  123  129  117  131  130  119  133  123  131  117  133  119  115  127  119  130  124  124  133  146  134    0
ch:  79     128  120  115  127  128  121  133  130  128  128  121  134  117  121  129  125  127  137  124  127  133  121  128  112  128  119  135  133  133  134  133    0
ch:  80     128  120  127  117  119  123  124  133  128  128  131  130  133  125  128  124  130  128  134  130  131  124  119  123  130  123  130  128  130  137  133    0
ch:  81     128  123  125  128  123  124  120  125  131  121  127  114  124  121  128  130  127  127  123  124  118  129  133  128  130  121  133  121  134  134  134    0
ch:  82     128  131  125  121  138  123  116  130  121  120  130  128  130  130  121  127  121  120  127  121  130  125  123  134  131  123  133  121  125  130  133    0
ch:  83     128  115  116  127  121  134  129  130  128  129  125  123  125  133  131  125  123  127  125  124  137  125  115  128  125  127  125  133  140  137  137    0
ch:  84     128  120  106  127  133  137  118  118  123  127  137  130  133  118  137  131  131  127  137  125  124  123  133  123  128  130  137  133  134  133  121    0
ch:  85     128  126  122  117  120  130  133  130  128  119  121  121  127  125  133  137  121  119  130  124  118  119  127  130  130  133  125  129  137  135  128    0
ch:  86     128  129  124  117  130  114  133  130  131  128  129  128  124  131  130  116  127  121  133  131  119  130  120  105  120  130  123  127  135  127  133    0
ch:  87     128  120  126  128  125  130  127  123  133  125  131  129  121  121  127  117  125  125  137  133  115  133  124  124  130  123  134  124  130  128  130    0
ch:  88     128  128  122  121  125  129  130  123  140  123  123  121  127  135  133  127  116  121  128  130  125  131  127  133  127  130  129  121  123  135  137    0
ch:  89     140  131  124  119  118  127  137  121  117  118  121  112  119  130  133  129  137  127  121  118  105  137  130  134  127  118  125  124  123  133  130    0
ch:  90     128  128  128  123  129  120  120  127  123  127  118  121  125  130  133  135  128  128  113  121  119  115  115  119  134  130  121  130  130  133  130    0
ch:  91     128  120  125  137  131  131  128  126  128  128  116  124  130  130  133  118  128  130  123  116  121  133  121  121  131  119  133  128  133  137  133    0
ch:  92     128  131  121  121  124  137  125  123  117  130  127  125  118  119  133  130  131  125  128  124  121  128  131  137  119  130  124  138  130  137  131    0
ch:  93     138  120  133  106  116  124  130  130  121  134  124  133  123  128  131  114  119  121  124  120  124  126  114  130  131  128  125  135  124  131  137    0
ch:  94     128  126  118  115  117  127  129  119  127  118  124  118  129  130  123  133  127  133  123  127  133  130  121  121  124  124  125  127  130  125  137    0
ch:  95     131  128  127  121  127  114  118  128  119  109  133  131  134  101  135  133  130  130  133  121  114  117  124  134  133  130  131  148  137  130  125    0
ch:  96     128  120  128  132  123  133  101  134  127  133  130  127  118  130  130  129  119  128  123  124  130  133  130  135  129  130  133  134  124  128  137    0
ch:  97     140  128  134  125  131  129  127  118  130  133  133  131  124  114  121  124  133  129  124  129  124  119  125  120  121  131  133  121  133  127  138    0
ch:  98     136  133  117  121  127  130  119  128  138  127  121  124  119  127  121  117  127  121  130  127  121  121  121  133  133  133  117  130  130  117  133    0
ch:  99     128  119  133  121  123  121  128  121  115  133  128  120  127  118  121  124  146  113  127  124  124  121  129  128  138  129  133  128  124  130  131    0
ch: 100     128  122  130  119  125  127  135  116  127  127  128  128  124  129  133  140  121  121  127  127  134  119  128  123  130  127  130  130  134  130  125    0
ch: 101     140  120  121  128  123  118  133  124  130  117  121  127  119  140  129  129  108  131  120  135  116  133  115  133  119  137  121  130  135  133  123    0
ch: 102     128  120  119  137  128  124  133  118  121  118  121  121  125  123  130  129  121  130  123  123  121  118  116  137  120  127  130  120  124  133  137    0
ch: 103     128  131  126  127  127  128  135  120  131  128  133  121  133  137  121  133  127  133  119  105  125  117  121  137  133  121  128  128  133  135  139    0
ch: 104     128  120  115  132  121  138  129  121  125  121  131  123  125  131  129  127  115  133  128  134  133  133  130  121  121  129  133  131  131  133  125    0
ch: 105     128  138  133  121  127  123  123  128  121  118  128  123  118  128  123  121  118  128  133  127  123  133  124  131  131  128  124  127  120  130  138    0
ch: 106     128  120  122  134  130  129  131  120  120  117  130  124  121  120  133  123  124  123  128  130  125  133  130  124  133  133  119  131  121  137  130    0
ch: 107     128  123  133  132  118  115  121  125  124  128  128  123  125  119  120  119  134  128  127  133  130  117  130  130  130  133  138  127  127  133  149    0
ch: 108     131  120  126  117  123  128  128  124  121  124  134  129  133  128  134  138  118  127  135  121  121  134  128  135  131  133  131  128  133  129  138    0
ch: 109     128  128  130  121  120  127  131  128  120  133  121  127  128  137  130  124  137  125  134  127  127  128  123  124  119  131  127  121  133  137  139    0
ch: 110     128  134  130  118  129  130  124  127  112  121  121  127  123  125  130  128  121  119  123  121  128  123  118  135  125  123  121  128  135  138  150    0
ch: 111     128  120  129  114  121  135  118  129  130  130  131  133  123  139  120  128  130  123  134  119  135  133  130  117  133  139  133  134  137  131  135    0
ch: 112     128  122  125  116  119  130  126  125  133  131  119  130  130  130  117  125  133  128  121  130  135  123  135  121  131  121  127  133  127  125  149    0
ch: 113     140  130  130  121  124  115  130  134  125  121  127  131  119  121  131  123  114  119  133  138  137  123  133  134  133  128  133  130  131  147  133    0
ch: 114     128  128  125  130  127  134  133  127  121  119  130  128  129  125  125  121  125  121  124  131  130  131  131  138  130  130  115  130  131  133  133    0
ch: 115     128  134  113  133  121  133  124  114  123  127  148  119  129  131  133  125  131  120  124  123  115  116  133  133  133  127  123  130  137  123  138    0
ch: 116     131  120  137  130  127  130  118  118  121  131  126  124  127  133  127  127  130  134  131  123  127  127  130  131  130  121  133  133  133  140  152    0
ch: 117     128  129  115  127  127  120  133  127  120  121  124  131  117  127  128  130  121  127  124  148  135  128  121  131  121  137  134  131  133  137  131    0
ch: 118     128  120  122  119  123  129  123  127  121  127  131  131  117  130  123  130  130  128  117  121  131  127  137  137  125  125  135  127  133  149  127    0
ch: 119     128  128  133  127  128  125  124  130  123  121  125  131  131  121  121  128  123  125  121  123  125  125  137  137  129  128  131  133  134  133  121    0
ch: 120     128  128  127  124  121  123  117  116  137  138  130  126  121  133  126  117  121  117  124  130  134  131  115  138  121  137  127  128  132  133  134    0
ch: 121     128  120  124  128  120  126  121  123  121  123  116  126  130  130  128  126  130  133  121  121  123  133  130  130  125  130  133  123  130  135  128    0
ch: 122     128  132  137  123  114  117  133  121  125  121  123  124  121  123  118  127  115  134  118  114  133  119  133  125  130  139  133  125  131  135  133    0
ch: 123     128  131  131  129  127  121  124  124  121  121  131  133  125  129  135  130  130  124  129  130  130  134  137  131  123  133  133  121  134  130  137    0
ch: 124     128  120  133  130  131  125  128  131  101  117  127  119  127  121  118  130  128  137  131  131  130  130  133  129  131  130  131  139  134  135  130    0
ch: 125     128  127  122  130  114  125  133  125  118  123  123  130  120  131  120  127  117  125  135  137  133  121  119  123  134  130  133  130  133  133  137    0
ch: 126     131  120  128  127  128  125  129  121  121  133  117  118  124  119  133  135  123  125  133  120  121  133  127  130  123  124  129  123  137  119  121    0
ch: 127     128  131  119  115  135  130  130  123  123  121  133  119  129  129  133  119  121  131  130  131  130  124  121  130  124  135  135  134  137  137  138    0
