# TRIM CALIBRATION    FEB6_2_1    pulse_ampl_min=10    pulse_ampl_max=220    pulse_ampl_fast=10
#
ch:   0     128  120  122  133  123  131  123  118  121  129  130  124  124  135  131  137  137  120  128  123  133  134  123  137  130  133  134  137  147  140  137    0
ch:   1     128  120  117  121  125  121  127  116  133  130  133  125  124  118  124  133  127  130  139  134  130  133  128  124  137  140  133  138  147  155  139    0
ch:   2     128  126  125  125  119  113  133  137  127  128  125  128  121  121  137  130  124  147  147  147  130  133  137  127  133  137  128  133  133  139  135    0
ch:   3     128  120  137  125  119  125  123  120  121  131  120  121  118  131  133  133  133  130  139  134  129  134  129  137  139  145  150  148  148  147  147    0
ch:   4     128  120  119  119  121  131  121  128  130  131  126  121  125  131  137  137  133  121  133  133  137  147  137  150  137  137  137  151  139  139  145    0
ch:   5     128  123  121  121  121  118  133  120  121  127  129  125  128  129  131  131  139  124  140  137  128  139  133  147  147  140  149  151  139  154  137    0
ch:   6     128  120  121  116  117  135  118  121  121  131  127  129  119  133  137  130  130  123  134  139  123  137  135  133  137  131  133  137  138  138  154    0
ch:   7     128  129  126  121  125  125  131  120  128  133  125  133  133  121  130  125  134  130  131  137  130  137  125  135  146  147  139  137  154  147  149    0
ch:   8     128  123  119  118  128  138  124  115  130  133  124  128  127  133  138  133  124  135  152  125  123  133  138  147  139  135  134  137  137  135  148    0
ch:   9     128  120  120  121  131  123  124  118  125  131  130  131  125  137  134  130  133  119  137  137  123  142  138  128  147  133  131  133  139  139  138    0
ch:  10     128  120  108  127  124  121  118  121  130  128  128  127  127  124  133  120  128  131  131  123  121  139  133  145  134  137  133  139  137  153  154    0
ch:  11     128  120  116  125  123  125  124  120  121  125  125  125  121  133  133  130  128  133  137  137  137  137  133  147  148  152  150  147  148  145  163    0
ch:  12     128  120  130  118  129  123  133  130  121  137  125  146  124  125  133  119  135  139  124  133  130  125  152  137  133  131  137  138  147  153  138    0
ch:  13     128  120  124  128  131  120  125  124  123  137  130  130  137  131  124  125  129  130  140  115  121  138  129  147  147  149  133  135  147  150  133    0
ch:  14     128  131  122  118  115  125  124  121  131  123  120  131  121  130  127  137  123  133  133  121  140  130  129  135  134  130  135  137  140  140  146    0
ch:  15     128  122  122  120  120  123  130  123  121  130  123  133  137  123  129  137  133  128  121  118  138  141  127  138  130  138  147  149  138  147  147    0
ch:  16     128  120  127  128  127  127  124  124  128  121  128  121  131  130  121  125  124  130  135  135  133  133  135  139  137  147  133  137  137  139  145    0
ch:  17     128  120  132  120  115  131  128  128  120  125  137  131  138  128  124  121  138  121  133  139  130  133  135  134  154  152  140  147  149  147  147    0
ch:  18     128  120  121  124  128  135  130  124  121  124  123  121  138  130  124  128  121  128  131  131  140  131  130  134  135  121  130  138  152  147  133    0
ch:  19     128  120  125  115  120  121  121  115  115  125  121  133  133  133  134  119  144  127  141  135  138  137  134  147  130  137  140  137  147  139  154    0
ch:  20     128  131  122  125  131  129  127  118  124  130  121  131  121  121  133  134  121  130  125  124  133  135  135  134  133  131  139  155  151  134  151    0
ch:  21     128  132  117  121  135  133  130  133  128  130  123  134  135  123  126  128  131  123  137  134  135  133  137  138  147  133  131  147  139  153  141    0
ch:  22     128  128  128  128  128  128  128  128  128  128  128  128  128  128  128  128  128  128  128  128  128  128  128  128  128  128  128  128  128  128  128    0
ch:  23     128  128  125  119  121  133  131  123  128  133  128  133  138  124  133  129  133  124  135  135  137  147  135  139  139  150  134  137  146  147  154    0
ch:  24     128  120  126  118  134  135  121  138  124  127  130  131  139  130  124  127  137  123  137  133  147  137  143  156  130  133  137  152  147  139  138    0
ch:  25     128  120  122  125  115  124  119  131  123  133  137  128  123  133  128  130  131  131  128  130  133  133  137  149  139  134  139  137  147  156  147    0
ch:  26     128  128  122  121  131  115  129  118  121  115  130  128  137  121  127  121  131  131  130  134  133  137  123  133  131  131  133  139  147  145  150    0
ch:  27     131  123  116  118  121  127  121  130  124  127  134  129  133  128  117  133  130  121  130  139  133  133  137  134  140  133  147  137  140  147  154    0
ch:  28     128  120  122  125  121  120  123  121  118  128  133  133  130  131  133  125  125  137  137  129  147  140  147  130  133  147  140  140  133  147  161    0
ch:  29     131  120  121  123  127  121  130  130  135  128  129  124  133  120  128  130  130  137  133  141  129  130  127  131  137  138  146  139  137  147  148    0
ch:  30     128  120  116  130  123  135  121  119  120  124  121  135  121  124  131  133  137  125  128  133  130  138  133  139  128  133  125  135  137  147  141    0
ch:  31     128  120  119  115  130  127  137  128  121  125  130  138  121  125  131  130  127  133  134  127  137  137  139  131  152  152  138  146  135  148  147    0
ch:  32     128  120  121  118  119  131  137  115  121  128  128  129  125  128  129  134  130  135  133  125  121  134  134  130  133  130  143  134  152  147  163    0
ch:  33     128  136  122  123  127  115  124  128  123  134  118  131  131  128  131  134  131  131  134  146  134  134  133  147  133  139  152  152  147  140  152    0
ch:  34     128  132  128  128  123  117  125  128  130  133  131  128  121  117  137  130  130  131  131  120  130  124  130  133  137  138  133  137  137  128  137    0
ch:  35     128  120  128  130  133  115  133  125  134  131  127  123  121  131  128  131  127  121  149  137  137  131  130  147  135  137  137  153  137  157  148    0
ch:  36     128  131  119  121  121  121  121  123  131  131  127  133  135  128  127  147  137  130  133  131  124  137  130  134  135  135  148  140  137  156  152    0
ch:  37     128  128  129  130  121  127  125  105  137  127  127  128  130  121  124  133  141  131  131  131  139  135  138  139  137  138  149  139  152  149  148    0
ch:  38     128  129  129  137  117  123  123  119  124  124  127  125  124  137  131  133  133  135  124  121  135  133  130  130  130  137  134  137  147  138  138    0
ch:  39     128  129  118  119  115  121  119  121  130  131  130  137  137  127  130  127  130  125  133  133  133  134  135  133  152  139  134  141  147  155  140    0
ch:  40     128  120  111  119  121  121  121  128  133  130  121  120  131  130  130  133  130  129  129  130  129  134  142  139  130  139  137  148  148  152  153    0
ch:  41     128  123  117  128  133  133  137  128  130  118  121  133  127  134  133  133  146  123  133  125  130  135  140  131  147  137  146  139  139  137  137    0
ch:  42     128  120  125  135  123  124  124  128  131  127  121  124  130  134  131  125  133  134  137  133  125  128  138  127  131  137  137  138  140  152  150    0
ch:  43     128  123  116  120  125  129  115  119  125  130  137  121  137  135  141  123  147  124  125  133  140  137  133  138  143  133  146  137  147  143  152    0
ch:  44     128  136  122  120  133  125  121  130  127  138  128  124  125  130  137  134  137  140  133  127  134  137  134  131  147  146  156  138  137  156  139    0
ch:  45     128  128  122  119  114  121  134  127  123  115  127  138  130  133  128  129  147  130  121  134  133  147  137  147  130  137  133  139  153  139  146    0
ch:  46     128  130  128  121  121  123  131  129  117  114  137  127  131  121  133  129  128  128  131  130  133  133  138  130  133  134  152  138  149  152  146    0
ch:  47     128  127  122  125  125  125  127  127  131  123  125  133  125  131  140  137  133  127  133  119  133  129  133  138  147  140  140  151  147  152  147    0
ch:  48     128  120  122  119  120  121  125  121  123  127  120  129  133  137  137  137  130  133  128  135  138  130  134  133  135  133  133  148  148  147  147    0
ch:  49     128  120  128  123  124  127  133  121  135  125  130  129  123  137  130  137  134  130  130  135  133  137  137  139  127  135  147  155  147  152  164    0
ch:  50     131  128  121  132  121  131  128  127  124  120  127  127  124  131  124  133  131  125  133  133  133  137  133  133  134  150  149  133  137  139  147    0
ch:  51     128  120  126  125  123  124  121  120  119  138  133  127  127  137  129  133  133  127  128  131  137  137  133  147  131  131  149  135  137  151  154    0
ch:  52     128  120  133  118  121  121  121  135  130  132  121  129  131  130  131  137  133  133  134  137  135  137  133  147  133  147  133  148  147  152  139    0
ch:  53     128  130  122  124  128  115  128  121  115  117  127  127  131  118  129  131  121  123  121  130  139  135  131  137  147  137  128  148  153  152  147    0
ch:  54     128  129  125  124  130  119  128  123  130  125  130  128  131  127  121  135  124  121  140  121  130  138  133  131  133  137  138  147  147  145  152    0
ch:  55     128  127  125  105  125  118  121  131  130  123  129  124  124  133  133  137  139  147  134  139  139  133  133  147  140  135  163  150  151  138  153    0
ch:  56     128  131  122  121  125  123  137  127  125  125  121  125  128  123  133  125  125  119  133  123  135  133  133  135  130  133  152  137  163  135  139    0
ch:  57     128  130  124  130  126  127  121  118  127  127  137  133  135  131  130  133  131  123  137  133  150  137  135  137  131  139  127  148  147  153  149    0
ch:  58     128  131  122  125  119  128  125  134  125  121  130  138  125  129  117  124  133  121  128  118  121  128  133  139  130  131  138  137  127  139  150    0
ch:  59     128  130  128  119  127  121  119  124  131  130  125  123  119  133  130  125  133  137  133  130  137  137  148  151  137  150  138  135  152  163  147    0
ch:  60     128  120  116  127  120  119  123  128  118  135  130  133  125  130  135  130  130  128  123  130  134  133  146  138  147  139  152  137  133  156  164    0
ch:  61     128  120  122  120  121  123  137  133  123  123  120  135  121  138  133  130  130  120  130  133  141  140  131  133  137  134  130  139  145  151  139    0
ch:  62     128  132  125  131  121  117  121  137  130  125  123  121  131  119  128  123  123  133  121  135  133  131  125  133  138  150  130  147  133  134  151    0
ch:  63     128  129  133  133  129  133  131  133  121  131  127  121  129  134  137  134  125  139  137  137  137  128  127  131  137  149  153  148  137  153  163    0
ch:  64     128  130  102  128  133  123  139  133  118  118  135  125  137  123  121  128  130  139  118  133  128  133  138  137  138  138  147  134  147  150  149    0
ch:  65     128  131  122  118  121  123  134  126  130  128  131  134  123  120  137  123  130  130  130  133  133  133  121  137  134  137  133  125  152  133  147    0
ch:  66     128  120  121  132  121  131  128  121  130  128  127  133  127  118  138  137  137  121  133  123  134  133  146  135  129  133  147  146  137  155  138    0
ch:  67     128  120  122  133  117  130  125  127  121  130  134  125  130  130  135  129  125  121  134  133  137  146  147  121  137  139  148  137  139  147  153    0
ch:  68     128  126  122  123  124  115  125  118  128  133  121  132  127  121  137  137  121  125  137  134  125  123  133  134  140  147  147  139  145  154  147    0
ch:  69     128  120  133  124  123  128  123  128  133  127  130  133  128  123  131  137  135  135  147  130  128  131  133  134  134  134  134  137  152  137  139    0
ch:  70     128  136  118  130  133  123  125  134  131  118  130  129  127  119  139  121  133  127  127  133  124  133  137  141  147  131  135  131  146  146  152    0
ch:  71     128  128  130  116  128  133  131  130  128  121  121  127  134  131  133  130  135  128  129  137  138  131  133  151  137  139  151  147  147  135  138    0
ch:  72     128  120  118  119  123  123  123  147  133  128  123  124  139  124  121  131  137  125  127  134  137  137  137  137  134  137  148  163  137  154  149    0
ch:  73     128  133  119  130  128  123  121  121  121  121  130  127  130  133  133  131  134  127  137  137  135  129  133  133  139  139  140  139  133  147  146    0
ch:  74     128  120  122  116  121  127  130  124  137  131  125  121  130  133  131  124  129  125  128  137  133  140  130  138  137  133  138  133  146  147  141    0
ch:  75     128  132  119  121  137  131  121  128  133  125  129  129  137  131  137  133  133  137  137  130  138  133  133  134  141  135  147  134  146  134  138    0
ch:  76     128  120  126  119  121  133  123  133  133  134  130  133  130  127  130  133  121  131  134  134  135  137  142  140  128  130  139  131  152  152  152    0
ch:  77     128  120  130  116  120  121  127  119  128  121  130  133  121  127  131  137  135  137  137  138  130  145  134  137  129  137  137  147  150  152  138    0
ch:  78     128  120  121  124  120  130  123  128  119  115  133  130  129  124  133  131  125  125  140  137  137  147  134  134  131  137  135  140  137  137  148    0
ch:  79     128  136  136  128  135  123  137  133  124  127  137  125  133  133  133  133  134  130  135  131  147  135  137  139  128  146  137  145  137  149  138    0
ch:  80     128  123  130  119  125  125  127  130  129  133  119  128  137  128  128  127  130  135  135  130  138  137  137  130  121  138  137  152  152  152  154    0
ch:  81     131  120  122  123  123  119  119  121  121  130  133  134  118  131  133  133  139  137  124  129  138  131  147  133  134  139  139  152  151  152  155    0
ch:  82     128  128  118  121  123  121  133  121  133  137  130  128  121  130  130  118  133  127  137  133  131  139  129  125  135  137  137  128  137  140  137    0
ch:  83     128  131  121  125  123  133  121  124  121  130  130  135  129  129  125  133  131  137  140  131  133  137  150  145  130  134  140  152  147  147  152    0
ch:  84     128  128  116  121  125  118  137  130  129  133  127  130  127  137  127  135  134  119  135  137  147  147  133  138  145  133  131  146  147  139  149    0
ch:  85     128  126  128  118  124  131  123  135  137  121  128  133  135  133  125  131  137  121  130  134  138  133  141  137  139  130  135  134  154  152  147    0
ch:  86     128  120  122  121  117  124  115  135  130  128  131  127  128  123  120  137  115  125  130  127  127  130  135  131  133  147  145  125  133  137  139    0
ch:  87     128  120  122  119  129  131  128  123  127  147  130  133  130  148  137  130  133  139  133  137  148  130  127  133  137  138  130  150  147  152  147    0
ch:  88     128  120  122  124  124  119  124  133  123  137  147  137  121  130  129  139  131  127  140  134  135  137  125  137  137  131  138  147  147  149  154    0
ch:  89     128  120  116  118  130  123  117  121  128  119  119  133  131  125  146  134  131  133  137  127  133  134  128  131  139  149  128  154  134  137  145    0
ch:  90     128  120  122  125  119  128  118  124  105  135  120  127  128  134  131  131  130  129  131  129  138  124  137  137  133  133  140  137  153  135  147    0
ch:  91     128  130  128  124  119  121  130  131  134  121  121  134  134  137  135  118  134  133  133  137  138  137  129  133  137  147  147  147  153  150  149    0
ch:  92     128  128  122  131  125  127  120  119  130  121  128  131  133  130  131  139  133  124  138  137  133  131  127  123  137  133  137  149  141  156  144    0
ch:  93     128  120  124  116  131  128  123  121  120  131  137  131  133  133  124  128  133  140  147  131  138  134  137  138  149  137  138  137  138  151  165    0
ch:  94     128  128  122  121  118  133  125  118  127  133  133  129  121  131  131  134  124  129  131  137  137  130  130  137  123  124  147  138  147  152  137    0
ch:  95     128  128  133  125  121  127  137  119  133  131  128  134  137  134  137  133  128  138  130  119  134  133  148  137  147  139  148  130  134  147  154    0
ch:  96     128  128  122  132  121  123  130  120  127  121  123  127  147  125  131  139  133  134  133  135  134  128  147  139  129  140  135  137  137  133  145    0
ch:  97     140  127  131  121  121  124  131  130  131  121  133  131  125  127  130  125  133  129  128  125  133  134  147  137  134  138  137  133  142  147  149    0
ch:  98     128  125  122  125  125  120  133  131  121  133  120  121  135  133  130  139  127  121  148  144  131  134  131  133  135  135  130  147  148  149  153    0
ch:  99     128  131  126  121  121  133  128  130  134  119  134  128  130  118  137  119  135  137  127  124  130  133  131  150  139  135  141  147  135  151  151    0
ch: 100     128  128  130  117  123  124  115  130  123  133  133  121  125  125  120  134  123  137  124  130  133  131  134  130  134  134  150  130  137  147  147    0
ch: 101     128  120  125  120  123  114  118  125  131  129  128  130  133  119  127  129  118  137  133  133  130  127  133  135  141  141  150  138  133  138  152    0
ch: 102     134  120  133  134  123  130  121  125  123  128  121  125  133  127  121  137  138  132  133  140  129  128  125  124  147  133  156  135  133  149  148    0
ch: 103     128  128  129  119  127  123  117  131  130  129  130  138  129  137  134  123  123  147  133  140  149  133  128  145  137  145  137  139  150  148  154    0
ch: 104     128  131  136  128  133  125  119  127  119  133  138  121  123  134  138  125  125  133  121  130  138  125  121  147  130  147  137  137  148  133  162    0
ch: 105     128  120  133  116  123  127  130  125  128  121  133  128  115  133  123  129  130  130  131  138  152  130  131  124  137  129  138  133  146  148  138    0
ch: 106     128  128  122  128  127  127  119  123  119  133  137  127  125  125  148  134  130  130  130  133  128  135  131  148  127  130  130  137  139  154  147    0
ch: 107     128  126  119  137  121  117  127  120  135  130  127  124  137  130  133  133  123  124  135  129  131  131  133  133  147  135  148  152  156  147  152    0
ch: 108     128  120  117  124  114  124  130  133  127  123  130  125  129  131  128  123  134  147  130  137  131  128  138  133  138  150  137  151  133  154  154    0
ch: 109     128  128  126  118  117  130  121  125  128  137  127  121  119  128  128  134  133  130  123  128  133  148  119  137  134  147  133  147  149  139  138    0
ch: 110     128  123  115  124  121  127  115  131  127  133  127  130  127  137  130  130  134  134  126  131  121  137  138  147  130  128  137  153  138  147  149    0
ch: 111     128  130  125  125  121  121  124  121  123  125  121  133  135  131  118  128  128  147  134  133  123  149  137  149  149  141  133  147  146  137  152    0
ch: 112     128  120  118  128  121  124  121  133  126  121  137  131  125  137  128  131  137  121  126  128  135  135  131  138  137  139  137  134  150  152  152    0
ch: 113     128  120  119  121  130  117  130  137  127  108  130  118  135  119  131  121  133  128  134  133  134  137  135  147  145  130  130  130  137  147  150    0
ch: 114     128  132  116  121  131  119  121  131  117  125  124  134  133  131  124  138  123  127  135  118  134  124  135  139  146  147  138  147  133  148  150    0
ch: 115     128  129  133  121  121  115  123  121  127  127  134  135  121  148  130  121  130  131  131  130  135  131  134  147  135  148  138  138  149  151  153    0
ch: 116     128  120  119  119  123  135  125  127  120  124  133  121  140  121  130  134  138  118  138  131  137  149  133  134  144  135  137  149  150  152  152    0
ch: 117     128  120  124  132  128  124  124  124  123  133  127  131  125  129  147  130  130  137  118  128  125  139  140  138  137  137  147  135  146  150  151    0
ch: 118     128  129  120  119  121  119  130  121  121  124  124  118  123  125  135  119  124  134  121  130  138  131  137  121  148  148  140  163  134  147  147    0
ch: 119     128  120  125  132  120  128  130  133  130  130  130  131  131  133  147  121  138  133  137  124  133  138  147  148  137  134  138  151  149  137  138    0
ch: 120     128  120  122  119  129  116  121  128  118  135  135  121  133  133  121  123  133  133  133  134  121  138  134  137  133  137  137  137  147  163  139    0
ch: 121     128  129  124  125  123  133  121  125  137  134  125  148  123  133  127  127  131  124  137  129  120  138  131  150  139  147  130  147  141  151  147    0
ch: 122     128  127  133  121  120  123  133  121  118  121  127  121  123  130  128  131  130  124  131  134  123  130  138  131  146  148  150  147  148  151  152    0
ch: 123     128  120  127  124  130  133  119  123  137  131  135  123  130  115  133  133  137  123  130  130  141  137  133  138  133  139  134  150  147  148  152    0
ch: 124     128  123  119  107  127  123  121  133  124  125  124  129  119  130  137  133  137  129  137  128  128  127  124  133  150  133  133  125  145  137  149    0
ch: 125     128  128  133  121  121  124  128  131  121  130  133  133  119  128  124  145  131  129  129  118  133  137  131  133  137  125  130  147  138  147  152    0
ch: 126     128  120  122  133  123  128  121  120  121  125  123  118  119  131  137  127  125  125  131  137  128  135  147  138  130  134  130  151  147  128  147    0
ch: 127     128  130  119  128  128  131  133  131  117  133  130  135  130  147  135  145  131  134  135  133  155  138  143  153  150  135  137  147  155  147  151    0
