# TRIM CALIBRATION    FEB2_9_1    pulse_ampl_min=10    pulse_ampl_max=150    pulse_ampl_fast=10
#
ch:   0     128  128  129  103  129  117  121  129  117  123  109  128  121  115  103  124  131  116  104  109  111  120  120  119  116  120  113  117  112  110  116    0
ch:   1     128  120  119  113  117  108  124  116  118  115  114  120  123  120  124  117  118  118  118  112  121  120  128  112  109  117  100  115  117  123  107    1
ch:   2     128  154  123  120  110  119  127  123  134  122  115  108  115  105  127  120  117  117  107  114  114  117  121  118  123  111  123  121  123  120  112   26
ch:   3     128  128  118  123  130  127  110  118  115  118  121  117  124  115  118  117  114  120  121  121  112  123  110  118  110  119  132  120  114  114  119   31
ch:   4     128  125  111  121  109  131  115  121  133  121  122  129  114  121  107  117  114  117  117  120  103  109  121  120  118  117  119  114  117  115  120   20
ch:   5     128  128  116  105  120  121  120  131  118  118  114  115  122  126   99  114  117  118  108  121  115  118  118  105  123  114  121  128  112  118  113   32
ch:   6     128  120  121  122  119  123  119  121  119  105  128  118  134  119  118  117  121  116  130  115  118  120  112  129  115  118  114  121  121  120  121   37
ch:   7     128  120  120  108  121  109  118  123  118  115  119  110  121  120  114  121  117  118  123  119  128  119  108  110  107  115  126  119  117  115  131   49
ch:   8     128  128  118  126  123  131  117  118  120  117  120  121  118  124  115  119  118  116  110  114  110  110  113  123  117  118  114  121  118  104  114   40
ch:   9     128  133  118  119  118  120  109  118  120  121  119  117  114  109  115  123  117  118  114  118  119  120  107  114  117  121  120  110  112  123  125   39
ch:  10     128  128  128  107  128  122  123  120  116  115  119  114  126  110  118  117  112  118  121  120  117  123  114  117  108  118  107  117  104  123  110   25
ch:  11     133  132  111  112  118  123  119  117  115  114  105  111  122  117  112  121  128  131  117  117  119  119  117  117  115  121  114  116  126  122  122   34
ch:  12     128  128  124  121  119  121  121  123  120  121  117  122  120  128  117  134  118  113  123  128  119  120  120  117  118  123  117  109  115  110  118   33
ch:  13     128  128  120  121  119  115  110  114  109  114  133  123  119  105  120  118  121  117  118  131  121  117  114  121  117  123  115  122  117  119  120   61
ch:  14     128  128  121  131  118  118  120  121  118  119  116  128  117  128  121  109  119  117  115  120  117  107  119  123  115  120  118  120  103  108  117   40
ch:  15     128  128  120  122  120  120  105  123  116  131  126  118  118  131  123  118  105  128  116  122  119  119  120  122  118  117  115  126  117  118  117    0
ch:  16     128  128  111  119  116  114  118  129  114  128  128  128  128  124  117  114  123  123  120  117  136  114  117  118  128  115  109  115  119  123  123   50
ch:  17     128  128  118  120  121  123  134  124  117  114  116  117  114  107  109  131  125  121  114  123  120  107  114  120  117  114  120  108  125  119  112   59
ch:  18     128  131  111  120  120  114  113  123  109  124  117  117  116  118  126  120  121  114  123  116  118  122  121  115  101  114  119  118  114  118  119   42
ch:  19     128  128  114  120  121  123  123  117  109  117  114  127  108  131  108  112  131  122  120  120  120  117  122  117  106  123  107  121  134  122  120   59
ch:  20     128  122  120  120  121  121  120  130  119  118  117  114  114  115  126  135  111  119  122  121  117  117  110  121  105  117  115  107  114  119  107   47
ch:  21     128  128  118  121  120  107  121  123  117  115  117  123  125  118  130  119  119  118  121  114  107  127  128  120  114  117  117  123  108  113  107   62
ch:  22     128  123  124  121  113  118  121  117  119  121  104  114  129  125  112  122  118  131  115  114  118  117  118  116  122  114  117  115  114  122  117    0
ch:  23     128  120  123  124  122  117  131  121  126  120  117  110  118  123  112  118  133  117  123  129  117  130  104  109  114  116  109  125  114  119  121    0
ch:  24     128  128  118  118  119  121  123  117  120  105  119  119  107  117  121  118  115  123  110  117  120  121  121  121  121  108  121  119  126  116  117    0
ch:  25     128  129  124  119  119  122  128  138  115  120  107  123  121  110  112  121  123  117  118  110  111  117  122  117  117  123  119  137  117  107  118    0
ch:  26     128  153  121  121  126  127  105  119  120  117  116  109  119  114  117  119  115  121  125  114  117  118  117  133  121  117  123  116  122  114  120    0
ch:  27     128  123  114  116  110  116  120  119  118  121  123  123  123  107  126  118  117  117  122  126  127  117  115  120  114  123  119  119  120  117  121    0
ch:  28     128  128  115  122  128  123  117  120  120  117  101  117  118  111  114  112  117  128  120  124  120  116  128  119  110  120  110  120  106  122  121    0
ch:  29     128  128  115  117  110  112  108  110  120  118  131  116  113  117  122  122  118  110  119  123  123  123  122  124  119  124  107  117  118  117  120   61
ch:  30     128  122  121  126  113  118  126  125  132  131  114  121  131  133  124  128  113  129  128  123  123  129  129  115  114  124  108  123  103  115  121    0
ch:  31     128  128  121  132  127  115  117  119  114  112  124  118  129  119  120  118  119  133  119  134  121  117  114  123  131  117  129  119  133  100  120    0
ch:  32     128  128  120  118  128  115  121  122  119  121  117  107  122  114  125  118  118  118  118  123  123  105  117  119  109  131  118  111  122  118  124   61
ch:  33     128  128  152  116  111  120  124  117  120  113  111  114  110  121  113  103  114  121  123  121  115  123  115  114  121  113  121  112  110  123  111    0
ch:  34     128  128  120  122  125  109  117  117  116  123  123  114  120  117  121  117  119  117  115  123  120  128  117  122  124  131  120  113  110  119  123    0
ch:  35     128  121  129  118  110  123  121  121  117  117  116  126  121  115  132  117  117  115  117  112  123  114  122  113  109  117  115  121  121  121  113    0
ch:  36     128  128  130  114  115  120  128  126  112  121  111  116  129  113  121  111  117  133  128  124  117  114  123  114  114  114  121  120  108  118  119    0
ch:  37     128  128  121  118  123  130  128  128  123  118  119  123  114  117  124  118  114  117  117  129  105  124  115  114  123  117  133  114  117  122  117    0
ch:  38     128  120  121  126  119  111  114  124  115  117  125  134  128  118  114  114  118  119  118  123  109  103  120  123  123  123  117  118  114  129  119    0
ch:  39     128  129  111  116  115  126  129  117  114  123  122  134  123  119  119  118  121  118  118  117  121  126  128  119  126  130  118  120  117  121  119    0
ch:  40     128  128  116  121  127  123  111  117  122  122  123  121  118  116  132  117  121  121  114  119  119  114  120  120  117  117  128  116  120  113  119    0
ch:  41     128  128  115  115  118  118  106  118  127  134  128  123  127  117  120  107  123  119  129  121  118  121  111  116  111  108  120  117  122  112  123    0
ch:  42     128  128  120  110  123  110  113  116  119  128  130  120  112  114  121  128  111  127  121  114  122  122  117  121  119  104  127  119  132  117  118    0
ch:  43     128  128  169  121  123  128  121  115  126  120  118  128  122  121  131  123  128  119  123  131  110  125  127  121  128  141  126  117  120  117  120    0
ch:  44     128  128  121  119  129  120  112  128  121  114  123  113  117  128  111  117  134  121  128  118  122  118  123  110  120  119  123  118  115  119  117    0
ch:  45     128  128  121  115  115  119  115  122  119  122  127  117  126  119  129  123  130  123  119  134  121  120  130  128  115  120  117  114  132  117  126    0
ch:  46     128  153  116  121  115  121  118  129  110  124  123  117  122  113  117  120  127  115  117  121  117  115  121  115  114  120  119  109  115  120  131    0
ch:  47     128  128  120  117  121  123  119  121  117  117  132  130  119  123  118  132  131  126  131  110  123  120  121  131  118  119  117  117  123  119  120    0
ch:  48     128  122  133  127  110  123  125  118  117  118  117  121  117  123  119  126  108  123  112  121  120  110  114  118  121  123  123  118  114  121  107    0
ch:  49     128  131  116  110  121  117  117  123  131  118  124  120  103  121  123  121  112  126  117  118  121  122  114  121  120  121  118  119  131  117  121    0
ch:  50     128  128  128  116  107  121  114  123  118  131  117  123  123  118  128  115  128  117  121  129  112  108  119  118  119  115  117  119  121  117  126   56
ch:  51     128  132  111  133  123  117  126  107  117  125  123  117  134  117  118  108  106  120  120  128  131  134  128  129  114  112  119  115  120  121  117    0
ch:  52     128  128  132  120  121  120  121  114  119  117  117  117  124  123  121  119  121  123  114  120  112  119  120  117  128  109  117  115  107  115  129    0
ch:  53     128  128  124  125  120  115  128  119  116  130  121  119  120  123  125  129  119  117  111  123  112  120  118  115  120  121  117  117  120  119  120    0
ch:  54     128  128  120  115  121  120  114  120  128  112  120  123  118  131  126  123  117  121  117  109  131  136  128  114  120  130  114  118  117  117  114    0
ch:  55     128  128  121  133  114  118  126  134  119  130  115  120  120  108  118  112  117  121  117  122  121  121  117  115  131  123  110  118  118  118  114    0
ch:  56     128  129  111  117  122  128  131  126  128  107  123  118  126  121  114  118  114  126  117  110  127  119  129  129  124  123  121  121  117  112  127    0
ch:  57     128  128  124  122  115  111  122  119  123  128  123  131  109  116  117  131  130  128  120  121  117  120  119  121  118  113  129  118  109  123  118    0
ch:  58     128  128  120  123  126  128  134  118  130  125  131  133  110  123  119  128  135  115  117  114  114  119  121  117  121  119  117  118  126  123  117    0
ch:  59     128  128  121  124  121  123  118  118  132  118  121  127  122  118  133  122  129  121  123  118  127  124  123  117  116  120  131  119  126  121  117    0
ch:  60     128  128  116  118  118  116  113  119  123  119  118  131  119  125  114  120  114  127  123  127  122  112  107  123  128  120  128  111  111  117  121    0
ch:  61     128  128  111  131  123  121  128  117  129  129  125  117  121  125  110  121  131  112  121  123  115  119  131  114  122  118  120  128  131  121  119    0
ch:  62     128  128  115  119  116  124  126  118  118  121  120  123  122  121  134  112  129  124  118  123  120  123  118  133  131  134  125  120  115  117  114    0
ch:  63     128  121  116  118  119  119  111  131  122  120  121  114  127  119  122  121  113  119  119  117  132  130  114  118  126  127  114  119  118  119  117    0
ch:  64     128  128  120  120  121  131  116  118  114  123  120  120  120  121  128  120  117  110  117  118  119  121  118  125  114  120  126  121  117  123  131    0
ch:  65     128  128  120  129  121  121  118  122  120  134  115  131  128  128  117  123  126  129  129  123  127  117  117  129  117  120  118  114  133  124  114   60
ch:  66     128  128  118  121  115  121  117  120  131  130  120  113  119  115  121  107  116  129  119  128  129  117  120  117  131  132  108  117  128  118  115    0
ch:  67     128  128  111  135  117  133  133  110  116  131  117  116  121  123  120  128  119  131  128  122  117  118  115  118  117  120  117  123  112  128  113    0
ch:  68     128  128  122  119  121  119  123  131  121  113  119  120  121  126  112  129  118  121  121  115  123  121  128  131  126  114  117  113  116  117  113    0
ch:  69     128  131  120  120  122  129  114  117  128  123  124  126  131  120  113  121  123  120  104  117  121  121  127  120  118  117  119  131  115  114  118    0
ch:  70     128  154  123  122  118  121  121  131  118  122  121  126  121  121  117  123  138  121  129  128  118  121  115  128  118  119  110  114  115  108  117    0
ch:  71     128  120  124  119  124  120  118  131  105  117  129  131  124  121  132  120  117  119  123  127  120  119  132  120  137  117  119  121  110  129  119    0
ch:  72     128  128  124  118  130  116  122  118  122  133  123  118  121  120  124  117  138  109  123  108  110  134  118  128  128  120  118  137  126  126  126    0
ch:  73     128  128  113  128  119  129  120  120  122  130  118  117  126  116  113  119  121  130  129  112  117  115  129  127  115  110  118  124  114  119  118    0
ch:  74     128  121  119  119  117  118  138  120  121  130  118  117  125  119  124  120  123  126  117  121  110  121  119  122  119  110  119  118  130  123  122    0
ch:  75     128  128  121  118  125  131  118  134  122  134  120  129  119  120  120  134  122  119  117  115  117  119  117  117  115  112  128  119  128  119  114    0
ch:  76     128  125  114  121  130  126  120  123  131  117  119  120  128  123  123  128  117  123  128  120  112  121  118  125  107  125  135  123  128  123  119    0
ch:  77     128  128  124  131  122  113  121  114  124  129  121  128  124  129  118  119  133  117  122  108  122  118  124  120  112  121  119  131  117  117  121    0
ch:  78     128  128  117  116  119  138  134  132  118  134  118  121  123  130  107  131  121  133  123  120  115  116  110  121  117  118  123  121  118  119  118    0
ch:  79     128  124  128  115  122  127  120  114  124  117  114  128  118  114  117  115  123  131  131  112  122  130  110  123  124  120  118  123  115  117  120    0
ch:  80     128  128  127  119  130  132  120  115  117  118  119  121  137  126  119  123  124  117  121  120  121  123  117  117  115  133  118  126  108  121  118    0
ch:  81     128  131  124  122  124  126  115  126  116  117  119  126  117  116  117  118  128  117  121  123  120  118  116  119  126  123  117  121  131  108  111    0
ch:  82     128  154  121  118  118  123  120  120  129  114  129  121  118  114  117  128  121  120  120  121  120  115  127  135  121  113  115  124  120  118  120   55
ch:  83     128  129  114  128  119  134  122  119  120  121  124  117  121  112  123  123  115  123  126  122  135  130  131  131  123  123  118  117  133  119  125    0
ch:  84     128  153  111  132  118  126  131  122  124  114  114  123  130  120  113  117  115  128  121  113  115  123  118  122  125  114  117  120  120  107  122    0
ch:  85     128  128  120  122  117  134  114  122  117  123  120  131  123  119  124  135  119  117  118  120  114  126  127  119  117  118  130  123  115  128  121    0
ch:  86     128  122  128  131  121  133  134  120  134  123  117  120  121  117  115  118  118  119  119  119  118  115  114  115  120  117  116  121  117  112  121    0
ch:  87     128  128  121  133  126  126  114  126  120  121  117  131  117  127  117  131  123  117  134  132  132  134  127  121  118  129  120  118  105  127  117   58
ch:  88     128  122  120  118  130  123  115  119  134  118  122  129  118  128  118  119  119  121  121  121  131  130  112  126  113  115  123  121  115  116  120    0
ch:  89     128  119  124  130  130  122  122  121  117  129  119  114  115  124  109  129  119  117  120  121  124  123  121  118  122  131  130  129  115  125  120    0
ch:  90     132  128  117  118  133  123  124  134  120  121  122  117  117  119  112  123  121  131  115  128  119  125  126  115  119  112  116  119  117  128  121    0
ch:  91     128  128  117  120  126  126  118  123  131  129  122  121  117  117  134  134  123  126  126  132  126  118  128  118  118  118  114  121  129  121  120   58
ch:  92     128  129  122  124  119  122  131  120  115  122  109  120  118  121  120  118  126  117  122  126  121  120  123  114  117  128  126  121  123  117  126   45
ch:  93     128  128  128  131  122  113  128  119  120  128  130  111  129  120  131  128  126  133  117  131  120  111  121  121  122  130  119  120  106  121  121    0
ch:  94     128  128  110  110  116  122  114  128  121  131  121  130  123  127  119  123  128  109  128  123  122  117  118  117  117  120  123  117  115  114  123   62
ch:  95     128  128  128  122  113  133  121  131  134  129  122  116  117  124  114  117  121  139  131  121  121  116  124  128  123  134  132  115  120  124  121   56
ch:  96     128  128  120  115  115  115  117  126  114  122  119  131  115  131  131  131  114  114  113  124  117  117  115  128  121  111  119  121  107  118  124   59
ch:  97     128  128  131  124  115  119  131  131  135  135  108  121  128  120  119  129  113  123  122  107  116  122  122  137  120  115  122  134  126  129  130    0
ch:  98     128  128  124  124  123  122  131  130  117  123  118  116  117  121  109  126  117  133  110  129  121  117  115  124  129  124  120  118  130  122  113   56
ch:  99     128  128  124  119  118  122  117  125  117  129  118  107  131  123  124  119  124  126  130  114  114  123  133  118  120  121  131  117  133  119  138    0
ch: 100     128  128  122  113  119  120  129  122  130  123  131  128  123  130  119  124  120  122  121  120  127  119  129  135  110  131  117  122  121  117  122    0
ch: 101     128  127  118  134  121  123  130  118  128  130  123  123  126  134  119  126  128  129  114  118  119  124  108  123  108  123  118  116  115  129  123   55
ch: 102     128  128  120  123  117  121  127  114  117  118  126  114  121  121  130  129  120  123  115  115  114  123  116  126  116  134  117  122  117  109  120    0
ch: 103     128  129  116  110  122  132  123  108  126  122  120  133  128  114  123  121  114  129  117  119  117  129  117  126  113  117  117  118  114  117  118   60
ch: 104     128  128  118  125  110  119  121  120  130  107  117  119  120  117  121  120  119  124  117  114  120  114  127  109  121  119  122  123  111  120  112   51
ch: 105     128  123  125  132  131  120  121  130  131  117  123  127  118  114  120  120  128  131  122  114  131  118  128  122  116  117  118  122  118  118  118   61
ch: 106     128  131  118  127  123  119  124  118  123  117  118  131  124  126  117  134  131  131  111  103  123  129  129  124  117  121  129  110  120  118  117   55
ch: 107     128  123  131  132  133  131  135  129  111  129  132  118  124  123  134  128  123  123  123  126  132  123  123  125  120  122  120  123  121  121  123   52
ch: 108     128  154  124  131  125  119  114  118  120  128  113  126  128  119  123  109  117  117  117  119  118  115  114  124  116  117  128  123  124  120  121   55
ch: 109     128  128  126  130  123  122  116  117  120  117  120  108  116  134  134  131  120  131  125  124  126  125  124  119  123  115  135  120  120  111  110   59
ch: 110     128  128  124  129  127  123  123  120  118  117  114  117  134  128  130  118  117  134  117  121  131  129  121  125  120  125  121  137  112  121  120   54
ch: 111     128  134  118  107  121  119  123  118  127  123  120  121  126  107  127  121  131  122  135  119  125  120  131  132  131  131  126  122  121  114  123   55
ch: 112     128  120  119  118  117  108  127  121  122  117  115  117  111  120  118  117  130  111  123  125  123  119  115  121  129  131  123  119  109  117  118   44
ch: 113     128  128  123  112  126  123  118  122  123  121  133  126  123  124  131  123  123  126  121  121  130  132  124  130  127  119  129  125  128  116  117   56
ch: 114     128  128  119  132  126  129  123  120  118  131  123  118  131  129  131  116  121  132  123  110  120  128  119  114  106  109  131  117  123  119  120   57
ch: 115     128  128  128  132  131  126  138  120  109  120  130  121  120  131  134  128  117  126  119  122  128  124  126  109  120  132  127  131  127  122  120   50
ch: 116     128  126  131  116  130  122  126  123  111  122  117  122  130  117  118  132  128  132  120  117  121  121  115  119  125  129  117  121  126  122  118   28
ch: 117     128  125  121  119  113  122  114  122  121  121  129  126  117  123  125  115  125  123  117  123  108  129  119  123  118  118  121  103  117  120  117   44
ch: 118     128  131  120  118  115  124  121  131  120  119  113  121  117  118  106  117  123  129  120  124  122  119  116  118  131  118  118  118  130  120  107   50
ch: 119     128  128  125  131  126  121  119  121  124  134  131  123  119  114  112  126  130  130  119  112  117  118  118  120  111  117  129  120  118  122  120   62
ch: 120     128  120  118  122  122  122  118  121  119  115  115  125  126  134  131  119  126  119  115  127  125  120  117  117  121  134  112  127  118  122  126   59
ch: 121     128  133  121  123  136  118  123  121  131  126  121  117  123  121  120  112  133  124  119  107  125  128  120  131  109  117  117  121  120  118  133   42
ch: 122     128  132  117  122  119  115  119  108  119  121  119  135  117  118  134  117  119  134  117  133  127  121  119  122  120  109  128  130  121  111  117   44
ch: 123     128  128  120  131  128  121  121  126  122  135  120  119  124  123  126  131  123  134  105  124  121  109  122  123  118  125  124  127  130  118  119   54
ch: 124     128  120  127  121  131  123  115  120  124  123  123  129  108  124  114  124  134  135  120  117  119  107  121  111  124  126  117  118  117  115  117   45
ch: 125     128  128  131  117  112  124  129  107  120  123  120  122  122  123  129  123  121  117  125  117  118  130  121  125  121  121  117  118  121  118  117   42
ch: 126     128  123  118  118  116  123  123  108  129  117  107  118  112  134  115  130  110  121  129  115  132  123  117  129  123  118  121  118  117  122  120   33
ch: 127     128  128  114  118  132  136  113  128  117  121  121  128  130  135  126  123  131  121  121  125  123  124  124  134  124  121  123  127  123  122  134   42
