# TRIM CALIBRATION    FEB2_3_1    pulse_ampl_min=10    pulse_ampl_max=150    pulse_ampl_fast=10
#
ch:   0     128  122  119  117  121  118  119  105  123  103  114  105  103  121  123  120  103  100  116  117  119  105  115  100  119  116  113  105  107  105  100    0
ch:   1     128  130  119  122  126  118  117  118  121  121  102  110  116  123  124  105  101  107  105  129  103  115  117  113  111  115  115  107  113  116  116    0
ch:   2     128  132  116  112  116  134  115  119  103  113  121  120  106  117  104  107  123  101  100  116  119  105  104  114  103  116  116  105  100  104   99    0
ch:   3     128  119  118  114  113  119  130  118  116  104  123  117  105  112  123  104  117  101  117  107  108  117   99  117  111  118  108   93  110  110  117   59
ch:   4     131  127  124  125  121  115  117  120  126  117  117  102  103  110  123  109  118  103  103  105  117  117  104  107  108  123  119  117  112  112  110    0
ch:   5     128  128  117  121  117  120  114  115  119  120  108  118  114  121  117  120  116  103  107  100  121  114  112  110  119  119  115  104  113  121  117   61
ch:   6     128  120  117  121  107  120  115  115  123  124  103  114  115  109  116  114  114  118  118  109   93  111  105  118  110  104  104  105  110  103  101    0
ch:   7     128  120  125  121  126  118  117  117  104  117  113  115  108  117  112  104  120  111  117  103  123  104  112  107  110  105  107  106  100  103  113    0
ch:   8     128  120  115  121  128  114  113  103  116  118  131  116  104  124  107  117  118  117  115  104  105  119  101  121  124  114  100  119  104  105  116    0
ch:   9     128  120  117  121  116  114  126  125  111  123  104  116  116  117  116  123  113  120  116  123  118  117  104  112  117  117   99  106  114  113  104    0
ch:  10     128  120  120  126  119  115  117  120  121  119  114  117  105  104  107  100  105  107  114  110  110  118  116  118  101  117  114   99  103  118  100   62
ch:  11     128  120  117  118  120  119  115  116  121  120  120  102  117  123  121  119  105  106  105  107  107  109  104  119  118  117  104  107  110  118  107    0
ch:  12     128  128  115  116  114  118  125  120  115  123  106  114  118  105  105  103  115  113  106  115  104  117  117  119   93  120  123  100  112  107  113    0
ch:  13     128  122  120  117  104  119  105  120  110  117  117  117  117  116  107  118  117  106  110  101  105  100  117  120  107  118  114  112  108  105  103    0
ch:  14     131  120  117  130  125  120  118  118  120  115  120  113  117  117  118  103  122  105  115  105  115  124  115  107  107   99  100  105  107  103  114    0
ch:  15     128  128  117  118  115  127  124  131  125  114  104  114  123  126  123  107  113  104  114  117  118  116  105  120  120  120  110  100  114  115  100    0
ch:  16     128  128  122  115  119  117  120  131  116  123  110  119  116  121  117  117  112  123  113  115  107  120  107  115  107  118  117   97  105  101  100    0
ch:  17     128  122  115  121  120  118  106  114  116  106  116  121  117  104  131  105  120  117  104  104  115  104  105  104  120  100  116  116  115  107   94   51
ch:  18     128  120  116  124  112  117  110  115  125  109  129  113  104  110  114  103  112   97  123  121  107  109  110  112  104  111  118  105  104  118  117   63
ch:  19     128  131  118  131  120  106  123  127  112  128  114  123  123  119  115  117  118  118  129  118  111  113  103  105  107  117  109  103  117  107  105    0
ch:  20     128  128  131  116  107  124  121  120  121  118  120  123  123  121  130  124  108  114  104  100  108  105  114  121   99  105  107  103  104  107  116    0
ch:  21     128  123  122  121  118  114  130  121  126  120  120  121  110  110  118  119  101  113  117  107  107  104  120  115  120  116  119  118  107  121   96    0
ch:  22     128  122  115  124  109  106  118  122  103  121  114  123  120  107  115  119  104   98  107  100  116  104  110  107  111  114  118  105   99  114  101    0
ch:  23     128  125  124  120  116  121  125  119  117  119  120  122  116  126  120  115  106  115  120  110  119  103  101  119  107  112  114  115  105  114  101    0
ch:  24     128  131  124  116  115  121  112  121  119  120  103  114  116  116  115  117  117  117  121  111  115  117  113  106  101  122  106  108   98  114  105    0
ch:  25     128  167  131  124  102  108  123  121  126  115  121  117  107  115  105  120  128  115  121  115  117  107  117  104  118  102  118  116  112  116  118    0
ch:  26     131  127  111  129  115  121  121  119  119  121  114  106  119  114  128  115  117  104  111  103  110  107  118  118  118  109  107  114  117  103  114    0
ch:  27     128  120  116  120  107  127  105  120  122  123  120  118  109  115  118  119  115  126  117  112  113  117  110  115  108  108  108  115  101  109  115    0
ch:  28     128  134  122  114  118  123  117  119  120  116  132  121  117  118  115  121  104  106  119  115  114  121  104  101  105  116  107  115  121  104  118   61
ch:  29     128  128  124  129  120  130  126  118  115  120  113  115  118  117  116  105  111  116  106  104  115  118  115  115  115  120  123  108  118  104  106    0
ch:  30     133  120  121  119  118  123  124  118  118  105  117  117  107  121  104  120  106  127  105  120  121  120  120  107  117  118  104  118  117  117  105    0
ch:  31     128  128  122  118  120  117  117  122  117  116  118  117  122  120  118  117  104  117  117  117  104  103  114  101  115  117  117  117  104  105  117    0
ch:  32     128  128  111  113  121  105  121  117  119  117  118  123  117  116  117  104  115  116  116  120  115  115  117  120  125  117  107  103  117  119  114    0
ch:  33     128  120  122  116  118  124  114  118  121  105  115  123  115  119  127  105  120  117  129  108  107  107  120  104  121  104  112  114  106  120   97    0
ch:  34     128  128  121  118  114  123  117  117  117  113  115  123  100  113  113  110   99  117  120  107  116  114  117  108  109  117  115  105  100  107  115    0
ch:  35     128  128  126  130  120  130  119  117  119  118  127  117  128  108  115  116  118  119  123  110  121  118  123  117  106  112  121  109  105  101  103    0
ch:  36     128  128  116  120  126  131  116  122  117  121  118  118  116  115  113  119  104  110  110  117  109  125  110  123  119  104  105  103  111  115  107    0
ch:  37     128  128  113  125  130  117  122  121  133  109  131  120  104  105  119  122  118  108  105  104  120  117  104  120  114  114  103  106  115  107  104    0
ch:  38     128  129  124  120  123  120  121  123  117  120  121  116  123  121  117  119  103  101  112  112  118  123  109  117  104  115  106  107  121  131  113    0
ch:  39     128  128  124  114  129  121  123  121  119  117  115  123  112  115  116  117  121  105  126  116  130  112  118  115  114  118  116  111  116  123  117    0
ch:  40     128  128  120  121  121  131  120  127  111  123  117  113  114  103  113  115  115  131   99  119  126  104  112  128  115  120  114  112  107  110  119    0
ch:  41     128  120  120  124  118  117  115  117  117  129  112  115  115  117  115  117  124  116  115  117  121  110  119  118  121  106  105  108  107  129  103    0
ch:  42     128  123  117  124  105  123  117  122  129  117  117  105  113  117  105  117  123  105  115  117  105  105  115   99  104  122   91  115  115  107  104    0
ch:  43     128  131  120  121  132  121  117  117  119  116  117  118  112  128  123  118  122  105  101  103  105  118  116  117  104  104  116  117  118  117  102    0
ch:  44     128  122  119  124  120  117  120  119  121  111  117  118  123  107  107  115  107  103  115  118  117  126  117  103  105  103  105  114  121  116  114    0
ch:  45     128  131  134  133  130  117  113  117  117  115  121  117  115  105  117  123  117  121  123  106  106  104  103  117  107  107  104  114  106  115  105    0
ch:  46     128  122  122  104  123  130  121  121  103  118  124  124  115  119  109  108  110  118  109  121  113  115  110  118  110  121  113  104  111  104  105    0
ch:  47     128  120  117  118  116  117  124  122  127  117  117  117  106  117  121  123  123  127  117  113  107  103  104  116  117  117  117  103  105  117  105   62
ch:  48     128  132  125  118  115  118  111  121  115  121  117  117  128  104  115  112  126  107  112  105  105  107  116  103  113  117  103  100  115  100  115    0
ch:  49     132  128  113  127  119  119  118  117  119  131  117  117  114  110  107  105  120  111  107  117  128  110  110  118  104  117  117  105  105  104  107    0
ch:  50     128  132  121  120  118  123  122  118  123  115  119  120  114  120  117  123  110  117  118  103  123  108  118  112  117  117  110  117  111  125  114    0
ch:  51     128  123  133  119  123  123  117  117  121  124  126  116  117  112  103  114  122  126  115  120  117  117  108  117  117  115  114  127  117  118  119    0
ch:  52     128  128  117  118  127  119  125  118  110  125  113  121  118  113  121  126  105  126  118  110  108  117  113  101  123  108  113  117  118  118  115    0
ch:  53     128  115  121  121  126  132  117  117  115  124  125  121  112  120  118  125  121  115  116  108  123  115  123  112  122  107  121  119  108  121  121    0
ch:  54     128  120  115  125  121  115  123  121  125  123  117  117  125  120  120  117  117  119  114  117  120  105  105  114  120  128  114  131   94  123  103    0
ch:  55     128  153  130  128  117  121  117  123  126  129  117  117  123  122  120  117  105  124  113  120  122  103  117  113  105  107  118  102  112  117  104    0
ch:  56     128  120  121  106  128  135  134  121  121  127  121  121  116  123  116  117  119  120  103  117  117  128  118  127  107  103  104  104  117  109  107    0
ch:  57     128  123  119  117  118  135  104  121  118  128  117  121  108  130  105  120  113  118  113  117  116  117  117   97  124  116  120  106  117  114  104    0
ch:  58     128  128  133  124  128  126  128  133  127  121  120  118  126  117  123  118  118  121  113  131  115  126  131  120  121  105  121  116  130  123  126    0
ch:  59     128  120  121  118  123  114  129  118  112  118  123  117  115  121  121  122  119  118  111  100  117  117  101  120  105  117  116  123  114  121  107    0
ch:  60     128  122  118  124  126  121  126  117  117  116  124  118  108  114  109  106  105  118  120  108  101  100  107  116  105  105  114  118  104  119  108    0
ch:  61     128  123  126  128  121  124  121  130  130  117  129  119  117  122  107  116  128  120  120  123  117  114  119  117  107  107  115  127  116  118  105    0
ch:  62     128  128  117  122  118  123  123  117  117  119  123  123  120  118  127  131  114  123  128  104  121  130  103  105  117  131  115  101  116  118  117    0
ch:  63     128  120  118  124  121  121  125  124  105  118  120  122  116  123  123  130  115  121  119  116  121  104  106  120  123  115  119  106  108  120  114    0
ch:  64     128  133  129  121  106  130  120  131  112  120  115  124  119  120  108  118  123  104  122   98  116  112  117  111  117  104  117  115  117  115  117    0
ch:  65     128  120  124  124  104  125  118  129  131  105  113  120  130  107  105  126  116  120  116  121  116  117  124  107  112  121  112  103  115  102  111    0
ch:  66     128  122  107  121  118  114  117  117  117  107  104  119  120  120  117  109  120  122  103  117  112  118  113  105  111  114  110  115  117  115  123    0
ch:  67     128  131  120  122  120  118  123  120  118  117  115  126  117  116  114  124  110  122  117  138  123  117  119  114  126  117  118  119  115  113  117    0
ch:  68     128  123  105  128  117  127  105  117  107  117  121  115  117  103  125  117  114  131  115  117  101  103  105  103  104  103  120  117  123  107  107    0
ch:  69     128  128  111  122  119  127  124  107  119  114  117  114  126  107  115  119  114  118  110  120  121  120  121  121  110  123  122  108  101  110  114    0
ch:  70     128  122  124  124  121  127  123  123  116  118  117  119  104  116  128  117  120  117  117  117  109  121  117  118  115  112  123  104  117  117  104    0
ch:  71     128  133  117  131  126  120  129  119  117  104  118  119  118  117  126  107  126  119  128  118  120  115  109  117  118  110  112  121  119  108  105    0
ch:  72     128  128  128  128  156  128  128  128  128  128  128  128  128  128  128  128  128  128  128  128  128  128  128  128  128  128  128  128  128  128  128    0
ch:  73     128  137  120  126  130  119  127  111  120  132  127  124  121  124  129  123  118  121  123  123  131  128  126  117  122  110  119  117  117  119  116    0
ch:  74     128  129  124  120  118  121  120  108  105  128  119  121  120  117  107  117  115  116  113  123  120  114  114  103   99  122  119  118  116  112  118    0
ch:  75     128  128  118  122  121  116  121  129  126  121  132  118  123  118  123  117  123  117  119  107  107  116  103  114  113  116  117  105  115  117  108    0
ch:  76     132  123  118  122  113  128  128  123  115  115  112  123  116  109  130  115  119  123  118  117  115  120  107  118  120  107  105  117  115  116  117    0
ch:  77     128  128  111  120  128  117  122  129  124  122  131  124  121  127  123  118  118  117  114  114  104  118  114  118  115  123  110  119  118  105  114    0
ch:  78     128  133  120  119  120  128  127  120  123  119  120  116  124  104  116  120  107  116  107  117  121  107  114  113  121  107  117  108  104  105  108    0
ch:  79     128  128  119  116  137  113  122  134  122  121  123  117  114  130  114  121  121  117  117  122  116  110  116  117  123  106  104  105  125  123  120   61
ch:  80     128  120  118  121  121  117  124  113  106  117  117  138  134  130  107  105  117  110  118  114  117  117  112  122  108  110  105  109  117  119  115    0
ch:  81     131  128  133  124  140  130  128  131  120  122  122  117  125  120  128  115  116  123  121  119  114  121  123  112  118  113  119  107  107  114  118    0
ch:  82     128  128  111  124  123  133  123  123  105  117  114  122  130  104  128  117  117  123  101  113  128  104  120  111  133  111  128  100  106  132  107    0
ch:  83     128  120  120  128  122  120  129  131  131  128  114  112  115  117  117  121  107  117  118  114  117  110  120  130  110  117  116  117  107  117  123    0
ch:  84     128  123  118  128  128  121  123  132  128  120  117  115  120  129  121  121  105  108  111  125  118  110  121  118  116  112  119  107  100  123  100    0
ch:  85     128  123  130  136  118  118  113  115  129  123  135  123  123  134  115  116  118  121  121  116  119  119  117  121  116  125  113  123  115  128  105    0
ch:  86     128  122  113  121  118  120  105  123  115  123  104  115  110  116  117  122  116  107  105  106  121  114  129  115  104  122  115  110  123  123  123    0
ch:  87     131  122  129  118  120  123  121  116  107  118  117  103  121  121  115  105  113  115  118  119  116  119  109  117  117  114  118  120  105  111  104    0
ch:  88     128  120  121  130  117  122  103  116  123  120  124  128  120  121  112  134  118  103  117  123  113  115  123  104  109  120  115  116  116  105  115    0
ch:  89     128  128  130  108  121  124  117  116  128  123  120  118  119  119  123  110  107  117  117  123  105  115  116  104  116  117  117  119  115  114  117    0
ch:  90     131  128  127  128  107  134  125  118  120  118  129  119  128  118  115  123  104  120  113  125  108  123  115  116  105  116  104  110  115  119  101    0
ch:  91     128  122  128  121  121  119  121  123  126  113  116  125  127  120  119  116  119  103  115  120  104  123  113  114  107  106  118  117  115  116  117    0
ch:  92     128  128  118  119  123  128  121  118  114  118  119  123  113  124  112  121  114  117  114  107  114  117  117  117  120  115  115  107  107  121  123    0
ch:  93     128  120  121  122  121  129  116  120  117  125  118  121  121  121  117  118  117  113  117  118  116  114  120  114  108  108  121  119  105  118  108    0
ch:  94     128  127  116  106  120  116  128  116  130  103  124  119  106  129  118  113  118  105  100  129  104  104  118  117  115  107  115  114  112  123  118    0
ch:  95     128  133  117  113  121  123  127  123  115  117  134  121  120  117  124  117  113  117  126  116  113  117  118  118  119  112  108  121  120  126  117    0
ch:  96     128  128  129  115  123  120  126  127  124  106  122  115  120  125  119  115  119  121  100  124  126  131  110  114  114  117  106  104  115  116  117    0
ch:  97     128  128  118  118  128  120  137  120  124  122  123  110  123  118  117  118  120  124  132  121  117  109  114  119  114  117  114  115  117  107  108    0
ch:  98     128  128  124  115  117  121  117  114  121  117  109  118  107  117  120  117  104  113  117  113  129  117  117  105  104  115  115  102  113  104  107    0
ch:  99     128  123  120  133  123  126  121  117  110  115  118  122  105  117  128  131  109  121  118  121  111  117  125  117  117  119  102  106  109  121  120    0
ch: 100     128  131  117  144  121  127  123  123  117  119  116  128  117  105  118  117  119  101  114  116  107  120  107  116  116  110  107  121  114  112  120    0
ch: 101     128  122  124  128  123  116  121  115  131  104  108  105  117  120  117  123  130  120  128  117  118  105  120  121  111  104  119  116  113  117  106    0
ch: 102     128  131  121  124  117  115  120  124  119  120  117  115  117  108  123  117  120  120  121  111  107  107  105  118  126  118  123  119   94  107  104    0
ch: 103     128  131  132  121  124  130  121  131  119  121  130  120  116  121  117  119  117  113  117  120  121  115  117  119  117  118   91  119  106  105  115    0
ch: 104     128  122  122  126  121  106  123  115  127  117  117  121  124  114  119  119  110  120  120  131  125  113  109  104   98  110  118  104  107  118  105    0
ch: 105     128  123  108  123  135  119  117  118  115  125  121  118  117  109  125  120  116  112  135  115  121  126  108  117  129  118  107  114  105   97  118    0
ch: 106     128  135  117  125  126  116  121  123  119  126  122   99  104  131  122  113  118  106  115  105  115  133  117  114  103  123  113  104  116  108  103    0
ch: 107     128  122  122  120  119  123  123  113  107  118  122  118  114  127  117  116  120  115  120  113  118  120  129  107  115  127  107  118  113  132  119    0
ch: 108     128  123  122  122  121  117  117  115  117  122  123  116  108  128  134  123  117  121  128  120  113  127  112  126  123  123  114  120  112  115  119    0
ch: 109     128  128  124  127  121  120  119  134  131  120  117  119  112  118  120  116  121  120  103  121  119  120  106  104  104  105  112  106  113  123  103    0
ch: 110     128  123  124  120  106  119  124  126  107  115  117  122  121  106  117  116  123  114  120  105  114  113  114  112  117  117  101  107  106  105   98    0
ch: 111     128  122  130  117  121  128  136  124  120  120  104  114  115  103  115  116  115  123  116  115  119  107  116  131  116  120  103  117  122  114  105   61
ch: 112     128  122  125  100  106  119  109  119  107  106  117  103  104  116  107  112  115  118  104  103  115  114  108  105  118  117  118  115  115  105  104    0
ch: 113     128  128  133  105  113  119  117  117  118  129  124  120  116  116  117  129  131  128  124  121  123  115  107  127  121  116  117  104  131  115  122   58
ch: 114     128  122  126  131  127  131  127  121  107  117  123  107  117  120  117  120  119  115  118  121  119  116  119  106  114  105  123   91  107  120  107   48
ch: 115     128  128  120  124  118  121  115  123  124  126  117  134  121  117  123  103  120   99  122  118  106  117  117  108  118  111  123  120  125  127  120    0
ch: 116     128  126  119  129  121  123  125  122  119  131  121  105  117  121  105  118  115  118  107  118  117  119  107  106  128  105  116  121  121  107  114    0
ch: 117     128  128  122  128  118  119  117  116  127  122  120  103  115  115  128  114  112  110  118  117  117  115  116  107  107  115  117  106  119  128  109   54
ch: 118     128  128  116  118  127  121  117  119  114  119  106  123  116  120  115  113  118  119  110  120  116  114  131  105  117  118  121  117  106  104  117    0
ch: 119     131  123  114  132  115  126  131  117  117  119  119  127  117  118  118  123  111  117  117  110  115  123  109  118  115  123  118  117  117  107  104    0
ch: 120     128  122  128  118  118  129  128  125  120  118  117  116  130  116  107  118  104  113  118  107  100  115  115  123  114  109  109  114  104  107  115    0
ch: 121     128  119  124  118  117  118  125  121  128  119  118  118  128  118  130  115  129  115  115  131  120  130  118  103  120  117  114  107  108  119  107    0
ch: 122     128  131  121  118  133  120  121  117  121  125  119  117  117  121  110  117  115  117  110  114  119  120  117  111  118  104  108  115  110  110  103    0
ch: 123     128  128  114  121  119  116  124  125  131  131  121  119  123  121  104  126  119  117  121  117  116  104  117  121  123  108  116  121  117  117  116    0
ch: 124     128  128  124  115  121  127  135  119  124  121  123  125  117  121  120  118  116  128  120  117  131  128  132  125  121  122  121  109  123  120  124    0
ch: 125     128  128  115  118  121  130  128  119  107  116  123  125  122  117  107  117  111  128  123  120  105  116  103   99  115  106  118  120  117  104  122    0
ch: 126     128  131  117  118  106  118  119  117  113  121  105  118  122  118  113  129  114  103  108  107  113  117  117  103  112  115  108  101  115  107  106   59
ch: 127     128  128  126  130  106  120  123  131  117  131  116  119  116  131  116  125  118  109  130  116  119  117  108  123  115  105  116  104  120  105  122   51
