# TRIM CALIBRATION    FEB2_2_0    pulse_ampl_min=10    pulse_ampl_max=150    pulse_ampl_fast=10
#
ch:   0     128  120  122  124  105  121  118  123  117  121  134  133  117  120  120  124  126  128  135  121  120  117  115  132  117  135  134  121  126  121  126   53
ch:   1     128  128  124  119  134  130  120  131  119  126  122  122  123  134  118  121  119  117  134  115  128  121  115  120  132  117  128  128  128  125  133    0
ch:   2     128  132  130  128  128  116  121  126  134  131  114  131  123  115  120  117  123  125  126  120  129  121  134  126  128  120  134  119  117  129  114   58
ch:   3     128  128  120  117  117  118  120  121  126  128  131  128  123  135  121  118  121  119  123  134  134  134  126  130  131  147  120  128  123  129  130    0
ch:   4     128  123  123  122  116  127  146  119  115  101  121  123  114  120  120  117  121  131  123  118  129  134  131  131  119  128  131  131  126  131  128    0
ch:   5     128  131  108  116  114  124  126  115  126  124  118  117  129  118  124  124  123  131  131  123  127  128  123  131  123  126  129  124  117  116  131    0
ch:   6     128  128  117  124  122  130  123  123  121  121  125  127  120  128  131  132  123  127  123  118  128  121  128  129  120  134  128  123  120  130  120    0
ch:   7     128  122  121  118  132  122  130  121  131  127  128  119  118  123  138  128  121  123  129  129  126  131  127  117  123  133  123  119  123  134  135   57
ch:   8     128  127  120  124  124  116  120  129  120  118  115  129  107  134  134  115  123  115  131  131  120  119  133  125  131  138  104  126  121  117  123    0
ch:   9     128  131  130  128  122  122  116  127  123  117  117  129  117  121  123  124  128  121  131  128  123  126  122  126  126  129  133  120  121  139  131    0
ch:  10     128  120  121  119  118  123  116  120  124  131  119  117  116  129  131  123  131  134  131  131  138  123  119  124  120  123  129  117  117  123  131    0
ch:  11     128  131  124  139  122  130  121  127  117  134  115  122  134  123  123  121  123  127  127  126  126  121  138  134  119  130  131  123  123  120  121   55
ch:  12     128  131  125  121  123  118  131  119  120  128  105  128  119  122  121  123  128  124  128  132  120  119  127  127  120  123  128  128  119  130  123    0
ch:  13     128  129  124  118  137  118  123  119  120  134  117  118  128  129  117  121  124  120  133  121  121  123  131  123  127  123  123  129  134  134  122    0
ch:  14     128  132  126  124  128  125  117  123  130  123  116  129  123  130  129  121  118  129  120  134  128  121  130  130  131  121  120  137  131  117  119    0
ch:  15     128  128  121  129  128  126  121  122  121  128  122  131  115  131  128  118  126  128  124  124  131  126  132  121  133  120  124  127  120  132  126    0
ch:  16     128  115  113  106  122  120  120  115  131  123  106  127  121  118  128  134  121  131  132  116  134  134  124  126  121  130  123  123  128  135  118    0
ch:  17     128  128  114  117  121  119  130  128  121  120  123  124  133  127  128  131  121  118  132  117  119  121  134  129  123  130  124  130  127  133  127    0
ch:  18     128  129  130  124  121  124  127  123  133  130  131  133  116  120  118  123  130  123  129  126  116  120  120  127  129  128  117  121  129  140  117    0
ch:  19     128  128  122  118  117  120  120  120  124  129  126  129  124  126  121  117  120  123  123  131  117  131  118  126  119  127  120  134  126  123  121    0
ch:  20     128  127  132  134  126  126  131  128  107  130  117  131  118  123  125  120  124  117  117  138  118  126  124  135  122  129  121  131  123  113  126    0
ch:  21     128  123  124  125  124  123  129  118  131  120  124  123  120  134  118  136  128  122  123  134  131  119  131  131  123  121  131  123  132  135  123    0
ch:  22     128  128  122  119  131  124  127  121  126  117  130  121  123  118  127  128  128  120  123  124  124  114  123  127  115  124  120  120  127  124  139    0
ch:  23     128  125  110  122  127  115  121  103  123  121  120  131  130  117  121  119  123  123  126  118  118  125  127  131  120  127  123  130  133  121  116    0
ch:  24     128  132  131  132  128  117  131  128  119  121  132  122  130  121  119  126  126  129  118  123  123  117  128  125  130  133  123  127  123  121  123    0
ch:  25     128  132  126  124  137  130  119  129  118  124  129  128  124  117  130  125  127  115  128  131  135  128  129  133  121  123  134  118  131  135  126    0
ch:  26     128  128  119  121  112  139  120  126  132  127  127  120  119  123  119  123  119  127  126  117  123  120  121  128  129  128  131  135  134  121  134    0
ch:  27     128  131  120  132  125  128  126  130  118  126  117  115  119  114  130  127  129  119  120  135  115  135  129  128  128  117  130  124  125  121  121    0
ch:  28     128  128  123  134  129  116  127  124  117  116  118  101  131  130  127  131  108  118  132  123  128  131  121  126  122  119  115  130  119  123  124    0
ch:  29     128  132  125  122  128  124  123  120  127  125  119  116  124  123  118  124  136  126  129  134  121  129  123  131  120  122  115  125  127  129  121    0
ch:  30     128  154  122  125  121  127  123  135  107  121  121  120  109  120  130  118  128  124  123  121  121  116  133  121  117  118  118  135  123  120  118    0
ch:  31     128  128  119  122  115  120  119  130  123  117  130  124  110  138  123  130  123  123  128  123  123  134  130  125  130  133  129  131  131  127  121    0
ch:  32     128  128  121  120  124  128  117  119  123  118  115  134  121  120  129  123  123  121  121  128  121  118  118  123  119  126  128  123  123  123  117    0
ch:  33     128  133  137  121  118  122  119  115  126  131  129  116  128  134  118  138  128  134  116  122  134  131  116  131  126  126  129  129  120  117  117    0
ch:  34     128  125  116  128  127  115  121  129  123  130  129  127  121  117  120  128  123  124  123  117  129  131  123  123  117  123  120  108  131  125  107    0
ch:  35     128  134  133  118  128  120  117  128  114  123  124  113  129  130  123  129  120  123  133  121  128  131  127  116  137  124  124  128  125  125  128    0
ch:  36     138  131  131  137  124  126  131  130  120  121  119  120  123  124  128  120  121  127  124  123  126  121  123  128  131  126  134  137  120  131  121    0
ch:  37     128  128  120  119  119  127  117  119  121  127  125  134  121  123  128  121  124  125  130  127  116  130  120  133  127  129  121  126  128  129  131    0
ch:  38     128  131  128  122  121  121  114  128  117  126  129  105  125  122  120  128  127  123  124  123  131  134  118  123  123  125  118  126  129  117  114    0
ch:  39     136  131  124  116  121  131  113  129  123  122  115  119  131  123  123  128  130  118  126  120  120  134  123  122  120  131  131  130  131  119  117    0
ch:  40     128  128  121  124  118  129  126  124  133  117  124  117  123  134  131  127  128  122  126  126  126  120  128  123  117  134  126  126  131  124  115    0
ch:  41     128  128  126  129  133  130  124  128  129  119  127  123  115  131  133  131  129  138  125  131  123  117  129  130  123  123  130  130  130  127  126    0
ch:  42     128  122  120  120  103  118  127  117  123  128  109  128  125  134  131  117  119  129  126  131  133  117  135  117  123  123  135  128  123  127  127    0
ch:  43     128  123  130  115  131  123  121  117  128  124  131  124  121  119  123  121  121  126  118  131  124  124  126  123  128  122  129  128  118  120  128    0
ch:  44     128  128  128  124  120  125  123  118  118  121  115  128  130  123  123  123  123  120  130  125  127  120  118  126  118  123  131  118  126  125  125    0
ch:  45     128  128  114  118  120  133  123  119  120  132  125  120  130  131  121  130  119  127  119  126  119  131  123  121  133  123  128  130  128  120  123    0
ch:  46     128  131  122  131  121  121  114  123  131  118  127  118  123  127  123  119  129  125  135  112  118  129  129  120  127  115  117  129  121  129  120    0
ch:  47     128  128  120  126  121  126  127  120  128  126  133  121  123  123  132  118  121  130  118  131  120  125  130  131  129  135  120  123  121  135  123    0
ch:  48     128  128  120  120  121  116  131  123  123  119  117  123  129  121  121  130  129  123  121  123  121  121  138  120  129  123  131  133  124  120  123    0
ch:  49     128  128  134  122  130  130  117  131  130  138  123  118  121  134  123  116  124  124  129  126  123  131  131  137  139  117  123  127  123  118  121    0
ch:  50     128  131  120  121  125  123  126  128  109  121  123  134  121  128  124  116  124  135  129  123  120  119  124  119  132  131  103  121  130  135  123    0
ch:  51     128  128  120  121  121  133  124  128  115  119  123  117  121  131  117  133  126  118  121  131  134  117  133  106  134  142  119  133  117  128  128    0
ch:  52     128  128  123  121  116  115  123  126  119  126  108  121  124  127  138  123  123  131  117  123  138  131  129  133  121  129  134  127  134  123  123    0
ch:  53     128  129  127  124  121  120  118  126  131  123  120  125  119  122  123  133  131  129  123  117  123  141  133  129  123  127  128  121  127  132  117    0
ch:  54     128  128  121  121  119  117  121  105  127  134  125  131  131  119  133  119  123  121  122  123  126  123  131  124  134  131  123  135  123  123  137    0
ch:  55     128  128  120  131  119  123  128  131  128  128  121  123  134  123  128  128  123  123  128  125  120  133  123  126  128  125  124  121  127  120  133    0
ch:  56     128  122  128  120  118  128  120  123  134  120  121  123  127  120  128  121  109  123  123  131  121  105  133  123  118  127  130  126  130  129  128    0
ch:  57     128  128  111  124  133  123  128  121  121  120  117  126  115  117  134  122  127  118  115  126  123  129  131  129  129  121  130  123  129  125  127    0
ch:  58     128  128  114  125  121  125  126  119  123  123  127  128  128  126  123  131  125  126  125  125  118  123  133  132  130  129  121  120  120  117  117    0
ch:  59     128  128  120  118  117  128  128  123  117  130  130  119  131  123  137  123  121  131  117  124  123  115  123  134  124  129  131  117  123  123  118    0
ch:  60     128  128  131  117  121  130  115  119  128  126  114  121  126  119  130  127  123  131  133  116  124  133  123  120  121  118  123  121  123  122  112    0
ch:  61     128  128  120  134  119  135  116  113  118  120  126  120  121  123  134  138  118  130  121  118  120  135  118  119  134  123  135  134  123  121  131    0
ch:  62     128  128  126  124  122  132  130  136  113  127  127  128  120  123  129  119  134  131  128  127  118  126  130  108  129  128  115  124  133  135  115    0
ch:  63     128  132  124  121  122  118  121  134  131  120  118  128  134  122  131  123  133  123  128  128  129  121  123  131  131  123  125  117  121  134  126    0
ch:  64     128  128  123  118  128  135  133  126  128  123  118  129  128  124  129  127  122  123  129  117  123  125  124  122  132  116  119  126  124  124  133   58
ch:  65     128  128  128  129  125  121  128  122  116  120  121  120  133  133  121  123  124  134  117  134  128  134  131  135  117  131  137  130  129  138  120    0
ch:  66     128  128  125  126  124  131  122  127  128  131  122  123  120  121  128  108  119  134  121  123  130  118  120  127  123  129  122  120  134  127  128    0
ch:  67     128  128  133  131  118  128  117  125  124  123  123  134  124  124  137  123  129  121  123  123  127  128  124  121  116  121  129  130  118  126  123    0
ch:  68     128  128  133  134  124  118  123  131  121  133  128  134  128  122  131  122  129  120  129  134  118  125  135  112  121  130  130  125  121  132  134    0
ch:  69     128  128  126  124  129  128  117  134  117  127  131  120  124  131  121  121  131  127  121  131  126  126  123  130  121  118  137  129  133  126  117    0
ch:  70     128  131  126  133  120  131  118  125  133  123  128  123  123  130  120  121  120  123  123  134  131  134  124  129  128  135  123  118  117  125  128    0
ch:  71     128  128  120  130  133  132  123  130  129  129  109  135  121  129  129  120  123  134  126  133  123  123  137  126  121  137  132  132  130  133  128    0
ch:  72     128  131  132  128  120  121  127  127  118  123  118  120  129  128  130  135  110  130  125  138  119  129  131  126  127  127  127  129  123  114  120    0
ch:  73     128  128  129  118  130  134  134  129  138  123  135  131  121  126  135  121  117  130  131  133  133  135  134  126  130  124  123  123  123  123  131    0
ch:  74     128  154  125  121  122  130  123  131  117  116  127  123  123  112  130  128  124  128  129  123  121  134  131  131  133  132  138  123  131  129  128    0
ch:  75     128  138  120  120  124  131  126  121  122  123  137  131  120  134  122  123  120  124  117  131  135  117  124  121  121  128  130  131  142  134  123    0
ch:  76     128  128  116  127  121  125  120  131  117  118  118  138  120  123  120  118  137  117  135  130  127  118  121  127  122  128  127  131  130  123  134    0
ch:  77     128  128  120  130  130  121  123  128  129  123  129  127  130  132  122  135  127  138  126  134  128  117  129  124  123  112  120  129  127  125  131    0
ch:  78     128  119  130  125  121  119  117  123  111  123  134  123  118  126  129  137  132  127  116  119  124  131  130  134  126  125  122  123  124  135  127    0
ch:  79     128  128  120  115  124  119  119  127  125  126  127  123  123  128  121  132  134  128  123  133  127  121  123  123  124  123  123  123  120  128  128    0
ch:  80     128  133  125  119  118  104  131  123  123  123  128  122  101  119  129  126  127  117  128  130  119  128  122  122  130  123  128  123  134  131  121    0
ch:  81     128  128  130  131  119  125  120  123  132  127  124  128  130  128  117  123  130  123  128  119  118  126  123  138  128  131  131  127  129  134  126    0
ch:  82     128  128  126  121  117  128  127  123  124  117  129  110  128  128  118  120  118  131  121  129  131  131  123  124  131  126  124  115  131  121  134    0
ch:  83     128  128  120  132  122  131  129  124  142  121  119  123  126  130  124  127  123  128  127  128  123  120  126  129  110  126  123  127  135  128  138    0
ch:  84     128  128  130  121  133  120  121  124  125  126  120  120  126  130  124  121  129  128  117  124  130  125  129  127  125  126  134  123  135  131  120    0
ch:  85     128  130  133  119  120  126  134  131  123  123  121  120  117  117  119  123  130  123  124  127  131  125  131  131  138  135  131  134  146  131  131    0
ch:  86     128  132  118  119  124  117  128  129  118  123  130  126  129  124  127  117  129  125  131  121  120  115  133  120  121  114  128  123  134  131  128    0
ch:  87     128  128  128  132  118  121  126  129  119  131  123  122  125  134  121  134  140  120  130  104  128  127  131  127  124  121  126  138  121  129  127    0
ch:  88     128  123  134  118  123  130  134  121  118  110  110  128  133  131  128  115  120  123  137  131  123  136  117  131  127  134  133  122  127  126  128    0
ch:  89     128  128  114  118  122  128  133  125  123  121  128  124  131  117  129  125  125  137  128  121  128  134  119  127  117  123  121  126  124  136  126    0
ch:  90     128  123  125  118  118  134  114  134  130  131  129  117  131  120  121  129  128  135  117  131  130  121  134  119  120  125  134  134  131  123  121    0
ch:  91     128  128  120  128  128  123  129  121  118  123  123  128  122  131  126  117  123  122  124  127  124  128  127  126  127  132  134  130  128  128  123    0
ch:  92     128  128  123  121  134  123  125  128  126  129  121  122  120  127  117  119  128  121  126  124  123  128  115  125  120  129  138  123  128  118  135    0
ch:  93     128  134  120  121  129  129  117  128  121  121  123  131  134  133  114  125  135  124  120  120  131  131  120  116  131  125  129  106  125  128  139    0
ch:  94     128  128  120  120  125  118  115  114  118  130  131  131  123  117  117  120  128  133  139  128  117  121  124  123  129  123  129  129  131  124  107    0
ch:  95     128  135  118  119  131  120  128  123  134  123  131  117  128  131  130  118  127  126  116  120  119  131  119  135  130  133  118  123  129  132  123    0
ch:  96     128  128  130  127  128  123  133  132  126  121  124  133  124  117  126  131  129  129  123  131  124  134  121  123  125  120  125  120  120  130  115    0
ch:  97     128  131  120  118  118  134  114  126  123  131  121  120  128  122  125  126  126  131  128  124  119  120  128  121  119  127  124  123  124  127  124    0
ch:  98     128  168  126  130  123  123  121  129  117  126  113  123  117  119  130  128  118  127  118  120  128  133  126  123  129  106  124  132  120  129  123    0
ch:  99     128  128  124  124  128  130  124  112  129  131  123  131  125  107  129  126  135  137  131  134  126  128  135  122  119  124  131  124  122  134  123    0
ch: 100     128  123  122  120  121  126  118  119  121  123  117  127  117  118  118  123  115  116  123  123  128  124  131  112  125  145  117  128  128  121  129    0
ch: 101     128  128  152  125  122  127  123  118  116  120  118  135  127  123  138  123  124  138  128  131  127  130  120  122  109  132  149  123  123  123  124    0
ch: 102     128  129  120  124  134  134  117  129  119  131  118  129  121  126  128  121  120  118  119  117  117  120  126  120  126  134  124  135  127  123  125    0
ch: 103     128  128  124  127  126  123  123  123  121  128  127  126  121  122  145  134  127  130  129  124  138  137  135  128  120  119  118  127  134  135  129    0
ch: 104     128  128  120  124  128  118  138  126  120  117  118  130  131  121  127  137  118  131  128  123  126  127  118  129  123  131  128  131  121  123  123    0
ch: 105     128  128  120  121  117  117  117  127  123  128  134  122  125  134  130  121  122  123  133  131  107  127  123  134  128  135  125  123  133  133  123    0
ch: 106     128  136  133  133  122  132  115  129  129  122  131  124  121  131  119  135  108  124  123  128  134  123  128  124  117  134  131  134  128  134  124    0
ch: 107     128  128  128  125  117  128  115  123  112  131  118  123  131  130  129  119  136  130  134  130  131  123  120  128  146  135  131  127  123  124  123    0
ch: 108     128  128  128  117  128  120  123  117  123  133  130  122  118  130  127  116  120  119  124  131  131  128  123  129  128  125  130  130  131  133  133    0
ch: 109     128  131  120  121  117  121  121  130  123  124  118  118  118  124  121  130  122  123  145  127  129  122  134  131  115  127  123  131  130  120  125    0
ch: 110     128  128  123  124  118  117  134  116  117  123  121  114  131  118  124  121  118  119  127  123  127  129  130  119  123  132  130  126  129  131  122    0
ch: 111     128  123  121  133  104  115  131  123  115  124  129  119  121  123  131  131  127  126  122  130  137  135  126  122  124  143  124  147  117  123  128    0
ch: 112     128  123  131  131  117  121  140  121  115  136  128  123  129  125  123  119  121  129  117  119  121  131  131  118  119  123  134  121  123  126  131   58
ch: 113     128  128  127  105  120  129  123  127  118  128  119  120  118  122  134  121  114  127  120  121  120  131  123  131  131  134  135  115  132  125  130    0
ch: 114     128  153  114  120  121  135  119  126  128  117  131  128  120  125  131  128  123  121  119  128  134  119  117  133  123  134  129  131  120  120  116    0
ch: 115     128  126  120  131  111  137  125  134  118  129  123  123  123  120  128  137  129  122  119  134  123  135  131  117  136  123  128  129  135  123  123    0
ch: 116     128  128  120  130  124  123  129  128  126  121  107  123  130  126  134  127  124  131  129  125  128  132  118  116  120  130  131  121  121  130  131   54
ch: 117     128  128  128  128  124  116  121  123  123  120  128  119  128  120  119  120  131  131  121  128  121  122  121  120  128  118  131  119  122  126  132   37
ch: 118     128  166  129  128  117  128  125  121  119  121  125  117  123  123  129  128  117  118  121  124  129  121  118  128  123  133  130  124  131  117  126    0
ch: 119     128  128  124  115  116  119  131  118  115  121  121  123  125  124  118  128  119  121  121  130  118  130  118  121  118  117  121  121  121  134  119    0
ch: 120     128  120  119  122  130  128  118  115  125  115  116  130  118  130  115  124  121  115  130  121  117  105  105  121  115  118  115  123  119  125  119    0
ch: 121     128  120  133  116  128  120  121  119  117  121  123  119  118  114  133  120  123  115  119  118  125  113  121  133  133  118  121  115  121  121  127    0
ch: 122     128  128  111  133  109  112  123  115  123  125  115  121  108  119  124  117  113  121  117  119  125  121  119  125  121  129  121  118  108  114  121    0
ch: 123     128  120  119  122  113  130  121  125  131  114  107  112  113  106  125  121  124  101  119  115  121  121  115  115  115  115  121  117  118  119  111    0
ch: 124     128  131  116  122  115  117  121  124  120  121  121  121  121  115  121  131  118  123  121  115  114  121  115  130  115  107  125  113  123  121  130    0
ch: 125     128  133  122  120  121  123  121  121  121  117  127  119  114  114  115  120  125  114  127  130  118  123  115  119  130  117  119  130  115  121  105    0
ch: 126     128  120  119  122  114  127  119  121  119  125  118  119  121  117  117  130  121  125  120  133  121  115  115  121  117  118  127  119  121  117  114    0
ch: 127     128  120  120  122  116  128  105  115  121  119  119  119  127  130  115  137  133  115  125  114  128  131  131  121  115  130  128  128  116  115  130    0
