# TRIM CALIBRATION    FEB6_1_4    pulse_ampl_min=10    pulse_ampl_max=150    pulse_ampl_fast=10
#
ch:   0     128  128  111  116  116  121  126  130  121  119  118  115  105  105  118  121  113  118   98  105  112  119  105  104  125  105  115  114  115  105  105    0
ch:   1     128  120  111  119  113  115  111  121  113  121  113  130  113  123  115  111  111  121  121  117   94  115  112  115  108  109  108  115  105  110  115    0
ch:   2     128  128  111  120  116  119  121  118  111  111  109  110  110  110  111  119  113  110  108  107  115  114  115  115  105  109  109  117  109  119  115    0
ch:   3     128  128  120  116  114  121  105  115  105  115  115  124  103  120  117  105  113  105  105  115  115  114  105  118  112  115  105  112  117  115  115    0
ch:   4     128  128  122  102  120  121  120  105  114  110  121  121  108  121  112  118  111  128  109  105  111  105  105  108  108  118  111  105  101  112  108    0
ch:   5     128  128  120  110  122  109  115  117  119  115  112  115  115  119  105  118  105  103  115  109  113  105  111  115  105  115  115  115   99  105  109    0
ch:   6     128  128  117  116  116  118  108  113  104  109  111  118  109  115  111  119  121  125  107  105  107  105  109  108  115  111  121  115  115  101  105    0
ch:   7     128  128  111  118  120  115  121  112  118  115  114  119  115  115  101  108  109  104  105  117  112  101  118  119  105  115  119  115  101  118  104    0
ch:   8     128  120  120  119  115  116  118  121  121  119  115  115  120  118  105  131  115  105  108  121  101  115  117  101  115  113  109  115  108  103  121    0
ch:   9     128  128  128  106  114  105  123  121  105  119  110  115  115  115  119  128  101  115  114  119  117  114  113  105  115  119  108  105  115  105  114    0
ch:  10     128  128  111  116  104  128  105  103  121  115  119  113  119  119  107  108  115  115  118  119  113  112  118  115  113  115  113  105  110  108  114    0
ch:  11     128  128  116  122  120  114  115  115  119  121  119  115  115  114  115  118  114  115  117  115  131  115  119  115  101  119  113  119  107  111  105    0
ch:  12     128  128  118  122  110  115  114  133  115  113  119  115  107  119  113  115  115  119  107  117  115  119  105  105  117  105  118  107  101  115  107    0
ch:  13     128  129  111  114  120  119  115  130  121  115  119  119  119  111  119  108  117  117  115  115  108  111  115  105  115  117  119  117  100  113  107    0
ch:  14     128  128  111  118  114  120  115  115  111  108  108  115  121  121  107  121  119  119  108  117  111  109  113  112  115  111  114  105  103  107  108    0
ch:  15     128  135  111  124  123  119  115  117  113  108  119  113  108  115  105  115  111  115  108  114  101  105  120  120  118  110  105  121  107  103  121    0
ch:  16     128  120  111  116  102  114  119  113  120  117  115  108  111  108  112  115  108  119  115  111  114  107  118  115  121  115  111  111  115  105  121    0
ch:  17     128  128  120  102  119  121  115  112  115  115  119  115  115  121  114  108  119  115  117  119   99  118  101  115  121  105  113  119  110  117  107    0
ch:  18     128  128  122  113  115  127  121  134  115  121  121  108  105  117  118  111  109  115  119  113  115  101  117  113  108  113  115  101  105  109  101    0
ch:  19     128  120  128  122  104  112  118  104  101  112  113  119  109  117  117  108  110  107  118  119  113  105  105  105  117  103  101  120  105  110  115    0
ch:  20     128  120  116  119  116  113  107  110  107  115  115  105  104  121  114  117  115  105  113  105  119  104  101  118  115  115  112  113  111  120  117    0
ch:  21     128  128  119  115  116  115  119  113  113  108  121  118  119  115  119  119  105  105  115  108  101  120  115  113  105  110  123  115  114  112   92    0
ch:  22     128  120  122  136  121  116  115  131  121  113  117  119  107  119  105  105  119  105  115  121  109  117  105  113  105  115  107  101  117   92  107    0
ch:  23     128  128  111  116  116  128  115  114  109  115  115  105  119  103  115  115  120  109  110  120  108  101  119  117  115  111  105  105  115  105  105    0
ch:  24     128  128  116  121  116  112  113  115  121  111  101  123  113  108  115  118  109  115  113  115  117  117  109  120  115  114  109  105  105  105  105    0
ch:  25     128  128  111  116  116  106  114  120  117  119  125  117  111  108  121  105  121  108  114  119  113  110  115  111  115  101  115  115  107  113  108    0
ch:  26     128  120  119  114  132  109  121  111  115  119  121  115  118  115  121  114  112  108  110  121  115  115  105  117  119  118  108  100  105  104  118    0
ch:  27     128  120  111  116  121  116  117  108  128  114  108  121  117  115  119  118  115  103  114  107  109  105  115  123  118  113  111  101  117  105  105    0
ch:  28     128  128  102  111  112  119  114  120  110  115  105  121  115  105  115  111  115  101  115  121  107  108  115  115  123  108  105  114  110  115  115    0
ch:  29     128  128  118  118  109  106  110  112  119  121  112  119  119  109  115  105  118  113  121  117  104  111  115  121   92  115  105  115  110  118  111    0
ch:  30     128  128  117  114  116  120  133  115  115  115  119  115  121  119  117  115  115  130  115  108  115  111  104  115  105  108  115  107  115  115  115    0
ch:  31     128  128  122  122  121  115  128  120  115  115  113  115  115  118  119  107  105  121  131  115  105  117  121  105  115  114  105  113  111  109  105    0
ch:  32     128  120  111  116  111  113  119  121  115  114  119  115  115  104  115  115  119  118  114  130  108  128  105  117  115  121   92  109  119  119  105    0
ch:  33     128  120  111  113  112  116  119  115  115  107  115  119  115  121  115  109  105  114  128  113  109  111  115  121  109  113  115  115  115  115  115    0
ch:  34     128  128  132  118  115  116  121  131  121  119  121  111  115  119  112  111  121  111  115  113  115  119  105  111  119  105  103  114  105  115  111    0
ch:  35     128  132  111  102  116  118  120  119  105  117  115  114  105  105  112  119  105  120  121  101  118  110  115  115  113  103  105  115  105  117  115    0
ch:  36     128  120  122  116  116  123  115  117  111  115  130  117  125  111  123  120  115  121  121  115  115  105  115  117  101  111  118  105  111  100  110    0
ch:  37     128  128  117  118  116  110  117  114  117  124  128  124  105  115  117  105  130  119  121  121  115  105  101  115  108  119  115  115  115  117  110    0
ch:  38     128  120  120  121  116  121  121  117  114  125   99  105  115  115  105  111  115  113  119  118  117  119  108  110  105  115  117  108  104  111  105    0
ch:  39     128  120  118  116  124  114  118  114  117  115  119  115  118  105  103  119  120  105  111  115  114  110  115  119  120  115  101  108  113  121  118    0
ch:  40     128  128  116  122  119  121  113  115  115  119  115  115  114  115  123  105  114  117  120  105  115  101  109  117  105  121  113  101  115  105  107    0
ch:  41     128  128  132  122  128  118  115  121  121  117  113  121  115  108  115  119  101  105  105  113  105  103  111  115  118  111  101  114  113  115  112    0
ch:  42     128  120  130  122  110  116  115  119  103  105  107  119  121  115  119  101  113  111  113  115  107  109  119  108  107  111  121  119  115  117  101    0
ch:  43     128  128  120  114  116  119  115  119  121  109  115  115  117  121  121  130  115  105  108  121  115  115  105  105  118  105  108  105  119  109  115    0
ch:  44     128  128  111  116  118  121  121  121  112  109  105  110  112  119  115  118  115  115  105  115  121  108  105  105  121  115  105  118  108  109  105    0
ch:  45     128  128  130  118  116  115  115  115  121  119  113  110  118  114  115  113  121  115  109  115  115  121  105  108  105  105  127  114  115  109  113    0
ch:  46     128  129  111  122  121  128  103  111  105  118  109  115  101  109  111  121  119  115  108  121  107  114  117  124  108  123  113  105  109  109  115    0
ch:  47     128  128  124  114  116  115  118  115  121  127  107  108  103  115  105  115  115  121  113  115  113  115  105  117  105  115  105  115  111  101  110    0
ch:  48     128  120  111  115  108  112  115  109  115  112  115  105  120  115  121  111  118  119  105  115  115   92  114  112  123  117  109  115  114  120  109    0
ch:  49     128  131  119  111  119  119  119  115  111  109  115  118  115  119  115  111  121  115  121  105  113  111  115  115  118  111  119  110  109  114  115    0
ch:  50     128  129  117  121  121  110  121  131  115  113  109  121  115  123  114  119  105  109  107  108  117  107  115  108  111  114  109  109  105  103  108    0
ch:  51     128  128  111  116  121  121  119  121  118  119  127  113  117  121  115  120  118  119  107  117  108  115  117  111  113  111  115  109  108  115  111    0
ch:  52     128  128  128  116  124  119  121  115  118  119  105  121  115  105  115  115  115  115  117  115  113  113  115  112  105  104  105  105  113  117  108    0
ch:  53     128  120  130  112  123  106  101  121  121  105  115  115  115  119  101  118  121  109  110  115  108  120  115  114  109  112  105  115  105  115  115    0
ch:  54     128  128  128  102  121  106  118  119  119  121  121  118  115  121  121  115  101  123  105  115  108  105  105  101  114  119  112  120  105  105  101    0
ch:  55     140  128  119  121  114  114  114  115  119  121  125  133  121  130  118  115  119  115  111  118  105  108  115  117  108  105  115  107  108  112  109    0
ch:  56     128  120  121  122  120  112  111  115  105  115  115  121  115  115  125  115  115  105  109  107  114  105  107  101  111  110  111  110  105  109  107    0
ch:  57     128  128  122  133  109  139  115  121  121  105  121  115  108  113  118  121  115  130  113  115  114  101  121  115  105  115  117  118  108  111  115    0
ch:  58     128  129  120  116  111  114  118  111  113  105  115  117  115  119  115  104  112  111  111  114  130  105  113  119  125  101  115  121  118  105  117    0
ch:  59     128  126  122  121  122  128  115  112  128  117  121  104  115  115  114  113  119  123  115  123  105  118  111  105  109  105  111  118  121  117  101    0
ch:  60     128  129  111  106  130  120  130  114  119  115  119  121  114   99  103  115  115  115  113  101  115  108  108  117  115  115  105  121  108  108  101    0
ch:  61     128  120  130  102  116  121  108  114  115  113  105  111  118  115  121  121  133  124  121  115  111  108  119  121  121  109  103  105  117  111  103    0
ch:  62     128  131  120  122  116  104  105  115  131  113  108  133  121  115  115  115  126  121  105  105  105  131   92  105  119  117  115  111  113  119  108    0
ch:  63     128  128  116  111  105  112  111  119  111  110  108  110  115  111  119  121  121  119  121  117  121  130  115  105  107  113  105  118  107  115  115    0
ch:  64     128  128  120  116  105  119  102  115  115  123  119  119  111  115  121  109  111  119  121  114  115  115  109  108  117  114  105  113  105  118  111    0
ch:  65     128  128  120  111  130  116  121  131  118  115  121  133  119  120  115  115  113  114  101  111  113  109  111  109  109  115  105  120  121  101  101    0
ch:  66     128  128  111  115  109  116  113  117  115  120  112  114  120  110  105  105  113  121  121  115  115  112  100  115  115  115  117  101  108  105  115    0
ch:  67     128  120  111  116  111  111  115  108  110  119  121  120  114  112  112  123  108  115  100  105  115  123  121  107  105  111  121  105  110  100  115    0
ch:  68     128  120  116  120  122  117  119  105  126  130  115  119  133  119  121  105  115  105  107  121  101  121  105  108  121  120  121  112  118  107  121    0
ch:  69     128  128  132  113  121  111  121  112  118  121  114  121  119  113  111  108  120  119  119  123  105  115  115  117  115  114  110  115  109  119  105    0
ch:  70     128  128  128  116  123  111  120  115  121  123  115  115  109  105  115  115  115   99  130  115  120  118  113  115  111  109  111  111   99  105  111    0
ch:  71     128  128  132  116  111  130  127  115  115  118  115  121  130  115  112  118  111  108  117  119  108  118  108  115  101  114  115  108  114  114  115    0
ch:  72     128  128  122  116  116  121  105  118  121  108  115  109  115  114  115  118  101  105  105  121  114  121  114  115  120  111  105  115  105  109  105    0
ch:  73     128  115  118  131  123  119  114  115  121  107  127  107  115  119  112  110  112  118  121  115  126  110  114  118  113  101  115  114  109  101  114    0
ch:  74     128  128  111  118  118  112  123  137  119  117  121  121  107  119  118  115  118  115  113  121  115  121  108  117  108  112  101  121  108  110  101    0
ch:  75     128  128  119  119  122  117  119  115  115  119  121  130  117  115  119  113  114  115  104  114  121  121  115  115  105  107  105  107  115  114  105    0
ch:  76     128  128  111  133  130  130  114  114  118  121  131  115  119  115  127  105  115  105  118  114  120  108  105  119  115  118  121  101  108  123  114    0
ch:  77     128  128  122  127  122  119  113  130  113  121  118  110  115  118  119  110  121  111  124  119  115  115  115  130  115  121  105  119  121  121  125    0
ch:  78     128  129  111  106  119  119  115  114  119  121  118  111  111  119  105  121  115  115  108  119  115  115  105  111  101  119  117  111  108  113  105    0
ch:  79     128  136  120  121  115  133  128  123  121  131  119  121  105  120  111  117   92  112  118  121  120  121  115  121  105  119  118  115  108  118  114    0
ch:  80     128  128  122  116  121  119  112  119  120  115  105  115  115  118  103  115  118  117  115  111  120  121  115  115  115  101  120  115  109  120  115    0
ch:  81     128  120  122  114  111  110  117  121  118  119  110  107  113  111  110  115  100  121  109  119  105  115  120  113  119  105  105  115  109  117  105    0
ch:  82     128  120  124  114  110  121  134  113  115  118  113  128  121  107  115  117  120  131  113  119  114  105  111  105  107  101  101  115  101  119  110    0
ch:  83     128  120  130  121  133  116  104  118  123  115  117  119  112  115  113  108  114  117  118  115  112  118  119  112  119  117  123  119  101  128  110    0
ch:  84     128  132  118  108  130  108  107  115  118  110  115  115  113  121  115  105  115  121  107  121  105  124  110  101  109  101  115  123   98  101  115    0
ch:  85     128  120  111  116  121  115  123  128  110  118  115  119  117  118  112  118  126  121  105  113  121  105  113  115  115  115  105  115  115  115  111    0
ch:  86     128  128  132  136  116  119  118  119  118  121  119  121  115  120  121  105  121  112  121  115  113  117  115  115  114  118  115  108  101  105   90    0
ch:  87     128  120  111  122  112  121  115  124  115  121  114  135  121  115  126  105  101  123  115  113  121  119  115  114  115  115  119  119  105  105  104    0
ch:  88     128  129  122  122  130  119  113  119  115  115  119  119  110  115  114  108  115  107  115  127  105  105  118  119  105  105  115  105  103  121  115    0
ch:  89     128  128  122  118  121  118  123  105  119  121  105  125  120  115  114  113  108  101  111  128  115  115  119  119  111  121  108  105  105  105  105    0
ch:  90     128  128  115  122  126  133  121  121  121  115  118  113  105  119  115  105  124  107  110  115  119  115  115  108  109  113  115  111  115  103  115    0
ch:  91     128  122  111  121  121  112  110  110  118  105  121  115  110  118  115  128  117  113  134  117  105  115  115  117  111  111  118  113  118  113  115    0
ch:  92     128  128  120  131  121  118  120  131  130  115  105  123  128  118  124  124  115  109  118  107  115  121  108  105  121  115  112  101  110  113  107    0
ch:  93     128  128  116  116  115  125  112  117  101  111  121  123  125  119  115  121  115  118  105  105  123  115  115  110  113  113  111  100  105  119  115    0
ch:  94     128  120  122  118  122  115  115  128  115  111  111  110  119  114  120  105  130  121  115  115  113  119  115  119  114  123  115  113  105  113  115    0
ch:  95     128  128  118  122  120  119  119  108  118  128  109  115  115  130  115  119  115  108  112  117  111  115  115  119  107  115  110  113  117  113  121    0
ch:  96     128  120  111  116  121  127  111  115  112  115  115  115  112  113  119  115  115  115  105  119  118  115  115  115  107  107  110  114  115  108  114    0
ch:  97     128  128  120  112  110  121  129  120  119  115  104  108  105  118  115  109  115  115  115  121  111  115  108  121  130  115  113  115  105  111  108    0
ch:  98     128  129  114  119  114  127  119  107  130  119  121  121  105  119  111  108  127  119  121  109  105  115  121  119  117  118  115  107  108  101  109    0
ch:  99     128  128  122  133  116  106  118  133  103  121  115  119  115  120  130  105  103  115  128  119  113  114  117  101  114  108  111  101  107  105  105    0
ch: 100     128  129  132  120  116  119  115  115  118  117  118  115  120  115  121  111  115  120  110  115  115  118  111  104  121  119  100  105  105  121  108    0
ch: 101     128  120  132  122  121  119  121  131  115  105  113  115  115  114  115  115  115  112  115  128  105  119  115  118  115  115  105  121  115  115  107    0
ch: 102     128  132  116  122  121  121  105  115  119  130  108  115  115  121  115  115  129  121  121  115  130  118  111  111  115  111  101  105   98  109  113    0
ch: 103     128  128  127  116  120  108  130  123  119  107  133  110  115  127  115  111  119  115  115  123  120  119  115  113  110  115  105  103   97  113  115    0
ch: 104     128  120  120  106  121  111  115  113  109  117  115  121  119  108  105  108  121  113  113  115  115  119  119  111  105  101  115  101  117  109  107    0
ch: 105     128  128  111  122  125  130  121  115  115  115  115  115  119  118  121  115  117  121  114  119  105  121  118  121  120  119  118  115  118  105  110    0
ch: 106     128  137  111  133  119  121  118  118  123  113  121  115  115  115  114  127  130  111  119  110   94  108  127  123  115  112  118  115  119  105  115    0
ch: 107     128  120  122  115  132  121  115  115  113  123  115  115  115  105  111  128  108  119  115  123  115  115  115  127  113  115  119  117  115  115  108    0
ch: 108     128  129  128  126  121  118  123  121  115  121  119  125  112  103  113  121  120  107  105  115  112  119  114  100  115  128  115  113  115  115  115    0
ch: 109     128  128  120  118  118  133  112  121  115  130  105  119  133  120  112  124  115  115  112  120  108  113  114  115  115  111  115  105   93  110  123    0
ch: 110     128  128  120  122  130  119  123  133  120  119  119  115  115  133  118  115  115  105  127  119  111  115  115  114  109  119  115  115   98  115  101    0
ch: 111     128  128  122  122  113  106  105  121  115  115  119  109  105  105  113  115  133  101  103  101  115  110  105  117  118  115  112  130  112  114  121    0
ch: 112     128  136  120  128  118  123  128  113  118  120  131  105  121  119  105  115  118  107  101  121  121  115  121  101  105  121  110  115  115  104  105    0
ch: 113     128  128  120  108  120  116  119  121  121  130  113  115  115  117  121  121  105  119  115  115  109  115  107  119  115  121  104  115  121   94  119    0
ch: 114     128  128  120  116  119  119  119  114  115  115  115  121  112  119  115  115  105  118  101  107  113  107  111  115  121  115  105  105  105  109  111    0
ch: 115     128  120  111  121  121  119  114  113  115  133  119  134  119  114  109  111  113  115  111  133  133  115  119  115  121  115  109  113  115  105  105    0
ch: 116     138  120  127  122  121  130  119  105  115  108  111  114  108  111  110  118  121  118  115  121  115  115  115  115  105  101  115  111  114  108  121    0
ch: 117     128  128  122  116  111  119  115  115  121  117  113  121  119  133  120  101  121  123  109  118  115  114  113  118  115  115  107  105  118  107   98    0
ch: 118     128  128  119  116  105  115  123  119  119  120  121  130  108  121  119  111  108  109  118  110  108  105  107  114  118  115  115  115  121  105  115    0
ch: 119     128  120  117  120  136  121  119  108  121  115  115  121  137  113  115  121  130  115  121  119  115  119  115  105  115  111  115  115  108  117  117    0
ch: 120     128  120  122  116  116  116  109  115  101  105  130  115  115  130  115  115  130  118  105  118  113  118  110  115  103  112  115  115  105  115  105    0
ch: 121     128  120  116  118  114  126  130  112  118  117  117  115  112  117  114  104  119  119  118  126  128  105  110  113  119  114  103  105  121  123  117    0
ch: 122     128  120  111  122  121  121  105  130  122  113  105  133  118  120  121  119  115  119  105  118  114  115  126  121  115  115  123  119   99  115  115    0
ch: 123     128  120  118  133  121  121  135  105  115  131  115  115  118  126  121  119  113  119  113  108  115  115  112  107  115  115  109  105  121  101  127    0
ch: 124     128  140  122  133  116  113  105  119  121  115  121  112  115  128  123  115  121  111  109  119  108  118  101  108  130  119  133  105  121   99  112    0
ch: 125     128  128  128  118  121  121  117  115  115  121  121  118  115  119  115  121  121  121  119  113  115  108  112  115  115  119  110  118  115  115  110    0
ch: 126     128  128  114  124  105  121  117  115  121  121  119  121  108  118  118  115  114  120  117  121  113  115  111  110  114  121  115  105  115  121  111    0
ch: 127     128  137  120  122  116  119  115  115  119  117  137  115  121  121  120  115  108  118  119  118  115  110  121  121  113  108  110  109  105  115  121    0
