# TRIM CALIBRATION    FEB6_9_2    pulse_ampl_min=10    pulse_ampl_max=150    pulse_ampl_fast=10
#
ch:   0     128  128  120  122  119  118  129  118  118  118  117  121  109  121  113  130  119  113  119  119  118  105  118  117  115  119  108  113  105  120  115    0
ch:   1     128  120  118  126  118  118  115  118  117  123  111  113  117  108  129  133  121  113  103  121  115  111  117  115  115  107  105  117  115  119  130    0
ch:   2     128  128  122  130  121  106  127  105  115  117  119  119  119  105  118  117  113  126  113  117  105  115  118  119  115  112  107  117  112  104  120    0
ch:   3     128  129  120  122  115  116  106  121  119  118  118  121  121  115  121  117  107  121  108  105  115  121  113  121  115  129  110  105  118  121  108    0
ch:   4     128  128  124  116  117  116  121  121  120  121  120  121  115  115  108  117  117  115  115  120  117  117  121  121  108  130  115  121  120  119  112    0
ch:   5     128  128  121  116  116  123  121  117  118  114  107  127  121  115  135  121  121  117  107  121  117  118  118  115  115  119  124  121  104  118  117    0
ch:   6     128  128  120  120  109  120  121  133  117  120  113  115  133  118  119  131  105  121  118  121  117  128  117  121  115  111  105  115  101  115  118    0
ch:   7     128  120  121  128  119  120  114  123  121  120  121  115  118  121  112  131  116  115  128  115  123  119  115  118  115  118  117  116  115  104  116    0
ch:   8     128  128  127  121  123  105  117  119  124  120  121  115  115  119  118  121  110  119  105  131  119  121  131  118  115  117  128  118  121  121  115    0
ch:   9     128  120  120  116  122  114  126  125  115  121  121  114  115  121  123  114  118  115  112  121  115  121  113  121  117  115  121  112  107  121  120    0
ch:  10     140  128  122  124  113  118  128  113  113  119  113  117  113  115  115  117  128  115  116  123  123  121  115  130  100  118  105  103  105  107  108    0
ch:  11     128  123  132  122  121  116  120  105  113  115  120  128  112  131  115  120  121  121  121  125  115  101  121  118  113  121  108  117  112  117  128    0
ch:  12     128  128  122  132  115  113  103  121  119  115  119  128  137  117  116  121  112  127  119  116  118  114  114  123  104  118  108  113  114  123  115    0
ch:  13     128  120  127  133  120  121  117  121  115  115  123  115  115  133  115  118  132  105  119  121  120  119  121  118  105  111  105  123  105  115  117    0
ch:  14     128  128  120  126  120  126  107  126  121  130  113  119  118  124  112  128  109  129  117  121  115  114  115  113  117  117  114  119  114  119  120    0
ch:  15     128  128  125  116  124  130  114  119  113  117  117  120  115  113  121  121  120  123  118  103  121  117  107  119  118  108  115  123  119  119  115    0
ch:  16     128  128  115  114  120  116  121  115  121  123  116  115  119  121  121  123  128  129  120  115  131  119  118  128  114  115  128  110  114  121  118    0
ch:  17     128  128  115  122  118  116  128  134  127  119  113  121  131  119  108  121  121  126  130  114  133  115  121  130  130  111  119  119  115  115  119    0
ch:  18     128  120  111  115  123  115  114  114  131  125  115  123  131  115  115  115  115  120  120  119  103  105  113  108  115  105  115  118  114  118  116    0
ch:  19     128  120  122  122  131  130  119  130  115  131  120  118  109  115  130  110  118  121  113  121  131  121  117  115  115  114  115  128  115  115  108    0
ch:  20     128  128  121  120  122  124  117  119  119  139  133  121  117  121  121  119  117  119  121  113  115  121  117  123  105  112  105  123  107  105  115    0
ch:  21     128  128  124  130  112  128  115  119  110  121  127  126  127  108  130  105  133  123  121  119  115  121  118  118  113  119  103  115  112  118  120    0
ch:  22     128  128  122  124  129  128  123  119  120  118  108  115  119  128  115  121  116  113  121  131  124  129  123  118  115  121  121  115  121  116  105    0
ch:  23     128  128  120  108  116  116  117  130  112  119  118  130  121  117  117  128  105  131  117  108  120  112  114  120  123  108  112  131  115  130  121    0
ch:  24     128  121  122  130  118  123  115  118  121  118  121  131  114  118  113  121  115  117  112  133  121  117  121  118  117  112  115  105  115  123  121    0
ch:  25     128  123  111  116  121  110  125  127  117  123  123  117  123  113  119  110  121  114  119  115  118  114  118  105  115  109  117  121  120  117  127    0
ch:  26     128  128  121  120  119  121  121  115  120  121  118  128  118  129  118  113  126  119  108  112  120  119  114  117  121  117  121  106  126  120  105    0
ch:  27     128  131  118  131  105  115  128  131  120  121  117  115  115  131  121  121  124  115  118  128  121  121  106  119  116  111  118  118  123  108  118    0
ch:  28     128  129  118  128  116  110  113  118  127  117  129  118  112  130  108  133  118  119  108  130  118  121  105  119  113  117  118  105  118  107  114    0
ch:  29     128  120  114  120  118  121  117  133  130  118  126  127  126  120  115  105  121  123  114  104  123  104  114  117  118  119  120  118  114  130  120    0
ch:  30     128  120  135  130  126  128  115  131  121  123  117  114  118  128  119  126  119  113  118  118  114  121  118  118  116  117  111  128  117  118  120    0
ch:  31     128  128  114  107  119  133  133  133  121  123  128  113  133  118  118  121  105  121  115  123  118  118  114  115  123  113  116  133  105  112  113    0
ch:  32     128  128  128  128  128  128  128  128  128  128  128  128  128  128  128  128  128  128  128  128  128  128  128  128  128  128  128  128  128  128  128    0
ch:  33     128  128  119  133  128  119  115  120  117  123  117  121  115  118  113  115  115  126  121  114  109  110  113  115  119  133  115  117  120  115  119    0
ch:  34     128  128  111  127  131  131  119  129  115  121  115  126  105  121  115  115  115  128  121  108  115  109  124  127  115  111  119  101  114  114  121    0
ch:  35     128  131  122  124  119  123  130  125  118  123  121  121  106  133  101  118  115  123  118  130  117  119  123  118  120  118  121  132  121  115  120    0
ch:  36     128  120  124  124  116  123  123  121  119  120  130  112  115  117  119  105  115  115  117  121  118  119  117  117  117  117  115  123  115  115  118    0
ch:  37     128  128  124  127  118  107  121  120  114  115  119  119  121  126  131  113  117  127  118  117  117  117  119  115  120  115  114  124  123  109  114    0
ch:  38     128  122  116  121  114  112  115  133  117  133  115  106  117  114  120  117  119  121  115  114  120  106  121  117  115  116  117  131  108  115  128    0
ch:  39     128  120  130  136  118  123  123  129  130  119  123  129  128  128  121  118  126  129  119  118  123  123  133  133  117  126  117  128  123  114  110    0
ch:  40     128  129  130  133  121  118  119  133  119  115  120  121  121  114  118  105  105  128  114  133  115  119  115  121  120  119  118  109  121  108  119    0
ch:  41     128  128  122  122  129  119  124  129  127  130  128  128  129  121  115  117  133  118  115  108  115  105  121  126  108  121  114  130  115  109  103    0
ch:  42     138  128  119  124  117  116  118  118  121  128  133  130  127  113  118  119  108  121  113  117  130  120  104  105  115  119  117  121  105  117  115    0
ch:  43     128  127  122  121  136  124  118  128  131  121  117  121  125  121  133  108  120  115  114  120  118  123  115  117  115  123  121  110  121  105  114    0
ch:  44     128  128  119  122  123  119  126  121  120  115  118  125  130  115  113  131  114  123  121  121  119  117  115  119  112  131  120  101  105   95  123    0
ch:  45     128  128  132  120  116  114  121  112  128  126  118  119  126  123  119  118  118  124  114  117  115  117  117  118  121  113  119  119  105  121  119    0
ch:  46     134  120  116  115  119  127  117  117  123  119  115  117  121  108  118  118  126  115  115  117  110  121  113  121  117  121  117  105  113  115  120    0
ch:  47     128  128  121  120  119  124  133  119  114  118  103  115  130  110  119  119  115  130  115  118  123  123  121  120  115  123  130  115  115  115  105    0
ch:  48     128  120  120  122  133  115  115  117  114  121  130  120  117  117  110  121  121  124  116  133  119  118  115  115  121  118  120  105  104  119  108    0
ch:  49     128  128  138  118  122  109  115  115  115  133  123  146  128  115  123  117  115  121  119  119  130  105  128  119  119  118  115  123  128  115  115    0
ch:  50     128  120  121  106  128  128  124  117  121  121  126  131  120  115  127  123  105  117  137  128  124  115  115  120  117  128  130  117  115  130  108    0
ch:  51     128  131  170  121  121  118  130  120  126  128  115  121  115  115  123  121  130  115  121  110  117  115  118  120  119  121  121  133  107  126  112    0
ch:  52     128  117  119  138  121  112  132  122  118  116  120  121  115  117  125  135  120  118  106  104  116  122  122  108  116  129  112  120  117  116  118    0
ch:  53     128  123  121  119  115  135  121  119  131  125  117  125  114  131  120  121  115  115  121  118  123  126  115  120  125  120  121  130  105  118  109    0
ch:  54     128  128  115  120  132  129  119  117  121  115  131  121  115  115  117  130  115  133  119  121  118  131  115  121  115  119  123  119  105  105  105    0
ch:  55     128  120  124  124  123  123  118  123  117  121  126  121  118  119  118  123  117  128  121  131  121  115  119  107  118  119  130  126  104  119  120    0
ch:  56     128  131  124  122  122  132  115  121  117  119  121  121  133  130  119  123  121  119  120  120  120  137  121  118  121  118  117  120  133  121  118    0
ch:  57     128  120  130  122  125  121  115  127  115  119  117  117  128  121  128  120  137  110  126  121  121  120  131  121  114  119  115  115  117  113  108    0
ch:  58     128  128  118  126  116  123  121  105  121  131  121  115  117  115  120  119  130  118  121  117  119  128  117  127  117  118  103  133  117  105  115    0
ch:  59     128  128  124  118  118  127  105  137  120  120  125  107  131  120  130  112  130  119  119  121  113  113  121  117  115  111  118  124  123  131  121    0
ch:  60     128  128  119  133  132  123  130  119  113  117  126  133  123  115  127  119  117  115  115  115  123  120  129  114  118  108  120  117  107  120  115    0
ch:  61     128  128  116  121  114  121  119  117  127  132  128  121  125  121  118  121  115  128  123  120  112  105  128  120  117  118  128  114  120  118  130    0
ch:  62     128  128  121  136  125  128  120  115  128  120  121  128  118  119  128  126  115  115  118  120  118  110  121  118  115  120  128  115  109  105  105    0
ch:  63     128  128  107  122  124  113  131  133  119  130  123  128  113  133  121  118  121  116  115  115  118  115  119  121  121  126  117  105  115  117  120    0
ch:  64     128  120  111  132  119  127  108  118  123  107  115  121  128  123  114  121  120  127  121  121  121  124  128  107  114  117  123  119   99  114  115    0
ch:  65     128  120  119  120  119  121  117  123  121  114  121  118  130  121  115  134  121  116  115  115  121  118  119  121  120  133  115  117  123  118  114    0
ch:  66     128  129  121  134  123  132  105  137  120  119  121  123  133  120  115  123  118  123  115  120  107  115  118  110  131  101  121  121  115  123  121    0
ch:  67     140  131  122  125  122  121  118  119  126  131  120  121  115  128  119  128  118  121  117  137  117  118  114  130  119  117  117  112  119  117  121    0
ch:  68     128  128  114  118  132  121  118  115  130  118  121  121  133  119  108  135  119  121  121  121  121  115  114  115  121  117  117  115  124  118  121    0
ch:  69     128  129  121  121  122  123  130  121  128  135  121  128  123  125  128  118  128  123  121  114  115  121  105  121  113  118  139  121  115  122  115    0
ch:  70     128  120  117  124  132  122  120  121  105  124  134  129  119  123  114  131  129  113  115  114  115  123  117  108  118  115  105  105  108  115  112    0
ch:  71     128  128  111  120  124  132  121  128  115  121  120  118  120  115  129  120  135  119  123  121  113  119  115  105  120  120  115  115  128  114  131    0
ch:  72     128  120  118  120  126  120  117  115  107  119  123  118  122  133  127  131  134  131  127  115  133  105  119  134  119  110  115  115  121  112  126    0
ch:  73     128  120  124  122  119  116  131  115  130  121  121  117  116  133  113  133  130  120  121  121  132  117  121  121  133  119  110  120  106  115  108    0
ch:  74     128  129  121  125  132  132  118  115  131  129  120  115  113  124  119  130  120  127  105  120  118  118  120  121  120  109  115  117  121  105  114    0
ch:  75     128  131  122  119  118  114  126  130  130  130  123  130  119  137  115  118  115  107  121  123  121  120  121  120  117  121  117  127  119  115  123    0
ch:  76     128  120  124  120  116  116  130  118  121  118  130  129  127  120  130  128  118  134  111  108  120  133  118  121  105  133  121  121  113  119  109    0
ch:  77     128  128  120  122  122  130  121  137  121  118  121  120  115  126  123  129  121  119  124  115  112  123  123  116  115  112  126  123  128  119  109    0
ch:  78     128  127  119  119  120  132  123  119  139  126  105  124  120  130  121  119  120  115  121  124  130  121  127  121  105  118  118  105  105  105  115    0
ch:  79     128  128  118  119  121  123  130  124  118  115  119  114  121  126  123  133  123  112  118  118  123  101  119  117  121  115  117  121  110  118  115    0
ch:  80     128  123  120  116  123  123  126  115  125  121  126  131  117  118  131  121  113  119  121  128  105  119  121  118  116  120  115  105  123  129  118    0
ch:  81     128  129  120  128  120  118  123  110  118  128  119  117  128  123  118  117  117  126  118  124  120  134  118  110  121  118  126  113  121  121  107    0
ch:  82     128  137  118  120  124  124  125  117  115  121  117  131  120  121  119  133  130  131  115  118  118  121  117  107  119  119  103  125  120  115  127    0
ch:  83     128  120  120  121  134  123  133  120  124  101  129  121  115  126  121  130  101  120  120  121  121  118  117  133  118  101  120  121  124  118  134    0
ch:  84     128  129  121  119  128  131  121  119  124  130  121  118  117  119  131  108  121  117  124  126  133  119  120  110  115  113  117  121  105  120  119    0
ch:  85     128  129  128  118  118  121  121  118  124  113  118  113  118  125  121  118  128  134  130  128  118  130  107  113  119  123  121  118  115  121  108    0
ch:  86     128  120  122  129  124  121  125  120  119  118  129  119  116  121  133  130  120  115  128  123  133  121  121  120  117  115  121  131  114  119  119    0
ch:  87     128  120  115  120  132  123  119  131  118  121  125  123  131  126  121  133  119  119  115  118  115  119  117  123  126  117  119  121  121  117  118    0
ch:  88     128  120  121  108  116  116  130  123  115  118  139  117  105  115  130  131  108  121  121  128  115  121  119  128  118  119  119  110  114  115  115    0
ch:  89     128  128  111  117  122  130  119  131  121  133  121  121  121  116  123  120  128  115  118  115  117  119  128  121  121  120  121  105  115  115  104    0
ch:  90     128  128  122  136  122  118  115  119  128  132  130  123  123  119  120  115  118  119  119  123  133  121  133  117  119  121  123  109  117  110  115    0
ch:  91     128  128  121  117  122  121  119  119  117  119  121  135  118  121  130  135  130  121  121  133  130  119  115  119  130  126  114  121  120  106  121    0
ch:  92     128  129  120  133  120  118  128  126  123  108  121  134  133  107  121  128  133  115  113  121  115  123  130  121  119  120  115  118  120  123  121    0
ch:  93     128  128  120  112  122  121  121  131  130  121  117  118  119  108  119  134  130  118  123  121  123  123  120  114  110  117  130  131  128  121  109    0
ch:  94     128  129  122  119  113  116  120  118  105  110  137  123  120  112  117  131  113  121  127  123  120  127  119  121  121  108  101  115  120  123  115    0
ch:  95     128  128  124  122  116  131  121  123  115  131  123  130  113  134  118  125  121  123  123  137  118  126  126  115  117  120  118  123  108  114  115    0
ch:  96     128  129  122  120  120  114  124  121  121  121  118  105  121  115  131  130  121  134  116  114  117  107  126  118  115  128  119  118  121  105  117    0
ch:  97     128  135  121  136  128  116  123  121  115  108  130  114  128  126  137  115  118  126  115  119  114  120  119  125  123  131  124  121  121  115  131    0
ch:  98     141  131  118  129  122  125  107  120  113  121  126  105  115  115  124  128  117  115  127  128  121  130  121  124  123  117  104  114  121  103  120    0
ch:  99     128  120  116  133  116  123  120  124  115  129  128  105  123  131  120  121  137  123  115  124  128  116  134  134  117  124  117  130  113  105  117    0
ch: 100     128  128  127  116  116  130  121  114  134  118  113  114  123  130  119  117  119  119  121  124  126  112  121  105  114  123  118  121  111  114  115    0
ch: 101     128  131  132  130  134  127  135  121  128  125  121  127  115  112  115  124  121  119  123  119  108  118  128  128  118  121  123  130  126  110  126    0
ch: 102     128  120  132  116  120  121  119  121  123  138  128  123  137  121  126  130  121  118  127  118  110  115  115  117  115  121  114  119  117  107  105    0
ch: 103     128  120  128  121  116  106  133  130  126  118  119  118  121  121  115  117  131  113  134  133  121  133  115  117  115  120  109  126  121  119  114    0
ch: 104     131  129  118  119  121  128  121  118  119  118  133  133  137  133  117  115  118  118  118  127  121  121  115  124  124  120  128  121  117  119  115    0
ch: 105     128  131  131  133  133  119  121  133  121  119  121  115  105  121  115  121  119  117  117  113  117  130  121  131  119  115  124  130  121  118  122    0
ch: 106     128  131  117  131  116  117  121  121  133  118  125  133  121  121  105  114  121  105  113  121  105  117  130  116  113  130  115  118  115  121  114    0
ch: 107     128  128  122  122  119  115  120  121  114  120  127  118  115  124  121  118  130   98  133  108  118  110  133  121  128  118  117  114  120  107  128    0
ch: 108     128  133  130  121  132  121  128  118  119  118  123  129  131  123  115  121  133  121  119  115  121  120  121  121  120  137  105  115  119  107  129    0
ch: 109     128  128  134  119  121  132  114  131  120  121  126  123  126  129  105  123  133  128  113  124  122  118  123  107  120  121  120  124  115  123  117    0
ch: 110     128  120  111  122  127  123  128  115  121  114  128  124  121  114  119  121  121  121  120  119  112  131  107  121  130  118  115  118  115  128  121    0
ch: 111     128  120  130  136  119  119  131  115  119  121  115  117  121  124  121  120  121  123  120  131  115  133  110  121  121  126  121  121  131  105  123    0
ch: 112     128  120  122  120  119  120  119  131  118  121  130  126  119  121  128  117  115  128  133  114  103  121  130  112  123  121  128  115  128  114  121    0
ch: 113     128  129  124  122  118  131  130  134  115  127  121  126  125  115  115  117  117  115  123  123  115  123  124  127  103  118  121  133  128  123  114    0
ch: 114     128  120  130  119  125  118  115  120  115  128  121  115  115  126  120  121  115  128  115  120  115  118  123  120  119  124  114  115  113  118  129    0
ch: 115     133  128  120  119  123  120  122  134  117  121  137  121  123  121  124  123  114  130  119  128  120  119  121  119  105  115  126  118  121  117  118    0
ch: 116     128  120  120  129  122  133  120  118  108  119  121  123  120  121  115  117  133  119  117  108  118  121  121  123  117  121  114  119  120  118  117    0
ch: 117     128  129  120  133  116  133  105  128  121  121  115  133  115  121  123  131  119  133  113  117  109  115  115  121  123  121  121  123  117  123  118    0
ch: 118     128  123  120  117  131  133  126  115  121  121  114  126  120  121  115  121  115  123  116  119  120  127  118  119  121  117  105  128  118  123  121    0
ch: 119     128  120  122  127  119  123  110  120  119  120  119  112  115  119  119  121  128  117  115  115  131  118  105  120  115  121  118  114  121  115  105    0
ch: 120     128  131  121  107  128  132  121  130  117  118  115  125  118  125  115  117  121  133  112  115  124  131  117  121  123  115  117  123  123  105  115    0
ch: 121     128  131  120  122  123  127  115  118  115  115  121  124  112  114  124  118  117  124  131  135  133  123  127  117  124  120  128  118  118  115  121    0
ch: 122     128  120  121  122  130  124  115  121  110  118  130  126  115  119  124  118  119  120  115  115  118  120  112  115  120  121  115  117  105  116  108    0
ch: 123     128  128  132  125  121  126  131  128  118  130  133  133  125  117  115  121  112  120  123  130  120  130  114  121  115  118  124  121  121  128  118    0
ch: 124     128  128  122  106  118  108  121  112  126  130  120  119  127  118  138  123  121  117  118  121  123  115  115  105  119  123  110  115  121  117  123    0
ch: 125     128  128  121  130  118  131  130  121  121  117  116  115  120  121  120  114  121  126  129  119  119  119  113  117  121  115  115  115  119  118  114    0
ch: 126     128  120  121  119  123  116  134  133  131  115  123  108  121  119  133  120  118  115  118  120  114  119  121  118  128  121  118  118  115  121  118    0
ch: 127     128  129  121  121  128  133  120  121  128  123  121  115  118  131  121  118  108  119  121  119  125  133  118  121  121  130  120  108  129  128  123    0
