# TRIM CALIBRATION    FEB6_2_5    pulse_ampl_min=10    pulse_ampl_max=150    pulse_ampl_fast=10
#
ch:   0     128  120  118  118  119  121  121  104  114  115  115  109  111  115  104  101  115  108   94  118  101  115  113  107  105  113  104  115   99  104  101    8
ch:   1     128  120  118  116  113  114  107  105  117  118  115  104  105  108  115  108  105  107  105  111  109  110  115  105  109   99   92  123  117   92  105    0
ch:   2     128  128  106  121  115  111  115  121  115  118  101  121  108  105  115  112  101  121   92  105  118  105  105  107  109  107  105   98  101   99  101    0
ch:   3     128  123  121  113  105  128  114  117  103  114  115  105  118  123  115  115  105  111  114  112  117  117  104  114  105  105   98  105   92  111  104    0
ch:   4     128  120  113  122  105  115  115  105  117  100  117  114  107  115  104  113  110  113  117  113  114  104  105  112  107  104   94  101  101  112  105    0
ch:   5     128  128  116  118  116  112  115  105  131  121  101  114  114  114   93  113  115  105  113  105  119  114  101  101  113  118  100  105  103  116  101    0
ch:   6     128  120  122  116  119  117  117  114  115  119  115  123  113  117  104  103  108  115  115  107  113  101  105   91  112  107  105  107  112  101  113    0
ch:   7     128  128  115  130  121  118  113  119  115  117  107  122  115  121  113  110  115  113  105  119  114  118  114  105  105  115  114  112  105  100   87   56
ch:   8     128  120  115  116  119  115  105  121  103  121  115  110  105  115  110  101  105  105  101  107  119   98  108   91  104  105  118   98  104  117  105    0
ch:   9     128  120  118  119  121  121  119  121  103  105  107  118  118  114  105  108  108  108  112  121  108  118  107  112  101  105  107  104   94  115  113   59
ch:  10     128  128  102  116  106  120  117  117  100  105  115  114  123  109  105  107  108  114  105  121  121  115  101  119  117  105  100  109  104   89   92    0
ch:  11     128  128  128  156  156  128  156  128  128  128  128  128  128  128  128  128  128  128  128  128  128  128  128  128  128  128  128  128  128  128  128    0
ch:  12     128  128  129  129  147  141  165  171  169  128  128  128  128  128  128  128  128  128  128  128  128  128  128  128  128  128  128  128  128  128  128    0
ch:  13     102  107  111  130  130  134  138  142  128  148  138  144  143  147  148  156  165  168  156  178  128  162  169  180  128  168  176  173  172  170  128   41
ch:  14     128  120  111  126  105  115  113  121  119  105  107  108  123  105  104  107  107  117  120  104  105  115  115  101  104  114  100  103  108  112  113    0
ch:  15     128  128  116  126  132  120  115  118  117  119  115  121  120  105  111  123  115  115  108  111  103  115  115  118  105  101  105   99   94   99  110    0
ch:  16     128  115  108  108  121  118  121  108  121  112  115  124  115  113   99  105  105  113  105  107  114  112  114  115  103  104  103  114  119  107  105    0
ch:  17     128  120  111  113  116  117  115  115  119  112  105  117  115  105  128  115  101  104  123  115  121   93  115  115  110  103  108  105  101  105   99    0
ch:  18     128  128  114  122  116  121  119  129  108  119  115  115  124  123  115  115  105  110   99  113  103  115  100  110  101  103  105  105  101  101   91    0
ch:  19     128  130  115  115  119  104  111  118  115  115  113  113  120  112  105  115  117  112  105  112  117  112  101  112  115   92  112   99  103  117  105    0
ch:  20     128  128  122  113  104  116  119  118  110  121  105  108  121  111  105  105  104  107  117  108  107  112  115  110  107  119  103  103  101  103  105    0
ch:  21     128  120  121  116  121  120  108  114  115  119  107  115  110  115  103  117  105  119  101  104  117  104  104  114  117  115  100  103  100  105  118    0
ch:  22     128  123  107  107  113  105  121  115  101  113  120  105  115  105  114  119  106  105  105  104  120  114  116   91  105  107  105  105  105   92  112    0
ch:  23     128  122  121  116  113  114  117  115  110  115  121  105  108  121  114  121  115  107  108  115   99  105  118  118   92  101   92  115  105  115  105    0
ch:  24     128  128  115  106  119  117  118  103  104  107  119  108  119  105  105  111  103  109  115  118  108  101  115  105  105  101   92   99   92  100   99    0
ch:  25     128  123  115  119  115  114  114  132  113  115  117  101  107  123  105  118  112  107  105  117  119  104  112  108  108  105  114  118  110  101   92    0
ch:  26     128  120  111  116  116  116  115  105  113  107  125  104  118  110  115  112  118   99   98  117  101   99  105  107  114  105  101  114  107  118  101    0
ch:  27     128  115  120  120  124  119  109  117  117  115  114  111  114  109  100  115  107  108  101  113  108  111  101  100  112  113  108  107  100  105  104    0
ch:  28     128  128  108  120  115  129  117  120  116  115  112  113  106  115  114  101  101  119  112  114  105  101  104  103  101  117  107   92  115  103  101    0
ch:  29     128  120  121  115  115  119  119  108  115  115  105  104  114  105  105  103  113  101  105  108  105  115  114  115  121  113  117  104  105   98  101    0
ch:  30     128  128  108  118  120  114  118  115  115  101  108  118  107  121  103  114  105  121  115  105   99  114  105  115  105  113  115  110  105  101   92    0
ch:  31     128  123  117  121  130  105  121  110  128  115  112  113  123  113  119  109  109  110  118  119  115  105  107  115  100  118  115  101  101  105  104    0
ch:  32     128  122  111  119  115  121  120  120  119  117  105  114  108  108  115  111  115  109  117  113  103  111  108  108  105  114  104  110  115  100   99    0
ch:  33     128  120  111  113  117  116  115  119  121  118  115  115  115  105  115  110  119  100  121  105  112  105  115   92  113  120  100  115  104  110  105    0
ch:  34     128  134  122  116  117  118  115  105  118  105  115  107  117  111  115  114   90  107  115  107  115   92  107  115  119  111  105  104  105  112   99    0
ch:  35     128  120  128  121  135  121  105  124  105  104  120  114  112  112  104  107  101  117  119  117  118  112  108  110  105  114  115  115  105  103  101    0
ch:  36     128  128  115  121  110  115  115  121  111  112  128  112  121  110  101  114  115  115  115  113  105  113  100  115  101  100   99  108  119   98  100    0
ch:  37     128  128  115  121  116  115  120  126  115  101  103  110  121  119  121  111  115  107  118  105  101  111  130  112  105  114  108  110  101  105  107    0
ch:  38     128  132  119  129  119  118  114  130  117  115  117  113  117  115  115  103  118  108  105  106  107  110  103  117  108  103  101  113  105  101  101    0
ch:  39     128  120  132  116  121  128  109  123  112  120  104  120  105  115  107  105  109  119  107  105  103  105  118  101  105  100  113  110  107  113  101    0
ch:  40     128  128  117  111  123  119  121  121  103  119  111  108  105  110  110  119  108  115  107  118  115  108  113   99  101  115  121  104  115  115  105    0
ch:  41     128  128  115  118  130  113  123  123  108  120  101  115  112  117  117  108  108  120  115  105  119  107  112  107   98  118  105  114  115  112  114    0
ch:  42     128  128  118  122  131  128  123  128  118  121  115  117  100  115  101  115  105  109  117  115  103  103  104  115  119  112  106  119  107  103  115    0
ch:  43     128  129  111  112  120  118  105  110  119  115  115  103  119  117  115  113  115  105  100  105  108  114   91  100  108  105  103  105  107  112  101    0
ch:  44     128  128  117  119  130  115  113  118  117  108  121  117  121  113  110  118  121  105  119  109  107  114  109  101  113  105  111  104  115  112  112    0
ch:  45     131  128  120  122  116  115  117  123  119  115  107  112  115  107  114  124  118  114  115  112  104  108   92  107  103  108  107  115  106  114  105    0
ch:  46     128  120  120  118  105  121  118  103  121  120  115  115  101  115  115  115   98  115  107  105  105  114  105  101  105  103  121  105  105  112  108    0
ch:  47     128  128  119  116  116  121  118  126  115  121  126  115  115  123  115  125  105  101  105  114  121  105  115  105  108  107  105  112  105  117  104    0
ch:  48     128  120  111  117  123  112  119  118  121  130   92  103  105  114  101  104  115  110  112  105  118  104  115  112  113  120   99  113  112  115  101    0
ch:  49     128  132  111  121  116  113  120  131  105  115  113  105  115  118  103  123  107  117   98  105  115  108   92  105  112  104  108  103  101  108  114    0
ch:  50     128  128  118  116  116  113  115  121  119  129  121  105  115  105  101  115  114  100  117  127  105  103  105  113  113  115  101  105  103  112  101    0
ch:  51     128  120  115  121  121  119  125  119  104  111  121  115  115  119  105  115  115  120  107  107  113  113   99  115  100  108  110  108   99  110  101    0
ch:  52     128  120  114  122  118  129  119  121  105  115  128  104  112  105  115  121  100  114  101  108  111  111   94  101  114  108  101  100  104  101  112    0
ch:  53     128  120  119  120  128  118  113  112  115  103  107  110  121  115  101  121  116  111  113  117  114  118  105  115  100  114  101  105  120  114  112    0
ch:  54     128  125  114  116  121  117  108  121  121  115  111  121  115  115  123  115  101  111  105   95  105  118  130   96  115  115  100  123  103  107  101    0
ch:  55     128  120  116  128  114  117  110  115  119  118  115  105  101  105  103  119  108  113  112  107  105  105  112  119  108  112  105  114  118  113  107    0
ch:  56     128  129  119  118  116  115  105  106  105  114  114  129  114  109  105  115   92  112  107  115  113  115  109  117  104  109  104  108  107  105  105    0
ch:  57     128  120  115  112  113  126  105  121  113  119  115  111  114  110  121  114  105  101  104  117  115  105  103  105  113  114  107  105  108  100  103    0
ch:  58     128  120  111  124  118  117  114  119  131  130  100  115  110  114  101  110  101  121  107  128  113  100  110  107  104  115  105  112  105   98  105    0
ch:  59     128  120  130  119  121  123  120  115  117  121  118  113  121  120  115  112  118   92  105  101   92  115  115  112  105  103  119  115  112  103  105    0
ch:  60     128  128  118  118  119  124  105  121  105  105  115  117  115  107  114  106  117  121  114  115  115  111  108  101  115  119  113   90  114  107  105    0
ch:  61     128  120  117  116  121  121  115  119  121  113  124  120  121  119  117  115  105  115  105  117  112  105  104  114  105  128  105  119  104  104  104    0
ch:  62     128  128  128  119  130  122  121  134  138  137  136  137  137  146  138  143  134  148  149  152  147  149  147  154  159  148  152  153  151  157  153   61
ch:  63     128  128  128  153  156  128  128  128  128  128  128  128  128  128  128  128  128  128  128  128  128  128  128  128  128  128  128  128  128  128  128    0
ch:  64     128  122  122  104  116  131  119  121  118  113  119  105  108  114  118  106  107  114  110  105  118  115  105  101  110  113  105  114  101  114  105    0
ch:  65     128  127  111  131  121  120  115  110  115  101  116  118  128  121  113  108  130  104  101  110  114  105  118  121  108  118   88  121  105  115  101    0
ch:  66     128  120  102  108  119  118  107  113  120  118  123  115  115  108  115  115  112  121  119  121  108  107  103  107  105  114  104  105  101  110  107    0
ch:  67     128  120  111  121  121  126  110  117  112  121  112  110  119  121  121  121  117  103  115  130  103  108  109  112  115  117  115  117  105  104  100    0
ch:  68     128  129  115  108  115  128  117  121  117  115  105  114  105  105  112  119  105  101  115  101  105  120  103  108  117  101  104  107  107  112  117    0
ch:  69     128  128  118  119  123  105  121  115  112  118  117  134  118  113  112  113  105  105  112  119  112  115  110  104  113  118  115  117  107  100  117    0
ch:  70     128  128  116  118  110  124  115  118  115  110  118  130  121  101  115  113  105  110  105  105  115  113  113  101  114  112  120   92  105  105  110    0
ch:  71     128  128  118  119  116  119  118  128  118  107  115  119  108  119  103  123  121  115  105  117  121  121  108  112  120  115  103  118  100  101  105    0
ch:  72     128  120  117  119  119  121  134  130  126  105  119   99  115  115  115  101  115  104  115  128  115  117  103  107  113  104  115  119  108  104  115    0
ch:  73     128  128  117  124  105  113  128  118  119  119  115  121  109  117  113  115  121  114  110  115  112  108  101  115  108  112  114  105   92  115  103    0
ch:  74     128  120  115  116  115  119  118  115  105  130  113  121  121  115  118  115  114  113  117  112  111  112  108  119  120  113  111  107  103   98   99    0
ch:  75     128  120  115  116  105  106  120  114  117  114  117  120  120  119  106  114  117  114  106  115  109  121  110  104  115  120  114  113  100  104  104    0
ch:  76     128  131  115  119  112  112  114  121  113  112  104  104  114   98  119  115  113  113  115  115  104  107  113   92  108  110  101  113  107  100  108    0
ch:  77     128  128  122  118  137  121  133  112  119  118  107  101  117  117  107  112  115  114  108  118  105  105  105  118  101  101  103  113  101  105  105    0
ch:  78     128  120  129  121  118  117  105  114  105  120  123  113  115  119  117  112  111  105  122  101  107  131  105  113  109  101   92  108  105  114  117    0
ch:  79     128  129  121  133  121  121  121  121  106  130  103  117  115  105  115  106  114  107  105  114  109  104  107  104  114  101  112  105  105  115  115    0
ch:  80     128  128  115  115  121  123  118  127  115  123  114  103  127  113  101  103  108  101  115  115  109  105  105  101  105  116  121  105  103  103  108    0
ch:  81     132  128  116  119  126  117  115  111  112  118  121  115  111  104  108  115   92  113  103  112  115  118  115  118  107  107  107  101  115   99  103    0
ch:  82     128  120  122  118  118  129  119  117  115  115  119  113  120  110  121  118  115  105  113  113  107  121  107  105  121  108  105  107   92  107  101    0
ch:  83     134  120  122  113  121  119  109  119  114  108  121  106  105  119  114  114  105  113  105  120  107  105  101  114  103  101  105  121  101  115  114    0
ch:  84     128  128  119  131  119  117  115  117  105  121  101  118  121  103  107  112  115  115  115  105  111  119  113  115  111  112  105  107  115  107  105    0
ch:  85     128  128  118  122  108  115  120  111  121  115  115  117  114  119  101  111  121  100   99  105  105  101  105   92  101  101  105  105  111  103  101    0
ch:  86     128  136  122  116  113  117  121  121  121  114  119  109  101  121  109  117  119  113  115  115  105  112  101  101  100  107  108  114  119  105  105    0
ch:  87     128  128  121  131  120  115  115  112  119  105  114  108  107  115  118  104  108  112  123  105   99  115  116  106  104  103  103  101   94  115  100    0
ch:  88     133  123  122  118  108  112  113  121  115  122  105  121  104  109  120  117  124  113  115  103  103  117  119  103  105  113  117  113   94  105  105    0
ch:  89     128  128  111  122  118  121  119  114  130  117  119  118  121  126  118  118  120  114  101  107  112  109  104  117  112  115  113  107  104  108  110    0
ch:  90     128  120  115  121  130  113  110  128  101  112  115  118  114  128  109  115  113  119  105  107  115  101  103  108  104  103  105  107  110  105  107    0
ch:  91     128  131  106  122  107  123  107  107  133  112  108  115  107  114  119  117  100  107  113  118  112  107  115  115  113  113   99  117  101  114  104    0
ch:  92     131  128  122  102  107  115  121  131  114  121  120  105  107  105  121  115  114  107  118  115  114  101  113  105  114   92  118  101  103  107  100    0
ch:  93     128  120  107  116  116  105  133  115  121  115  117  108  121  105  104  117  108  123  105  115  105  114  107  118  104  107  118  114  112  110  105    0
ch:  94     128  128  125  106  121  132  105  105  119  112  121  119  120  115  123  105  112  104  112  117  111  112  110  105  101  115  105  107  108   91  107    0
ch:  95     128  120  118  117  121  121  115  119  121  121  118  123  130  107  114  120  105  115  115  117  113  104  121  108  105  107  105  109  115  118  105    0
ch:  96     129  128  111  119  120  114  119  105  105  114  107  105  118  110  105   99  103  105  107  105  115  107  117  115  117  118  112  123  103   92  105    0
ch:  97     128  120  111  118  121  125  118  113  115  115  114  121  113  115  123  118  117  115  130  119  119  108  105  105  117  108  104  115  117  117  107    0
ch:  98     128  128  115  117  106  115  112  121  101  116  118  115  108  130  118  115  110  115  115  115  115  114  116  103  105  105  105  104  118  105   92    0
ch:  99     128  120  107  131  121  126  119  118  109  133  115  105  112  105  105  121  105  117  105  101  117  118  107  117  105  107  104  104  114   99  109    0
ch: 100     128  115  116  116  106  105  123  115  118  107  105  119  118  114  118  120  113  104  101  107  112  110  113  118  115  121  114  101  103  114   89    0
ch: 101     128  128  122  118  105  118  115  115  127  101  118  128  121  104  119  108  111  112  118  107  107  115  105  105  115  118  123   91  103  105  103    0
ch: 102     128  120  119  122  109  116  119  124  117  105  117  119  112  121  121  103  114  105  118  115  115  101  110  112  115  108  118   90  114  109  105    0
ch: 103     128  120  102  126  105  115  115  115  115  121  113  117   99  112  118  112  112  117  105  101  115  105  112  118  110  103  105  108  105  105  113    0
ch: 104     128  120  111  122  116  115  115  117  123  117  103  107  110  115  123  105  104  108  104   92  117  103  121  101  114  115  119  115  103  112  101    0
ch: 105     128  120  122  129  116  109  129  134  120  123  121  105  105  117  118  113  117  118  112  104  112  107  112  123  112  116  105  115  108  104  105    0
ch: 106     128  120  118  124  116  116  118  131  113  119  133  107  115  115  121  123  109  110  117  101  118  115  105  107  107  105  107  111  105  112  107    0
ch: 107     128  120  108  115  120  119  120  117  121  119  107  119  121  118  116  115  115  131  115  105  119  100  113  115  108  112  112  119  101  105  117    0
ch: 108     128  120  119  121  116  116  105  115  118  112  121  115  115  121  118  114  107  119  118  105  115  110  111  105  103  111  101  110  115  112  101    0
ch: 109     128  120  121  103  122  104  128  123  114  116  119  119  121  101  113  119  104  119  112  117  105  109  104  104  119  115  105  114  103  113   98    0
ch: 110     128  128  122  122  118  111  115  114  111  114  115  113  107  107  105  105  110  103  105  126  105  112  110  103  119  105   92  107  101  110  111    0
ch: 111     128  120  132  124  118  124  105  115  126  115  115  115  108  110  115  105  108  118  115  114  107  115  105  112  109  117  106  104  104  101  104    0
ch: 112     128  128  107  119  105  121  133  121  121  119  105  120  113  110  115  107  107  115  105  105  115  128  108  104  105  105   92  118  101  105  105    0
ch: 113     131  120  116  106  113  123  115  120  126  105  115  115  115  101  115  117  117  115  105  113  113  113  121  113  107  121   92  114   90  108   92    0
ch: 114     128  128  111  119  118  102  118  118  119  105  105  115  103  108  108  118  114  107  120  105  117  115  101  109  105  108  105  105  104  108  105    0
ch: 115     128  128  119  125  110  104  124  121  105  110  115  117  107  113  103  121  115  117  120  120  110  103  118  108  113  117  115  111  112  115  101    0
ch: 116     128  120  115  121  105  123  118  117  121  117  115  112  101  106  115  101  118  115  119  103  115  105   99   92  107  104  105  121  103  115  105    0
ch: 117     128  120  111  118  115  115  117  119  113  133  105  105  115  117  105  111  115  108  101  100  101  105  108  100  116  106  101  100  105  105  115    0
ch: 118     128  120  115  122  108  112  118  115  114  108  113  115  105  117  108  105  113  119  107  113  112  105  128  110  111  113  115  112   95  107  112    0
ch: 119     128  131  111  106  110  128  115  124  115  114  121  128  118  105  105  125   97  118  110  107  103  110  107  118  101  108  110  104  105  101  100    0
ch: 120     128  122  119  122  101  115  115  119  123  115  115  129  104  121  107  112  105  119  106  101  119  105  104  119  115  105  108  110  101   98  101    0
ch: 121     128  120  111  116  118  119  119  119  113  112  101  120  121  112  118  115  120  105  115  104  107  115  107  113  105  105  101  115   98  109  108    0
ch: 122     128  120  115  114  118  112   99  112  113  118  115  113  105  105  115  112  115  124  113  118  114  117  105  107  101  113   92  105  107  105  107    0
ch: 123     128  128  130  124  108  119  119  123  113  114  101  117  110  105  105  113  107  115  115  110  121  105  105  117  114  121  115  104  103  114  101    0
ch: 124     128  129  117  118  102  115  104  130  115  118  119  107  118   99  114  124  113  105  105  115  116  121  107  109  105  115  103  114  108  117  113    0
ch: 125     140  120  121  118  111  121  118  120  110  121  108  119  128  115  111  121  112  119  104  121  107  108  105  110  114  113  105  105  107  104  101    0
ch: 126     128  123  130  106  119  125  103  112  108  117  115  113  119  119  110  112  112  114  109  112  113  131  112  101  103  121   98  120  110   99  101    0
ch: 127     128  122  124  131  130  121  118  128  112  133  130  124  130  101  114  118  117  131  120  118  123  120  110  114  112  118  107  114  115  115  105    0
