# TRIM CALIBRATION    FEB6_9_5    pulse_ampl_min=10    pulse_ampl_max=150    pulse_ampl_fast=10
#
ch:   0     128  120  118  119  116  133  122  109  121  115  115  119  104  121  118  114  115  107  115  115  107  110  113  120  105  119  115  104  101  112  101   46
ch:   1     131  128  118  122  116  120  121  101  131  121  130  103  118  115  108  115  114  112  105  121  115  105  115  105  107  103  103  115  101  115  101    0
ch:   2     128  120  122  114  119  121  115  130  119  108  114  115  106  115  121  119  113  118  105  115  105  117  116  114  113  103  107  114  101  103  105    0
ch:   3     128  120  118  130  121  118  133  115  118  118  133  118  108  133  120  117  107  108  115  121  115  106  115  115  105  108  110  112  105  118  107    0
ch:   4     128  133  107  116  120  112  119  101  121  133  121  126  105  108  118  114  105  115  106  115  105  121  104  118   99  114  107  101  113  113  103    0
ch:   5     129  120  122  131  121  121  117  130  121  121  120  121  120  115  103  114  121  119  105  101  119  121  115  118  104  105  117  105  101  104  100    0
ch:   6     128  128  119  120  121  118  135  114  119  118  105  118  118  118  115  101  119  121  121  105  108  115  115  105  115  115  105  103  103  115  105    0
ch:   7     128  140  111  122  118  104  118  115  121  120  118  106  112  105  114  115  107  118  113  117  112  108  114  117  113  119  115  117  101  105   99    0
ch:   8     128  120  116  120  116  121  130  119  115  126  119  117  121  118  117  121  119  103  101  109  105  104  105  101  101  103  104   98  105  112  101    0
ch:   9     128  128  120  133  118  117  123  121  121  117  105  118  115  115  114  118  117  117  105  105  121  117  105  105  105  107  115  105  117  105  101    0
ch:  10     131  130  122  118  120  113  115  121  117  118  114  109  105  110  105  114  130  114  103  118  104  121  107  103  115  115  115  105  106  101   99    0
ch:  11     128  128  137  116  121  121  110  120  118  108  118  117  118  119  110  115  106  105  103  115  105  110  113  114  101  121  107  119  107  100  110    0
ch:  12     128  120  120  115  118  109  119  119  113  115  121  130  117  115  114  115  108  108  115  115  119  101  104  121  112  115  105  108  108  117  101    0
ch:  13     131  123  121  116  126  123  120  121  115  120  115  112  115  117  115  115  113  119  108  120  113  111  105  115  113  110  114  114  105  101  115    0
ch:  14     128  120  111  122  121  121  129  115  115  118  105  115  112  121  105  110  114  114  101  115  111  108  107  113  100  114  101  105  112  108  101    0
ch:  15     128  120  124  116  121  124  118  115  118  118  115  117  105  121  113  121  115  121  101  118  119  115  114  112   92  108  106  113  115  103  107    0
ch:  16     128  120  134  116  119  110  124  117  108  123  101  115  119  120  128  111  114   98  115  105  104  104  100  110   98  105  115  118   92   99  105    0
ch:  17     128  122  122  132  117  106  118  116  115  121  112  114  114  123  105  113  101  113  114  132  103  118  115   99  119  107  105  116  115  112  110    0
ch:  18     128  120  132  115  121  134  133  121  121  107  121  117  107  107  115  115  113  113  121  107  115  105  104  103  118  112  101  107  105   98  107    0
ch:  19     128  120  111  122  121  130  121  118  119  117  112  114  106  120  115  115  108  117  118  115  101  117  114  125  115  114  103  106  115  104  105    0
ch:  20     128  120  119  131  132  112  119  115  108  114  115  121  118  120  113  122  119  108  128  115  112  115  115  115  113  104  115  115  114  105  104    0
ch:  21     128  130  118  108  121  121  123  113  121  121  118  117  110  119  114  113  115  105  115  115  115  101  115  101  105  104  115  112  104  110  101    0
ch:  22     128  130  122  116  121  138  121  115  121  120  121  116  115  108  114  121  117  115  115  114  112  103  113   92   92  104  104  111  105  114   99    0
ch:  23     128  128  124  118  121  120  133  117  130  115  133  118  121  121  110  121  101  121  112  115  119  119  104  117  121  105  104  111  107  105  115    0
ch:  24     128  120  116  118  121  133  130  115  130  115  118  114  115  115  117  117  110  119  106  107  114  101  119  103  103  121  119  113  115  105  114    0
ch:  25     140  125  111  131  124  118  121  131  120  128  121  118  121  118  119  114  117  115  105  115  128  110  115  115  115  110  101  108  105  115  110    0
ch:  26     128  120  111  122  118  121  118  108  134  121  111  117  117  117  104  114  119  120  121  109  105  117  111  107  115  118  105  121  103  115  104    0
ch:  27     128  129  111  122  116  115  128  130  120  132  105  114  105  117  107  130  105  105  115  112   94  105  112  114  114  113  105  105  115  101   99    0
ch:  28     128  131  116  118  118  121  121  117  114  115  108  115  104  119  118  103  107  114  121  108  104  107  105  119  105  119  113  115  101  108  101    0
ch:  29     128  120  122  118  130  121  117  118  119  117  105  105  121  121  121  117  115  105  117  121  108  117  119   98  105  113  121  105  112  115  103    0
ch:  30     128  129  111  118  114  130  120  115  117  120  115  115  114  105  117  115  105  115  119  117  111  119  107  105  101  105  105  120  113  115  108    0
ch:  31     128  129  130  116  121  117  117  130  115  120  115  112  117  113  115  112  108  119  117  114  115  115  109  121  105  113  105  115  103  127  107    0
ch:  32     128  120  122  127  119  123  133  119  115  113  121  108  105  117  118  105  105   99  105  115  105  118   99  115  107  113   92  101  108  114  107    0
ch:  33     128  120  123  122  106  121  130  115  122  133  118  119  105  121  114  117  116  119  101  120  120  115  105  126  120  105  113   98  114  101  105    0
ch:  34     128  120  116  116  121  121  120  115  128  119  115  115  115  131  101  121  117  119  101  105   99  113  105  118  110  107  105  120  101  103  110    0
ch:  35     128  129  115  120  130  115  105  117  115  132  133  124  121  105  114  105  115  120  115  106  115  105  119  103  133  108  103  100  100  115  113    0
ch:  36     128  120  133  106  106  119  130  117  116  105  105  118  108  121  105  117  113  113  115  113  115   94  116  108  105  115  103  101  105  115  105    0
ch:  37     128  128  125  121  115  115  135  113  114  123  115  121  115  117  115  115  115  101  115  115  113  111  118  114  105  105  115  111  115   96  108    0
ch:  38     129  120  119  116  115  119  121  119  117  105  121  121  105  118  105  113  105  122  121  108  115  112  101  113  114  115  114  107  103  105  113    0
ch:  39     128  128  119  119  117  114  117  133  117  116  112  114  114  119  119  107  112  101  114  115  117  120  105  115  130  110  104  103  121  117  112    0
ch:  40     128  133  116  126  118  117  113  123  115  121  130  115  109  110  108  115  101  117  109  112  120  121  103  118  112  119  117  115  105  114  110    0
ch:  41     128  120  120  115  108  119  119  115  115  105  118  120  114  115  110  127  114  112  114  105  104  115  109  110  105  119  119  108  112  119  110    0
ch:  42     128  128  118  115  115  131  119  117  118  105  118  123  115  117  105  114  105  101  119  115  121  108  105  117  103  116   99  113  105  105  101    0
ch:  43     128  128  124  124  143  118  120  134  115  117  117  119  103  121  115  117  119  115  120  101  108  112  112  105   97  101  108  108  113  105  100    0
ch:  44     128  120  116  116  118  134  121  121  115  117  115  114  101  117  121  108  119  118  113  119  101  130  105  115  120  101  105  112  112  100  105    0
ch:  45     128  128  122  116  107  119  121  115  121  119  114  118  113  115  108  105  105  105  111  113  115  119  104  114  105  115  105  120  115  117  111    0
ch:  46     128  120  120  128  118  119  121  117  118  118  121  115  118  120  114  114  118  119  105  105  114  101  112  113  115  117  114  104  101  115  119    0
ch:  47     128  128  132  122  132  117  115  121  121  105  103  119  115  119  119  118  110  115  119  115  113  115  121  105  105  115  110  104  115  107  113    0
ch:  48     128  128  123  121  106  119  117  105  115  115  121  119  119  110  118  115  104  105  119  103  115  120  119  108  101  103  121  105  109  101  101    0
ch:  49     131  120  102  120  121  115  107  117  118  115  128  119  115  112  114  121  116  115  101  113  116  120  121  118  118  101  113  121  112   98   99    0
ch:  50     128  128  111  118  116  131  128  128  124  128  121  121  114  113  107  115  107  115  120  100  117  128  114  110  105  115   98   94  104  105   95    0
ch:  51     131  168  118  130  121  106  121  130  115  118  112  118  118  115  112  119  113  118  118  115  104  115  114  118  103  113  115  105  105  105  105    0
ch:  52     128  120  129  132  121  131  115  121  115  123  114  115  105  128  115  118  118  117  113  126  105  105  112  115  118  105  113  100  105  118  104    0
ch:  53     128  128  116  131  115  115  112  130  115  115  115  119  121  115  110  112  109  115  107  104  115   99  114  117  118  118  108  123  103  101  107    0
ch:  54     128  126  115  118  116  117  117  121  128  121  126  115  121  119  105  107  118  111  119  115  109  107  103  110  113  115  103  121  105  114  112    0
ch:  55     128  125  102  121  121  130  121  133  129  121  130  130  115  118  105  115  120  105  114  114  101  101  101  105  119  108  110  105  107  117  104    0
ch:  56     128  120  132  122  121  119  119  112  119  115  109  113  114  116  119  118  119  119  113  115  105  114  105  115  113  105  113  101   92  115  105    0
ch:  57     131  128  116  120  109  112  121  134  119  115  115  121  118  114  101  125  117  112  115  104  103  103  109  114  115  115  101  117  114  115  115    0
ch:  58     131  120  113  122  122  113  101  120  115  121  120  121  115  115  105  120  107  115  117  105  105  101  115   93  114  118  114  115  105  101  115    0
ch:  59     131  128  111  121  119  119  118  126  120  120  115  119  112  101  115  119  105  115  118  105  115  107  105  113  109  105  110  104  115  113  105    0
ch:  60     128  120  130  122  116  133  109  131  133  121  118  112  117  112  118  119  107  101  130  101  115  119  115  118  110  107  118  118  117  101  101    0
ch:  61     128  120  132  120  135  115  115  118  121  120  115  117  119  108  124  103  115  119  113  112  115  121  110  112  109  115  105  105  108  110  101    0
ch:  62     128  128  122  113  130  117  115  133  126  131  114  130  119  118  108  112  103  119  113  115  120  115  115  104  123  105   98  109  108  118  115    0
ch:  63     128  129  122  118  120  115  114  121  119  121  128  111  117  118  101  124  115  117  105  107  107  115  115  110  112  114  113  114  114  103  115    0
ch:  64     128  120  122  114  118  124  121  105  101  123  108  113  109  105  113  115  105  121  123  120  108  115   91  105  103  103  114  108  105  105  105    0
ch:  65     128  128  121  116  106  108  115  121  121  117  120  117  121  117  116  115  121  116  118  117  106  111  105  105   92  120  105  121  116  121  113    0
ch:  66     131  120  116  120  116  121  113  114  121  124  113  121  101  115  104  121  113  113  117  115  121  104  105  106  101  108  107  115   92  115  103    0
ch:  67     128  128  121  130  132  116  129  119  123  117  118  115  114  128  123  115  119  121  121  103  113  118  114  115  111  117  115  117  104  103  101    0
ch:  68     128  120  116  116  121  131  130  131  121  115  118  119  114  115  118  120  128  112  105  107  131  117  123  112  108  101  108  113  123  117  103    0
ch:  69     128  120  121  118  132  119  130  117  124  120  131  115  115  131  114  113  113  112  107  109  105  118  115  115  118  105  112  115  107  105  113    0
ch:  70     128  128  111  118  126  119  121  132  120  118  111  114  115  121  113  119  112  101  119  104  112  105  113  119  118  112  113  105  103  107  100    0
ch:  71     128  120  111  122  121  121  114  105  121  125  130  133  115  117  117  120  108  117  130  107  115  115  112  101  107  116  114  115  114  114  104    0
ch:  72     128  120  116  119  116  120  121  117  123  123  117  132  111  110  101  115  107  112  112  115  111  105  107  105  119  105  110  104  109   94  103    0
ch:  73     128  120  111  119  133  133  110  130  123  130  113  115  108  108  121  118  115  117  118  113  113  105  117  105  121  112  105  110  113  118  115    0
ch:  74     128  128  130  118  121  113  111  119  119  117  115  121  123  111  117  115  124  103  115  112  123  112   98  115  112   98  104  126  113  108  110    0
ch:  75     128  168  120  116  119  115  121  120  105  121  107  120  108  121  108  123  108  113  117  115  118  111  115  115  105  128  119  105  114  113  105    0
ch:  76     128  120  124  113  113  121  119  115  118  117  110  115  123  113  113  115  117  121  118  118  117  100  110  110  112  105  105  105  107  105  115    0
ch:  77     131  128  121  124  116  124  121  118  120  133  112  118  118  121  118  115  119  105  115  105  107  113  114  108  109  115  101  107  108  104  108    0
ch:  78     128  120  122  119  115  124  115  121  121  115  112  126  118  115  121  108  115  105  117  114  105  105  117  112  112  105  103  105  112  101  101    0
ch:  79     131  133  120  119  116  110  121  126  118  117  115  114  113  118  121  114  124  111  132  116  119  118  101  115  113  112  107  115   99  105  115    0
ch:  80     128  120  113  116  120  120  115  121  118  118  105  118  117  130  114  115  115  115  118  119  105  119  105  115  115   94  101  117  100  105   92    0
ch:  81     128  120  132  119  119  124  110  120  115  121  114  113  116  133  119  110  105  115  133  115  105  121  112  119  107  117  121  119  105  101  103    0
ch:  82     128  136  124  136  116  115  121  121  119  118  115  115  115  121  118  118   99  109  104  101  103  123  112  112  117  108  108  106  105  105  105    0
ch:  83     128  123  111  119  119  118  119  121  119  120  123  108  114  115  121  113  125  115  115  115  119  118  118  113  110  103  110  107  105  119  108    0
ch:  84     128  120  133  116  116  119  113  123  114  118  133  117  104  115  121  119  119  115  108  118  105  107  119  117   99  107  117   99  103  108  115    0
ch:  85     140  128  132  114  116  118  121  112  120  101  104  112  115  119  112  114  119  119  113  113  107  119  112  112  107  118  107  101  104  105   99    0
ch:  86     128  132  137  136  121  113  105  117  121  104  120  115  120  130  115  114  124  120  115  105  115  101  119  119  117  101  115  106  115  103  101    0
ch:  87     128  120  121  124  105  134  135  114  119  115  121  121  116  122  118  112  115  104  121  121  121  119  116  115  117  118  112  115  105  104  107    0
ch:  88     128  120  111  107  118  121  120  117  121  105  121  115  105  112  110  113  105   98  119  105  105  115  115  115  105  104  113   94  105  114  118    0
ch:  89     128  120  134  121  137  117  118  120  115  114  117  118  118  118  100  121   98  105  114  110  107  114  118  109  103  121  112  115  103  115   92    0
ch:  90     128  132  116  133  118  130  123  115  113  120  115  112  121  120  105  105  124  117  107  105  114  115  107  107  105  107  105  105  108  101  100    0
ch:  91     128  120  132  118  116  139  120  118  133  121  113  133  113  119  114  115  107  109  118  113  118  103  101  114  116  107   94  112  105  117  101    0
ch:  92     128  128  115  118  130  123  118  117  117  115  121  115  118  117  117  111  105  101  118  115  119  118  128  105  114  108  115  105  117  105  101    0
ch:  93     128  128  118  133  119  121  120  121  105  124  118  115  119  121  116  114  113  105  121  115  115  115  105  114  110  104  115  101  105  113  115    0
ch:  94     128  120  129  116  115  114  129  118  115  115  105  121  106  115  107  117  114  101  108  112  115  115  105  115  115  118  103  104  113  114  103    0
ch:  95     128  120  117  121  105  118  115  118  118  117  114  130  105  114  111  121  110  105  100  112  105  120  123  108  100  117  113  115  105  105  105    0
ch:  96     128  120  115  124  116  130  113  121  118  101  114  112  115  104  119  131  115   99  117  114  110  121  101  105  105  121  103  110   89  105   98    0
ch:  97     128  120  137  116  119  118  119  119  120  118  121  117  120  110  118  104  105  120  115  105  105  112  119  121  101  105  105   98  115  117  119    0
ch:  98     128  128  116  119  121  128  123  117  115  118  115  115  115  121  113  118  117  108  108  101  108  119  114  112  101  100  107  107  105  115  105    0
ch:  99     128  120  126  131  135  118  115  117  121  115  105  123  119  131  115  119  118  105  105  121  107  115  108  108  119  114  115  113  103  115  108    0
ch: 100     128  120  119  118  116  128  121  120  130  108  115  121  130  120  108  114  115  123  134  110  113  107  120  126  103  115  112  110  105  114  105    0
ch: 101     128  128  111  124  116  121  123  119  118  121  117  121  105  121  115  121  115  120  112  120  115  115  115  105  105  107  105  130  100  105  119    0
ch: 102     128  120  121  115  116  106  118  118  121  119  117  122  117  119  105  112  118  115  109  105  117  115  107  105  112  105  119  114  105  114  101    0
ch: 103     128  120  120  131  112  108  121  105  131  118  123  115  120  110  129  112  119  113  100  115  113  114  114  113  117  119  105  115  107  112  104    0
ch: 104     128  133  108  118  121  131  129  120  118  110  121  121  123  118  117  114  119  105  108  119  112  107  120  105  101  118  108  109  104  101  107    0
ch: 105     128  120  134  133  119  121  108  114  130  133  120  120  119  105  105  130  117  109  133  104  105  101  117  104  115  116  101  112  118  101  118    0
ch: 106     128  120  122  122  121  121  117  109  118  108  108  115  117  121  130  121  110  104  121  121  101  119  113  114  104  115  115   99  103  105  101    0
ch: 107     128  128  106  132  116  121  119  118  118  113  128  115  110  107  105  110  129  128  103  115  101  119  118  107  105  114  110  118  101  108  105    0
ch: 108     128  120  129  132  116  121  111  130  123  121  119  115  118  130  115  120  112  115  109  108  103  105  115  115  105  111  105  107  105  106  110    0
ch: 109     128  120  108  116  121  115  119  126  118  129  118  133  133  115   99  110  113  107  119  115  101  105  105  105  105  121  115  112  117   96  120    0
ch: 110     140  123  122  120  108  105  114  117  118  119  115  118  119  119  114  121  114  117  112  115  121   92  105  114  117  115  101  117  114  105  118    0
ch: 111     128  128  118  121  119  114  113  112  130  117  128  119  123  115  121  121  119  114  115  106  115  114  109  105  115  113  110  121   99  117  101    0
ch: 112     128  120  111  118  123  122  119  112  115  105  118  113   99  121  133  119  108  113  105  121  101   99  121  101  115  117  105  103  103  115  108    0
ch: 113     128  129  124  132  120  121  121  129  115  114  119  115  105  122  115  115  108  115  124  108  117  107  103  115  120  105  105  115  107  118  110    0
ch: 114     128  120  116  122  121  134  117  115  130  105  121  108  115  123  105  112  118  113  120  115  105  118  104  105  119  110  117  110  112  111  121    0
ch: 115     128  120  121  122  118  113  121  115  107  121  126  128  115  119  105  119  115  108  118  120  119  118  101  115  115  104  113  110  120  121  115    0
ch: 116     128  120  133  102  119  122  134  114  110  119  118  131  117  118  107  121  119  119  105  107  112  104  113  107  114  113  115  113  107   95  100    0
ch: 117     128  120  116  122  135  118  117  115  114  121  119  105  112  118  119  103  112  112  115  113  101  111  109  103  114  115  117  110  115  115  103    0
ch: 118     140  120  122  118  120  105  118  131  109  129  115  118  119  110  121  118  105  115  115  105  101  114  114  108  121  118  103  105  103  114  119    0
ch: 119     128  120  116  116  108  121  118  117  121  108  115  119  130  121  121  117  118  117  115  124  114  117  115  121  109  115  114  104   94  100  103    0
ch: 120     128  120  122  121  121  115  118  121  120  119  115  100  119  118  120  111  104  121  113  115  103  112  101  100  110  117   99  115   96   92  113    0
ch: 121     128  123  124  120  117  118  119  119  131  119  120  112  103  106  108  115  105  115  128  115  107  105  101  103  115  113  101  115  114  109  107    0
ch: 122     128  120  122  122  103  118  120  114  121  118  131  117  120  105  117  114  114  105  119  115  119  105  110  130  112  112  113  105  100  103  105    0
ch: 123     128  133  132  122  105  113  121  117  120  121  116  118  108  117  105  105  133  117  130  108  104  101  112  114  113  118  120  115  113  105  103    0
ch: 124     128  120  115  124  113  114  118  117  115  121  117   99  117  115  113  114  115  122  119  111  106  111  107  115  117  107  115  115  101  107  103    0
ch: 125     131  169  115  132  120  121  115  121  115  109  115  115  104  112  118  117  110  112  112  104  120  110  103  115   99  108  108  119  108  109  105    0
ch: 126     128  120  116  122  133  119  114  121  130  123  117  112  123  115  112  114  113  101  108  110  110  107  100  118  107  105  105  115  108  105  103    0
ch: 127     128  136  122  130  119  117  116  105  121  120  115  119  120  121  117  105  118  133  126  114  119  115  120  117  113  117  101  104   99  133  115    0
