# TRIM CALIBRATION    FEB6_1_3    pulse_ampl_min=10    pulse_ampl_max=150    pulse_ampl_fast=10
#
ch:   0     128  120  128  117  127  121  115  121  121  125  115  118  117  125  121  115  125  125  115  119  121  121  114  121  114  130  115  115  115  125  112    0
ch:   1     140  128  132  116  124  116  114  125  114  121  118  118  115  103  124  115  124  121  123  113  121  123  119  120  121  124  113  119  123  121  115    0
ch:   2     128  120  119  122  127  119  124  123  115  115  114  115  121  118  107  119  128  123  114  119  115  120  114  130  118  121  105  115  121  120  107    0
ch:   3     128  128  119  124  115  135  115  117  119  105  104  121  115  114  115  121  119  130  121  114  124  118  117  118  115  115  121  115  115  110  128    0
ch:   4     128  120  119  133  119  105  128  130  121  118  121  115  115  119  114  118  105  115  117  105  114  121  117  117  117  133  118  108  105  115  115    0
ch:   5     128  128  115  129  122  119  130  120  115  117  119  119  121  125  133  121  119  114  121  115  115  125  118  115  123  128  134  121  117  112  118    0
ch:   6     128  120  122  122  118  118  115  115  119  114  121  121  121  118  115  111  105  123  115  114  121  130  121  127  121  121  110  121  114  115  128    0
ch:   7     128  120  129  113  120  116  119  105  114  133  121  115  118  117  121  115  121  115  115  119  121  131  115  115  133  115  114  125  105  115  130    0
ch:   8     128  128  128  102  116  119  110  117  121  105  124  115  119  119  121  115  119  130  121  124  125  113  121  119  119  118  121  131  121  115  104    0
ch:   9     128  128  122  122  119  130  130  131  130  130  115  124  117  121  123  119  130  131  121  123  118  118  119  120  110  115  121  114  115  118  112    0
ch:  10     128  122  127  122  137  116  115  119  119  119  114  133  105  118  115  128  120  115  101  115  117  130  118  121  119  112  121  115  113  121  121    0
ch:  11     128  128  118  122  105  114  117  121  119  118  121  121  130  115  121  121  115  120  118  121  119  127  115  125  130  113  115  118  121  121  115    0
ch:  12     128  128  111  129  121  113  115  124  133  119  105  105  115  115  130  121  103  121  105  118  105  118  115  121  105  121  119  120  117  105  121    0
ch:  13     128  128  122  122  116  123  115  113  115  119  113  124  118  117  124  117  119  108  121  115  115  117  130  114  121  124  115  115  115  114  115    0
ch:  14     128  120  111  116  116  121  105  127  133  114  119  125  121  121  115  119  115  124  121  123  130  119  105  115  105  105  115  115  111  121  107    0
ch:  15     128  123  129  116  119  118  119  124  120  115  115  119  113  120  121  125  121  121  115  131  121  105  133  121  119  118  112  121  118  115  115    0
ch:  16     128  120  122  130  127  125  119  119  124  119  125  117  121  133  127  121  115  112  112  120  114  114  115  115  105  115  107  113  115  128  121    0
ch:  17     131  128  125  121  130  119  121  115  118  121  121  121  121  121  119  121  137  124  115  119  119  114  104  121  131  114  115  117  108  115  115    0
ch:  18     128  128  120  116  118  116  106  127  121  121  130  105  115  121  114  115  120  121  115  118  115  108  119  120  125  105  119  115  119  121  124    0
ch:  19     128  120  120  116  117  121  114  124  121  119  119  121  105  117  120  118  112  114  124  133  113  127  121  105  121  115  128  128  121  114  119    0
ch:  20     128  128  128  120  116  113  112  123  115  127  123  121  118  117  110  112  107  105  124  130  107  127  115  124  105  121  119  119  103   99  107    0
ch:  21     128  128  111  122  110  121  105  125  125  115  118  121  121  125  118  117  109  119  115  115  133  129  113  121  119  125  108  121  125  104  119    0
ch:  22     128  120  121  118  132  121  118  121  121  113  115  133  123  114  115  113  123  121  127  119  115  115  124  115  125  119  115  111  118  115  115    0
ch:  23     128  168  120  118  124  117  108  119  113  125  128  130  127  123  121  128  121  121  114  119  121  119  114  121  105  120  112  114  121  115  115    0
ch:  24     128  128  122  122  122  119  115  125  121  130  120  114  121  128  127  115  123  112  125  121  115  110  121  105  124  115  121  120  115  118  121    0
ch:  25     128  128  133  122  106  116  130  119  117  115  105  121  121  105  118  119  119  121  115  121  114  121  115  107  115  121  125  123  115  117  115    0
ch:  26     128  129  122  122  119  117  128  121  120  115  115  115  105  125  114  125  121  121  121  121  127  115  118  115  101  105  120  121  119  121  119    0
ch:  27     128  131  119  122  116  114  124  130  121  121  105  119  119  104  121  124  115  121  115  119  123  121  119  123  114  108  121  131  114  114  119    0
ch:  28     128  128  121  125  104  124  115  121  118  121  108  130  117  114  115  119  121  123  115  114  123  118  114  115  114  115  111  125  124  124  121    0
ch:  29     128  132  117  129  115  116  123  129  127  123  125  118  121  119  103  115  115  129  117  127  118  118  115  121  110  115  111  125  112  120  115    0
ch:  30     128  120  122  115  119  117  121  121  119  119  121  121  121  120  131  121  117  121  115  103  125  118  118  118  118  113  121  116  117  121  123    0
ch:  31     128  128  111  128  130  115  121  145  121  124  121  130  115  118  125  115  119  125  130  111  121  121  121  121  105  118  114  112  118  123  125    0
ch:  32     128  128  111  121  120  116  130  120  121  115  105  121  108  105  105  115  121  119  133  115  120  121  121  113  133  117  115  115  114  115  121    0
ch:  33     128  120  111  118  109  119  123  128  121  121  123  115  128  130  124  115  120  121  118  114  115  117  121  121  123  119  121  114  115  115  128    0
ch:  34     128  120  120  122  116  130  115  117  121  117  121  119  115  118  125  129  127  101  119  119  113  115  121  124  121  113  119  112  110  115  108    0
ch:  35     128  120  116  102  116  121  121  130  119  119  121  118  118  127  121  130  114  121  123  121  113  114  126  133  119  113  121  126  121  130  118    0
ch:  36     128  120  127  116  116  123  121  105  131  123  123  130  114  114  115  133  105  121  112  105  121  118  119  107  118  121  130  105  115  117  115    0
ch:  37     128  120  120  125  116  113  117  112  130  115  115  124  118  127  107  125  123  121  119  124  113  121  130  115  114  107  121  105  130  115  121    0
ch:  38     128  136  116  117  109  125  119  130  115  123  125  120  119  121  117  115  115  117  114  121  114  119  120  119  114  109  101  114  113  115  115    0
ch:  39     128  128  118  130  125  121  115  119  121  115  119  130  119  119  108  114  129  113  118  117  115  108  119  108  119  115  115  121  113  115  117    0
ch:  40     128  120  122  122  123  121  127  121  121  124  121  121  119  119  121  119  115  124  119  128  119  121  114  119  108  124  130  118  115  108  115    0
ch:  41     128  120  122  119  114  113  123  117  119  114  121  115  119  128  118  115  115  121  124  119  127  130  128  123  107  115  107  114  119  115  107    0
ch:  42     128  120  122  116  125  118  121  103  123  118  119  114  115  118  121  121  114  114  114  124  121  119  118  124  117  114  119  115  114  118  115    0
ch:  43     128  120  122  122  124  121  123  121  123  133  130  115  119  131  123  115  115  108  130  121  118  119  121  121  133  119  121  120  114  121  114    0
ch:  44     128  120  122  116  116  130  118  119  128  131  123  121  127  105  119  117  113  117  121  121  117  115  115  120  121  119  130  115  118  112  127    0
ch:  45     128  120  125  120  116  119  115  124  130  123  121  118  125  115  120  105  118  118  123  119  121  121  118  119  119  121  114  119  115  115  117    0
ch:  46     138  120  118  122  118  128  121  115  119  130  115  119  121  115  121  115  115  105  118  121  121  131  119  119  105  104  119  114  127  121  113    0
ch:  47     128  132  116  116  118  133  121  115  118  115  121  115  124  121  121  121  115  115  113  118  117  133  115  105  111  101  115  119  125  121  121    0
ch:  48     128  128  122  122  121  117  118  119  121  123  119  121  113  115  123  117  114  119  124  115  121  121  124  130  112  121  115  119  118  115  119    0
ch:  49     128  131  118  106  121  117  118  121  118  115  127  119  130  119  114  121  123  118  115  121  121  131  125  113  121  121  115  115  114  105  121    0
ch:  50     128  121  120  122  127  116  119  115  121  105  121  120  127  121  119  115  121  120  118  115  115  115  128  124  115  124  114  121  105  125  115    0
ch:  51     128  128  132  106  130  121  123  117  119  130  118  121  121  114  121  121  124  121  137  119  120  115  119  130  123  124  124  127  114  119  119    0
ch:  52     128  120  122  122  120  113  131  118  105  121  119  114  119  119  119  114  119  121  117  115  121  115  114  121  105  121  109  115  114  119  121    0
ch:  53     128  120  122  117  121  116  121  121  119  121  121  121  119  119  121  117  119  123  119  121  121  128  104  119  115  121  105  115  114  121  117    0
ch:  54     128  121  119  122  123  125  120  130  104  127  119  118  114  115  115  115  121  121  115  130  121  118  130  114  104  127  107  115  128  112  110    0
ch:  55     128  128  111  114  108  130  127  121  127  121  115  130  125  121  133  127  123  119  121  119  121  127  115  117  133  121  121  130  115  118  111    0
ch:  56     128  129  130  126  116  117  119  117  133  123  118  115  119  115  118  118  119  133  104  121  113  121  117  125  121  118  115  121  105  105  124    0
ch:  57     128  128  132  124  120  121  118  117  125  121  121  130  115  119  119  119  120  130  115  121  118  115  118  117  118  115  115  118  112  115  121    0
ch:  58     128  128  120  122  127  106  123  123  121  115  117  118  117  115  121  125  123  121  121  118  114  118  118  133  115  118  115  111  114  121  105    0
ch:  59     128  120  121  118  135  118  115  123  119  121  121  133  115  119  105  123  108  115  118  121  114  118  108  121  121  119  121  118  121  121  118    0
ch:  60     128  128  122  116  125  133  121  117  128  121  121  121  114  119  121  124  119  125  127  112  115  118  115  115  128  119  114  111  115  107  115    0
ch:  61     128  131  118  129  119  121  119  119  115  121  115  119  115  119  114  121  133  109  119  114  121  121  115  115  130  105  123  124  117  115  118    0
ch:  62     128  120  128  122  130  121  115  114  127  114  121  115  125  121  101  119  121  115  100  115  131  121  119  115  121  123  131  114  105  115  105    0
ch:  63     128  120  119  122  116  116  121  119  121  121  119  114  108  119  119  118  115  123  119  121  108  130  121  115  117  123  130  131  103  130  121    0
ch:  64     128  128  122  122  118  119  118  130  121  119  125  119  105  123  133  121  105  117  119  115  123  117  119  130  121  128  119  121  121  125  115    0
ch:  65     128  120  111  117  130  121  121  125  115  130  115  130  121  115  121  119  121  115  125  131  130  121  114  115  121  125  133  117  124  115  115    0
ch:  66     128  128  116  124  121  121  121  114  121  121  121  119  114  130  121  105  130  105  121  117  123  115  115  120  115  121  121  115  115  105  105    0
ch:  67     128  128  120  122  116  116  124  118  120  125  117  121  119  125  105  121  121  105  118  123  133  119  124  119  119  115  124  118  121  117  117    0
ch:  68     128  128  118  122  121  125  117  119  119  111  118  123  119  130  121  115  121  115  130  114  115  115  103  117  117  119  114  117  123  115  115    0
ch:  69     128  128  134  120  128  106  124  118  115  121  115  115  121  119  119  125  119  115  119  111  114  120  119  115  135  115  125  114  107  119  123    0
ch:  70     128  129  120  122  119  129  105  130  119  121  129  128  115  130  117  119  121  121  130  115  103  121  115  112  117  119  118  111  125  100  119    0
ch:  71     128  128  128  120  118  113  118  115  120  119  123  113  115  113  131  120  121  120  121  121  118  124  130  119  124  113  120  119  109  119  121    0
ch:  72     128  128  121  116  120  123  121  121  125  128  111  105  115  118  113  121  113  121  103  130  121  119  123  124  121  121  115  115  121  130  118    0
ch:  73     131  128  121  122  116  116  105  115  115  128  121  114  130  120  101  119  121  118  121  121  119  115  121  115  121  120  121  115  123  114  105    0
ch:  74     128  128  118  120  119  120  127  118  115  120  105  128  108  115  121  118  115  130  118  121  108  120  115  105  133  121  115  119  107  121  121    0
ch:  75     128  120  111  124  115  119  113  115  121  117  121  130  114  116  115  124  115  105  123  117  121  121  119  114  115  123  114  115  115  115  118    0
ch:  76     128  125  111  124  128  115  130  120  114  115  121  118  130  118  114  105  120  114  125  113  119  125  123  118  115  121  115  121  121  119  115    0
ch:  77     128  120  125  119  118  130  121  114  130  128  121  121  119  119  133  114  121  121  115  130  118  113  118  121  121  123  121  119  123  115  115    0
ch:  78     128  120  129  122  121  119  119  117  121  121  115  119  121  131  115  105  115  105  118  115  119  121  115  107  115  121  121  118  115  112  115    0
ch:  79     128  128  132  118  132  119  121  121  121  121  118  119  124  115  119  119  115  119  124  117  124  119  119  118  118  124  121  121  114  121  117    0
ch:  80     131  120  120  122  118  119  121  121  114  115  133  117  130  130  125  115  131  121  133  129  128  115  119  112  112  117  120  118  119  120  112    0
ch:  81     128  128  132  128  124  116  118  121  125  125  130  115  115  119  119  115  118  117  121  119  124  117  117  121  121  117  121  126  118  130  115    0
ch:  82     128  128  107  121  120  116  121  118  130  125  118  129  128  116  121  121  119  124  119  123  115  119  108  115  108  115  115  121  118  101  115    0
ch:  83     128  120  119  122  116  118  115  119  115  105  115  121  115  119   99  118  119  119  115  129  113  115  121  120  114  117  119  121  121  130  119    0
ch:  84     128  120  111  120  119  127  130  119  115  118  119  125  121  115  115  114  107  131  121  124  121  124  114  119  117  119  118  121  114  115  115    0
ch:  85     128  128  132  107  114  130  127  115  124  121  125  121  105  115  119  121  117  126  115  121  127  115  121  119  113  115  115  120  124  121  115    0
ch:  86     128  131  122  128  121  121  130  121  117  120  130  121  119  114  117  115  130  118  119  115  128  115  114  118  121  119  125  118  121  133  105    0
ch:  87     128  128  122  119  127  125  128  123  115  127  121  121  115  113  115  118  118  121  121  130  127  128  119  119  121  113  121  130  125  127  120    0
ch:  88     128  122  122  133  127  119  131  119  113  105  115  123  130  125  114  115  130  119  116  115  129  118  119  114  121  115  119  115  114  118  121    0
ch:  89     128  129  122  133  121  125  101  130  128  130  115  127  118  124  121  108  115  115  121  130  124  119  121  128  114  115  115  105  121  118  119    0
ch:  90     128  120  120  116  119  121  119  119  117  121  121  108  121  121  115  115  117  123  115  115  130  120  114  121  115  121  121  128  105  115  105    0
ch:  91     128  120  111  119  128  115  115  128  123  121  121  118  114  119  115  115  119  120  115  117  123  115  119  121  115  111  121  115  110  119  120    0
ch:  92     128  120  102  102  121  130  115  121  118  121  119  121  119  114  115  115  121  131  119  101  116  114  115  119  119  114  115  123  121  117  115    0
ch:  93     128  129  111  116  116  119  117  119  118  119  119  121  115  108  114  105  114  115  115  115  114  121  118  115  119  119  130  114  124  119  103    0
ch:  94     128  128  122  127  116  117  121  119  108  105  101  119  121  121  119  114  109  114  119  121  108  114  118  114  121  121  121  106  115  119  104    0
ch:  95     128  128  132  125  122  125  118  121  130  113  118  121  125  119  133  105  124  119  130  108  119  121  121  115  108  130  119  121  115  121  128    0
ch:  96     128  115  132  131  121  121  113  114  121  130  118  123  125  115  119  127  114  108  105  129  115  113  114  121  105  107  113  105  114  101  117    0
ch:  97     128  131  102  102  132  121  121  127  121  131  133  115  125  110  130  133  115  115  112  121  119  121  130  105  117  127  120  118  120  110  124    0
ch:  98     128  130  119  120  120  123  119  120  124  119  133  115  121  123  127  121  128  105  121  130  125  121  105  121  121  121  121  105  117  124  115    0
ch:  99     128  128  121  118  116  120  120  121  133  124  137  124  121  118  118  128  121  115  128  111  119  130  124  115  120  131  114  119  115  115  115    0
ch: 100     128  130  129  115  121  116  131  115  125  121  118  121  113  115  123  115  115  114  118  115  119  125  115  115  121  108  123  121  117  105  101    0
ch: 101     128  120  120  106  114  121  133  133  115  130  115  120  115  123  119  130  120  133  125  125  112  115  115  117  113  121  112  117  121  130  119    0
ch: 102     128  128  117  130  128  130  123  130  120  124  107  115  114  124  121  121  121  101  106  121  121  113  115  115  120  115  112  119  121  128  119    0
ch: 103     128  128  111  125  123  121  130  121  119  123  127  118  124  117  133  121  115  121  124  119  115  127  120  121  118  115  121  124  107  124  119    0
ch: 104     128  120  120  122  116  116  127  115  114  130  119  104  119  133  124  119  119  121  119  120  121  110  115  105  118  114  131  115  115  115  121    0
ch: 105     128  128  129  119  120  119  118  127  113  123  133  115  118  119  114  121  114  128  128  119  115  121  118  119  115  118  115  119  115  119  133    0
ch: 106     128  120  114  122  121  124  105  115  121  117  121  119  119  117  117  115  124  120  129  115  113  123  115  119  130  119  115  119  119  127  118    0
ch: 107     128  128  122  133  132  133  118  130  121  121  119  133  115  123  113  131  125  118  115  105  121  129  121  115  115  125  113  123  111  112  130    0
ch: 108     128  120  120  120  121  121  115  119  118  128  113  130  117  118  114  114  105  131  114  129  120  114  117  128  118  114  119  118  121  128  114    0
ch: 109     128  132  120  130  117  126  120  115  114  121  124  115  116  121  121  131  121  120  130  130  107  130  121  105  118  117  130  119  128  133  119    0
ch: 110     128  120  125  116  124  116  117  119  115  114  120  121  120  121  121  119  119  115  119  121  118  114  124  120  121  114  115  119  118  118   99    0
ch: 111     128  128  126  125  119  121  121  119  113  119  133  113  121  121  115  115  115  121  118  118  128  111  120  121  125  118  120  118  115  115  127    0
ch: 112     128  115  122  118  128  120  115  119  130  121  115  125  123  124  115  115  119  123  115  110  114  130  105  121  119  121  114  120  115  118  115    0
ch: 113     128  136  120  120  121  127  114  115  115  121  115  110  121  119  125  121  115  130  114  117  117  119  118  118  119  110  101  119  123  115  125    0
ch: 114     131  128  122  124  109  111  121  125  121  130  114  119  112  105  111  115  115  101  115  130  115  110  100  113  119  130  112  118  111  118  115    0
ch: 115     128  120  119  116  124  119  118  123  121  121  121  121  128  113  123  121  117  115  105  130  114  115  115  130  115  115  105  121  118  111  112    0
ch: 116     128  128  121  122  128  128  128  121  110  115  119  125  121  124  113  121  121  121  121  115  121  115  119  115  121  118  121  115  113  121  108    0
ch: 117     128  120  128  116  130  121  116  115  126  133  113  133  121  115  121  115  121  121  123  108  130  114  121  105  117  121  119  137  117  103  114    0
ch: 118     128  128  118  102  130  121  121  115  127  113  133  118  121  115  117  114  105  130  121  115  115  112  121  128  105  111  107  119  105  115  105    0
ch: 119     128  120  127  119  116  118  130  112  124  119  113  121  125  107  118  118  113  115  121  115  114  115  114  125  121  121  114  112  125  115  125    0
ch: 120     128  123  122  110  113  128  121  118  118  114  128  120  114  123  119  125  128  115  119  115  125  103  121  121  108  121  118  115  114  115  115    0
ch: 121     128  128  122  117  116  121  119  121  119  121  123  128  121  124  115  119  119  121  120  128  128  121  123  121  121  128  121  105  121  105  121    0
ch: 122     128  131  114  115  123  127  121  119  118  119  125  121  118  118  121  121  121  115  115  115  114  124  134  119  124  130  121  130  119  112  115    0
ch: 123     128  129  111  122  120  130  112  119  125  124  115  115  121  127  117  113  121  119  115  123  119  121  112  118  105  118  115  121  119  115  125    0
ch: 124     128  128  111  126  121  134  121  120  121  117  115  130  115  121  107  115  125  131  121  107  119  133  124  121  119  124  105  105  115  112  112    0
ch: 125     128  120  120  116  119  121  114  121  121  115  121  115  105  131  117  118  127  115  128  119  121  123  121  130  115  115  121  105  115  124  118    0
ch: 126     128  136  122  122  116  121  105  119  130  121  115  115  117  130  121  121  115  109  124  117  113  119  121  118  115  121  112  121  119  118  114    0
ch: 127     128  120  132  125  122  113  121  115  121  121  115  125  115  117  105  130  121  118  105  125  119  110  115  115  131  108  125  125  115  119  121    0
