31,c1h
32,c1h
33,c1h
34,c1h
35,e3h
36,07h
37,03h
38,06h
39,07h
53,6ah
54,08h
55,f8h
56,5eh
57,05h
58,00h
59,bdh
60,d4h
61,01h
62,00h
31,c0h
64,00h
65,17h
66,00h
67,00h
68,00h
69,00h
70,01h
71,00h
72,00h
73,00h
32,c0h
75,00h
76,08h
77,00h
78,00h
79,00h
80,00h
81,01h
82,00h
83,00h
84,00h
33,c0h
86,00h
87,17h
88,00h
89,00h
90,00h
91,00h
92,01h
93,00h
94,00h
95,00h
34,c0h
174,50h
175,d6h
176,dch
177,01h
178,00h
179,00h
180,00h
181,00h
182,00h
183,00h
184,00h
185,00h
186,00h
187,01h
188,40h
189,beh
190,40h
191,25h
192,00h
193,00h
194,00h
195,00h
74,00h
246,02h
