# TRIM CALIBRATION    FEB2_3_1    pulse_ampl_min=20    pulse_ampl_max=85    pulse_ampl_fast=20
#
ch:   0     114  116  118  118  129  125  130  117  136  128  119  119  117  133  142  128  124  115  135  134  128  126  126  117  130  131  128  123  124  126  124    0
ch:   1     130  138  129  129  136  132  130  135  140  135  119  130  128  137  144  127  115  128  128  147  128  127  134  130  133  131  131  129  130  134  134    0
ch:   2     133  139  121  121  127  152  129  132  121  125  134  128  122  131  120  124  147  120  116  130  133  118  120  129  119  128  131  124  125  122  113    0
ch:   3     111  124  128  123  126  129  146  128  127  120  139  127  127  126  140  124  132  117  132  127  128  140  120  133  131  131  126  117  129  130  137    0
ch:   4     134  131  133  134  133  131  128  134  136  131  128  118  117  124  132  120  134  117  120  123  134  136  120  121  126  128  145  132  128  128  128    1
ch:   5     129  122  123  129  126  134  121  129  133  134  128  137  135  128  127  131  131  122  125  122  143  134  129  132  137  134  130  124  126  141  129    1
ch:   6     115  124  123  128  122  133  127  121  139  136  119  128  132  129  132  134  133  137  134  132  122  134  128  132  128  126  125  125  134  126  117    4
ch:   7     131  126  135  130  136  130  128  128  118  129  127  135  129  127  131  119  139  124  142  124  140  124  134  127  128  123  130  127  122  125  135   14
ch:   8     121  129  120  135  139  127  122  114  124  131  148  127  121  133  126  132  132  135  128  122  126  135  117  128  145  132  118  129  125  122  131    7
ch:   9     128  129  123  134  128  122  142  136  124  128  122  133  130  134  131  140  127  154  134  146  135  139  122  129  132  135  119  130  135  132  130   13
ch:  10     116  130  132  133  132  125  130  134  137  133  127  128  124  123  124  120  122  124  131  125  131  131  130  134  127  137  130  117  126  139  120    5
ch:  11     120  125  122  128  131  129  121  132  138  133  128  120  133  140  137  135  124  126  126  126  133  130  128  141  134  128  125  132  136  136  128    9
ch:  12     119  119  120  122  122  126  135  134  121  134  125  124  132  128  128  128  129  129  122  128  122  136  135  136  112  150  143  120  134  132  135   26
ch:  13     117  130  123  124  118  132  122  138  124  128  135  133  132  133  124  134  131  132  126  119  127  123  128  141  134  133  131  130  132  132  124   19
ch:  14     135  129  123  137  137  133  130  129  133  126  139  126  132  134  133  123  128  124  129  128  133  153  132  128  128  119  116  124  126  124  137   19
ch:  15     122  114  122  125  125  135  137  161  138  132  124  128  138  143  135  125  128  134  131  135  139  133  129  135  136  147  130  130  135  134  127   20
ch:  16     121  119  131  122  134  130  134  128  123  133  124  130  127  133  135  127  130  136  130  134  131  131  125  129  125  135  132  128  128  118  117   21
ch:  17     130  121  123  123  134  135  122  121  127  125  134  130  131  124  147  128  128  133  124  133  128  122  131  129  150  120  135  130  134  136  120   15
ch:  18     114  124  121  134  128  128  129  131  138  124  145  132  120  126  125  121  134  111  140  141  128  128  126  133  121  131  134  131  131  141  144   18
ch:  19     125  136  124  138  134  122  139  146  133  144  127  139  138  134  135  134  137  140  154  136  131  134  123  127  130  137  133  126  144  126  133   29
ch:  20     121  115  136  128  123  136  133  137  129  134  132  133  143  135  151  142  129  134  126  118  132  129  131  141  118  120  128  116  128  130  138   23
ch:  21     122  128  130  129  129  124  141  132  145  132  135  141  128  127  137  135  122  129  132  136  134  123  136  129  143  135  145  138  127  136  121   33
ch:  22     126  122  121  131  123  118  130  136  120  137  126  142  128  124  126  140  126  105  134  120  130  124  128  133  134  133  140  132  123  132  127   25
ch:  23     104  130  132  131  123  136  128  133  129  136  142  137  131  146  141  129  128  132  142  128  146  124  130  137  123  133  134  135  133  135  126   31
ch:  24     117  133  137  122  122  132  121  137  142  134  121  122  127  131  130  128  136  134  138  128  131  130  130  130  123  148  127  136  121  135  128   28
ch:  25     122  132  134  135  117  123  128  130  137  133  138  133  121  125  124  140  147  128  143  135  128  124  136  124  128  126  141  138  133  132  153   34
ch:  26     134  128  119  138  122  134  134  133  131  140  132  121  134  127  150  136  135  119  135  127  130  127  142  136  133  134  128  131  137  124  137    0
ch:  27     125  127  121  131  120  134  119  134  143  137  147  129  131  131  138  145  135  147  138  131  137  137  131  135  125  128  132  133  124  128  128   38
ch:  28     119  138  132  119  132  136  124  134  132  126  150  136  130  134  132  139  120  130  137  136  130  136  129  124  125  134  130  135  146  127  139   29
ch:  29     122  120  132  135  134  138  141  132  132  134  128  129  133  131  134  126  133  137  129  128  132  141  133  130  137  141  147  128  134  124  133   32
ch:  30     135  126  131  128  132  136  136  135  135  135  133  128  125  136  128  139  125  153  123  135  136  143  135  132  141  140  132  143  138  137  129   41
ch:  31     120  116  131  126  132  132  130  138  134  131  135  130  135  131  135  131  131  134  148  135  130  123  131  119  136  135  135  134  132  124  135   45
ch:  32     119  115  120  121  133  123  135  129  138  136  128  138  131  133  137  120  129  135  130  143  137  129  136  143  154  134  128  127  136  136  139   41
ch:  33     127  124  130  121  123  132  121  133  136  125  133  134  130  131  148  128  138  136  146  133  128  126  134  125  128  129  129  130  128  140  120   40
ch:  34     120  116  129  128  124  135  128  127  132  133  133  135  118  124  128  128  123  131  149  130  133  132  138  132  130  138  139  130  126  130  137   55
ch:  35     122  117  134  135  131  153  132  131  140  136  145  130  148  126  135  133  137  135  144  134  143  139  146  135  127  127  152  134  129  127  132   38
ch:  36     122  120  121  131  141  142  122  135  127  137  131  134  132  129  140  134  122  131  124  138  133  146  135  147  128  124  133  129  139  130  131   31
ch:  37     120  131  119  134  138  129  135  128  151  126  138  138  124  120  133  141  131  130  131  126  157  135  129  147  136  128  126  133  132  128  131   30
ch:  38     118  130  132  130  136  134  135  136  131  136  153  128  141  133  132  128  128  117  136  134  149  142  134  140  129  132  132  131  139  150  131   38
ch:  39     124  117  130  118  138  135  138  134  136  134  134  135  131  133  131  136  141  127  156  134  151  128  141  136  134  143  135  134  136  152  138   30
ch:  40     120  130  125  128  135  145  133  141  132  147  128  124  134  120  133  133  135  155  120  138  147  123  132  154  128  139  133  130  129  131  143   33
ch:  41     114  123  125  135  127  127  127  131  134  155  132  131  133  130  135  134  146  134  134  137  137  130  148  128  140  129  131  132  135  154  132   26
ch:  42     125  123  121  135  120  134  130  139  145  133  135  125  128  133  127  135  143  126  135  135  135  125  132  120  137  149  119  132  136  127  131   37
ch:  43     122  130  124  129  140  135  128  131  136  132  128  130  142  128  154  146  144  135  128  128  128  135  135  138  128  130  138  140  147  136  134   32
ch:  44     113  128  124  131  131  129  134  138  134  129  135  128  141  129  129  125  130  123  139  128  130  150  134  120  129  121  132  131  147  135  139   45
ch:  45     123  131  137  138  142  127  123  123  128  131  134  135  134  130  137  147  136  147  153  136  130  128  121  137  131  134  126  135  126  138  135   51
ch:  46     119  121  129  116  135  139  134  135  118  133  149  145  132  132  129  131  130  137  135  160  137  136  132  145  134  140  142  131  134  121  129   47
ch:  47     116  122  120  121  119  128  139  138  140  133  138  128  128  137  136  128  147  150  139  138  132  123  124  140  137  128  128  125  127  139  134   25
ch:  48     131  135  130  125  123  131  124  137  126  140  139  137  147  127  135  133  149  126  136  129  128  128  138  128  127  138  126  123  131  124  138   41
ch:  49     131  117  118  134  131  130  131  134  134  150  137  135  131  128  132  126  149  136  131  148  128  125  132  137  121  137  143  131  126  128  132   22
ch:  50     121  132  130  128  132  137  137  142  141  137  137  137  128  133  139  142  130  139  142  122  152  127  140  132  135  136  134  142  130  165  139   54
ch:  51     118  128  138  128  134  135  131  132  135  128  149  140  128  133  125  125  145  147  137  138  134  133  128  131  150  137  128  149  128  142  149   39
ch:  52     114  124  123  123  137  133  138  133  130  150  131  138  136  124  141  147  130  151  136  129  126  136  132  130  128  130  128  136  146  128  136   40
ch:  53     118  120  129  129  136  144  127  133  131  151  142  142  128  128  134  138  128  135  137  135  128  132  149  134  153  136  128  150  129  147  150   51
ch:  54     129  126  121  133  134  126  141  132  145  145  137  131  134  138  141  133  137  136  135  128  134  133  125  137  153  150  135  158  122  151  134   57
ch:  55     116  122  134  136  123  132  132  138  144  150  133  127  140  141  137  142  129  138  138  142  128  128  128  135  127  132  143  126  138  128  131   28
ch:  56     118  127  131  117  135  145  149  136  134  138  128  145  128  146  134  137  136  146  122  137  140  151  135  145  132  129  130  114  146  135  136   43
ch:  57     121  128  121  124  126  147  121  136  136  128  130  143  130  153  133  139  133  138  140  136  139  143  135  131  153  137  160  134  138  134  137   40
ch:  58     135  122  147  136  147  147  149  153  150  147  152  150  153  142  154  151  157  154  155  172  154  169  173  163  164  150  169  156  178  170  173   39
ch:  59     124  124  128  122  132  124  143  132  132  137  136  132  134  136  128  143  139  139  135  120  137  139  143  136  136  138  137  149  137  154  138   29
ch:  60     126  124  121  134  135  135  136  132  131  134  143  128  133  133  129  131  128  140  142  137  122  122  132  132  129  131  138  136  138  139  130   40
ch:  61     113  121  130  135  132  136  132  146  148  131  128  139  128  136  134  137  152  140  140  149  132  134  144  138  137  132  128  135  128  140  146   31
ch:  62     127  129  122  133  132  136  137  134  134  136  128  146  140  137  156  148  134  146  156  130  148  128  126  134  135  163  139  122  137  145  135   40
ch:  63     122  121  123  130  133  131  137  139  125  135  146  138  134  154  138  162  136  143  146  137  138  129  133  135  128  134  147  136  133  148  134   31
ch:  64     122  134  132  127  117  139  133  145  128  139  136  143  141  136  135  137  146  129  140  121  134  131  128  130  135  127  140  137  148  135  137   50
ch:  65     120  122  128  131  115  132  135  137  151  124  130  132  128  129  130  147  136  140  136  152  144  140  150  132  142  147  137  134  128  134  128   33
ch:  66     117  125  114  127  129  129  130  131  135  118  129  128  136  138  132  127  150  142  125  128  132  128  134  131  136  128  132  137  135  138  151   43
ch:  67     130  126  124  129  132  129  136  136  133  137  129  145  139  133  135  149  134  128  151  163  148  137  145  133  156  147  143  147  134  137  154   29
ch:  68     125  128  114  134  123  137  120  134  128  131  128  130  134  122  150  133  130  152  138  141  122  127  127  126  128  136  145  138  153  132  134   34
ch:  69     119  120  112  129  125  136  137  121  138  131  135  135  143  128  133  135  133  128  131  141  157  138  144  149  128  149  148  135  130  133  133   17
ch:  70     127  124  133  131  131  138  133  140  130  133  136  135  129  128  153  128  134  137  136  140  136  142  136  143  131  132  151  130  144  135  131   42
ch:  71     128  117   98  113  113  107  128  116  115  103  121  125  130  128  146  120  144  139  155  134  144  128  135  128  143  129  151  157  147  138  135   35
ch:  72     128  156  156  128  128  128  128  128  128  128  128  128  128  128  128  128  128  128  128  128  128  128  128  128  128  128  128  128  128  128  128    0
ch:  73     128  128  120  123  128  119  130  118  127  147  138  131  137  149  150  147  136  153  153  153  128  148  149  151  149  136  151  128  133  128  148   12
ch:  74     121  128  128  126  127  130  136  125  121  143  141  147  133  144  123  132  126  136  135  150  128  132  134  128  123  141  140  143  138  134  139   43
ch:  75     117  107  119  130  129  128  135  147  142  139  147  134  146  128  148  137  144  147  134  124  132  131  128  136  137  151  134  133  138  140  140   27
ch:  76     133  122  123  128  121  140  138  137  133  132  126  138  134  129  152  127  134  145  138  134  134  142  134  138  135  134  129  145  141  134  138   39
ch:  77     118  113  114  125  134  124  137  145  138  143  150  128  142  146  143  139  137  138  138  130  130  137  137  149  139  147  128  128  154  130  136   22
ch:  78     117  135  122  128  127  138  146  134  139  133  141  128  137  124  132  128  128  138  138  149  141  133  137  134  145  132  152  132  131  131  138   43
ch:  79     118  114  121  119  148  121  135  151  132  134  128  136  133  150  130  148  151  137  148  146  134  128  132  141  153  124  134  131  158  153  148   13
ch:  80     111  121  119  129  131  127  136  131  125  132  139  146  150  147  129  127  138  129  135  135  141  140  133  145  129  135  131  135  141  148  138   25
ch:  81     129  120  135  131  148  128  138  149  134  137  140  134  149  151  147  129  134  151  152  138  138  142  149  139  128  140  143  133  137  132  149   19
ch:  82     113  121  116  130  137  139  141  140  128  137  138  134  147  123  128  136  141  148  121  128  150  121  143  136  156  132  145  124  128  149  136   23
ch:  83     118  121  120  131  130  130  139  147  149  134  134  133  140  138  138  148  134  143  144  135  138  128  149  155  134  132  144  143  133  151  154   13
ch:  84     119  118  124  132  133  131  135  149  151  134  126  129  135  148  128  134  120  129  130  143  139  132  139  145  133  135  145  131  125  141  127   21
ch:  85     116  121  132  136  121  123  125  134  146  146  158  141  128  152  134  137  135  128  151  136  156  142  142  147  128  146  130  152  145  144  137   13
ch:  86     124  123  119  127  127  130  122  139  130  144  125  130  130  129  130  147  134  132  130  131  157  133  150  136  120  147  134  133  150  152  155   25
ch:  87     128  120  130  120  126  135  134  130  122  137  137  122  136  141  140  127  137  135  128  139  138  152  135  138  137  137  128  146  131  140  133    9
ch:  88     121  130  125  136  121  136  118  130  144  125  128  143  128  137  133  156  137  126  138  143  131  131  133  128  130  128  137  134  144  131  128   16
ch:  89     114  127  131  114  131  135  129  128  148  128  133  128  141  128  143  130  128  134  141  150  128  128  141  133  129  136  139  144  135  133  140   14
ch:  90     132  118  130  134  120  148  141  134  144  135  148  133  144  133  128  128  136  140  131  135  134  142  133  135  124  134  123  132  134  160  134   26
ch:  91     116  117  130  127  130  124  132  137  134  128  138  148  145  141  143  128  140  127  128  145  128  151  134  135  130  135  142  135  136  137  144    8
ch:  92     118  119  120  126  132  138  133  134  129  133  131  133  134  140  135  128  130  134  134  137  134  138  139  137  138  140  136  130  133  150  152   19
ch:  93     122  118  122  128  130  135  124  134  135  148  130  143  137  128  128  135  138  132  138  143  149  135  138  139  141  137  153  128  130  145  136   15
ch:  94     122  130  118  116  131  124  147  130  150  128  149  149  120  144  132  135  144  128  123  149  129  132  138  135  134  128  139  135  128  147  146   16
ch:  95     116  133  118  118  129  131  137  136  128  134  128  135  140  137  146  144  130  139  157  142  135  143  154  142  146  134  134  148  155  152  146   10
ch:  96     115  119  130  116  129  133  136  148  135  125  138  131  138  150  139  133  132  128  120  150  147  150  134  138  130  140  135  127  139  128  128   11
ch:  97     120  113  119  124  136  129  153  136  146  141  148  133  142  149  142  155  146  151  153  152  145  140  144  150  146  151  155  148  149  145  148    2
ch:  98     115  110  128  118  123  131  130  130  136  126  128  141  124  128  135  137  135  131  135  134  156  133  142  126  128  131  138  123  140  126  140   13
ch:  99     123  121  122  137  131  132  136  133  124  133  135  136  128  132  153  151  134  133  142  148  129  137  153  134  137  157  125  132  151  145  144    6
ch: 100     127  129  119  148  132  135  136  140  136  130  134  128  133  123  140  138  137  124  128  138  128  133  131  138  130  136  131  138  145  134  147   12
ch: 101     121  119  128  132  132  124  136  125  151  126  126  130  134  144  132  128  149  146  144  128  158  132  145  152  139  133  138  144  131  148  134   11
ch: 102     122  127  126  131  125  126  132  137  136  137  140  135  134  123  135  135  141  139  138  134  136  131  138  142  148  150  128  145  120  131  124   14
ch: 103     116  128  131  123  130  136  132  148  135  136  128  133  135  136  128  150  137  134  138  149  140  136  150  136  141  136  118  151  137  132  131   10
ch: 104     120  121  127  131  132  121  135  132  141  130  134  133  140  128  135  135  128  139  144  148  148  136  134  128  128  135  139  128  142  137  132   10
ch: 105     114  123  106  123  149  126  129  132  130  146  141  138  137  134  138  128  133  134  144  133  149  155  128  135  156  142  130  134  125  127  145    1
ch: 106     121  135  118  133  135  121  137  136  141  162  145  120  126  128  139  133  132  131  135  128  137  159  135  135  123  128  128  130  128  141  125    5
ch: 107     119  122  120  123  124  131  136  126  130  135  139  129  130  148  135  136  139  132  136  132  138  138  154  129  142  148  129  147  133  160  150    0
ch: 108     121  123  127  131  133  131  131  132  132  128  128  128  130  155  155  139  134  141  149  138  139  149  134  149  150  154  137  139  128  130  151    2
ch: 109     116  122  128  130  129  129  133  151  146  138  133  132  128  136  138  142  141  128  129  138  128  137  132  132  128  133  133  132  133  150  137    2
ch: 110     109  125  128  125  119  133  142  137  126  130  143  141  137  125  132  131  146  137  139  129  135  125  132  130  150  135  128  133  127  129  123    0
ch: 111     121  118  133  118  128  134  148  133  139  139  126  126  134  123  137  135  129  145  139  144  128  126  145  155  139  137  133  145  150  134  134    0
ch: 112     115  119  128  106  118  130  123  136  123  127  133  118  124  145  125  129  130  137  128  122  140  133  131  132  135  135  135  135  133  132  128    2
ch: 113     114  115  134  109  120  128  128  131  133  148  141  138  124  134  134  145  149  152  155  152  158  135  128  152  128  135  128  131  150  137  141    0
ch: 114     121  122  131  137  135  144  147  136  125  133  145  121  131  138  132  140  133  131  143  141  150  133  138  133  146  128  151  115  133  139  132    0
ch: 115     117  115  121  131  123  134  128  135  143  144  136  149  147  133  152  121  136  113  147  143  131  138  142  137  141  130  143  149  151  153  151    0
ch: 116     127  128  122  134  131  134  138  139  135  150  146  132  129  133  128  132  131  135  127  133  137  129  132  125  150  131  137  139  145  123  134    0
ch: 117     118  109  123  133  123  130  129  124  141  138  133  125  128  134  145  134  132  132  146  132  155  133  128  135  128  140  128  135  146  128  140    0
ch: 118     114  116  121  124  135  132  129  133  135  138  126  150  124  135  133  130  128  133  136  140  137  130  154  134  128  138  134  137  136  130  136    0
ch: 119     124  122  117  131  118  134  142  132  132  133  136  146  135  135  138  128  135  128  133  130  133  138  132  128  130  140  128  143  133  131  137    0
ch: 120     121  121  135  120  124  139  138  143  133  134  136  131  152  125  128  133  127  132  134  127  119  135  133  147  142  135  131  132  128  138  134    0
ch: 121     120  116  128  119  121  123  136  135  140  137  134  128  128  137  128  129  151  131  132  151  151  146  132  126  128  141  136  139  129  146  133    0
ch: 122     107  131  127  124  143  129  138  135  133  128  133  128  130  134  125  139  128  139  138  134  141  140  136  130  139  123  131  140  132  128  130    0
ch: 123     117  100  114  124  121  122  135  136  151  151  147  131  133  143  124  149  138  138  128  128  141  129  138  151  154  136  132  138  142  136  135    0
ch: 124     116  118  135  122  133  147  151  138  146  147  148  150  128  148  163  149  128  163  154  148  161  151  165  159  160  161  156  147  163  155  168    0
ch: 125     121  112  115  120  125  134  137  134  122  132  138  154  141  132  128  134  134  154  155  138  136  133  126  128  128  138  128  141  134  132  152    0
ch: 126     126  130  121  123  118  128  134  135  133  141  128  130  145  129  128  143  128  118  129  127  129  134  134  123  132  134  135  127  130  140  131    0
ch: 127     123  116  123  131  117  128  134  149  135  149  135  133  136  153  139  144  143  135  164  136  139  139  132  149  143  130  150  134  154  136  156    0
