# TRIM CALIBRATION    FEB6_1_2    pulse_ampl_min=20    pulse_ampl_max=85    pulse_ampl_fast=20
#
ch:   0     131  121  130  119  133  130  119  117  131  121  122  124  117  126  123  133  119  121  124  125  117  123  129  128  137  120  124  124  103  118  121    0
ch:   1     122  124  120  118  134  136  121  140  129  120  131  120  120  123  129  121  120  118  133  120  123  120  120  111  121  134  119  125  134  120  132    0
ch:   2     122  128  132  116  118  121  111  117  121  130  130  135  131  123  119  120  117  110  119  121  123  129  119  123  122  118  121  117  112  120  114    0
ch:   3     122  131  137  121  130  134  136  132  121  130  118  121  118  118  105  135  121  122  131  131  117  130  120  138  118  133  118  124  119  117  117    0
ch:   4     116  116  118  122  134  132  123  118  120  121  118  112  120  128  119  121  123  120  135  129  129  119  105  121  107  105  115  120  121  110  120    0
ch:   5     122  138  124  134  119  127  134  123  124  133  140  130  138  137  134  131  119  139  124  121  122  131  118  118  103  123  117  129  135  133  121    0
ch:   6     126  124  129  132  128  119  121  120  132  121  128  120  114  130  130  119  133  121  133  139  133  115  121  128  107  116  118  107  124  117  122    0
ch:   7     132  120  132  121  121  123  133  129  130  139  128  124  144  129  123  121  131  131  126  120  131  121  123  133  131  119  122  122  112  119  117    0
ch:   8     124  130  122  147  115  118  130  133  121  123  133  124  117  118  115  131  117  123  115  107  130  120  111  131  114  123  110  133  125  122  117    0
ch:   9     134  129  123  133  133  126  129  135  137  121  126  124  118  124  121  123  121  121  134  132  130  123  120  133  119  117  130  131  121  120  121    0
ch:  10     136  121  132  134  121  120  118  122  121  135  128  135  120  119  133  129  123  117  117  134  134  120  124  114  117  115  109  111  107  115  117    0
ch:  11     134  130  137  116  138  122  117  132  118  130  137  131  135  134  125  128  129  130  130  123  120  121  134  117  123  129  120  122  135  118  114    0
ch:  12     136  132  122  128  126  132  128  140  127  134  131  126  131  121  110  134  134  117  121  126  119  117  124  118  109  117  120  121  112  123  110    0
ch:  13     129  124  115  131  124  118  139  128  131  138  122  123  123  125  126  111  130  135  118  123  128  121  135  121  124  132  118  121  121  115  120    0
ch:  14     134  118  118  131  121  123  123  123  121  118  121  131  114  132  133  115  117  121  139  121  118  117  132  123  115  117  105  115  113  121  101    0
ch:  15     133  127  119  134  123  136  127  121  119  130  130  133  123  145  138  131  133  133  134  130  131  120  131  121  137  121  121  121  120  133  138    0
ch:  16     118  131  134  133  123  135  120  130  129  118  121  138  137  120  133  132  130  133  117  131  111  115  118  119  117  118  130  113  117  105  132    0
ch:  17     124  137  120  129  128  139  130  117  128  118  130  133  137  131  129  126  130  134  119  132  118  128  123  133  131  120  117  134  117  128  124    0
ch:  18     121  121  116  121  133  120  130  121  115  137  134  117  132  133  137  121  119  115  117  115  121  120  117  113  126  107  107  120  121  110  115    0
ch:  19     136  132  122  134  131  131  118  132  133  131  128  122  133  134  117  118  124  131  121  133  119  133  117  116  115  130  122  121  126  124  115    0
ch:  20     116  118  118  137  124  132  129  121  121  135  117  107  135  120  109  117  121  124  122  114  129  121  113  121  117  120  114  119  107  114  117    0
ch:  21     123  128  136  139  121  121  120  134  126  123  118  118  114  134  134  128  121  121  131  145  121  121  123  105  133  117  131  108  122  123  121    0
ch:  22     124  132  132  123  123  123  121  133  127  123  134  115  118  123  121  118  133  121  130  129  117  123  120  107  121  133  118  126  108  121  122    0
ch:  23     111  122  139  119  115  130  121  121  133  121  128  130  121  124  133  138  120  121  137  118  134  115  133  107  133  120  117  117  130  108  121    0
ch:  24     122  121  124  129  116  131  118  138  128  120  131  115  118  121  121  120  131  120  129  121  118  113  118  120  120  124  118  118  120  104  115    0
ch:  25     128  137  131  115  119  115  134  120  129  133  133  124  133  115  137  133  123  130  134  145  117  133  131  119  121  121  117  121  117  120  123    0
ch:  26     126  133  118  133  130  121  121  121  131  131  122  131  120  123  130  132  118  121  132  115  117  118  118  121  120  119  119  115  121  119  122    0
ch:  27     130  116  122  130  123  118  123  134  121  130  120  130  124  120  115  119  120  118  143  118  123  122  118  129  124  110  120  119  131  124  122    0
ch:  28     124  132  123  124  121  125  132  120  121  121  128  117  118  121  123  107  121  129  131  124  118  129  121  119  121  119  113  114  121  120  113    0
ch:  29     121  131  133  120  133  121  130  131  119  123  128  130  118  134  121  119  121  118  130  121  134  129  129  134  121  128  134  107  118  129  120    0
ch:  30     119  121  123  122  113  118  121  125  121  138  119  131  120  119  118  121  130  121  120  123  130  120  118  113  114  115  118  130  130  130  117    0
ch:  31     133  131  131  130  122  129  123  119  132  117  121  121  120  121  131  135  115  121  118  131  121  130  134  122  122  121  123  124  117  128  120    0
ch:  32     111  124  131  121  122  121  131  130  121  127  114  128  123  121  138  121  130  129  117  131  115  118  121  130  117  117  111  114  121  130  121    0
ch:  33     118  119  147  123  133  143  117  134  131  131  119  138  130  120  119  134  131  132  120  130  121  133  123  121  120  132  116  119  124  123  118    0
ch:  34     123  122  120  121  121  121  121  134  128  121  126  128  129  121  129  118  125  123  117  115  113  121  117  118  118  120  117  118  112  107  117    0
ch:  35     130  133  126  121  129  123  121  130  118  133  133  118  135  118  122  115  145  129  130  120  121  121  134  117  121  117  130  124  119  124  117    0
ch:  36     122  132  132  129  132  133  117  117  124  130  118  124  122  115  135  115  121  108  131  113  115  120  119  120  117  121  121  116  115  119  113    0
ch:  37     141  124  133  134  118  128  139  131  133  132  128  128  126  118  135  122  133  134  129  125  129  130  123  121  117  121  128  120  121  121  126    0
ch:  38     128  120  118  133  129  130  131  132  130  117  128  133  119  119  119  134  131  130  120  122  131  105  118  127  111  121  124  117  124  113  117    0
ch:  39     122  115  116  124  122  128  135  131  117  123  133  134  132  121  124  126  124  121  124  132  134  115  130  126  116  117  121  120  135  107  126    0
ch:  40     130  124  123  116  116  123  123  133  123  115  118  118  133  134  120  124  123  117  118  130  122  126  117  127  128  123  129  105  118  121  120    0
ch:  41     120  122  124  131  129  118  117  118  135  118  135  115  121  118  124  121  115  117  126  129  119  133  123  130  123  121  138  117  110  120  119    0
ch:  42     132  105  115  128  121  132  128  118  135  112  121  134  121  134  133  118  124  121  130  121  121  115  121  113  119  121  121  117  118  114  107    0
ch:  43     116  130  122  122  138  134  136  139  134  133  131  133  131  131  131  134  118  137  131  129  121  130  120  131  131  118  121  131  129  123  119    0
ch:  44     133  115  128  126  121  118  134  125  133  134  130  112  131  118  129  117  123  123  121  121  113  109  117  134  134  130  112  110  114  133  121    0
ch:  45     111  112  131  133  129  134  127  118  132  134  130  117  120  123  131  129  139  137  131  133  132  133  135  115  131  115  123  121  135  119  133    0
ch:  46     131  133  136  133  125  124  118  117  117  143  133  133  126  137  131  138  120  120  120  134  119  130  123  116  126  115  118  120  112  118  123    0
ch:  47     119  131  119  133  136  130  119  132  132  130  115  118  132  131  121  131  133  121  121  121  124  122  121  115  115  118  121  134  119  118  134    0
ch:  48     117  132  133  134  121  126  131  131  131  120  118  120  139  117  118  119  123  131  123  114  117  117  121  124  121  105  106  115  128  122  120    0
ch:  49     137  122  134  122  130  129  123  121  128  130  118  128  121  117  121  119  134  117  120  134  130  120  119  123  126  109  126  133  123  130  117    0
ch:  50     134  133  119  121  134  144  115  132  126  133  121  121  115  128  115  119  131  130  117  121  121  133  120  117  115  120  121  120  124  121  114    0
ch:  51     121  147  125  131  124  120  116  124  129  133  120  131  124  134  125  118  130  118  135  125  127  119  131  133  110  133  118  119  121  118  120    0
ch:  52     129  136  134  130  126  121  129  120  135  126  122  126  122  131  129  130  121  115  122  121  113  110  117  124  128  117  134  117  119  120  119    0
ch:  53     111  121  137  119  120  139  132  137  119  133  134  120  122  135  133  131  131  137  124  119  122  120  119  121  121  130  130  133  120  131  122    0
ch:  54     124  119  130  119  120  115  121  121  121  129  126  109  133  117  124  123  135  129  122  132  122  131  130  117  121  118  117  118  118  114  121    0
ch:  55     118  130  132  121  120  132  123  134  130  118  130  124  117  124  115  131  114  121  133  120  119  124  117  133  122  124  133  138  130  133  120    0
ch:  56     122  129  128  133  123  121  131  115  121  131  133  119  129  122  131  120  118  118  121  121  127  120  122  135  119  105  123  120  107  117  115    0
ch:  57     134  123  121  114  129  123  119  124  130  120  137  115  117  137  130  133  119  119  133  133  122  117  120  135  114  121  133  131  111  121  121    0
ch:  58     121  121  122  116  134  129  137  128  121  123  131  134  121  124  129  123  130  120  119  119  129  128  121  123  119  118  114  118  117  117  121    0
ch:  59     133  122  129  125  129  133  131  126  130  131  134  121  121  134  131  121  131  133  121  131  129  121  117  115  121  121  133  109  117  110  120    0
ch:  60     121  119  117  133  137  129  133  131  134  115  124  134  120  118  129  126  118  134  131  118  121  131  111  118  130  133  121  131  119  121  103    0
ch:  61     129  137  131  133  132  130  138  134  122  133  125  126  130  123  129  129  133  121  121  128  123  128  113  137  133  113  118  126  109  117  118    0
ch:  62     130  133  131  145  127  123  126  123  136  119  117  131  123  117  133  130  120  123  117  123  121  110  114  113  106  121  108  118  117  115  113    0
ch:  63     134  136  119  130  136  123  121  132  134  132  125  128  126  122  130  118  121  121  130  121  122  124  115  108  121  113  115  118  139  129  114    0
ch:  64     119  132  122  121  133  130  128  119  134  129  121  115  120  117  118  117  131  108  131  119  123  119  119  107  118  115  123  119  132  120  111    0
ch:  65     114  133  121  133  121  134  120  132  135  131  129  115  121  133  138  133  129  123  131  133  130  121  121  117  121  130  131  130  120  131  107    0
ch:  66     118  134  123  121  133  121  134  117  117  121  138  119  121  128  119  131  120  115  134  126  135  129  114  118  133  121  122  130  121  114  120    0
ch:  67     122  121  132  133  121  123  121  133  129  124  130  120  135  118  145  147  118  130  117  120  132  121  131  130  130  132  121  131  124  117  121    0
ch:  68     122  121  119  136  130  118  115  121  119  128  133  123  131  121  126  123  131  119  120  123  120  118  117  113  123  108  117  112  117  114  118    0
ch:  69     119  121  136  115  120  132  127  124  130  131  133  120  121  115  115  128  121  128  138  124  134  118  118  119  135  130  118  119  121  118  121    0
ch:  70     130  122  115  127  123  134  115  119  121  128  131  121  124  121  121  115  114  117  119  118  132  129  112  123  131  115  128  131  118  121  124    0
ch:  71     125  120  122  122  134  122  128  123  124  122  130  124  121  130  133  121  124  115  123  135  115  124  133  120  134  121  133  117  123  121  115    0
ch:  72     124  130  119  121  133  124  111  110  117  119  128  121  131  119  120  121  128  131  119  123  120  127  120  133  121  117  118  115  133  125  118    0
ch:  73     121  131  121  131  133  121  123  123  126  124  131  128  132  118  120  117  123  127  131  121  124  134  131  131  120  128  121  121  115  118  114    0
ch:  74     111  131  123  129  118  122  118  131  128  120  134  123  122  115  115  123  121  130  120  122  119  114  115  120  126  121  120  109  110  118  107    0
ch:  75     124  126  116  133  130  123  134  141  129  123  121  130  137  134  137  118  138  137  130  131  121  138  133  133  123  126  123  121  129  114  131    0
ch:  76     130  133  116  113  131  133  117  120  119  128  118  123  130  121  121  117  133  121  119  121  137  121  132  118  133  111  131  117  133  115  132    0
ch:  77     119  133  121  129  139  133  135  123  130  140  119  131  135  134  124  126  133  121  113  131  129  121  130  124  121  129  120  112  133  133  117    0
ch:  78     133  140  122  134  122  121  121  124  133  120  123  121  120  121  133  124  121  130  135  126  123  122  114  118  114  124  123  117  105  130  125    0
ch:  79     121  131  130  130  131  137  126  132  121  118  126  120  125  126  124  128  114  134  134  121  137  131  133  134  115  121  120  120  121  124  111    0
ch:  80     134  121  132  134  110  130  133  124  134  130  121  117  135  124  133  121  121  133  126  119  115  117  118  121  107  119  118  115  121  114  115    0
ch:  81     120  116  120  131  124  133  134  133  123  140  139  131  121  128  133  128  120  131  130  117  115  119  119  131  121  123  120  131  130  119  121    0
ch:  82     131  136  120  133  122  124  128  131  122  130  120  135  123  137  135  111  114  129  134  110  121  118  131  115  112  110  107  118  132  120  133    0
ch:  83     121  121  137  136  131  123  118  121  133  134  118  118  126  133  118  134  122  121  115  119  120  120  117  123  124  117  131  117  122  119  118    0
ch:  84     129  116  124  121  133  133  124  126  118  135  126  133  130  128  118  137  121  118  121  115  115  111  117  121  123  121  130  119  115  121  118    0
ch:  85     132  121  130  140  130  129  108  117  134  122  119  137  118  130  132  125  129  117  115  130  114  129  123  117  121  130  121  120  134  115  117    0
ch:  86     121  131  124  120  119  123  133  135  121  131  123  134  126  118  121  133  126  121  121  134  131  131  128  131  121  112  114  123  118  117  115    0
ch:  87     122  120  124  131  133  131  121  134  140  121  112  127  131  124  120  119  131  132  139  135  128  118  121  121  126  126  112  134  121  130  113    0
ch:  88     132  130  120  116  133  132  121  124  137  123  131  123  133  108  123  120  117  118  114  120  118  124  108  129  115  120  118  109  121  117  120    0
ch:  89     115  118  144  118  121  128  123  138  137  122  131  118  129  129  131  133  130  130  141  115  131  117  122  133  133  131  117  119  117  121  117    0
ch:  90     121  133  126  134  132  126  138  110  137  126  133  120  123  119  128  123  115  117  125  115  130  131  121  118  131  117  121  117  119  117  108    0
ch:  91     134  121  132  122  138  133  126  126  129  126  127  118  134  119  126  119  123  131  133  121  128  117  121  120  117  131  113  124  109  118  103    0
ch:  92     124  120  119  133  132  130  128  124  135  118  110  121  133  120  123  123  121  114  121  115  120  112  121  115  117  123  118  126  118  119  117    0
ch:  93     130  133  124  133  123  128  125  131  121  128  121  121  134  120  121  134  120  121  131  121  133  134  117  123  121  123  128  113  129  123  118    0
ch:  94     131  132  116  122  121  134  123  130  118  121  137  131  128  127  115  120  125  119  131  118  117  134  115  105  117  119  120  128  115  133  115    0
ch:  95     136  131  123  119  133  119  124  137  123  118  131  131  131  132  137  128  138  119  136  121  128  121  120  117  130  120  122  131  117  121  120    0
ch:  96     134  132  133  115  115  119  133  130  130  118  123  117  133  131  121  119  131  118  121  130  123  114  117  117  127  123  112  124  117  118  120    0
ch:  97     137  128  131  122  140  136  121  129  134  130  132  131  123  121  134  131  121  123  121  133  131  135  131  121  117  133  129  115  120  130  117    0
ch:  98     123  106  132  119  134  132  131  120  121  121  121  123  124  119  122  121  122  131  119  121  119  130  118  116  132  117  126  119  117  119  121    0
ch:  99     130  123  136  131  136  131  129  124  135  135  138  129  126  133  135  121  128  135  131  123  133  123  131  123  129  118  120  129  135  115  117    0
ch: 100     132  133  120  116  128  129  128  128  130  121  120  135  139  131  119  119  134  116  118  118  125  119  107  112  119  110  115  117  118  133  117    0
ch: 101     133  122  121  123  121  123  120  130  120  135  134  122  131  118  123  120  138  120  125  134  130  107  134  134  118  119  126  116  123  117  129    0
ch: 102     117  116  130  133  116  113  117  124  131  124  117  134  120  130  133  134  121  121  137  118  117  113  121  119  112  109  118  108  115  134  131    0
ch: 103     120  122  121  122  119  122  121  131  134  132  137  124  121  121  134  122  129  135  131  134  132  133  134  125  125  121  123  121  133  133  121    0
ch: 104     130  124  115  125  137  136  132  120  120  133  135  124  117  125  130  127  115  119  107  121  125  130  121  133  124  114  121  115  122  121  121    0
ch: 105     133  122  129  126  131  126  132  133  117  120  118  134  121  135  130  131  131  119  134  132  120  128  120  123  126  130  128  123  120  121  118    0
ch: 106     121  124  116  134  134  119  119  130  125  124  112  134  114  135  131  134  125  118  120  121  119  128  120  131  118  115  107  118  129  123  118    0
ch: 107     122  135  133  124  128  124  126  131  130  130  115  121  118  137  117  123  123  137  134  133  120  122  121  134  115  134  137  117  123  120  117    0
ch: 108     119  121  133  122  123  121  120  131  117  138  124  118  131  121  117  120  121  121  111  130  119  107  118  115  114  117  115  131  131  118  124    0
ch: 109     123  128  128  127  133  129  120  119  124  121  121  125  134  131  134  120  121  135  133  137  120  123  131  129  119  137  119  134  119  121  120    0
ch: 110     128  115  119  138  127  123  131  117  119  117  126  121  134  130  119  117  120  121  131  123  117  119  117  114  113  126  128  112  119  115  117    0
ch: 111     134  134  130  133  122  121  137  121  132  135  130  115  120  143  123  120  135  126  121  120  122  121  122  129  117  119  120  123  132  117  119    0
ch: 112     117  137  121  126  133  122  134  130  120  138  132  113  120  131  120  105  140  121  130  124  138  119  121  131  121  121  104  115  117  118  110    0
ch: 113     124  134  129  139  133  115  121  137  139  124  117  138  134  123  120  111  139  140  133  115  130  134  113  120  130  120  121  134  121  126  116    0
ch: 114     125  130  115  121  134  134  122  135  118  120  130  116  118  119  131  122  133  119  117  109  126  124  110  117  121  121  121  120  118  120  119    0
ch: 115     128  132  136  137  137  122  131  121  133  120  135  135  132  137  118  121  139  123  139  123  134  121  120  120  123  123  121  117  133  120  121    0
ch: 116     138  123  122  136  121  123  131  123  133  137  119  133  135  119  133  130  125  119  117  123  124  131  130  121  121  121  117  105  120  119  121    0
ch: 117     122  132  131  134  118  119  113  133  134  115  138  132  121  134  117  119  130  132  126  122  126  129  120  139  130  132  121  127  131  121  125    0
ch: 118     117  116  122  120  121  123  133  134  120  118  118  131  133  117  129  130  117  131  116  122  133  120  130  134  127  123  133  133  117  128  119    0
ch: 119     134  121  131  133  129  121  137  118  121  120  120  131  134  132  134  123  117  107  134  118  124  121  112  127  122  121  120  122  130  121  126    0
ch: 120     130  133  133  122  115  118  121  124  116  121  115  118  121  122  115  124  121  117  133  121  112  118  117  114  110  115  119  117  115  111  119    0
ch: 121     133  121  119  134  134  121  132  133  135  121  119  138  123  124  133  124  133  131  118  121  130  121  131  130  135  115  113  114  114  130  121    0
ch: 122     118  102  122  124  121  118  139  132  121  130  129  118  127  118  133  119  118  124  132  121  130  121  120  120  118  131  121  122  120  118  114    0
ch: 123     124  128  124  121  121  123  119  122  135  121  130  130  119  119  129  120  129  133  134  130  131  120  124  133  117  128  138  138  131  119  123    0
ch: 124     124  124  121  131  137  115  139  120  135  126  119  115  118  117  114  112  120  121  126  110  126  118  123  120  118  114  121  117  130  132  120    0
ch: 125     121  120  131  121  128  137  128  121  132  119  138  131  124  118  118  134  124  134  120  135  121  131  138  115  119  127  121  121  133  123  130    0
ch: 126     124  134  134  121  121  120  118  122  134  127  129  124  121  131  133  115  133  130  131  140  118  134  120  123  117  123  119  114  118  126  134    0
ch: 127     123  131  121  123  134  118  115  130  133  130  118  135  121  123  130  129  125  117  124  121  130  123  120  131  131  133  117  138  120  120  115    0
