# TRIM CALIBRATION    FEB6_2_2    pulse_ampl_min=20    pulse_ampl_max=85    pulse_ampl_fast=20
#
ch:   0     126  128  116  110  138  122  124  113  116  116  119  135  117  119  122  123  119  125  128  120  121  117  125  118  122  111  110  120  119  117  111    0
ch:   1     114  120  121  127  126  122  124  121  120  122  127  116  115  115  130  122  124  119  122  126  123  114  118  119  119  114  116  130  117  118  124   14
ch:   2     119  122  116  121  118  127  122  132  121  117  120  116  120  108  128  116  119  121  110  111  132  120  117  107  131  119  119  111  114  115  104   22
ch:   3     126  120  118  119  122  123  122  133  121  121  124  121  117  125  115  123  131  118  116  128  127  124  115  118  118  121  117  117  131  124  121   60
ch:   4     133  118  113  121  133  121  129  128  126  121  134  133  116  121  122  120  114  122  108  122  130  107  124  120  118  117  114  121  130  131  118   40
ch:   5     116  107  122  120  119  124  121  123  121  119  116  123  113  115  129  121  115  127  127  124  121  123  124  118  124  121  123  118  121  116  131   52
ch:   6     130  117  132  122  113  122  126  116  123  123  115  119  118  121  122  121  116  131  117  118  126  115  124  110  122  123  114  117  113  122  121   57
ch:   7     114  120  120  122  117  120  128  118  114  124  121  120  118  120  124  123  103  131  131  116  120  128  124  118  118  113  118  121  116  121  130   49
ch:   8     120  130  121  116  116  118  119  117  125  119  115  127  122  132  118  116  122  118  124  118  131  116  117  124  125  127  129  103  111  113  120   49
ch:   9     131  109  117  121  127  119  125  120  123  124  120  124  120  124  117  125  134  121  126  122  116  129  134  117  131  118  119  116  123  121  120   42
ch:  10     128  128  116  115  117  117  122  117  123  119  121  122  122  118  117  120  121  129  132  130  125  135  129  116  119  118  118  117  116  118  104   39
ch:  11     126  121  120  126  128  127  118  124  118  121  134  118  130  120  124  121  131  127  127  121  131  134  127  118  126  115  117  120  122  118  118    0
ch:  12     121  128  117  126  134  121  114  121  120  127  117  117  118  113  121  119  117  126  125  124  120  115  119  121  118  118  116  103  126  117  116   42
ch:  13     121  124  115  123  125  123  121  120  114  123  130  112  120  123  129  114  122  120  121  119  121  129  131  123  119  131  122  122  125  117  128    0
ch:  14     123  117  126  132  119  129  120  119  123  108  118  114  122  118  124  126  120  125  121  120  128  106  121  126  120  121  118  116  109  117  118    0
ch:  15     117  137  122  118  128  117  129  126  125  130  129  114  130  123  132  124  125  124  121  120  120  126  119  120  124  124  123  116  121  118  113    0
ch:  16     123  126  117  114  114  124  119  123  133  120  133  117  121  125  115  122  127  118  117  124  125  118  118  118  119  128  110  120  118  125  127   53
ch:  17     132  128  130  125  122  119  130  128  119  129  132  134  129  130  119  116  129  123  122  129  122  120  123  118  115  113  125  129  125  120  126    0
ch:  18     118  130  122  118  118  122  127  118  125  121  128  133  120  128  121  124  129  118  123  120  109  122  124  115  122  116  113  123  119  118  122    0
ch:  19     134  130  122  122  115  126  132  130  120  137  119  132  116  123  125  123  129  134  134  131  125  134  118  125  124  109  134  127  118  107  125    0
ch:  20     123  129  121  127  121  110  122  107  120  119  125  117  117  123  119  112  120  104  125  119  116  120  121  121  118  115  106  123  134  119  119    0
ch:  21     122  133  125  129  131  131  130  131  135  120  118  116  120  122  130  123  124  125  133  123  132  120  123  127  110  119  120  124  113  122  128    0
ch:  22     120  127  124  116  127  133  118  104  136  137  125  115  129  117  116  126  105  127  118  121  126  126  122  125  124  117  116  121  121  120  121   48
ch:  23     123  117  133  123  120  131  121  121  121  129  123  123  123  121  119  128  135  132  119  128  119  121  124  116  126  133  135  117  115  123  123    0
ch:  24     132  114  119  122  116  122  123  116  111  118  120  119  125  124  123  119  118  117  126  106  117  115  125  116  134  118  117  130  123  108  120    0
ch:  25     123  123  119  122  123  123  120  130  122  121  120  116  118  117  124  122  130  126  121  117  120  119  126  121  126  137  136  121  117  123  118    0
ch:  26     119  127  125  124  132  113  128  119  121  129  118  125  129  118  122  118  126  118  126  116  119  125  120  122  121  116  103  117  118  112  117    0
ch:  27     129  129  127  118  123  120  135  135  125  118  123  134  127  121  128  123  122  134  132  125  128  120  122  121  118  122  132  128  120  118  126    0
ch:  28     120  126  126  120  131  118  124  125  121  132  131  117  107  118  118  124  111  111  121  121  125  114  123  117  115  108  118  116  119  128  107    0
ch:  29     123  128  133  130  121  119  126  120  123  129  122  120  120  121  119  131  118  130  122  125  121  119  120  119  131  121  120  112  115  130  119    0
ch:  30     114  125  130  126  122  121  121  118  139  125  122  121  125  131  104  116  128  138  127  122  117  122  121  127  123  120  120  121  119  121  117    0
ch:  31     122  120  123  124  117  112  120  121  126  122  137  119  131  131  132  134  129  120  125  138  132  122  122  122  120  132  120  135  131  104  124    0
ch:  32     126  125  131  134  117  129  119  127  124  123  127  119  121  117  125  119  117  131  121  119  127  123  106  124  129  114  119  115  122  117  119    0
ch:  33     124  127  129  126  123  133  126  129  117  127  127  132  131  134  128  129  125  128  120  135  134  129  125  125  124  130  121  137  121  120  120    0
ch:  34     118  136  130  133  105  123  134  124  122  123  134  120  121  135  125  119  123  117  133  121  127  123  119  126  123  124  119  130  118  121  126    0
ch:  35     130  124  121  122  135  126  126  126  123  127  132  130  131  126  124  128  124  129  130  119  120  108  127  122  128  124  111  122  116  127  113    0
ch:  36     107  123  121  130  129  132  128  128  129  134  124  131  123  119  129  125  119  114  119  116  134  121  130  107  132  135  132  116  131  119  132    0
ch:  37     122  126  126  119  121  134  124  127  124  115  133  122  125  125  120  122  127  125  117  118  122  130  121  117  120  127  120  121  133  131  126    0
ch:  38     114  118  123  125  127  115  137  125  120  125  125  127  122  116  119  131  119  118  122  129  116  120  124  120  127  110  118  119  131  105  119    0
ch:  39     126  124  134  135  124  129  127  128  132  134  129  117  137  135  135  132  133  137  126  124  127  137  137  129  130  131  133  137  124  135  130    0
ch:  40     126  120  122  119  123  130  124  123  131  133  133  133  116  125  124  119  120  133  123  132  118  130  123  115  112  125  131  117  119  118  122    0
ch:  41     132  122  121  117  120  123  123  127  123  126  123  124  132  126  129  125  125  131  132  122  125  131  122  130  116  117  128  123  122  118  116    0
ch:  42     119  127  125  118  120  132  115  122  125  117  120  122  129  127  131  133  126  123  125  129  122  130  117  118  121  127  123  118  121  119  125    0
ch:  43     120  125  123  123  122  120  117  117  123  120  122  123  132  135  121  127  138  134  124  133  134  129  130  122  122  119  122  134  119  122  127    0
ch:  44     131  131  120  120  136  125  130  124  120  131  125  119  121  122  120  125  130  118  117  122  123  125  117  119  131  126  119  122  130  121  116    0
ch:  45     124  162  124  132  116  131  131  133  131  122  121  134  132  120  131  130  126  130  130  129  123  128  136  121  119  136  117  130  119  120  136    0
ch:  46     122  126  118  129  135  118  132  130  124  132  123  127  118  127  118  118  125  122  120  118  124  117  118  121  122  132  132  122  123  121  137    0
ch:  47     126  130  128  127  123  137  121  123  114  125  129  131  121  127  116  123  114  123  122  121  124  128  125  127  119  118  126  129  128  122  116    0
ch:  48     117  121  120  119  130  129  120  121  126  118  131  136  110  118  116  127  125  126  120  123  121  119  129  119  129  105  123  121  120  120  118    0
ch:  49     128  120  131  129  119  127  120  121  134  126  132  125  122  129  131  118  112  135  132  118  121  132  126  132  120  121  127  131  121  121  119    0
ch:  50     123  119  122  117  117  125  123  122  122  124  125  104  133  125  118  132  122  120  128  130  120  120  125  123  134  118  121  122  117  120  132    0
ch:  51     124  130  125  123  115  122  133  130  124  123  120  132  119  118  129  138  120  134  119  132  131  122  125  114  128  122  132  131  122  117  118    0
ch:  52     130  127  120  123  121  122  122  115  142  116  131  128  118  128  119  122  123  121  126  123  126  122  119  123  112  127  121  121  125  117  121    0
ch:  53     126  128  119  128  118  131  133  132  139  136  120  123  133  128  108  127  123  123  120  125  131  126  122  120  120  129  115  125  121  118  118    0
ch:  54     126  124  121  138  131  112  126  120  128  120  127  133  116  126  124  132  129  119  131  119  122  124  126  124  119  110  103  122  115  118  120    0
ch:  55     130  123  120  133  120  129  130  133  129  126  132  121  126  132  122  134  131  123  132  130  124  125  121  119  130  117  115  122  121  117  125    0
ch:  56     120  123  121  133  117  120  121  125  134  133  138  120  124  131  120  123  120  120  131  126  112  120  121  113  132  120  114  124  116  118  131    0
ch:  57     122  131  129  134  121  110  134  137  129  129  133  131  126  128  117  134  107  124  117  126  123  124  119  129  119  124  127  123  127  124  132    0
ch:  58     133  131  122  119  125  115  120  119  122  121  134  125  117  125  127  129  121  123  114  121  119  118  121  128  128  123  115  117  122  118  119    0
ch:  59     124  129  132  132  129  129  134  134  131  130  134  120  122  118  125  131  122  135  125  131  135  136  126  124  123  130  120  131  131  119  127    0
ch:  60     132  122  111  127  134  138  122  120  117  125  136  134  117  122  129  116  130  132  132  120  131  134  119  119  122  125  123  121  121  124  132    0
ch:  61     132  121  127  137  130  137  127  123  120  127  125  120  127  123  129  132  122  136  128  134  118  123  124  122  123  123  133  123  129  133  134    0
ch:  62     121  123  122  132  131  132  117  120  133  135  118  136  125  136  122  119  119  131  117  133  120  122  134  118  109  131  107  132  117  127  123    0
ch:  63     128  123  130  123  123  124  134  127  123  130  125  121  130  131  127  120  128  132  125  140  120  128  131  126  129  122  134  117  122  135  125    0
ch:  64     123  128  118  128  127  120  122  132  132  120  136  126  123  122  121  123  125  125  123  131  124  109  107  127  124  123  120  109  117  123  118    0
ch:  65     117  135  133  121  125  126  134  121  122  129  126  133  131  126  122  135  138  119  120  125  121  130  121  124  128  120  118  119  132  122  128    0
ch:  66     121  126  122  122  127  119  133  124  125  121  125  130  118  118  127  119  129  126  131  132  130  118  128  123  126  126  135  111  123  120  121    0
ch:  67     124  118  119  137  131  116  128  125  132  131  130  124  131  131  129  123  131  122  131  121  122  116  135  124  118  117  131  126  130  123  131    0
ch:  68     132  124  128  119  132  128  117  122  129  126  137  123  139  125  131  123  127  128  136  122  131  126  124  122  128  121  117  133  131  130  131    0
ch:  69     121  128  128  134  133  133  122  118  125  118  130  130  131  123  121  125  130  131  122  135  126  135  123  127  119  120  119  132  123  122  130    0
ch:  70     132  122  122  128  131  136  121  120  118  125  121  117  117  124  126  125  133  118  122  124  128  121  122  117  123  134  130  128  137  122  118    0
ch:  71     125  136  119  125  127  118  115  122  132  136  128  132  126  115  131  136  132  121  130  133  129  118  131  128  124  124  134  122  122  128  123    0
ch:  72     130  119  122  123  120  119  130  132  134  129  136  131  137  148  120  123  121  118  119  123  122  117  119  120  124  117  108  134  127  137  126    0
ch:  73     131  120  132  116  134  121  133  134  120  135  138  131  123  127  121  130  122  129  121  130  133  130  124  127  124  122  121  131  121  124  129    0
ch:  74     131  121  128  125  119  119  134  137  121  125  131  121  128  121  117  122  128  124  117  117  122  123  119  118  131  131  127  123  117  119  132    0
ch:  75     126  131  122  134  130  130  129  130  129  132  126  135  122  132  135  123  139  128  125  129  128  123  120  134  134  131  135  124  133  120  120    0
ch:  76     130  131  133  128  132  135  121  125  133  130  128  122  132  128  122  125  123  116  131  120  121  120  116  120  130  119  119  118  122  123  122    0
ch:  77     131  116  121  121  146  121  135  137  131  119  139  123  126  123  133  126  128  137  133  127  127  143  129  117  133  137  135  113  122  123  127    0
ch:  78     129  119  120  127  137  125  125  124  124  131  128  121  122  133  130  131  125  111  125  118  117  130  133  119  117  121  119  117  126  117  129    0
ch:  79     134  130  134  120  135  124  129  137  126  133  136  141  130  146  124  131  130  136  129  128  134  126  122  122  128  135  119  128  122  127  136    0
ch:  80     124  123  128  122  123  123  134  129  127  134  122  130  126  122  132  130  124  117  120  130  131  120  126  125  121  125  131  121  125  124  124    0
ch:  81     151  123  121  131  133  119  122  124  127  136  135  121  119  119  125  117  122  127  122  127  118  117  121  128  120  129  131  134  134  118  122    0
ch:  82     116  126  125  121  130  135  119  116  125  119  131  118  118  128  127  123  132  126  129  121  133  123  120  115  134  131  121  129  119  122  113    0
ch:  83     134  122  122  124  124  127  131  131  124  137  137  133  122  126  126  124  130  118  123  133  123  109  129  121  131  123  127  125  134  129  119    0
ch:  84     120  125  130  125  125  118  117  128  132  122  137  120  132  123  130  125  135  131  131  128  120  118  122  122  112  121  128  123  131  137  126    0
ch:  85     132  119  123  121  124  137  118  129  133  133  125  123  121  121  130  123  128  132  134  121  117  132  128  132  126  132  134  122  141  121  122    0
ch:  86     130  124  120  129  114  136  123  133  123  132  122  132  131  138  132  123  133  127  127  123  123  118  121  118  127  105  131  123  123  122  128    0
ch:  87     124  118  122  122  124  127  121  122  134  133  130  129  126  131  124  137  122  129  124  134  152  132  131  117  132  124  123  120  119  131  116    0
ch:  88     126  125  124  127  133  130  103  136  137  128  121  122  129  124  127  123  127  123  134  131  123  124  121  122  133  115  122  121  123  119  126    0
ch:  89     123  123  131  120  114  127  133  129  127  134  125  131  127  138  131  118  131  132  117  125  119  134  130  128  133  131  132  123  134  117  116    0
ch:  90     119  118  129  127  133  139  127  125  120  124  124  127  120  122  122  124  124  125  131  112  119  124  115  119  120  122  118  125  120  124  122    0
ch:  91     122  125  119  131  130  132  130  128  136  122  118  126  131  133  135  125  130  134  126  124  149  112  115  129  121  125  130  125  119  132  119    0
ch:  92     132  119  132  134  116  135  131  122  133  116  125  123  121  130  121  126  127  126  135  128  121  129  128  116  126  122  125  132  120  114  122    0
ch:  93     126  119  129  133  132  134  126  124  123  132  121  133  136  130  120  127  121  129  134  130  119  123  125  120  119  126  123  119  132  125  132    0
ch:  94     127  130  132  129  115  133  137  126  131  131  136  130  128  130  124  122  132  130  118  132  118  122  122  122  122  125  122  123  124  132  120    0
ch:  95     131  127  125  130  129  131  130  109  128  121  134  133  126  131  127  134  130  127  126  125  136  129  132  126  122  128  130  125  131  135  118    0
ch:  96     123  126  117  130  126  132  125  126  125  133  120  129  131  121  132  118  117  118  125  130  124  118  121  134  127  121  122  123  125  125  120    0
ch:  97     120  130  124  129  121  128  123  137  124  137  131  131  125  126  129  128  128  129  121  131  133  123  125  120  139  130  124  118  134  134  127    0
ch:  98     122  131  123  117  137  138  126  125  131  136  122  125  120  131  125  135  132  125  130  123  129  125  116  122  122  126  131  129  123  116  121    0
ch:  99     124  130  133  117  126  134  133  133  136  129  123  123  125  127  125  121  143  127  129  124  121  131  127  122  120  137  128  132  125  137  120    0
ch: 100     122  130  120  124  125  126  130  123  135  128  142  122  122  133  115  128  123  127  134  123  133  105  123  129  133  118  131  119  122  133  118   42
ch: 101     129  135  114  122  120  131  123  131  134  120  120  119  120  127  132  130  122  137  124  122  120  135  129  114  128  133  130  116  122  123  128    0
ch: 102     124  121  117  120  128  123  120  131  120  136  124  122  129  121  134  120  133  120  120  124  126  117  126  131  125  121  116  120  122  111  119    0
ch: 103     137  122  128  133  114  132  126  136  125  130  134  139  139  134  129  129  129  129  133  121  119  122  124  122  121  104  125  121  129  129  128    0
ch: 104     126  125  133  121  132  120  119  127  136  130  132  126  130  126  120  122  115  119  136  131  123  121  134  117  125  118  119  130  117  120  121   53
ch: 105     129  117  131  124  123  128  120  132  132  124  132  135  123  130  135  107  133  133  139  126  124  122  119  126  118  137  122  129  125  120  131    0
ch: 106     125  132  123  127  121  126  121  126  125  137  133  134  121  127  121  118  123  126  116  127  126  123  124  131  122  121  132  122  133  108  119    0
ch: 107     126  136  133  133  134  119  133  131  129  130  134  120  124  128  132  129  135  130  129  128  121  119  129  126  130  129  135  121  132  121  119    0
ch: 108     124  126  120  136  133  117  122  127  123  120  138  120  131  125  132  121  117  120  120  129  121  132  120  117  118  116  127  128  120  117  121   51
ch: 109     122  122  129  128  127  121  130  131  122  131  135  122  134  136  132  138  116  122  122  126  127  138  119  122  135  126  122  130  130  133  134   42
ch: 110     128  144  138  150  128  165  184  168  170  168  168  166  128  128  128  128  128  128  128  128  128  128  128  128  128  128  128  128  128  128  128    0
ch: 111     126  118  123  124  129  127  131  122  119  123  136  127  119  136  121  129  123  120  127  126  127  130  118  135  119  124  122  121  119  120  116    0
ch: 112     137  127  121  127  132  126  120  125  120  141  147  122  123  123  113  127  123  121  122  122  125  132  129  124  129  118  121  119  121  115  126   44
ch: 113     126  131  127  134  132  135  129  134  130  134  136  121  132  137  123  122  123  135  130  129  126  133  120  120  131  136  132  139  119  122  119    0
ch: 114     117  131  123  131  123  121  130  124  123  126  129  117  117  132  114  131  124  125  127  114  119  132  123  119  133  120  116  131  126  122  125   31
ch: 115     135  131  120  126  128  128  127  119  119  131  127  128  132  125  126  133  138  135  130  119  129  133  130  129  131  131  129  119  123  131  120   47
ch: 116     131  125  122  128  131  126  120  130  125  134  126  134  133  120  117  116  131  129  115  117  127  125  117  116  131  118  126  131  117  126  125   34
ch: 117     129  124  119  125  146  136  138  126  123  122  121  130  133  135  129  128  127  132  129  124  127  122  122  131  132  132  129  124  136  114  123   45
ch: 118     123  123  134  117  122  113  127  125  138  145  132  129  133  131  126  123  127  123  126  123  130  120  122  122  115  114  121  117  111  108  129   27
ch: 119     134  129  132  129  128  132  133  133  134  128  129  121  131  123  132  127  134  130  123  131  133  118  121  131  132  119  134  112  127  113  129   50
ch: 120     127  121  129  129  142  134  123  121  119  133  120  132  122  124  127  121  122  145  123  121  133  132  130  120  107  123  129  124  125  129  132   26
ch: 121     125  127  130  129  126  125  124  136  120  134  136  122  123  121  133  131  117  120  123  118  118  130  124  125  129  122  128  123  122  120  120    0
ch: 122     132  133  123  122  130  126  121  128  118  121  125  132  116  118  137  123  130  122  121  126  135  115  115  133  122  119  129  112  123  118  112   17
ch: 123     133  120  127  133  133  125  127  129  133  133  137  122  133  126  118  119  120  119  135  123  131  121  126  121  127  122  127  121  132  119  131   37
ch: 124     134  136  132  130  121  129  119  122  132  132  141  137  137  122  138  133  131  123  126  136  126  122  121  114  128  151  120  123  134  133  131   17
ch: 125     135  126  135  122  131  117  148  127  130  137  125  122  142  131  128  121  137  123  124  133  128  118  126  138  122  130  125  131  119  120  118   29
ch: 126     119  144  119  122  127  117  133  121  125  132  127  123  127  121  120  122  121  124  115  107  120  123  128  129  126  117  135  121  121  116  128    4
ch: 127     171  131  126  135  126  131  131  124  126  135  130  131  104  125  120  127  125  135  123  130  134  138  120  134  121  127  124  128  128  121  130    7
