# TRIM CALIBRATION    FEB2_9_1    pulse_ampl_min=20    pulse_ampl_max=240    pulse_ampl_fast=20
#
ch:   0      87   91  113   99  133  127  141  134  128  138  125  147  150  128  132  141  136  118  142  124  131  115  144  128  122  128  142  143  135  138  151    0
ch:   1     132  137  133  132  136  132  145  134  141  143  130  141  149  140  149  139  146  139  143  137  128  128  149  148  158  161  132  148  154  165  152    0
ch:   2     134  135  136  138  126  135  139  136  151  138  133  134  133  128  153  137  143  137  126  139  138  128  148  144  156  135  158  149  151  162  154    0
ch:   3     121  133  133  136  153  143  130  144  138  136  145  139  152  133  138  144  142  150  152  152  141  149  142  150  140  151  166  159  151  150  167    0
ch:   4     121  138  130  137  121  141  132  149  154  136  144  140  128  143  129  138  139  136  143  140  129  138  148  144  147  148  150  148  154  152  155    0
ch:   5     129  129  132  117  138  143  128  149  139  139  132  139  147  151  121  139  141  143  138  149  142  143  150  135  158  144  155  160  155  158  128    0
ch:   6     135  132  138  139  134  139  136  147  140  126  152  141  150  145  137  141  148  138  154  146  140  147  139  153  147  151  149  153  154  156  160    0
ch:   7     130  138  140  118  137  124  133  142  140  136  139  136  145  147  139  148  144  141  154  147  157  147  136  140  136  149  162  156  155  155  128    0
ch:   8     125  130  152  140  139  128  139  135  137  136  144  141  137  154  133  137  143  140  135  129  139  133  140  148  149  141  147  150  152  143  151    0
ch:   9     129  146  130  137  137  138  129  137  146  148  144  137  141  137  140  150  145  145  137  147  150  148  137  153  148  152  156  151  152  166  169    0
ch:  10     125  122  148  124  148  142  143  134  133  133  134  134  148  130  137  135  141  144  143  144  142  146  141  143  139  148  141  148  136  159  152    0
ch:  11     139  147  131  133  135  152  133  128  138  136  132  138  152  139  137  153  158  159  149  146  151  153  151  149  145  144  148  150  165  166  163    0
ch:  12     134  126  140  134  137  143  142  150  144  142  142  147  149  146  144  152  147  139  148  154  147  147  150  143  146  154  155  151  154  153  151    0
ch:  13     128  141  141  139  138  133  138  140  134  137  153  147  139  138  147  147  149  145  149  165  152  147  128  156  151  128  152  161  156  160  169    0
ch:  14     122  127  140  148  135  136  128  135  138  135  139  154  135  149  145  134  141  134  134  148  142  134  140  148  142  152  149  155  138  149  155    0
ch:  15     121  130  136  140  138  138  128  148  138  153  155  139  142  150  150  148  134  150  147  153  150  151  164  128  155  152  152  156  152  161  161    0
ch:  16     129  129  133  136  135  131  133  144  134  154  152  147  145  142  141  150  154  148  148  146  168  139  146  146  153  139  141  151  156  164  167    0
ch:  17     118  126  135  138  150  138  150  148  134  137  137  142  136  132  138  151  152  149  136  158  151  140  149  155  147  149  162  145  164  162  149    0
ch:  18     126  144  131  128  135  133  135  142  132  138  137  136  142  143  155  145  143  137  147  140  145  149  151  145  129  128  152  150  149  160  164    0
ch:  19     126  131  135  137  144  145  146  136  135  128  138  151  130  154  139  147  161  154  155  150  151  150  160  151  138  163  148  162  166  156  164    0
ch:  20     114  131  133  137  146  137  140  151  145  142  134  135  136  139  167  151  133  145  153  148  152  138  138  149  132  148  147  138  157  152  149    0
ch:  21     116  131  134  139  147  128  140  147  139  134  138  149  152  143  154  148  150  144  150  147  141  151  161  152  150  152  155  164  150  155  150    1
ch:  22     126  142  145  138  126  138  140  136  140  148  125  141  149  146  137  149  147  155  147  136  144  149  165  145  155  146  153  152  153  165  160    0
ch:  23     119  133  147  150  140  136  150  146  145  150  143  137  146  152  137  148  160  147  153  160  150  156  141  145  148  147  148  163  156  155  163    1
ch:  24     125  129  134  138  134  146  148  132  145  132  146  145  124  141  149  140  138  150  136  147  152  148  149  142  151  143  153  151  166  150  155    1
ch:  25     132  141  144  137  136  146  151  166  154  135  131  148  143  128  138  149  151  136  152  142  139  145  155  151  152  160  157  180  156  152  163    6
ch:  26     125  136  138  148  145  156  123  136  146  135  136  137  149  141  138  144  133  145  152  138  144  150  147  163  156  148  157  151  157  148  160    0
ch:  27     126  139  136  132  131  134  128  156  138  148  150  149  151  136  152  157  144  146  156  154  152  146  147  152  152  155  164  159  156  162  165    5
ch:  28     116  135  133  143  145  144  135  138  141  142  132  137  139  140  142  138  142  155  148  154  155  137  160  149  140  128  144  157  146  154  170    0
ch:  29     118  132  131  128  133  133  131  137  144  151  156  135  137  145  146  150  146  146  154  157  154  160  156  160  151  163  148  160  158  159  168    7
ch:  30     137  138  141  128  144  136  150  128  152  153  138  147  150  159  158  150  135  153  128  128  128  157  153  143  145  158  145  159  138  150  168    4
ch:  31     132  129  138  146  148  131  143  153  137  136  153  145  152  144  150  147  151  161  149  161  153  146  128  153  167  155  169  160  128  150  165    8
ch:  32     132  133  133  135  152  135  143  149  138  147  145  132  145  134  152  135  149  150  151  152  128  134  147  153  148  164  152  147  156  153  167    2
ch:  33     120  136  128  136  136  142  145  135  145  141  137  134  134  156  144  135  146  149  155  158  152  146  149  128  163  146  157  149  149  167  154   12
ch:  34     126  124  137  143  147  127  134  136  139  150  150  137  145  146  138  142  149  144  150  151  150  155  152  152  155  161  150  152  144  159  173    8
ch:  35     121  135  147  131  135  149  147  149  142  143  145  151  150  154  164  152  150  137  153  139  152  150  154  147  139  154  153  162  165  168  159    8
ch:  36     109  122  146  131  135  141  151  145  135  150  132  139  153  138  144  136  146  164  156  149  128  144  156  144  145  151  163  155  128  154  168    5
ch:  37     121  120  145  137  138  150  152  150  153  144  140  150  148  149  144  149  139  147  148  147  128  128  147  148  166  153  168  153  158  166  162    9
ch:  38     118  135  141  145  136  133  134  143  141  139  148  160  152  145  137  154  144  143  142  155  140  130  160  155  152  151  152  153  148  165  162    8
ch:  39     127  138  128  134  132  148  148  145  134  128  151  156  152  142  151  151  154  151  149  152  158  166  164  152  169  168  160  164  155  168  165   11
ch:  40     120  132  138  144  149  143  140  140  150  146  149  145  140  139  154  139  145  148  143  142  154  143  146  153  146  154  160  128  161  148  162    5
ch:  41     120  121  133  133  137  137  128  142  150  164  151  154  147  142  154  136  156  151  169  155  148  153  140  147  152  147  156  156  164  152  171   16
ch:  42     130  133  138  133  128  130  135  135  137  152  153  150  135  144  148  158  140  147  148  144  149  152  149  152  150  137  156  151  163  158  161    5
ch:  43     121  131  138  153  152  150  147  144  154  143  146  153  151  152  159  165  158  147  128  163  139  151  138  162  165  128  169  159  161  158  166    9
ch:  44     121  131  145  137  147  143  132  152  142  139  150  136  145  157  136  128  162  153  157  150  156  147  158  145  156  151  159  155  154  160  161    4
ch:  45     122  121  136  137  133  144  137  147  151  148  152  141  153  154  147  161  154  151  154  163  154  155  156  128  154  156  149  152  128  162  169   14
ch:  46     135  139  133  143  145  128  139  147  133  149  148  151  152  141  147  146  149  139  144  158  142  145  151  147  147  151  154  151  154  159  128   10
ch:  47     120  131  141  134  142  148  144  143  150  146  128  151  148  153  141  154  153  150  173  143  163  152  152  167  160  156  158  155  170  169  167   16
ch:  48     129  134  152  147  120  145  144  137  134  142  138  146  136  148  149  152  137  155  143  153  159  141  149  154  151  152  160  154  155  160  150    9
ch:  49     120  139  135  132  147  128  140  128  158  149  149  149  128  151  162  154  144  158  149  150  157  128  154  153  157  156  154  164  174  167  170   26
ch:  50     122  122  124  138  133  139  138  141  140  155  145  154  148  147  151  142  154  145  151  158  143  143  150  151  149  151  156  156  159  158  172    1
ch:  51     115  140  132  152  152  137  151  128  142  150  148  140  159  142  145  143  139  152  143  164  151  167  166  165  150  153  156  157  165  161  161    8
ch:  52     129  132  150  143  136  137  148  135  144  144  137  140  149  153  150  147  149  128  149  152  136  152  156  148  155  135  151  144  146  156  168    3
ch:  53     117  117  144  148  144  138  151  151  142  158  149  148  148  163  157  163  149  151  140  152  145  159  149  150  128  158  158  153  161  169  167    5
ch:  54     123  121  138  134  141  136  136  146  149  134  150  149  144  159  150  128  147  128  138  138  151  170  152  147  164  162  149  153  150  151  155    8
ch:  55     132  134  140  152  130  141  147  159  147  156  147  144  150  139  128  143  151  154  155  149  160  155  153  145  169  128  155  160  160  160  156    7
ch:  56     125  137  130  136  144  153  153  151  150  135  149  141  149  151  141  145  143  145  149  137  157  146  163  160  151  151  152  156  152  145  168    9
ch:  57     122  134  144  143  136  137  145  144  149  147  152  158  128  141  150  158  162  155  166  162  162  153  153  154  159  151  170  162  153  168  168   12
ch:  58     133  128  136  145  144  150  156  135  152  152  154  153  135  147  150  158  128  142  144  141  144  149  150  145  153  155  153  154  165  167  159   10
ch:  59     121  134  137  146  147  148  141  145  151  143  151  151  155  150  161  150  128  153  153  149  128  159  156  151  150  159  175  161  128  168  167   10
ch:  60     121  129  131  139  137  136  139  144  145  142  150  153  149  149  142  128  141  148  156  153  153  139  136  154  158  150  163  149  151  128  156    3
ch:  61     112  118  127  150  128  136  150  138  154  157  153  144  148  153  138  155  158  144  158  151  147  152  166  152  158  151  160  147  166  164  161    7
ch:  62     119  132  132  144  133  150  152  144  143  149  143  148  144  152  168  128  150  153  128  154  154  152  156  159  163  164  164  163  151  154  155    4
ch:  63     132  131  133  138  128  135  138  153  141  146  150  141  153  128  149  151  137  128  153  153  128  161  155  158  147  154  151  161  156  163  163    8
ch:  64     130  132  136  142  146  151  140  140  134  152  146  143  151  146  156  149  128  133  145  151  150  153  147  157  146  153  162  153  154  157  182    5
ch:  65     120  135  135  148  148  137  143  148  147  164  138  128  155  147  149  154  162  154  164  156  162  146  154  164  153  156  154  151  128  168  167    2
ch:  66     120  124  137  147  135  128  128  145  157  153  153  130  142  140  143  135  144  157  151  152  157  148  163  146  167  162  144  152  163  152  148    6
ch:  67     117  125  131  128  144  151  157  140  134  158  148  142  152  160  151  169  151  168  147  155  149  152  148  156  152  156  167  157  147  169  152    4
ch:  68     120  131  139  140  147  141  148  153  128  136  143  144  150  151  136  128  141  149  150  148  157  151  164  164  158  148  152  148  128  157  153    4
ch:  69     122  138  134  141  158  154  139  145  159  152  155  148  142  153  150  155  128  150  141  150  158  128  156  154  166  155  157  156  163  155  162    4
ch:  70     117  132  139  142  139  148  137  156  147  147  143  152  150  150  143  158  162  146  154  157  147  146  128  154  148  148  149  153  151  152  164    1
ch:  71     118  132  143  138  146  137  140  155  135  149  156  153  155  159  159  151  144  151  152  156  155  154  169  157  168  128  169  128  154  168  172    5
ch:  72     115  121  139  137  152  136  135  145  144  128  151  142  128  152  153  147  165  128  156  131  156  165  153  154  146  152  156  174  166  165  164    3
ch:  73     124  125  131  147  143  151  149  149  148  160  144  147  151  128  147  154  155  158  168  146  148  150  163  161  128  148  165  165  151  165  169    4
ch:  74     132  133  137  143  133  145  164  137  140  148  139  141  150  149  153  146  146  148  141  148  139  152  154  150  148  147  153  152  168  161  166    4
ch:  75     116  131  138  134  138  151  143  157  149  155  151  158  151  155  150  128  148  153  145  151  148  152  128  151  148  150  167  161  170  164  166    3
ch:  76     126  138  133  145  151  150  138  146  148  141  143  145  128  152  152  151  145  159  158  150  157  156  153  158  138  151  170  164  128  160  165    3
ch:  77     109  129  141  151  144  135  146  135  151  155  146  150  152  128  147  150  146  152  128  128  152  150  159  158  152  163  164  170  165  154  170    1
ch:  78     129  132  137  141  148  161  154  128  136  159  147  148  144  156  136  128  147  159  150  146  142  147  144  128  128  148  153  163  128  160  167    0
ch:  79     126  135  121  131  148  151  143  135  153  149  140  149  151  128  139  150  157  168  166  148  153  166  146  157  167  150  128  164  158  168  167    4
ch:  80     124  138  144  143  153  149  150  146  139  147  146  145  164  152  144  154  153  145  157  154  128  153  148  146  147  164  154  160  146  168  152    0
ch:  81     120  138  140  143  149  143  134  150  144  139  147  150  149  128  151  148  164  148  152  156  141  152  145  159  168  155  154  163  173  154  159    0
ch:  82     128  133  144  143  138  152  139  150  155  141  151  145  140  141  138  154  151  146  150  156  156  146  151  162  128  149  142  156  157  150  158    0
ch:  83     121  134  130  151  134  150  144  128  147  149  158  146  153  141  152  156  145  156  161  153  169  128  163  167  151  163  151  167  128  175  169    1
ch:  84     132  133  131  149  139  153  152  148  149  140  140  149  157  140  139  150  139  148  151  141  143  153  148  150  146  147  128  153  157  151  165    0
ch:  85     115  135  135  145  128  156  137  141  158  147  148  155  156  150  163  156  150  150  149  151  138  154  162  154  174  157  167  161  154  168  163    2
ch:  86     132  134  148  148  141  155  152  128  153  151  141  148  144  139  151  147  147  146  148  149  150  154  148  150  150  149  149  160  156  150  169    4
ch:  87     115  127  140  157  128  144  140  149  141  153  146  150  144  128  136  165  128  147  170  165  165  171  128  159  158  169  165  152  128  168  166    0
ch:  88     133  133  136  139  151  145  134  144  150  140  143  149  143  128  151  158  148  142  155  150  128  151  139  156  148  149  158  162  159  155  165    0
ch:  89     120  130  144  146  128  140  128  153  138  154  149  141  128  128  139  151  149  146  153  151  156  156  158  154  128  183  128  178  159  168  170    0
ch:  90     135  134  133  139  128  142  146  155  148  128  139  142  134  148  139  149  140  158  141  157  147  152  157  143  158  143  152  153  158  166  164    2
ch:  91     118  127  133  138  141  153  145  128  149  153  153  149  151  128  168  156  151  169  147  156  128  149  156  152  156  128  155  163  166  164  166    0
ch:  92     130  138  141  146  147  146  148  147  135  152  137  146  150  150  148  149  152  143  149  146  167  146  128  142  146  159  161  163  156  160  171    0
ch:  93     107  126  121  147  148  135  147  146  143  153  128  135  156  154  158  150  155  146  149  165  154  138  147  159  128  167  152  154  151  167  170    0
ch:  94     131  133  132  130  136  145  138  144  140  155  151  156  151  151  150  150  157  137  152  128  153  149  153  144  147  156  149  151  155  152  165    0
ch:  95     120  135  145  145  140  156  150  163  156  153  149  143  146  151  145  148  155  180  148  153  155  155  170  163  160  169  170  165  158  167  165    0
ch:  96     128  119  135  133  139  134  138  147  141  128  150  128  128  158  160  159  137  138  147  154  154  149  149  148  146  140  152  146  144  151  167    0
ch:  97     116  130  145  144  137  139  149  153  154  169  135  142  156  148  147  143  142  153  164  134  152  144  151  168  157  153  128  172  128  171  128    0
ch:  98     118  122  143  141  150  158  153  160  143  151  150  138  138  149  128  147  147  128  139  151  148  145  143  155  148  162  156  157  169  160  150    0
ch:  99     121  128  141  133  134  145  133  155  138  154  151  134  162  152  158  149  156  155  151  143  151  146  164  157  155  152  166  155  182  164  128    0
ch: 100     119  121  138  130  128  139  155  137  158  146  154  150  145  153  147  149  142  150  150  138  159  150  152  128  138  165  148  158  162  152  164    0
ch: 101     118  135  136  154  152  146  153  144  167  169  160  148  154  161  149  152  158  154  147  148  128  151  148  154  147  169  157  146  147  175  171    0
ch: 102     131  130  134  141  138  138  148  137  138  140  149  135  142  148  153  155  146  149  137  149  141  151  154  151  144  169  150  158  150  149  159    0
ch: 103     121  135  133  135  153  128  143  124  128  148  146  147  151  144  151  158  154  151  146  154  153  169  128  161  149  156  160  155  155  162  157    0
ch: 104     119  131  136  143  135  145  145  142  143  133  143  141  148  140  128  128  143  152  128  138  128  146  153  137  148  148  155  143  147  156  154    0
ch: 105     121  135  140  150  147  128  142  143  148  147  154  128  149  136  150  146  137  148  154  147  164  148  154  156  155  138  128  161  163  150  162    0
ch: 106     124  142  136  151  140  144  146  135  148  142  145  152  148  152  135  128  153  144  134  133  152  161  162  146  153  152  161  144  155  154  155    0
ch: 107     111  132  146  147  128  151  153  155  132  154  156  144  156  146  143  163  154  148  147  157  168  147  170  160  160  153  159  164  157  163  171    0
ch: 108     122  134  144  128  149  137  128  141  142  128  135  145  152  143  149  137  140  134  144  153  148  144  148  144  143  148  160  153  162  159  161    0
ch: 109     133  122  140  141  149  139  135  143  145  142  143  131  143  172  161  151  155  154  162  153  151  157  156  154  155  151  128  158  159  154  154    0
ch: 110     131  131  144  152  141  147  142  138  144  140  143  137  156  151  154  139  149  156  144  147  156  157  128  150  150  155  150  128  147  154  166    0
ch: 111     117  142  134  133  148  146  151  150  154  144  149  148  164  127  150  128  155  128  164  150  154  143  167  164  167  167  165  157  164  159  171    0
ch: 112     117  135  136  136  138  132  152  128  147  140  133  138  130  145  147  142  155  131  147  145  155  150  145  150  128  128  160  150  149  150  153    0
ch: 113     118  125  141  135  150  146  145  146  144  153  153  149  151  154  143  150  152  151  128  147  167  168  156  174  166  128  128  167  168  151  161    0
ch: 114     120  130  135  159  139  151  139  143  145  128  146  141  151  141  154  142  148  152  154  140  149  128  128  144  136  138  157  150  156  152  161    0
ch: 115     132  128  147  147  150  150  156  149  139  148  148  145  147  152  128  158  149  158  151  151  164  160  161  147  159  177  167  128  164  169  167    0
ch: 116     119  139  147  129  152  142  149  128  128  128  145  158  158  137  145  155  152  154  148  142  145  150  142  150  152  146  150  154  165  157  154    0
ch: 117     121  135  134  134  134  139  134  148  147  154  150  151  144  154  162  150  152  150  145  153  140  156  152  128  153  152  154  141  161  165  162    0
ch: 118     128  144  136  139  135  146  143  146  147  138  139  144  139  143  131  145  148  148  142  147  150  148  142  152  164  150  149  151  165  154  148    0
ch: 119     116  131  145  153  137  128  146  142  149  161  158  149  143  144  137  148  165  163  148  135  128  151  152  149  143  148  170  162  154  165  162    0
ch: 120     117  135  135  149  148  138  141  128  128  141  136  145  149  158  128  128  152  144  141  155  149  147  153  142  151  156  144  161  151  158  168    0
ch: 121     115  140  135  146  156  139  145  153  158  154  151  140  128  150  152  133  158  150  150  136  162  155  152  156  128  152  151  163  162  166  172    0
ch: 122     125  145  133  139  132  136  139  127  141  146  140  163  136  147  163  137  142  150  138  128  142  151  152  149  154  138  156  163  152  149  157    0
ch: 123     118  133  136  148  128  144  156  151  147  171  146  150  150  150  144  158  147  128  134  156  154  148  156  162  156  160  160  163  165  128  156    0
ch: 124     115  133  142  140  151  146  135  141  141  146  139  144  133  146  132  148  157  152  146  139  146  131  151  134  146  158  147  154  152  146  154    0
ch: 125     129  129  146  136  135  144  147  128  146  149  148  147  146  153  155  151  145  147  152  148  154  160  149  159  163  162  152  159  166  168  152    0
ch: 126     116  137  134  139  149  140  147  129  150  135  130  138  131  147  133  128  136  139  149  140  153  147  149  154  154  150  154  149  152  159  161    0
ch: 127     123  119  130  132  128  154  131  153  141  150  128  152  159  163  155  145  165  153  148  160  156  166  167  169  157  157  165  177  160  169  180    0
