# TRIM CALIBRATION    FEB2_2_1    pulse_ampl_min=20    pulse_ampl_max=240    pulse_ampl_fast=20
#
ch:   0      91   90  116  106  122  127  133  119  123  119  136  128  124  128  116  123  130  123  125  120  135  133  128  134  116  128  158  128  146  141  128    0
ch:   1     122  131  138  135  133  120  138  121  134  148  128  141  141  125  138  123  143  133  151  139  144  155  143  151  154  142  148  155  150  159  150    0
ch:   2     130  133  138  136  133  124  125  138  138  130  135  136  137  146  128  128  135  149  135  147  136  133  135  133  150  147  133  150  151  150  150    0
ch:   3     121  140  130  134  143  153  135  134  132  136  151  135  139  135  147  141  140  155  142  151  142  148  137  145  150  151  142  143  157  153  169    2
ch:   4     127  132  127  133  126  133  133  132  126  135  136  136  133  136  138  134  130  150  134  146  132  132  135  129  136  143  128  155  152  149  158   10
ch:   5     112  123  121  128  153  135  148  144  125  147  136  130  134  130  155  152  136  131  148  149  148  132  137  148  153  149  148  149  147  150  152    6
ch:   6     127  129  136  133  133  131  133  131  145  135  133  148  138  136  138  151  118  136  142  129  148  129  135  153  133  134  135  138  151  156  145    0
ch:   7     128  127  130  118  134  130  133  135  133  141  133  128  137  139  147  138  140  150  141  148  149  147  149  136  151  147  154  151  141  152  149    5
ch:   8     119  134  120  118  135  140  139  133  139  132  149  135  123  150  143  137  136  133  133  146  140  122  137  138  133  152  136  153  150  151  159    9
ch:   9     131  134  132  129  136  137  150  139  137  138  148  133  132  130  138  131  147  144  147  142  152  142  133  146  155  154  139  155  153  157  143    8
ch:  10     131  133  133  139  133  130  142  132  146  136  136  136  126  141  147  133  134  140  145  135  143  142  129  148  139  148  133  138  157  153  154   14
ch:  11     121  120  138  128  135  133  121  142  147  134  140  147  128  138  149  133  132  154  139  143  134  156  147  149  153  153  145  153  159  162  157   16
ch:  12     122  130  134  129  136  144  138  140  131  139  135  133  128  128  129  136  137  147  130  133  141  136  148  128  137  146  137  163  147  134  151   12
ch:  13     122  142  126  128  137  134  134  142  122  139  123  137  132  147  153  147  150  137  156  141  132  145  139  151  156  156  153  164  152  155  154   19
ch:  14     124  134  138  136  133  128  128  147  136  146  133  130  136  138  136  131  151  132  133  152  136  136  133  140  135  147  140  151  148  147  150   13
ch:  15     132  130  134  148  142  128  137  136  150  138  134  139  144  146  147  148  139  139  138  137  137  145  146  154  143  153  128  153  152  153  153   24
ch:  16     125  142  151  134  132  135  133  131  138  143  137  126  134  137  151  135  134  135  148  143  152  143  146  144  150  143  139  147  143  152  152   18
ch:  17     131  134  137  126  144  138  148  134  152  163  154  147  140  133  122  153  146  147  128  147  141  149  137  149  139  154  161  164  150  149  159   40
ch:  18     128  133  136  119  133  135  140  143  132  136  131  143  139  139  134  144  150  130  129  154  134  142  147  145  156  150  149  155  136  154  154   24
ch:  19     121  148  139  143  129  137  136  143  140  150  136  139  143  143  135  140  144  134  143  139  144  155  162  152  142  148  147  139  145  166  145   34
ch:  20     121  126  130  141  139  134  120  151  144  133  144  132  154  139  129  136  140  145  134  128  139  139  138  148  145  140  132  137  139  147  152   30
ch:  21     139  140  123  138  150  156  122  128  137  137  134  130  137  139  147  148  142  135  146  149  150  138  146  151  155  149  159  154  128  149  165   42
ch:  22     137  138  138  130  133  140  131  151  130  130  152  145  145  134  142  141  135  143  130  143  152  133  133  144  148  148  144  138  144  148  140   35
ch:  23     124  122  135  136  125  148  144  136  135  129  141  139  143  148  147  135  143  134  159  160  134  133  140  149  137  148  154  158  159  156  162   37
ch:  24     122  135  133  126  136  132  129  136  143  131  139  134  147  148  139  130  137  139  138  142  155  124  130  138  151  152  142  146  128  138  150   34
ch:  25     114  132  150  130  128  145  125  137  141  134  140  144  153  140  139  145  149  155  143  135  137  152  149  146  153  154  150  151  152  151  151   46
ch:  26     118  139  134  133  128  126  138  152  135  145  139  138  134  135  135  129  151  142  134  147  147  152  144  140  144  158  135  128  128  152  156   39
ch:  27     134  119  133  131  144  143  128  149  152  138  142  136  134  144  146  150  134  147  152  151  154  139  148  149  147  149  150  159  160  150  148   38
ch:  28     124  135  134  134  136  139  137  138  135  146  141  132  151  149  147  148  139  135  150  141  145  148  145  135  139  152  147  138  143  143  166   43
ch:  29     129  131  132  131  121  139  122  141  122  131  137  120  131  132  130  136  131  151  148  132  124  138  136  138  137  138  140  139  148  144  153    0
ch:  30     134  121  135  138  133  132  142  139  138  142  146  150  151  134  137  137  145  148  152  144  133  133  139  140  128  152  148  138  149  152  151   37
ch:  31     118  136  138  139  139  128  133  140  156  138  136  145  139  149  135  157  150  142  138  136  144  134  148  152  170  140  155  152  164  146  152   42
ch:  32     121  126  140  137  137  135  147  119  137  134  136  140  134  120  128  149  141  151  144  128  153  139  151  136  141  151  149  153  128  145  158   32
ch:  33     122  129  148  133  145  140  135  134  154  150  133  147  154  142  139  135  135  140  147  135  147  136  153  128  146  146  142  148  153  159  153   43
ch:  34     117  146  151  135  150  131  146  137  136  149  137  141  145  137  142  147  152  141  141  146  137  146  143  144  140  153  150  155  155  151  162    0
ch:  35     122  120  136  133  135  116  137  146  146  152  150  135  137  144  136  152  130  133  146  148  151  144  131  135  160  142  149  161  166  170  154   46
ch:  36     132  136  134  140  139  133  132  145  147  133  142  145  138  128  143  148  155  134  153  152  145  149  143  152  150  141  152  151  148  148  157   50
ch:  37     110  132  136  132  144  150  159  128  148  143  142  143  140  148  139  143  137  149  150  128  140  152  128  150  151  165  151  155  149  147  164   63
ch:  38     124  132  147  136  134  130  151  140  136  134  134  149  135  135  138  145  138  154  147  147  138  138  140  151  151  149  152  149  142  160  156   42
ch:  39     124  134  140  141  137  128  134  142  140  144  150  150  130  135  138  148  143  139  152  146  135  128  156  133  143  154  160  157  153  155  165   48
ch:  40     116  131  139  136  131  138  134  147  154  146  149  137  119  141  142  147  138  146  151  150  141  147  145  151  153  146  155  140  162  158  167   50
ch:  41     124  125  142  133  138  140  139  144  139  134  157  146  145  148  138  155  145  148  145  151  152  139  128  144  155  143  148  162  166  171  163    0
ch:  42     132  139  134  135  152  117  139  134  131  141  148  142  142  142  152  146  137  131  150  129  151  151  136  141  136  164  137  154  154  158  154   58
ch:  43     122  133  139  152  133  133  131  135  145  152  151  128  145  135  151  147  139  153  138  152  143  149  147  140  148  152  128  150  147  153  156   57
ch:  44     121  132  137  149  138  137  132  130  146  146  135  149  144  140  139  152  134  147  148  143  150  149  138  144  138  151  146  155  151  142  168   39
ch:  45     122  132  131  144  134  145  150  135  144  151  139  141  145  145  144  135  137  155  150  154  153  138  143  128  153  143  156  151  153  150  166   46
ch:  46     124  138  134  132  148  149  133  136  146  138  132  144  150  136  152  145  137  128  153  149  136  148  138  157  151  154  148  132  151  137  162   53
ch:  47     138  130  129  141  139  135  150  141  147  158  154  137  154  149  135  139  157  154  144  146  149  128  149  147  162  147  154  147  151  128  155   52
ch:  48     123  132  124  146  133  149  135  143  137  149  145  139  133  150  153  137  142  133  149  153  139  133  152  132  156  141  154  150  147  149  166   48
ch:  49     130  140  138  135  125  156  132  140  144  139  138  161  154  145  137  138  149  161  152  158  139  150  160  148  145  156  138  159  150  155  159   36
ch:  50     125  143  134  134  135  136  133  148  131  153  139  147  138  123  141  158  157  147  145  148  141  148  144  152  147  149  153  145  155  153  165   40
ch:  51     119  140  123  141  139  146  130  141  135  140  136  143  148  145  148  144  154  142  160  136  148  164  155  157  153  160  149  154  157  151  165    0
ch:  52     118  122  119  147  139  146  140  147  145  152  149  148  136  146  148  154  149  142  154  136  152  153  146  151  163  150  144  137  151  165  157   43
ch:  53     133  124  142  142  128  137  156  140  145  154  135  140  148  146  139  149  128  156  136  162  147  147  137  164  153  128  165  141  159  168  160   47
ch:  54     116  132  129  134  138  139  136  134  131  135  152  137  148  130  136  151  131  150  139  135  145  148  143  150  150  143  151  149  151  158  147   61
ch:  55     122  119  138  140  140  130  131  135  143  157  137  144  148  138  146  158  135  142  148  156  135  154  146  154  154  143  151  150  162  159  166   38
ch:  56     131  137  144  132  132  154  133  140  126  151  166  144  146  141  157  156  142  147  140  136  130  136  150  154  151  152  148  152  141  154  156   40
ch:  57     121  128  132  135  127  140  133  146  152  134  138  146  137  143  142  135  153  158  148  151  151  151  150  133  158  151  159  154  166  153  156   40
ch:  58     100  127  137  144  143  152  128  132  140  144  148  143  149  148  143  152  153  146  164  139  138  135  152  143  138  146  150  151  146  155  154   32
ch:  59     128  138  149  134  133  141  132  139  141  135  139  149  151  146  157  144  153  145  151  152  142  150  149  158  145  155  138  168  164  156  165   39
ch:  60     121  133  132  147  156  152  156  149  135  139  136  141  141  128  152  139  151  138  145  155  134  151  134  143  152  154  151  147  149  152  158   40
ch:  61     123  136  146  141  138  138  141  152  141  141  151  147  142  149  144  153  151  138  149  150  147  148  156  155  145  139  140  160  158  150  169   53
ch:  62     130  129  138  144  136  133  126  134  133  135  137  146  139  137  145  144  137  139  144  140  146  147  146  146  151  154  141  150  152  150  165   39
ch:  63     114  137  132  146  135  132  147  150  159  134  153  160  140  137  145  150  155  151  144  150  143  152  154  149  140  146  128  151  159  149  163   34
ch:  64     121  123  134  140  136  145  128  138  128  144  138  137  149  139  128  148  137  137  153  140  149  151  148  136  132  149  148  148  148  150  145   38
ch:  65     131  142  154  154  141  148  145  140  138  148  147  140  151  150  146  162  132  151  154  146  155  147  148  155  152  150  153  144  143  159  164    0
ch:  66     129  125  139  138  137  148  135  137  128  146  137  141  151  142  139  136  128  135  144  149  154  152  138  134  147  144  149  150  153  141  153   39
ch:  67     112  129  138  138  134  143  139  151  130  144  141  141  154  134  121  146  158  154  150  150  151  155  169  137  150  165  151  156  156  154  152   37
ch:  68     121  146  140  135  136  142  154  144  144  131  147  150  143  156  152  139  150  148  141  144  152  150  142  155  152  139  167  148  153  155  163   39
ch:  69     121  132  130  128  131  146  126  138  147  147  137  149  147  147  151  143  160  155  153  161  148  150  153  149  154  153  155  159  166  153  158   44
ch:  70     129  138  134  135  142  140  144  130  151  132  140  131  145  136  147  150  132  144  128  149  150  142  159  149  151  152  150  140  153  164  151   44
ch:  71     132  130  134  133  142  136  148  127  139  146  152  148  141  128  137  137  140  141  151  146  162  152  150  155  152  158  154  170  164  153  154   16
ch:  72     128  121  150  131  136  137  154  128  138  146  133  146  135  134  135  141  152  141  150  151  132  144  145  146  152  150  128  151  168  149  155   38
ch:  73     128  145  127  129  137  134  143  149  133  148  138  140  153  150  155  158  144  150  139  145  128  146  149  154  153  153  157  163  151  169  176   31
ch:  74     114  122  138  136  140  140  153  137  143  141  134  154  146  133  136  142  146  142  145  150  154  138  134  150  153  137  146  151  148  152  158   30
ch:  75     121  124  148  138  132  131  150  150  134  151  142  150  149  148  150  128  148  154  150  155  148  148  154  150  148  149  168  168  162  128  160    0
ch:  76     109  138  136  140  153  158  141  145  128  139  143  141  137  136  135  128  154  156  143  147  128  138  145  153  155  169  155  152  154  154  156   31
ch:  77     114  129  134  150  152  134  150  140  141  136  136  145  134  149  145  150  158  148  159  149  148  153  158  154  156  152  160  151  149  155  162   34
ch:  78     119  132  131  133  137  135  153  140  147  133  134  145  136  153  147  135  145  137  143  150  150  155  141  147  152  152  146  140  148  153  149   37
ch:  79     116  120  136  137  139  149  143  141  153  149  147  147  147  162  151  146  141  148  151  158  158  161  148  164  150  152  157  151  158  165  165   37
ch:  80     129  138  142  144  138  136  149  138  150  149  128  139  138  137  146  128  149  168  147  138  155  149  140  149  152  159  138  149  128  154  153   31
ch:  81     122  130  123  135  128  144  138  135  136  141  146  138  138  122  153  168  143  136  158  149  148  150  154  152  156  163  150  152  169  158  164   38
ch:  82     116  120  140  150  148  143  153  145  134  136  149  150  136  141  138  145  148  149  137  137  147  147  150  150  156  137  151  154  152  161  152   31
ch:  83     134  143  140  137  137  139  149  128  152  134  143  156  154  137  150  128  128  128  146  128  146  145  150  153  151  155  158  171  166  154  147   21
ch:  84     121  138  141  134  151  150  146  141  136  146  144  132  135  155  145  151  150  151  147  153  145  139  147  146  151  148  143  145  166  153  154   28
ch:  85     105  121  140  139  132  137  136  148  135  146  143  139  152  142  148  151  162  141  146  151  136  153  147  128  157  162  165  165  154  154  166   33
ch:  86     131  136  150  132  126  134  134  134  148  135  146  135  144  138  140  146  152  151  137  148  149  134  139  149  128  154  153  165  141  168  152   26
ch:  87     123  147  134  138  142  152  142  141  148  136  156  151  139  152  163  148  155  151  154  152  154  156  159  155  164  150  154  154  167  128  153   20
ch:  88     121  137  134  134  130  151  144  146  136  146  155  134  139  145  151  150  142  135  134  143  150  145  142  150  145  146  153  149  152  151  156   24
ch:  89     116  141  142  156  136  117  141  141  146  145  147  150  136  149  149  156  155  147  145  128  151  153  153  155  156  167  151  156  162  163  163   23
ch:  90     117  135  150  136  136  138  129  140  126  144  137  129  138  151  133  162  135  137  128  140  148  140  140  144  150  159  151  128  150  149  152   15
ch:  91     120  135  134  145  134  146  138  138  147  154  154  152  147  148  145  148  150  150  167  153  154  150  164  128  156  169  180  152  155  154  178   16
ch:  92     118  146  136  131  151  133  151  137  148  131  148  128  151  141  143  137  142  155  158  151  139  132  144  150  152  140  136  141  151  163  158   15
ch:  93     114  132  146  136  149  133  148  146  150  140  150  149  159  149  129  128  153  150  145  150  141  128  167  150  157  128  154  153  152  171  168   26
ch:  94     122  136  121  134  135  139  132  136  133  138  144  146  132  144  147  143  137  136  133  147  152  144  138  143  148  150  142  149  151  152  149   18
ch:  95     118  133  130  148  140  147  142  138  148  143  143  148  150  141  138  146  149  128  151  163  128  165  154  162  155  128  128  154  149  152  165   17
ch:  96     121  134  120  132  135  139  137  137  136  128  142  124  128  150  143  144  139  149  149  149  128  155  145  156  151  152  146  156  145  168  153   20
ch:  97     128  122  145  134  143  147  149  139  128  146  147  151  137  128  152  149  152  142  138  147  153  150  151  162  153  162  148  161  170  165  163   18
ch:  98     134  130  134  128  128  135  140  127  128  144  145  132  138  142  137  131  142  154  146  150  134  148  149  133  162  151  150  150  158  159  157   18
ch:  99     121  137  136  134  128  140  128  135  156  147  166  128  145  138  140  148  162  145  150  151  141  152  156  151  152  162  156  167  152  156  147   11
ch: 100     135  133  137  145  156  136  133  154  146  144  138  150  135  137  137  138  149  139  159  130  156  155  146  144  135  158  131  144  152  153  167    8
ch: 101     133  138  140  152  141  145  143  134  138  133  142  149  152  149  135  149  151  149  158  150  147  162  151  145  153  163  153  156  156  153  156   18
ch: 102     122  130  142  136  157  134  144  151  144  143  141  136  146  140  140  150  137  136  148  151  142  167  153  138  150  137  134  149  147  149  153   11
ch: 103     120  136  131  135  143  133  143  137  143  147  151  148  149  141  146  152  150  154  154  165  146  154  147  147  153  148  163  154  154  156  153   16
ch: 104     119  130  148  127  150  137  127  131  149  133  138  140  156  138  152  141  147  141  145  141  151  147  155  144  149  132  141  147  151  150  159    1
ch: 105     117  123  137  131  139  152  156  142  150  135  147  147  169  145  139  161  130  155  153  147  154  128  164  147  164  163  148  166  142  164  152    8
ch: 106     116  139  138  149  137  147  136  136  127  135  128  137  136  145  136  136  137  128  137  137  138  152  154  137  136  149  154  138  149  146  144    8
ch: 107     130  124  133  135  137  135  156  132  138  140  141  162  145  142  156  140  150  146  150  154  163  153  156  149  148  155  156  153  155  151  157    4
ch: 108     132  135  139  128  134  128  145  125  154  135  147  135  145  147  144  145  149  135  142  138  138  142  135  129  130  150  156  154  142  154  157    0
ch: 109     119  126  122  135  162  141  140  143  143  140  144  138  157  141  137  154  139  156  161  156  143  151  149  152  154  157  155  169  151  175  159    6
ch: 110     116  130  148  134  137  128  143  129  150  133  136  136  140  121  142  149  147  141  135  145  145  138  144  146  132  150  141  130  144  152  159    0
ch: 111     106  132  135  136  130  140  152  141  128  136  140  147  149  147  145  138  151  153  128  147  150  148  128  152  151  165  155  147  163  154  151    1
ch: 112     121  138  121  130  142  148  137  149  125  139  139  144  128  135  143  136  149  126  146  138  128  150  146  153  144  147  143  150  159  141  163    0
ch: 113     121  120  134  135  129  138  134  132  150  133  136  124  138  137  128  146  153  128  150  154  128  143  164  156  152  151  162  150  148  156  169    0
ch: 114     108  144  136  122  131  143  134  128  122  137  152  143  130  140  139  139  143  142  132  133  152  131  148  143  146  153  156  143  152  152  153    0
ch: 115     116  121  140  149  142  148  149  142  148  138  141  155  134  147  133  135  153  128  147  144  149  145  147  144  147  153  148  153  164  138  164    2
ch: 116     132  122  132  137  134  137  134  155  140  143  147  145  129  148  131  137  152  125  144  154  136  145  142  153  146  140  141  151  154  159  155    0
ch: 117     126  138  129  137  133  124  142  151  146  150  136  141  141  149  149  149  154  138  148  145  144  128  154  154  157  153  153  128  154  151  166    0
ch: 118     102  124  126  158  144  148  138  139  143  137  135  136  143  151  149  136  151  147  135  136  150  135  139  133  133  128  154  147  146  152  166    0
ch: 119     122  130  139  145  128  141  144  147  134  154  133  143  147  128  152  128  152  149  153  152  152  154  144  151  152  156  151  128  163  148  148    0
ch: 120     122  129  135  155  145  135  137  146  132  137  152  153  143  144  128  133  143  135  143  146  148  141  138  138  150  152  133  154  150  150  149    0
ch: 121     114  131  131  153  141  135  149  137  135  137  141  139  147  128  138  128  147  152  150  128  154  147  143  152  151  149  152  152  151  152  153    0
ch: 122     123  120  125  147  139  137  131  144  134  137  148  130  133  129  140  144  134  145  148  126  139  148  140  140  146  142  128  150  148  160  151    0
ch: 123     123  121  135  145  140  150  128  150  130  153  135  151  140  128  147  136  148  145  136  149  159  142  145  157  158  150  151  166  166  163  163    0
ch: 124     120  130  132  137  138  140  139  140  135  138  131  123  136  147  154  146  138  148  135  147  147  147  153  141  140  153  147  137  154  149  155    0
ch: 125     124  132  135  144  122  136  137  136  142  147  148  135  134  141  147  128  148  151  147  153  142  137  154  154  155  152  150  152  149  159  152    0
ch: 126     115  127  134  133  135  138  139  136  136  142  134  150  120  147  142  141  141  136  128  132  134  152  143  151  161  152  151  164  151  144  154    0
ch: 127     118  135  136  139  136  154  146  128  141  147  146  143  162  147  152  148  163  147  148  165  161  151  128  160  151  167  152  168  163  155  128    0
