# TRIM CALIBRATION    FEB6_9_3    pulse_ampl_min=20    pulse_ampl_max=240    pulse_ampl_fast=20
#
ch:   0     147  134  129  152  132  134  134  130  138  149  136  128  132  138  136  146  132  148  121  138  138  130  127  133  134  124  131  137  137  137  156    0
ch:   1     147  133  134  135  147  135  148  135  147  133  132  140  150  130  129  138  137  142  146  137  134  142  132  135  133  130  145  147  149  139  157    0
ch:   2     136  134  134  149  132  141  131  135  130  137  134  125  134  125  137  134  130  142  139  134  139  131  122  128  126  136  142  125  129  135  135    0
ch:   3     133  123  134  134  128  146  138  141  133  136  136  146  134  132  145  136  130  138  134  138  143  135  123  131  136  126  143  137  149  145  147    0
ch:   4     134  137  131  131  136  134  144  135  141  138  149  132  134  133  138  137  122  123  137  127  122  141  149  135  138  120  126  138  135  134  130    0
ch:   5     140  128  140  138  135  139  138  126  141  137  141  133  140  145  134  135  139  120  137  135  150  132  148  141  135  147  142  147  137  157  149    0
ch:   6     144  134  136  148  135  134  132  124  134  132  132  136  137  130  123  133  136  120  129  136  132  136  136  130  134  139  137  137  139  151  137    0
ch:   7     133  137  133  138  139  137  136  139  131  139  135  137  143  147  147  140  149  134  132  131  135  128  135  134  139  135  148  137  135  154  154    0
ch:   8     137  134  138  138  133  127  134  138  132  133  137  135  134  126  129  130  133  132  135  133  122  139  132  142  134  133  133  148  138  136  154    0
ch:   9     123  133  125  135  143  148  125  145  138  139  126  137  130  137  142  132  138  147  137  133  128  139  138  140  136  154  137  151  148  137  144    0
ch:  10     137  133  131  139  140  130  135  140  143  134  135  133  121  145  108  124  132  125  126  132  135  123  122  135  134  134  142  125  149  130  152    0
ch:  11     128  145  132  133  139  135  141  137  147  126  146  138  138  135  138  136  141  138  131  150  136  146  150  139  124  148  146  137  139  136  147    0
ch:  12     135  133  133  138  129  140  131  134  136  137  134  132  117  132  134  139  134  130  136  148  148  130  129  125  134  135  133  133  131  143  137    0
ch:  13     138  141  137  129  138  142  138  141  126  146  130  126  150  142  132  127  136  147  138  147  133  152  147  143  137  142  127  149  147  146  155    0
ch:  14     143  131  126  128  129  135  136  134  135  147  132  129  140  135  121  138  131  134  128  116  133  132  133  135  135  129  139  134  149  138  147    0
ch:  15     144  132  134  137  127  137  137  135  143  139  134  131  138  137  137  127  136  140  140  138  140  132  139  135  137  137  152  140  151  140  148    0
ch:  16     124  140  148  136  134  134  138  136  129  135  134  135  134  134  131  135  146  136  130  136  143  135  146  130  132  145  137  133  137  139  143    0
ch:  17     133  143  140  136  138  137  142  133  146  147  147  137  136  129  140  134  139  150  134  137  136  127  137  137  138  148  139  143  154  146  147    0
ch:  18     134  130  136  143  134  139  142  132  139  127  134  120  134  134  134  133  129  128  135  131  137  131  122  145  129  136  137  142  139  137  137    0
ch:  19     126  136  137  147  134  127  136  123  138  134  132  144  135  134  135  136  138  138  137  133  146  138  131  149  146  137  147  140  144  138  147    0
ch:  20     133  132  134  137  135  133  122  135  130  137  135  131  153  145  148  132  130  133  126  136  118  134  133  151  121  125  123  137  139  145  134    0
ch:  21     134  131  135  123  149  133  136  139  135  141  137  137  134  137  138  133  136  141  136  135  137  135  144  134  148  126  146  158  146  150  139    0
ch:  22     146  138  133  131  139  136  120  139  119  139  135  134  135  144  138  135  129  121  123  144  151  127  125  121  136  129  125  132  147  140  134    0
ch:  23     143  148  132  139  142  131  137  145  135  147  150  136  132  138  140  147  139  137  135  135  138  137  138  137  139  133  131  144  130  152  149    0
ch:  24     136  136  130  136  134  132  128  149  133  137  131  137  123  132  136  127  128  117  132  145  150  144  134  133  132  135  137  142  145  137  139    0
ch:  25     132  139  126  147  145  136  141  132  135  140  144  138  150  135  137  136  142  138  146  137  133  131  141  149  128  133  132  132  139  153  143    0
ch:  26     132  134  145  136  133  142  131  135  136  131  139  134  138  146  147  132  122  133  137  132  132  133  140  128  133  132  136  147  135  147  137    0
ch:  27     136  142  140  138  141  133  136  137  136  147  129  137  143  131  148  136  128  141  150  142  144  140  148  128  134  145  137  136  138  144  153    0
ch:  28     131  128  137  131  145  133  134  136  126  134  135  137  134  129  138  130  129  121  139  137  136  121  118  121  134  135  136  143  137  149  134    0
ch:  29     139  151  134  141  134  132  149  152  138  146  136  143  129  133  150  129  140  129  137  133  139  133  135  146  139  154  137  131  148  148  135    0
ch:  30     134  145  137  146  136  128  135  139  133  133  137  131  132  137  136  131  138  128  127  133  134  125  146  135  145  133  135  134  145  135  140    0
ch:  31     153  139  134  142  137  137  134  147  134  142  123  148  145  148  138  140  135  134  148  138  135  147  138  137  137  146  147  148  153  141  152    0
ch:  32     137  147  133  132  146  139  123  137  135  135  137  134  138  133  135  135  142  121  130  137  137  134  136  132  131  141  130  138  139  148  149    0
ch:  33     133  137  137  134  141  144  135  136  137  148  136  149  134  156  151  142  145  142  138  137  134  145  149  134  142  137  136  143  136  146  150    0
ch:  34     133  142  135  129  133  140  139  129  135  138  138  135  133  144  135  122  123  133  137  138  130  134  137  131  131  123  145  136  148  137  151    0
ch:  35     134  150  143  128  150  137  148  124  140  135  132  128  138  136  138  123  145  137  134  134  137  141  139  125  150  152  137  149  157  152  136    0
ch:  36     137  139  137  130  123  139  137  141  132  143  126  141  131  128  132  129  124  142  120  141  133  137  126  131  133  124  137  135  130  138  136    0
ch:  37     135  137  148  148  150  150  142  140  149  136  132  134  148  131  145  133  134  130  141  130  134  137  148  146  137  139  123  149  146  149  153    0
ch:  38     130  137  137  128  151  154  137  125  139  139  129  129  134  136  137  139  135  149  133  128  134  130  139  122  135  141  139  138  143  133  132    0
ch:  39     135  135  150  137  138  136  149  138  146  137  152  134  137  139  151  137  140  148  151  150  137  134  151  151  133  136  140  151  134  163  153    0
ch:  40     146  134  132  139  137  138  145  133  128  136  138  145  138  118  140  138  133  144  137  131  133  137  127  118  131  138  129  141  138  151  150    0
ch:  41     145  147  147  146  127  136  138  139  149  148  137  141  140  138  140  137  139  131  146  134  149  144  130  137  135  134  137  150  148  145  147    0
ch:  42     139  142  134  150  136  132  136  147  133  148  135  130  132  133  118  135  127  135  148  123  133  137  127  134  138  131  131  137  144  130  137    0
ch:  43     145  137  139  140  139  148  133  134  146  147  145  137  151  148  137  141  134  136  134  136  144  138  148  137  139  138  139  142  137  162  148    0
ch:  44     142  137  134  133  120  146  137  136  145  134  132  136  138  148  139  137  133  139  135  130  136  122  134  134  133  130  147  135  137  145  143    0
ch:  45     123  138  140  136  134  137  134  142  138  135  138  131  120  145  134  138  134  134  139  135  137  139  147  148  149  140  148  137  149  142  145    0
ch:  46     151  134  149  149  137  136  132  134  136  142  134  130  144  138  138  137  132  133  141  131  132  122  121  130  123  140  121  127  138  138  144    0
ch:  47     151  137  142  135  144  134  136  144  135  143  132  138  138  145  143  145  136  135  145  134  136  142  145  141  135  138  130  154  144  148  149    0
ch:  48     143  141  145  139  145  134  146  137  150  139  137  137  122  123  139  134  118  118  136  138  142  147  133  133  122  127  137  132  135  135  152    0
ch:  49     132  135  138  123  146  147  144  150  148  143  147  149  139  140  129  150  132  134  142  147  139  128  137  138  151  148  151  147  137  144  140    0
ch:  50     133  137  144  129  131  141  138  148  140  136  134  135  136  132  135  138  127  133  131  135  131  132  130  132  139  127  128  138  149  138  141    0
ch:  51     146  147  134  137  137  149  149  145  135  145  135  134  144  141  148  134  132  135  141  143  150  136  135  139  144  134  144  140  146  150  139    0
ch:  52     134  137  136  131  137  135  133  139  134  140  133  137  134  137  135  137  134  139  133  150  136  133  132  135  132  135  138  135  137  148  139    0
ch:  53     137  146  130  136  146  137  141  138  152  136  140  147  148  146  148  147  124  148  134  142  143  123  134  145  138  137  143  137  147  149  148    0
ch:  54     129  147  136  131  137  147  133  148  130  138  123  134  147  139  123  134  135  137  136  136  143  136  135  132  130  133  129  143  135  147  134    0
ch:  55     148  137  138  147  150  138  146  149  133  143  138  146  132  139  147  137  138  147  152  153  134  131  128  139  147  146  134  147  149  146  159    0
ch:  56     137  119  148  126  137  144  125  131  121  134  135  135  141  137  131  145  127  139  136  128  141  133  136  127  127  136  135  139  145  139  134    0
ch:  57     137  138  127  136  142  136  138  140  137  137  136  146  134  146  150  137  145  131  139  136  137  123  133  146  136  139  148  146  152  143  145    0
ch:  58     135  149  137  147  135  142  130  130  146  146  145  135  124  136  145  131  126  122  138  125  134  141  130  139  133  120  139  136  147  138  145    0
ch:  59     136  133  151  148  143  144  150  148  144  142  134  137  141  139  139  135  142  138  138  142  138  139  135  142  136  148  136  139  149  142  155    0
ch:  60     137  139  145  137  128  135  140  135  139  146  137  123  146  136  134  128  140  139  147  139  136  123  127  131  133  137  136  129  150  149  153    0
ch:  61     134  142  136  131  139  123  149  139  141  147  144  155  141  149  133  148  135  138  143  133  135  145  135  133  137  142  152  160  147  159  144    0
ch:  62     135  143  141  139  135  140  134  133  136  140  138  137  138  132  137  125  123  132  138  140  138  130  129  137  142  134  122  138  135  130  138    0
ch:  63     137  152  130  134  137  146  139  139  134  137  138  147  149  135  129  137  147  140  149  137  149  141  136  132  143  149  147  148  142  149  152    0
ch:  64     139  135  139  139  148  152  121  143  137  137  122  129  137  138  139  148  146  133  127  138  143  137  130  137  133  129  130  140  148  139  141    0
ch:  65     148  136  144  138  154  148  148  132  135  137  138  136  142  135  148  152  132  139  146  138  134  145  141  136  138  147  148  148  143  151  150    0
ch:  66     136  133  137  132  152  136  138  135  137  133  138  134  125  125  127  136  122  134  132  141  134  132  133  133  134  136  140  131  138  150  139    0
ch:  67     133  137  138  147  123  150  156  133  134  133  135  135  150  132  137  148  144  149  150  137  149  147  153  150  149  148  148  137  154  151  153    0
ch:  68     138  147  149  135  145  134  131  145  135  138  128  139  134  143  137  136  127  139  126  134  121  125  122  129  135  135  131  137  135  139  138    0
ch:  69     148  143  137  139  132  151  142  144  137  144  135  143  141  149  152  144  133  139  140  135  147  147  141  138  144  134  137  139  138  140  141    0
ch:  70     131  141  132  143  139  145  147  139  137  137  131  136  138  138  142  138  129  138  138  131  133  144  136  130  131  134  131  127  132  141  147    0
ch:  71     139  138  140  138  143  141  141  151  135  139  134  136  152  140  139  136  131  149  150  150  138  148  148  153  145  145  138  146  139  133  150    0
ch:  72     137  137  148  137  139  128  148  146  135  141  135  150  122  138  137  138  138  131  123  134  132  145  140  137  154  131  136  133  150  134  144    0
ch:  73     131  137  124  147  152  126  143  145  143  138  151  148  135  148  137  141  135  146  149  141  135  142  146  129  146  137  148  135  154  155  150    0
ch:  74     151  132  140  144  133  141  135  134  134  147  131  147  145  128  135  136  139  132  139  138  130  134  133  130  133  133  142  123  132  138  134    0
ch:  75     134  139  139  140  145  148  149  139  139  133  136  141  135  134  146  144  139  135  139  146  146  134  141  144  147  137  150  149  147  138  163    0
ch:  76     135  136  136  132  148  138  134  135  134  145  140  137  131  152  130  137  127  139  132  139  138  142  131  134  134  134  134  146  148  144  151    0
ch:  77     147  147  137  132  148  140  135  138  139  150  143  125  140  155  127  134  142  142  152  135  147  144  149  148  138  136  137  148  148  149  152    0
ch:  78     137  130  135  139  151  144  139  133  139  132  135  134  138  138  145  122  136  137  134  140  131  137  134  129  140  144  125  138  132  123  134    0
ch:  79     135  141  149  141  140  136  150  119  139  144  149  130  135  138  156  138  138  148  131  143  147  139  137  139  140  147  142  146  148  139  150    0
ch:  80     137  129  150  137  145  142  137  140  145  135  142  134  137  147  150  131  137  134  128  139  130  129  132  124  136  136  135  146  150  135  150    0
ch:  81     137  133  143  143  148  134  150  134  146  136  147  137  137  137  144  146  141  138  137  129  142  131  140  147  150  145  152  148  150  153  148    0
ch:  82     135  133  134  134  136  139  148  142  138  139  147  133  127  131  131  130  135  134  146  138  133  123  147  135  147  139  137  134  134  138  147    0
ch:  83     125  137  135  144  147  137  149  141  147  137  150  151  136  137  144  144  139  143  146  145  139  138  140  136  140  141  135  134  134  149  151    0
ch:  84     148  134  137  150  134  133  131  143  139  135  145  135  131  134  131  138  134  131  145  138  134  123  127  139  135  136  137  135  142  133  131    0
ch:  85     127  146  133  131  146  146  147  137  142  141  137  131  148  145  137  130  136  144  146  156  137  134  140  137  142  132  135  151  150  147  145    0
ch:  86     124  131  132  139  136  146  137  132  134  140  123  130  133  144  121  130  124  142  140  144  133  131  134  138  134  132  138  147  142  135  153    0
ch:  87     138  124  141  137  133  153  153  145  146  146  143  140  142  143  137  136  150  139  134  153  145  147  146  139  138  139  137  159  148  154  153    0
ch:  88     135  131  138  145  134  137  137  130  142  141  148  133  134  143  123  134  135  145  144  132  136  133  135  145  131  130  136  142  132  147  147    0
ch:  89     136  151  141  139  138  150  140  142  138  147  146  135  148  146  150  135  149  139  135  139  135  137  134  141  148  133  138  153  154  164  160    0
ch:  90     139  134  134  143  145  146  139  133  124  132  129  136  130  147  146  137  124  134  135  134  135  131  138  134  136  133  137  140  146  144  141    0
ch:  91     134  139  141  138  140  153  143  149  148  137  143  136  137  141  136  130  137  135  147  152  139  138  134  147  138  148  135  147  148  147  162    0
ch:  92     135  132  127  141  136  138  139  134  122  135  134  132  129  121  131  137  136  135  131  142  141  141  133  128  137  145  121  138  137  140  135    0
ch:  93     135  132  142  149  148  137  148  136  139  142  136  144  134  135  143  128  143  141  148  138  137  134  131  147  145  152  152  143  148  146  158    0
ch:  94     134  145  139  147  137  149  143  134  132  136  131  122  140  142  138  134  151  131  139  138  132  118  131  133  126  129  139  130  124  139  137    0
ch:  95     138  148  141  138  134  137  135  138  149  145  143  138  139  133  136  138  147  152  136  129  146  138  143  147  148  147  144  147  148  155  147    0
ch:  96     134  146  140  134  136  134  132  131  141  147  135  133  144  139  141  147  137  141  131  136  132  132  134  129  120  138  136  161  153  151  149    0
ch:  97     137  138  139  147  139  148  141  144  137  142  139  133  145  147  138  135  144  137  136  142  138  126  140  133  137  148  139  148  138  155  150    0
ch:  98     135  130  146  136  136  132  143  122  137  138  145  123  131  134  149  141  128  133  144  128  135  138  138  129  132  135  130  138  134  147  140    0
ch:  99     152  145  147  138  138  135  139  137  126  145  132  138  148  133  135  151  146  143  149  141  140  149  154  138  149  149  135  146  137  149  156    0
ch: 100     134  137  143  133  132  148  151  146  140  138  131  133  137  149  132  142  128  138  135  130  136  123  132  131  123  131  136  148  134  138  137    0
ch: 101     139  141  137  138  140  138  146  151  139  149  135  136  140  136  145  150  136  134  140  143  145  141  141  139  146  145  148  139  134  152  151    0
ch: 102     146  141  146  126  136  154  148  128  136  140  135  148  140  134  136  127  132  135  149  135  138  140  131  149  142  135  138  142  145  141  145    0
ch: 103     146  138  146  137  139  136  144  146  147  156  139  133  147  140  136  134  139  150  142  154  133  136  148  149  132  150  148  152  153  154  160    0
ch: 104     134  147  143  137  145  134  143  137  138  122  126  130  137  136  136  136  138  134  135  122  129  137  126  137  150  134  136  136  132  138  151    0
ch: 105     135  138  152  134  135  142  130  151  141  139  138  134  136  148  134  139  133  146  140  145  147  121  134  137  139  140  136  137  150  148  152    0
ch: 106     139  140  134  132  141  133  137  129  136  134  137  137  149  136  130  137  134  120  134  132  127  133  121  132  136  131  123  138  138  133  143    0
ch: 107     140  138  136  139  148  150  147  128  138  149  150  124  142  147  136  136  148  150  138  129  146  142  128  137  138  149  141  150  148  154  159    0
ch: 108     138  133  136  134  135  142  137  135  132  147  136  138  136  138  136  138  134  152  135  140  148  151  131  132  136  137  129  139  142  148  137    0
ch: 109     134  139  135  129  140  140  140  139  147  128  134  125  136  141  145  148  147  139  134  148  147  138  131  143  129  139  139  146  143  150  159    0
ch: 110     136  137  133  133  133  148  136  146  139  138  145  134  135  131  133  138  138  140  133  138  120  126  135  118  132  123  136  134  136  133  135    0
ch: 111     151  146  135  123  150  155  138  144  131  139  137  141  144  136  127  141  138  135  147  134  133  143  135  148  148  138  138  149  147  153  152    0
ch: 112     130  139  137  136  142  146  137  137  134  138  145  134  124  143  149  136  140  137  137  137  135  138  134  135  133  124  139  136  138  145  142    0
ch: 113     147  138  139  141  136  137  133  147  133  140  140  141  138  134  122  125  139  130  145  144  150  148  138  126  145  134  136  137  150  147  148    0
ch: 114     133  139  135  137  146  130  133  133  132  137  152  138  137  137  149  133  143  148  132  129  134  140  135  129  141  133  132  117  150  145  138    0
ch: 115     147  133  140  131  135  131  138  131  136  137  138  135  135  149  137  144  134  147  135  149  149  146  140  151  149  142  151  138  142  151  155    0
ch: 116     126  151  133  141  139  131  138  131  123  133  136  148  127  145  136  135  127  132  121  133  135  136  128  137  141  119  135  148  138  138  134    0
ch: 117     143  139  142  138  139  134  147  121  148  151  146  137  150  143  146  150  127  150  148  132  149  134  135  145  134  137  152  132  153  154  146    0
ch: 118     148  134  132  132  144  148  138  142  136  137  137  136  151  136  133  135  122  134  138  137  135  134  136  137  134  138  146  144  133  148  145    0
ch: 119     138  134  135  148  136  149  130  145  128  130  136  151  135  153  127  148  135  135  142  138  153  131  146  135  141  136  137  140  134  148  149    0
ch: 120     135  138  141  131  136  132  138  137  139  151  137  133  136  124  132  133  135  131  135  135  132  140  134  131  121  130  123  139  135  139  136    0
ch: 121     142  152  134  133  140  137  137  141  136  162  148  141  142  138  132  132  135  146  136  133  140  135  146  130  138  151  147  132  138  138  161    0
ch: 122     145  141  141  141  138  139  144  141  132  137  134  128  136  135  132  132  139  132  147  138  141  133  137  117  138  139  140  143  148  136  147    0
ch: 123     137  136  134  128  146  139  149  138  140  148  137  146  135  137  137  137  145  137  135  135  143  150  145  134  145  148  137  152  145  150  153    0
ch: 124     130  131  135  134  133  136  127  142  135  132  128  139  126  131  134  135  141  134  136  133  141  135  146  130  122  139  134  143  142  140  151    0
ch: 125     139  145  143  147  146  138  139  137  137  138  136  123  134  146  128  137  135  138  143  134  133  138  135  138  134  141  148  151  148  145  148    0
ch: 126     143  128  134  144  137  137  137  146  132  141  147  137  136  132  126  129  137  130  142  139  142  126  130  137  131  129  146  127  150  141  134    0
ch: 127     150  131  134  131  144  138  138  138  151  138  140  131  142  145  138  152  149  137  150  148  131  151  148  144  148  149  145  138  141  144  153    0
