# TRIM CALIBRATION    FEB6_9_0    pulse_ampl_min=20    pulse_ampl_max=240    pulse_ampl_fast=20
#
ch:   0     135  134  129  131  125  128  132  135  137  122  133  121  124  133  117  129  120  135  107  122  123  120  118  115  120  119  130  121  134  136  119    0
ch:   1     114  132  130  136  133  129  129  134  123  138  125  120  124  130  136  128  134  125  123  132  128  139  131  133  130  136  133  123  137  153  130    0
ch:   2     127  132  138  125  132  126  130  124  129  128  119  123  124  117  132  120  130  121  130  123  119  121  118  121  126  117  126  115  120  121  126    0
ch:   3     136  138  137  122  138  139  136  136  126  133  138  134  137  146  122  135  126  133  135  127  132  132  134  131  133  124  126  134  138  137  143    0
ch:   4     124  155  129  138  132  123  126  119  127  131  113  126  127  117  121  118  121  119  117  125  129  115  112  123  123  121  125  129  119  132  132    0
ch:   5     128  127  132  134  128  136  135  134  134  133  132  121  125  135  130  136  134  135  133  127  132  129  122  129  136  131  122  122  138  127  145    0
ch:   6     124  117  141  131  131  124  124  116  123  134  119  120  132  119  127  119  131  113  121  135  115  119  131  113  128  117  117  131  136  124  134    0
ch:   7     140  141  132  129  124  124  122  138  130  120  151  126  132  135  130  133  123  134  139  137  126  118  126  130  136  130  134  126  149  133  151    0
ch:   8     131  132  131  136  126  120  132  119  128  117  134  135  134  124  126  117  124  106  120  130  116  112  125  127  132  129  129  131  133  137  137    0
ch:   9     138  123  120  128  130  121  143  148  131  133  123  123  125  134  129  129  129  131  132  126  135  150  120  138  125  138  135  146  131  136  129    0
ch:  10     129  134  133  128  135  119  118  135  132  138  137  123  117  122  136  132  106  122  120  123  122  120  124  123  114  130  119  132  135  134  131    0
ch:  11     128  135  128  137  137  127  135  137  131  131  120  129  133  130  132  131  124  137  133  143  133  134  131  133  130  137  149  142  137  144  145    0
ch:  12     125  135  126  134  118  137  121  131  131  122  132  119  119  119  127  116  124  132  123  111  129  130  125  121  132  126  132  130  130  123  149    0
ch:  13     128  130  134  136  133  121  121  135  136  132  136  132  134  132  130  132  131  135  138  124  123  136  132  129  127  130  141  132  133  146  137    0
ch:  14     133  132  123  135  126  140  124  130  128  133  133  135  135  125  132  130  112  135  126  126  119  122  121  120  123  132  127  132  128  134  136    0
ch:  15     133  148  124  126  138  134  148  137  139  130  120  139  126  144  136  131  123  138  134  145  129  138  129  130  134  135  134  137  135  137  147    0
ch:  16     132  125  137  127  134  130  131  122  133  130  131  115  121  130  120  124  123  131  130  117  134  133  120  133  132  133  129  130  130  127  134    0
ch:  17     149  127  134  139  130  130  139  133  145  138  129  123  133  123  123  131  145  140  136  135  133  131  128  139  129  146  119  142  129  139  137    0
ch:  18     126  131  135  127  135  135  133  135  129  135  126  116  120  130  127  123  127  130  126  130  125  119  128  118  130  108  120  121  123  131  119    0
ch:  19     137  134  136  129  137  139  127  133  134  148  128  128  133  136  137  123  138  131  134  128  138  123  137  148  130  131  148  143  138  147  142    0
ch:  20     134  125  129  134  141  129  132  128  131  123  125  124  122  129  135  129  127  132  119  104  135  126  122  133  118  124  122  121  126  135  146    0
ch:  21     130  120  134  121  130  134  139  134  132  127  132  119  147  133  131  123  124  132  118  122  131  130  118  130  132  127  133  128  136  137  136    0
ch:  22     123  131  129  118  130  121  127  121  133  123  129  133  118  130  107  125  120  126  112  122  128  124  121  126  119  129  118  130  109  125  133    0
ch:  23     135  141  127  135  136  138  134  132  121  132  141  137  132  127  146  133  135  121  131  131  120  114  135  129  123  131  133  131  142  135  154    0
ch:  24     134  122  135  122  135  134  133  127  136  118  137  125  134  134  131  122  116  131  120  121  134  131  127  116  118  121  123  134  133  130  129    0
ch:  25     131  129  137  127  134  133  125  134  125  136  123  133  134  131  126  135  123  137  133  126  136  146  131  131  130  118  125  135  129  130  146    0
ch:  26     129  121  131  143  129  143  148  135  128  134  131  128  135  123  131  120  129  130  133  132  116  124  123  123  131  116  125  133  138  133  133    0
ch:  27     152  131  130  131  132  123  123  127  137  128  145  121  127  129  133  141  128  119  128  135  136  135  120  136  140  131  146  135  133  135  140    0
ch:  28     139  123  131  136  129  128  120  124  117  131  115  125  130  131  129  120  128  128  120  129  123  127  119  120  124  118  128  125  130  119  121    0
ch:  29     134  129  140  143  131  136  129  132  139  135  125  134  126  121  132  120  132  114  122  122  132  133  138  129  121  134  131  132  139  139  133    0
ch:  30     129  133  131  133  128  134  134  135  128  122  135  122  130  121  128  123  120  123  126  110  119  122  120  121  126  117  126  136  119  133  135    0
ch:  31     131  136  132  129  135  137  121  133  138  130  120  131  126  136  138  134  136  134  126  132  132  128  128  116  127  130  129  141  134  132  139    0
ch:  32     136  135  136  127  125  128  121  139  135  129  130  128  121  131  121  129  122  118  122  123  126  122  123  122  121  125  123  134  126  116  128    0
ch:  33     134  138  136  134  121  127  132  137  123  121  136  119  132  133  136  129  131  132  133  125  121  118  123  128  121  135  126  134  135  133  146    0
ch:  34     130  132  127  143  136  131  123  132  135  138  137  132  124  131  132  138  121  141  123  122  127  121  123  120  130  131  134  128  134  133  131    0
ch:  35     127  132  131  140  133  133  137  135  132  152  144  137  133  130  135  123  131  138  133  121  120  135  131  146  135  138  124  138  128  138  144    0
ch:  36     130  137  134  132  141  134  134  132  124  120  139  131  124  126  119  119  133  121  129  125  118  123  129  129  125  128  122  126  131  131  122    0
ch:  37     144  127  131  130  141  139  141  145  134  135  134  150  130  124  133  121  132  138  123  120  135  135  125  131  131  127  137  129  134  132  134    0
ch:  38     135  131  123  140  126  122  130  123  136  126  119  126  119  120  118  117  122  110  123  120  123  125  120  123  127  119  114  134  119  135  129    0
ch:  39     136  119  148  134  135  124  143  145  133  129  133  132  132  131  126  126  130  129  136  129  134  120  123  128  125  135  134  139  135  138  139    0
ch:  40     129  126  127  136  122  148  151  129  122  136  129  121  121  133  125  136  128  121  118  120  125  118  118  124  124  119  121  135  125  132  132    0
ch:  41     138  143  131  136  129  134  137  141  131  135  135  135  134  123  130  130  125  135  120  121  121  127  121  129  127  135  126  129  131  151  148    0
ch:  42     134  148  123  130  130  123  136  138  128  124  124  128  123  130  134  119  120  137  128  128  130  117  118  121  122  122  123  132  133  118  126    0
ch:  43     132  136  135  133  134  148  134  124  131  131  134  125  122  138  139  131  122  137  133  132  129  135  135  123  126  134  134  132  144  141  132    0
ch:  44     136  134  127  131  137  137  119  131  128  120  137  129  132  127  124  123  132  122  130  133  135  126  127  123  127  129  118  135  134  134  134    0
ch:  45     138  128  131  125  134  136  138  135  136  137  129  122  119  138  138  131  133  134  124  123  122  132  134  127  132  135  132  116  138  133  137    0
ch:  46     135  135  123  132  132  147  125  131  134  124  127  132  133  123  129  120  124  127  127  119  131  118  127  118  128  120  121  131  131  131  128    0
ch:  47     149  136  138  137  121  131  132  135  134  132  136  134  135  130  133  134  128  137  132  148  133  135  127  134  139  134  126  133  136  142  150    0
ch:  48     135  131  146  130  133  133  137  136  134  134  132  125  123  129  126  124  117  122  116  129  118  131  131  134  122  131  122  136  129  126  137    0
ch:  49     130  137  138  133  131  137  143  133  126  138  137  136  128  131  129  122  138  136  134  137  127  123  119  125  132  135  124  136  137  141  134    0
ch:  50     142  150  129  134  135  128  128  144  125  137  133  117  125  120  135  135  129  129  125  130  118  128  131  123  135  129  124  132  132  125  135    0
ch:  51     137  133  123  133  117  135  133  129  133  130  140  127  124  134  139  137  135  133  130  130  149  134  135  133  121  134  127  132  132  146  149    0
ch:  52     138  137  120  139  127  137  130  130  132  139  140  136  123  133  129  130  128  124  127  126  131  123  119  134  116  130  128  137  133  130  147    0
ch:  53     135  126  148  143  131  135  136  150  125  126  133  135  135  134  135  133  132  132  127  127  133  128  126  135  131  131  136  137  134  137  146    0
ch:  54     137  132  132  119  134  129  131  134  120  120  121  129  117  132  132  128  117  128  132  115  118  131  124  124  118  114  122  130  122  141  128    0
ch:  55     137  133  132  129  136  134  138  130  136  135  133  132  136  122  138  128  133  129  138  121  124  130  120  138  133  145  134  132  136  137  148    0
ch:  56     156  128  128  128  128  128  128  128  128  128  128  128  128  128  128  128  128  128  128  128  128  128  128  128  128  128  128  128  128  128  128    0
ch:  57     135  136  127  136  149  131  143  140  138  131  133  130  145  134  144  137  133  131  133  124  134  143  131  148  134  137  138  138  140  146  133    0
ch:  58     135  136  133  125  127  120  125  136  134  132  139  125  126  116  129  135  131  139  128  123  128  115  131  121  130  126  135  117  132  128  141    0
ch:  59     136  145  135  135  134  136  134  135  139  138  134  133  134  134  139  133  123  125  134  137  135  131  132  131  125  148  144  137  146  133  134    0
ch:  60     134  137  142  123  126  126  131  135  129  129  131  130  131  125  122  129  126  126  125  120  112  119  132  123  130  130  134  116  132  129  147    0
ch:  61     132  145  131  125  136  134  134  129  131  126  133  131  135  138  137  127  132  117  135  131  134  119  134  126  130  134  122  130  131  133  129    0
ch:  62     136  134  122  137  130  131  136  129  128  134  136  122  117  124  126  131  133  134  127  131  123  131  120  121  126  123  127  132  124  130  136    0
ch:  63     130  127  138  136  146  137  123  132  122  143  135  134  135  131  125  129  137  136  133  131  129  138  136  131  127  132  137  135  135  138  148    0
ch:  64     134  132  136  129  131  135  127  129  125  121  131  129  124  123  121  131  125  125  126  131  112  128  133  122  121  123  120  123  122  133  139    0
ch:  65     146  130  126  155  143  147  136  133  141  146  140  132  132  140  149  146  140  137  136  164  135  132  135  123  137  152  138  148  146  151  147    0
ch:  66     133  125  137  130  131  138  132  118  132  123  141  134  120  124  120  131  137  129  119  123  124  121  127  123  130  123  117  123  121  138  128    0
ch:  67     135  129  140  136  128  121  132  133  131  135  129  121  129  131  131  129  134  123  123  145  131  137  123  119  134  134  122  139  138  137  130    0
ch:  68     132  125  144  136  129  125  136  122  122  134  127  148  121  139  144  120  134  127  127  122  121  119  120  121  124  128  132  129  121  130  138    0
ch:  69     128  134  133  136  134  123  134  130  136  131  138  121  130  141  136  132  133  132  121  133  133  136  134  149  131  121  127  137  138  147  144    0
ch:  70     132  118  128  121  135  134  134  137  132  137  140  132  117  128  117  124  125  113  130  127  121  116  112  126  120  121  135  119  139  130  134    0
ch:  71     133  146  128  126  136  145  130  147  128  139  135  137  132  125  138  146  136  126  136  132  128  136  139  131  130  117  137  148  143  148  154    0
ch:  72     137  147  150  138  139  135  132  129  137  126  120  134  131  124  132  120  136  133  129  133  125  122  124  138  125  137  145  128  135  125  137    0
ch:  73     151  131  150  137  138  133  135  129  138  123  124  135  136  138  137  123  127  124  132  135  121  133  122  133  126  131  128  137  139  116  139    0
ch:  74     135  124  137  130  135  122  125  134  135  125  133  148  136  121  135  138  140  129  124  123  121  127  136  132  121  121  117  123  131  143  128    0
ch:  75     124  127  138  131  139  137  130  121  132  127  131  136  135  132  134  131  135  145  124  128  144  116  134  131  146  132  136  133  137  148  147    0
ch:  76     120  130  128  142  130  128  131  136  133  128  131  129  129  131  104  126  123  123  126  135  123  120  125  123  129  122  120  132  128  133  132    0
ch:  77     142  146  128  134  148  138  138  142  138  130  134  122  132  134  136  134  129  133  130  124  134  135  138  124  131  131  148  132  131  133  133    0
ch:  78     134  147  131  133  129  124  138  128  143  134  130  127  121  124  111  124  115  121  123  119  134  119  124  138  131  122  117  128  126  138  132    0
ch:  79     148  138  123  127  130  133  128  129  138  122  133  125  146  125  132  133  125  131  136  126  123  139  132  130  122  135  146  130  137  138  127    0
ch:  80     136  144  130  132  136  146  134  135  138  135  130  129  132  118  139  123  125  129  130  139  134  134  114  127  123  121  127  135  129  124  150    0
ch:  81     128  131  133  147  147  132  143  155  128  136  139  138  133  135  135  148  138  124  138  135  132  138  133  118  136  136  138  129  136  155  136    0
ch:  82     136  131  134  134  126  135  136  122  130  132  128  113  136  132  134  119  134  133  134  122  125  131  133  120  122  136  121  134  126  131  118    0
ch:  83     117  136  132  138  140  131  138  145  132  122  122  119  147  123  117  133  129  136  132  134  144  125  131  116  134  129  134  134  151  147  135    0
ch:  84     125  131  136  130  135  128  118  130  129  125  121  133  145  119  124  125  124  127  123  125  121  124  125  119  120  142  128  116  130  127  128    0
ch:  85     137  132  147  137  135  137  131  134  134  135  135  135  135  136  135  133  120  133  138  125  138  122  134  123  145  134  127  142  140  147  144    0
ch:  86     128  137  139  131  132  145  129  127  132  132  129  137  123  129  131  122  120  120  134  128  121  129  130  132  131  124  125  148  132  137  132    0
ch:  87     144  132  138  126  135  130  135  139  124  143  149  132  139  137  132  129  136  134  132  144  138  135  132  137  138  138  128  137  127  149  138    0
ch:  88     138  136  123  128  138  129  121  138  136  128  120  136  129  140  131  133  127  132  128  130  125  132  120  120  128  134  129  125  128  128  129    0
ch:  89     139  135  133  133  127  136  131  135  148  131  134  133  138  131  142  148  134  133  134  123  137  123  134  125  130  150  134  127  134  134  144    0
ch:  90     132  125  131  132  138  136  118  130  136  133  131  124  137  129  129  137  130  121  129  125  121  124  130  129  118  124  117  132  142  138  123    0
ch:  91     132  133  135  150  144  127  141  132  136  134  132  140  150  130  131  135  134  120  132  132  123  132  133  133  139  133  133  142  137  133  135    0
ch:  92     136  138  120  132  121  135  128  136  140  137  124  129  126  119  120  133  120  124  129  129  138  128  130  129  125  122  124  127  133  127  131    0
ch:  93     136  143  134  123  134  132  133  130  137  129  140  139  135  126  137  147  137  117  144  126  134  133  131  134  129  131  137  134  136  136  133    0
ch:  94     133  138  137  132  136  148  131  123  136  127  134  134  131  131  128  118  134  122  128  124  118  123  121  125  120  122  125  124  129  125  127    0
ch:  95     131  133  136  136  150  131  137  139  133  137  128  133  132  126  129  132  134  138  132  135  126  124  135  132  148  133  139  128  138  132  148    0
ch:  96     130  133  134  125  136  122  125  139  120  132  129  118  135  122  133  133  131  126  122  122  132  130  115  130  134  120  120  128  134  137  133    0
ch:  97     133  134  134  126  129  134  134  130  137  139  138  146  148  134  124  136  131  134  136  134  134  131  132  133  138  132  135  123  139  135  139    0
ch:  98     148  134  136  126  132  137  138  124  125  125  127  126  129  119  122  132  131  133  121  134  130  123  131  122  121  130  145  134  135  137  136    0
ch:  99     149  136  143  132  129  133  144  136  131  133  133  129  135  130  134  138  149  135  148  124  131  135  132  132  136  133  133  129  126  138  136    0
ch: 100     131  137  131  134  132  130  131  128  121  133  137  126  134  131  131  141  124  132  134  117  123  128  120  134  134  132  127  128  125  135  141    0
ch: 101     135  134  132  135  131  138  136  128  135  119  138  126  120  123  133  132  131  137  149  138  136  135  134  128  138  122  128  134  134  134  138    0
ch: 102     133  131  135  135  127  132  128  132  128  132  132  129  127  136  120  133  122  123  123  132  135  127  118  122  130  134  132  135  133  123  146    0
ch: 103     135  132  134  137  128  131  137  133  131  138  139  128  132  131  137  125  147  139  128  127  127  124  131  140  122  146  133  155  137  145  146    0
ch: 104     138  136  132  118  139  133  127  136  135  130  133  132  134  131  127  123  146  122  122  120  127  116  124  123  121  130  129  130  125  135  136    0
ch: 105     157  143  131  145  136  136  130  133  136  135  134  140  132  131  147  134  125  126  125  131  121  131  127  133  134  133  137  133  138  144  138    0
ch: 106     135  136  132  125  133  136  134  132  136  132  129  121  128  122  108  145  122  118  127  134  128  130  128  115  123  117  130  128  122  134  130    0
ch: 107     132  149  126  135  138  124  135  149  132  149  132  134  130  139  140  129  136  137  122  135  130  132  149  132  128  129  148  147  134  137  138    0
ch: 108     130  137  152  149  134  135  129  140  121  136  134  137  134  124  119  132  119  122  131  127  136  138  124  125  116  121  133  136  123  119  135    0
ch: 109     128  128  128  128  128  128  128  128  128  128  128  128  128  128  128  128  128  128  128  128  128  128  128  128  128  128  128  128  128  128  128    0
ch: 110     138  145  132  133  130  147  139  141  133  126  131  131  147  135  128  149  147  122  132  132  126  131  135  118  126  123  134  138  135  138  142    0
ch: 111     136  138  134  117  137  131  133  131  132  133  123  139  138  135  127  136  135  134  127  130  135  125  133  122  130  137  139  139  147  134  138    0
ch: 112     136  134  123  134  132  132  145  128  144  130  123  129  122  128  112  131  119  127  123  129  121  132  125  127  128  134  130  128  130  141  132    0
ch: 113     134  136  135  130  138  138  135  131  140  129  135  126  128  138  139  131  131  130  127  134  127  134  126  123  129  138  128  139  143  136  146    0
ch: 114     137  131  137  125  136  134  133  129  127  125  134  119  122  125  123  118  122  117  123  124  133  137  121  124  119  121  119  132  136  136  138    0
ch: 115     135  129  121  137  133  125  127  133  137  135  132  138  136  131  126  120  143  131  138  122  138  121  131  136  136  130  128  121  135  136  138    0
ch: 116     136  137  147  134  132  117  131  131  131  137  132  122  114  123  118  129  107  118  123  130  122  129  119  133  121  129  134  135  139  137  123    0
ch: 117     137  154  134  126  140  131  133  132  137  124  132  121  134  133  128  136  134  126  139  130  126  129  128  133  134  133  135  125  125  137  151    0
ch: 118     128  131  121  143  131  137  126  118  135  139  137  134  127  120  121  128  134  124  132  117  120  130  129  117  125  132  132  127  120  138  123    0
ch: 119     135  134  132  134  135  144  139  128  132  132  127  129  124  121  126  148  143  129  131  137  122  125  134  145  129  126  131  134  125  136  137    0
ch: 120     134  126  126  133  135  129  128  133  132  120  121  123  150  134  131  130  130  117  134  123  133  130  119  119  117  118  124  135  133  134  136    0
ch: 121     129  146  137  149  136  127  132  137  136  135  138  134  134  125  135  123  123  124  124  136  134  134  136  114  134  136  136  134  131  136  149    0
ch: 122     136  127  131  135  146  129  131  127  140  132  133  130  128  136  136  135  132  133  132  121  126  127  119  129  123  123  130  115  135  129  138    0
ch: 123     132  130  139  143  136  136  131  139  131  130  120  137  132  127  138  129  128  122  131  127  137  119  138  134  124  133  139  133  136  135  153    0
ch: 124     137  131  130  138  130  140  132  121  129  122  131  131  129  134  123  125  120  130  123  138  135  121  132  123  121  121  117  138  132  129  132   51
ch: 125     137  137  134  144  134  143  135  127  133  129  124  133  125  123  122  130  134  124  132  134  131  128  136  131  140  148  134  129  138  129  150    0
ch: 126     137  129  130  135  133  132  127  133  122  121  121  129  120  121  123  135  138  134  121  137  121  131  131  131  115  124  134  130  126  138  134   52
ch: 127     127  137  130  147  128  137  132  132  131  147  134  129  132  127  133  122  140  140  136  146  136  139  137  147  136  138  142  149  148  143  150    0
