# TRIM CALIBRATION    FEB6_9_1    pulse_ampl_min=20    pulse_ampl_max=240    pulse_ampl_fast=20
#
ch:   0     130  133  134  132  122  127  120  120  119  128  129  129  132  115  125  122  121  116  126  131  131  119  123  115  128  122  125  119  122  136  132    0
ch:   1     138  136  121  132  120  121  135  129  119  132  149  132  118  123  130  122  132  121  121  134  136  128  123  115  120  124  123  136  130  134  136    0
ch:   2     127  132  124  134  142  134  121  135  128  116  129  119  123  118  118  119  121  123  118  116  115  106  124  122  112  132  131  115  137  137  136    0
ch:   3     132  135  131  131  144  133  119  137  123  123  126  135  130  124  127  121  135  130  132  123  132  126  118  134  128  137  126  117  138  137  122    0
ch:   4     133  121  129  132  126  139  133  139  120  123  124  122  121  111  121  130  113  119  120  116  134  123  121  118  118  134  116  122  123  124  130    0
ch:   5     131  122  145  134  135  132  122  131  125  136  132  132  133  134  134  134  121  123  137  117  130  134  126  121  121  129  134  125  125  134  151    0
ch:   6     151  136  130  135  121  135  143  126  130  117  136  118  120  118  120  122  118  126  133  134  122  121  122  118  127  122  129  118  137  122  130    0
ch:   7     133  140  136  120  123  137  133  136  135  135  131  132  131  128  123  134  133  127  136  118  132  132  123  130  123  123  130  131  130  137  135    0
ch:   8     145  137  140  131  138  127  132  129  131  122  134  121  121  138  134  131  120  133  118  122  117  116  112  118  110  121  118  130  128  123  137    0
ch:   9     149  130  153  130  134  120  144  131  136  125  133  134  128  131  131  139  123  120  133  123  129  135  132  120  122  135  132  140  134  143  138    0
ch:  10     136  135  147  128  120  127  140  122  130  129  123  132  135  126  124  120  117  131  121  129  126  129  110  105  120  124  107  122  117  134  134    0
ch:  11     142  136  137  136  135  150  131  134  135  132  126  120  125  122  121  134  135  119  124  133  135  122  139  121  124  124  138  136  138  134  143    0
ch:  12     124  131  145  140  137  134  129  138  135  132  121  121  119  141  122  131  134  116  119  119  117  116  129  122  118  136  129  122  130  120  130    0
ch:  13     122  133  137  136  134  134  138  133  134  130  129  128  132  135  134  137  122  122  130  140  137  129  134  123  124  121  127  130  130  135  146    0
ch:  14     133  133  125  137  137  118  133  136  124  134  128  110  121  137  124  119  122  130  122  132  119  122  119  120  122  134  131  117  129  131  132    0
ch:  15     135  132  134  136  137  130  123  128  131  137  133  136  133  135  121  135  134  138  135  135  120  131  126  132  134  132  128  130  138  146  148    0
ch:  16     134  134  138  131  117  136  135  131  134  137  126  128  149  130  120  121  130  134  129  116  121  131  118  123  121  128  118  121  133  124  122    0
ch:  17     136  133  127  138  139  128  134  132  125  125  127  138  136  117  136  129  128  125  128  133  139  132  125  135  145  121  131  135  136  133  139    0
ch:  18     134  133  120  132  123  136  134  133  136  126  126  119  141  133  129  129  118  124  122  119  137  111  131  118  121  134  129  124  128  132  137    0
ch:  19     134  123  128  131  127  133  134  136  145  132  136  134  130  129  137  130  134  123  130  126  130  123  126  135  136  131  130  128  136  136  136    0
ch:  20     135  135  135  117  135  133  145  128  129  134  144  137  119  122  123  120  120  126  131  119  117  134  114  119  125  122  123  116  127  132  132    0
ch:  21     126  130  134  149  121  130  132  141  137  137  126  140  137  141  132  129  134  132  136  129  131  121  126  132  129  128  129  131  134  123  140    0
ch:  22     126  122  127  129  125  128  137  119  131  123  134  130  124  117  127  135  127  128  119  128  130  132  115  123  120  122  127  140  125  130  138    0
ch:  23     136  134  126  133  146  131  133  130  135  131  130  131  132  145  139  137  135  121  125  123  142  122  129  120  125  132  130  131  138  138  152    0
ch:  24     135  137  120  147  129  134  134  126  118  119  139  120  131  124  117  111  114  124  119  126  132  120  112  132  118  121  125  122  131  134  135    0
ch:  25     129  136  125  149  119  134  140  128  134  128  145  133  136  134  135  136  121  131  117  126  135  130  121  130  133  122  134  127  125  143  146    0
ch:  26     134  133  137  149  130  136  125  126  123  122  134  135  121  120  132  125  133  118  123  131  123  122  127  119  132  129  128  132  131  133  135    0
ch:  27     133  142  137  136  132  137  138  137  123  137  134  120  132  147  132  140  146  128  133  121  135  133  123  125  125  123  124  136  137  121  147    0
ch:  28     140  136  132  135  151  136  136  131  129  129  132  131  137  126  131  120  135  122  127  120  117  131  135  130  124  129  133  124  132  129  135    0
ch:  29     134  137  132  134  124  132  129  137  133  146  124  129  131  133  126  131  135  123  129  123  138  133  132  136  130  136  130  130  135  135  148    0
ch:  30     136  137  136  138  137  129  133  109  137  140  131  130  137  139  122  130  133  130  124  126  120  127  124  123  131  120  134  134  126  120  134    0
ch:  31     132  132  139  139  144  138  134  133  137  135  138  130  146  136  132  123  128  136  121  130  139  122  131  134  134  119  142  123  133  134  150    0
ch:  32     123  137  123  127  125  137  130  132  137  130  136  121  137  122  120  133  146  123  135  120  122  126  130  122  118  129  128  135  120  124  128    0
ch:  33     144  127  124  137  122  139  134  132  137  137  133  126  126  133  125  140  136  126  133  112  121  133  119  124  128  129  134  135  136  134  136    0
ch:  34     128  127  134  131  138  138  131  147  122  134  130  132  127  127  124  116  132  123  129  125  133  122  116  122  118  123  131  125  120  134  150    0
ch:  35     133  148  132  136  124  131  139  142  137  128  135  134  130  136  125  123  122  137  130  138  143  131  134  131  138  119  139  131  147  137  153    0
ch:  36     128  139  125  140  130  129  129  120  132  129  133  134  129  120  122  130  130  120  125  132  131  119  122  124  129  129  121  132  131  138  141    0
ch:  37     138  128  132  135  138  136  129  125  135  146  130  132  121  124  129  133  130  138  127  136  135  133  130  120  133  134  132  130  142  134  137    0
ch:  38     141  138  136  132  134  136  135  135  144  125  128  138  117  120  131  129  134  132  116  117  129  135  121  129  114  121  115  130  131  107  121    0
ch:  39     133  132  124  134  152  115  138  128  128  132  131  121  135  139  123  135  130  122  135  135  129  128  120  132  131  122  133  132  135  131  134    0
ch:  40     138  135  136  133  135  134  119  127  132  118  132  136  130  129  132  123  131  136  130  129  130  133  134  122  116  122  141  120  126  137  132    0
ch:  41     136  133  129  142  141  139  154  145  131  127  128  140  131  146  133  133  134  133  142  127  124  133  125  136  130  131  122  137  121  127  134    0
ch:  42     121  129  134  127  132  136  134  138  131  123  129  127  122  131  136  130  134  136  122  114  119  120  120  124  122  133  121  134  121  133  137    0
ch:  43     139  133  132  143  121  138  134  123  148  141  134  125  127  132  146  134  135  131  133  135  137  131  130  131  148  130  129  137  133  139  137    0
ch:  44     132  147  133  131  144  136  134  122  124  135  127  123  128  126  121  125  130  130  125  132  128  132  129  124  132  127  121  125  129  127  146    0
ch:  45     147  133  138  134  131  138  131  141  132  133  135  120  131  135  133  131  130  134  123  128  122  119  118  133  121  136  133  125  145  141  137    0
ch:  46     136  137  138  129  135  131  138  133  142  127  127  118  134  121  145  135  122  124  127  117  132  123  120  121  131  115  117  127  131  131  125    0
ch:  47     137  145  129  134  137  124  139  140  135  135  139  134  133  136  133  133  129  138  133  131  129  125  136  127  116  128  125  135  139  132  143    0
ch:  48     137  136  141  121  145  130  120  143  139  138  134  127  135  120  135  123  126  117  117  132  127  120  120  121  122  127  121  123  132  138  123    0
ch:  49     136  138  132  148  132  136  145  140  132  133  148  133  131  137  135  135  133  121  131  134  139  123  135  134  120  135  133  133  137  145  139    0
ch:  50     132  137  137  137  136  137  130  137  143  138  132  128  129  121  134  123  142  134  121  126  118  123  122  120  126  114  116  123  128  133  139    0
ch:  51     138  134  147  135  143  140  132  131  120  138  134  138  139  133  135  136  130  137  132  138  137  143  132  135  133  133  135  134  124  135  129    0
ch:  52     143  136  129  134  128  134  124  123  128  141  138  123  125  127  124  126  143  126  122  122  120  132  131  122  129  129  121  135  130  133  121    0
ch:  53     134  135  136  153  121  133  130  137  133  120  136  136  129  123  121  128  145  141  136  125  125  132  118  140  135  125  120  140  141  137  149    0
ch:  54     134  140  139  132  133  132  140  133  131  137  119  132  137  118  117  124  126  123  119  130  116  116  124  132  128  124  123  122  137  131  129    0
ch:  55     147  140  142  139  133  135  135  137  120  132  138  134  134  133  123  123  138  139  138  122  132  133  130  133  131  131  144  145  132  128  148    0
ch:  56     134  143  141  144  128  135  142  132  139  134  135  133  120  130  129  122  130  134  130  137  120  120  119  121  117  122  147  136  134  135  137    0
ch:  57     138  137  145  149  137  134  123  132  128  139  138  125  133  132  138  124  128  124  133  130  132  122  134  134  131  136  136  134  136  143  147    0
ch:  58     125  137  138  137  141  149  134  134  134  134  120  120  143  135  133  125  132  130  135  134  118  118  118  128  130  134  133  125  137  122  123    0
ch:  59     133  147  133  140  143  138  142  138  122  131  137  133  132  126  120  138  136  130  125  134  137  120  122  136  138  130  138  136  125  125  136    0
ch:  60     136  136  135  137  137  131  130  149  129  127  138  127  132  133  127  125  123  120  123  121  124  127  118  103  121  129  130  130  127  136  131    0
ch:  61     140  136  145  139  138  134  135  130  133  129  147  147  133  130  131  136  125  121  128  144  122  131  119  132  138  132  130  124  137  145  135    0
ch:  62     134  139  148  136  131  127  138  136  138  130  134  123  131  132  133  123  136  135  129  134  126  136  131  132  127  129  129  133  129  137  143    0
ch:  63     142  135  137  146  146  136  141  135  148  134  139  142  137  140  131  128  130  131  135  130  142  132  134  137  126  130  138  131  149  153  149    0
ch:  64     135  142  137  145  137  121  133  137  133  130  136  123  123  134  134  131  127  134  132  125  128  120  118  123  126  122  129  124  121  135  132    0
ch:  65     139  144  137  128  129  119  136  126  136  144  131  136  134  138  134  135  137  132  138  141  135  134  132  134  133  132  137  130  144  143  141    0
ch:  66     135  133  136  133  134  133  135  135  130  130  130  131  122  134  122  126  121  119  117  128  129  133  122  118  127  127  131  127  119  134  136    0
ch:  67     131  135  133  137  135  143  134  134  138  144  149  146  143  139  120  141  129  132  131  122  134  137  133  134  121  127  134  139  138  137  144    0
ch:  68     130  144  135  130  131  134  126  129  130  136  133  134  135  142  119  122  127  130  129  125  136  120  116  116  116  131  130  126  123  133  135    0
ch:  69     138  141  138  143  148  142  141  138  140  130  131  130  134  123  130  132  130  120  137  139  145  134  139  131  124  125  132  134  136  137  147    0
ch:  70     134  125  124  141  133  141  128  132  134  136  122  132  132  148  130  131  135  122  146  125  130  134  128  126  122  121  119  117  124  138  142    0
ch:  71     139  130  147  133  139  136  129  145  123  134  144  131  134  135  146  127  136  133  137  130  132  146  134  137  127  129  130  138  139  122  133    0
ch:  72     131  137  133  134  132  148  134  121  135  132  138  137  122  131  138  127  130  133  124  126  122  119  138  114  125  121  122  133  129  129  124    0
ch:  73     133  133  139  148  136  135  135  136  130  143  133  133  135  121  131  122  144  122  147  134  136  134  122  128  134  146  148  129  130  149  139    0
ch:  74     139  120  131  123  133  138  127  134  138  117  139  131  133  139  137  123  130  132  119  118  116  131  123  129  120  129  122  117  136  122  135    0
ch:  75     134  124  135  123  132  137  138  132  134  129  135  134  131  130  128  126  133  122  134  148  123  138  127  129  147  144  140  135  130  137  136    0
ch:  76     127  139  148  138  135  138  143  136  128  121  134  139  125  122  132  134  129  118  119  135  114  130  133  131  132  122  136  134  130  136  132    0
ch:  77     134  138  139  147  138  134  137  137  142  136  129  146  132  134  123  130  131  121  136  134  128  126  134  125  125  122  136  140  134  151  137    0
ch:  78     142  133  128  134  133  131  123  139  137  137  133  134  134  119  137  133  128  122  123  135  129  121  137  122  129  119  107  134  122  120  134    0
ch:  79     120  134  140  138  131  136  127  137  131  131  136  136  130  126  135  141  137  134  129  133  119  137  129  132  122  122  136  131  142  150  146    0
ch:  80     131  133  130  139  138  132  136  145  136  139  126  143  125  126  136  121  121  131  121  125  130  134  114  124  124  130  128  128  137  142  122    0
ch:  81     128  148  136  138  138  140  133  130  140  137  145  145  131  144  131  139  133  144  120  135  138  128  130  125  131  128  134  130  120  143  146    0
ch:  82     133  141  143  150  130  135  135  138  143  133  128  139  128  128  127  122  132  119  124  124  131  128  141  121  131  122  125  136  132  136  137    0
ch:  83     138  145  137  146  125  133  136  139  130  138  145  135  137  125  133  134  137  135  132  121  132  135  140  117  136  131  138  131  152  140  137    0
ch:  84     135  138  125  138  114  132  134  136  121  128  141  132  123  130  131  136  130  125  119  119  128  132  135  122  122  128  131  129  134  135  131    0
ch:  85     125  148  139  135  149  146  135  134  134  137  136  137  146  133  137  142  137  120  134  139  136  129  134  130  129  128  147  130  141  131  148    0
ch:  86     136  131  145  146  138  136  130  137  137  134  138  133  131  126  135  132  138  130  132  124  114  124  132  125  140  126  130  130  129  131  124    0
ch:  87     133  146  136  130  137  135  128  136  131  130  122  125  130  137  142  139  138  132  128  146  130  139  137  138  130  134  134  145  139  134  148    0
ch:  88     131  138  146  149  122  119  138  131  135  124  126  145  133  139  130  118  121  131  129  125  132  122  126  120  121  129  130  122  134  135  128    0
ch:  89     141  133  137  133  124  131  130  138  137  135  134  127  122  139  140  135  135  136  120  139  145  127  136  129  138  138  136  130  144  136  146    0
ch:  90     133  135  131  140  122  138  138  137  133  133  137  136  129  122  123  124  132  131  120  119  135  120  131  136  125  119  129  125  138  127  140    0
ch:  91     148  138  136  144  141  137  131  135  128  132  132  141  132  132  145  118  136  136  134  136  141  142  126  136  132  140  134  136  143  140  150    0
ch:  92     137  126  138  128  133  123  137  136  136  136  143  119  127  121  117  137  127  123  129  121  125  118  132  118  132  120  134  131  122  135  131    0
ch:  93     124  125  129  138  132  152  137  132  132  125  132  138  138  132  136  137  130  130  134  135  137  133  122  126  141  136  137  134  140  129  135    0
ch:  94     131  139  134  139  132  134  142  140  136  133  129  127  135  124  134  125  122  122  132  125  138  133  138  133  123  116  134  132  133  133  122    0
ch:  95     137  132  136  137  138  126  149  140  142  147  140  136  135  129  134  123  138  133  139  123  130  137  123  129  125  136  129  137  139  141  139    0
ch:  96     133  134  123  134  137  137  128  129  137  131  134  118  127  116  121  136  128  119  132  137  120  123  120  123  124  133  127  119  131  127  151    0
ch:  97     135  130  129  137  138  136  134  146  138  140  132  134  125  132  134  131  131  120  130  131  132  126  135  135  131  149  133  141  127  145  134    0
ch:  98     140  133  135  132  144  130  133  133  134  118  126  134  126  121  128  131  141  120  124  121  132  121  123  123  129  122  121  134  132  122  134    0
ch:  99     131  134  131  127  134  134  128  124  137  139  133  127  140  135  134  131  130  132  113  125  134  123  125  133  136  132  132  150  153  135  136    0
ch: 100     131  131  137  138  153  134  136  127  133  133  118  132  122  130  132  137  121  118  126  137  120  118  124  126  128  129  121  119  131  135  130    0
ch: 101     145  133  136  136  136  148  134  133  130  134  144  135  138  126  133  142  123  123  134  136  149  120  130  129  128  140  137  129  131  135  141    0
ch: 102     130  118  136  133  135  138  132  132  138  126  143  135  138  128  133  118  121  117  135  127  126  132  119  119  134  126  128  123  126  133  136    0
ch: 103     127  142  134  137  135  129  148  131  139  133  131  132  138  133  137  124  133  137  133  124  138  124  127  121  138  138  139  137  149  132  136    0
ch: 104     121  128  122  120  138  137  123  135  127  126  123  123  122  121  117  117  129  128  128  118  131  117  120  121  123  122  132  119  126  143  137    0
ch: 105     133  138  135  134  136  138  138  140  136  136  125  126  125  137  118  140  138  140  128  133  134  129  130  126  124  145  136  123  122  137  128    0
ch: 106     136  119  138  137  144  134  122  137  135  137  132  130  132  132  136  125  123  123  116  129  122  132  122  120  121  115  123  124  135  130  135    0
ch: 107     129  137  135  133  126  134  123  133  138  138  139  118  123  133  134  139  136  121  132  132  137  134  128  127  135  134  133  134  141  136  138    0
ch: 108     139  136  142  130  134  128  136  151  136  135  136  132  110  133  134  137  131  122  121  126  120  132  130  127  130  120  120  124  119  135  133    0
ch: 109     133  137  138  143  138  138  136  143  134  143  133  132  130  147  130  136  132  127  145  126  131  135  137  125  128  136  121  138  133  148  147    0
ch: 110     133  133  137  133  138  136  137  137  131  129  130  134  145  132  127  123  128  124  125  131  121  132  121  118  125  132  129  135  137  122  128    0
ch: 111     134  135  124  134  137  134  147  147  129  130  137  135  136  127  131  135  143  135  130  133  137  126  118  132  133  136  131  123  137  138  135    0
ch: 112     133  127  121  125  120  133  122  134  137  139  121  137  136  129  126  117  130  131  127  124  120  120  120  132  115  123  123  119  125  121  133    0
ch: 113     142  132  134  131  134  133  137  133  140  128  136  135  132  129  132  133  121  126  146  134  134  119  133  120  135  146  128  134  122  135  135    0
ch: 114     132  135  128  131  143  133  122  134  135  125  127  138  123  136  120  132  130  137  124  117  135  141  125  125  115  129  123  117  127  122  117    0
ch: 115     144  143  148  125  135  131  138  133  139  134  135  134  137  135  141  130  139  139  132  132  126  137  123  138  126  135  135  129  131  141  134    0
ch: 116     139  136  137  138  124  134  135  133  147  134  132  133  125  135  120  132  118  137  125  134  126  125  123  135  131  126  122  130  127  119  134    0
ch: 117     133  133  124  151  134  133  136  139  139  138  125  137  138  130  130  127  134  133  136  121  132  139  121  123  123  135  128  135  134  146  134    0
ch: 118     132  137  138  128  136  131  139  134  135  132  134  125  125  131  123  116  134  123  116  134  131  120  116  126  127  123  119  128  139  136  132    0
ch: 119     129  135  140  136  127  137  140  135  144  118  131  133  142  131  137  139  135  128  135  128  132  130  140  129  138  127  148  136  140  137  151    0
ch: 120     135  126  124  136  134  132  137  136  148  136  130  132  134  119  127  137  126  125  135  131  119  134  128  134  117  123  133  131  133  133  132    0
ch: 121     145  141  126  136  128  137  135  129  147  135  131  123  132  121  130  128  124  135  123  130  130  130  137  128  134  139  132  136  134  137  133    0
ch: 122     130  133  133  139  123  140  124  131  129  125  126  130  131  128  123  135  118  124  118  132  112  125  118  131  123  117  119  120  131  112  137    0
ch: 123     136  124  140  136  133  136  139  137  133  137  145  133  137  144  136  131  132  138  138  134  132  119  136  133  124  136  139  122  139  141  139    0
ch: 124     133  140  133  149  134  144  131  138  130  126  136  120  133  122  119  129  122  134  122  123  125  129  108  124  126  120  122  131  124  124  134   62
ch: 125     136  143  131  121  131  134  131  137  123  131  146  132  126  135  134  125  132  132  120  130  130  120  122  137  121  148  133  129  134  134  129    0
ch: 126     134  140  135  125  134  133  123  145  137  135  123  120  139  133  129  124  134  114  123  129  134  133  124  117  118  123  126  131  133  129  127    0
ch: 127     137  143  117  133  132  137  134  142  136  134  134  134  140  133  142  142  145  128  139  148  135  137  134  131  139  132  136  132  146  145  162   60
