# TRIM CALIBRATION    FEB6_9_4    pulse_ampl_min=20    pulse_ampl_max=240    pulse_ampl_fast=20
#
ch:   0     133  132  134  136  118  131  135  124  120  138  145  126  127  131  122  116  121  122  120  117  118  130  131  129  120  121  130  121  125  131  139    0
ch:   1     133  129  122  134  136  132  121  126  134  127  133  131  116  134  117  122  120  134  120  122  127  130  128  134  121  121  132  132  145  120  133    0
ch:   2     129  128  138  116  136  118  132  121  117  134  128  123  127  118  130  119  131  120  123  117  116  117  105  115  114  116  104  117  123  132  135    0
ch:   3     143  130  133  122  119  123  119  122  127  133  136  132  120  120  128  134  118  131  122  130  122  119  116  124  141  121  132  146  136  137  141    0
ch:   4     124  144  122  117  123  135  134  134  129  129  122  118  128  133  128  126  132  122  120  118  120  122  120  119  131  123  119  117  122  123  134    0
ch:   5     135  137  133  120  132  119  130  131  130  137  123  121  126  120  120  120  136  136  110  119  134  135  123  120  127  136  129  122  119  118  134    0
ch:   6     139  133  123  118  128  137  135  130  120  129  117  129  105  119  119  126  118  132  111  118  126  121  115  122  108  131  121  133  125  134  134    0
ch:   7     139  133  137  121  118  146  133  131  134  120  124  130  140  116  132  118  115  120  119  131  132  122  130  120  121  122  131  131  143  131  148    0
ch:   8     121  135  129  131  121  137  127  133  119  130  131  123  124  119  123  116  105  121  134  109  123  127  123  128  118  121  118  131  135  118  121    0
ch:   9     132  136  127  134  127  124  131  134  135  121  127  121  138  121  120  136  129  123  138  113  116  116  122  122  136  121  130  138  134  137  138    0
ch:  10     123  120  138  133  118  119  120  124  129  135  129  122  133  118  133  122  120  122  105  119  120  122  121  117  120  120  113  131  126  124  128    0
ch:  11     132  121  131  133  133  149  130  139  120  123  123  121  132  118  122  125  126  132  133  132  137  120  116  131  126  119  133  137  140  130  141    0
ch:  12     135  132  131  134  128  115  122  133  131  129  144  138  121  106  121  127  112  124  104  117  116  123  132  110  116  115  131  131  104  127  128    0
ch:  13     131  136  127  137  133  118  118  128  121  118  128  118  134  122  122  125  122  126  125  115  123  120  123  121  137  126  134  137  122  122  136    0
ch:  14     131  119  130  132  131  131  136  126  127  140  127  117  122  121  117  125  119  119  119  122  116  124  116  130  131  133  116  118  120  117  134    0
ch:  15     142  136  131  140  130  129  119  125  132  126  133  125  118  131  130  131  131  129  131  120  124  135  134  138  136  132  130  137  124  124  139    0
ch:  16     134  135  132  133  126  113  128  124  131  133  117  119  117  132  107  137  122  121  118  117  115  112  119  114  122  130  120  134  125  120  134    0
ch:  17     138  129  135  129  133  140  135  118  122  135  133  118  138  118  132  147  131  137  118  125  121  125  126  137  112  113  131  138  133  137  136    0
ch:  18     134  123  134  132  127  132  121  134  136  121  123  124  121  135  130  128  126  130  120  138  132  118  107  117  120  121  115  118  120  131  121    0
ch:  19     128  135  133  134  124  136  135  133  130  134  120  132  134  123  117  133  130  134  129  132  135  127  115  127  135  121  121  133  131  139  138    0
ch:  20     133  129  123  131  132  120  123  129  117  129  130  120  130  123  125  117  133  121  128  123  120  118  122  123  116  116  133  129  130  134  139    0
ch:  21     123  135  138  123  146  133  133  118  122  135  124  123  122  131  119  136  124  122  104  123  126  141  121  118  124  130  122  124  116  129  128    0
ch:  22     131  134  123  125  128  134  121  132  149  138  123  134  131  116  122  128  130  121  115  129  120  110  119  122  123  121  118  123  134  130  137    0
ch:  23     137  121  142  138  133  132  129  133  138  135  120  128  133  129  135  132  115  125  117  130  134  120  134  134  120  131  134  125  144  155  126    0
ch:  24     135  128  135  122  121  133  128  129  129  136  126  120  120  122  121  119  122  124  120  127  124  116  125  125  116  124  116  132  121  120  133    0
ch:  25     134  118  130  131  134  137  123  136  134  134  127  125  131  128  129  132  126  118  122  123  134  122  131  121  125  118  115  120  133  140  140    0
ch:  26     132  126  118  135  122  136  147  134  131  130  121  123  115  118  130  115  122  122  115  132  119  110  130  123  120  129  107  128  116  141  134    0
ch:  27     132  137  132  136  129  139  137  133  133  120  146  122  128  119  133  120  121  122  138  120  119  118  119  130  128  125  125  120  134  123  136    0
ch:  28     149  130  145  135  133  132  135  133  130  112  136  128  132  123  121  122  118  131  111  106  119  132  120  130  123  123  119  118  130  134  124    0
ch:  29     131  131  136  137  132  136  137  132  137  136  131  134  134  124  118  112  127  124  138  121  128  149  120  134  118  131  123  121  134  126  146    0
ch:  30     135  124  124  135  143  125  121  132  135  126  127  114  115  123  120  129  127  127  111  140  118  131  120  118  116  134  121  122  129  129  131    0
ch:  31     138  145  136  135  141  129  137  133  137  137  132  118  135  125  135  138  125  124  117  122  120  107  120  124  128  120  131  128  139  136  141    0
ch:  32     127  133  136  119  126  117  130  126  124  128  120  131  135  142  123  119  129  121  101  115  118  126  120  116  121  129  123  123  113  135  136    0
ch:  33     120  135  139  144  121  131  133  135  128  120  134  119  127  135  121  122  119  136  120  120  132  131  124  123  122  124  117  124  137  135  130    0
ch:  34     130  137  137  130  131  134  133  145  137  126  125  130  124  122  123  123  124  121  129  127  117  117  131  125  123  122  118  120  123  130  129    0
ch:  35     134  132  134  118  129  133  138  138  136  136  118  137  119  119  125  122  139  137  132  117  133  132  121  136  121  136  119  125  120  128  131    0
ch:  36     134  133  113  134  128  127  135  137  133  131  142  122  130  115  121  134  120  134  123  123  134  122  118  129  111  116  121  143  137  122  135    0
ch:  37     132  136  128  139  132  124  116  144  121  134  135  124  124  129  122  125  122  116  133  124  132  123  120  134  121  130  122  121  136  121  122    0
ch:  38     131  138  137  128  133  123  135  133  132  120  131  120  133  107  130  119  132  116  116  116  120  106  117  120  120  120  117  118  131  125  133    0
ch:  39     139  131  134  139  116  141  137  134  136  125  126  131  134  119  125  139  129  132  125  120  129  122  132  120  136  123  121  131  140  121  134    0
ch:  40     134  139  133  136  133  119  123  139  129  130  124  124  132  133  120  122  129  122  134  133  123  124  117  115  121  121  121  128  131  118  129    0
ch:  41     137  132  133  135  141  131  123  134  119  131  139  120  120  119  123  123  126  132  134  121  129  134  126  130  135  143  117  123  134  147  133    0
ch:  42     135  132  133  130  122  127  121  123  118  136  127  127  120  129  143  131  121  119  121  108  128  124  118  116  125  109  122  119  121  130  131    0
ch:  43     123  136  131  133  138  130  134  143  128  132  130  138  127  126  132  131  109  132  136  133  127  124  133  119  121  127  136  130  139  136  132    0
ch:  44     135  120  134  132  118  119  132  134  133  138  122  122  124  120  121  120  121  135  120  121  121  121  127  118  119  123  123  133  132  142  128    0
ch:  45     128  144  122  128  138  123  146  131  137  126  118  130  129  117  124  135  118  120  134  131  119  121  132  123  122  122  134  134  136  133  136    0
ch:  46     134  129  126  123  134  123  120  134  122  134  134  132  119  125  121  115  120  128  126  132  135  118  107  118  131  118  117  119  120  137  128    0
ch:  47     124  137  127  122  131  143  129  131  135  131  126  133  139  119  117  121  125  138  122  122  121  132  132  124  132  134  136  136  127  137  135    0
ch:  48     133  136  118  131  137  133  136  128  134  130  116  112  130  133  116  117  122  118  134  135  131  120  115  126  116  123  131  117  122  122  135    0
ch:  49     132  133  132  137  121  133  124  134  120  142  133  136  131  128  120  132  120  127  138  132  134  128  121  133  127  134  137  134  132  137  132    0
ch:  50     142  124  124  133  126  132  138  135  125  117  135  127  132  127  133  123  118  125  120  122  125  133  114  134  119  120  121  131  120  134  118    0
ch:  51     132  125  131  134  136  122  135  138  131  130  124  128  133  120  135  134  124  130  124  136  117  121  133  121  134  125  131  134  132  135  146    0
ch:  52     129  137  131  137  123  133  135  128  136  126  129  137  118  117  126  132  120  107  120  127  123  130  117  133  117  121  134  120  122  122  134    0
ch:  53     131  132  137  135  149  118  140  133  124  127  133  126  127  134  131  133  136  122  134  130  130  128  121  125  123  132  128  133  132  126  135    0
ch:  54     133  123  129  143  117  145  134  119  135  131  135  134  134  116  118  133  131  119  128  121  121  122  121  132  122  130  117  118  120  120  118    0
ch:  55     121  152  130  132  132  135  135  135  133  131  122  125  122  136  123  129  120  146  133  132  127  126  123  130  123  125  134  134  107  121  137    0
ch:  56     131  131  146  130  135  130  123  136  127  122  105  133  116  124  131  132  117  135  131  105  122  118  122  120  119  122  119  123  128  135  143    0
ch:  57     147  128  135  123  135  134  129  123  130  132  123  119  131  129  131  136  123  129  120  130  113  127  126  130  122  131  129  119  127  134  145    0
ch:  58     129  138  134  140  132  127  135  123  118  128  134  129  124  132  111  121  136  132  133  115  110  116  123  130  132  118  117  122  129  121  131    0
ch:  59     137  124  130  133  127  133  126  143  122  125  136  132  146  121  126  125  128  128  119  134  132  126  128  126  128  121  122  138  135  116  132    0
ch:  60     127  120  138  135  135  130  121  135  121  132  123  122  119  132  117  123  123  108  120  125  132  121  120  118  117  130  107  132  122  125  134    0
ch:  61     137  122  134  122  134  122  120  138  137  124  138  131  116  130  129  133  122  128  135  131  122  130  132  131  120  127  126  127  127  133  137    0
ch:  62     138  134  132  134  131  123  128  123  122  123  130  127  130  121  133  131  120  129  117  133  133  121  129  120  114  120  119  133  121  121  130    0
ch:  63     138  148  134  137  139  119  131  131  128  135  133  129  125  128  129  127  125  142  130  134  128  131  130  132  132  129  130  138  135  132  145    0
ch:  64     134  133  129  126  125  131  134  120  127  125  128  122  118  134  120  128  118  120  108  116  130  121  125  130  129  120  111  121  133  117  118    0
ch:  65     133  120  135  146  133  121  137  132  132  123  135  133  132  121  129  121  120  126  117  121  135  121  118  140  133  121  130  121  121  134  132    0
ch:  66     133  128  148  130  135  122  134  121  117  131  117  130  133  131  127  123  120  122  121  136  120  130  120  126  121  133  120  134  120  133  136    0
ch:  67     138  133  143  133  136  125  130  133  128  139  135  133  135  119  124  134  122  126  117  117  135  133  131  123  135  123  123  132  135  132  135    0
ch:  68     137  133  129  125  123  121  130  124  129  126  121  126  116  122  118  120  122  117  121  142  121  136  133  130  115  123  116  129  121  131  125    0
ch:  69     123  138  132  127  137  136  123  130  125  120  120  133  120  123  118  131  136  136  119  120  122  125  113  131  122  108  121  129  136  137  134    0
ch:  70     138  127  131  127  120  129  137  117  129  120  132  116  134  121  118  132  136  119  134  116  122  124  119  118  116  122  123  117  127  118  135    0
ch:  71     132  136  137  133  119  131  132  131  135  137  134  134  134  120  142  120  119  124  123  136  129  128  134  126  127  131  120  134  141  142  134    0
ch:  72     133  120  119  135  130  143  124  131  138  131  122  119  130  126  124  130  123  137  119  118  115  131  119  108  120  118  122  120  125  132  135    0
ch:  73     132  132  131  137  135  128  134  133  127  129  140  124  122  130  135  132  130  129  137  132  123  130  133  129  130  122  133  124  140  132  131    0
ch:  74     132  139  124  118  123  134  133  135  127  122  119  120  118  130  137  119  127  125  130  139  129  121  116  119  122  117  120  124  138  139  133    0
ch:  75     171  115  127  139  134  136  126  121  116  138  142  137  120  120  127  133  121  138  122  127  121  128  121  138  125  138  135  133  138  127  135    0
ch:  76     133  126  149  125  131  121  146  121  132  118  125  123  130  123  120  120  117  134  122  117  118  120  119  122  133  117  130  121  133  130  135    0
ch:  77     136  137  141  125  134  141  126  123  137  138  127  107  132  127  127  123  129  128  119  111  127  128  131  134  115  122  131  131  132  128  135    0
ch:  78     132  136  138  130  132  135  134  128  140  131  118  121  125  123  121  122  116  123  119  114  118  129  121  107  119  132  125  123  122  120  122    0
ch:  79     122  132  133  135  132  127  134  133  129  117  136  143  130  131  135  132  114  134  133  147  130  136  125  126  142  135  129  122  137  136  135    0
ch:  80     127  140  130  138  121  132  121  135  127  136  120  120  120  125  118  126  106  120  107  126  121  133  121  124  121  122  115  120  143  121  131    0
ch:  81     134  129  137  133  134  120  131  121  139  121  136  134  121  124  137  122  131  123  123  118  134  121  117  132  121  129  123  131  133  139  130    0
ch:  82     131  130  133  126  135  136  122  130  132  132  122  114  125  134  120  104  104  122  119  129  117  127  106  106  117  117  107  131  130  136  130    0
ch:  83     133  135  127  125  134  134  133  147  138  132  120  132  118  130  129  132  131  121  123  133  126  133  126  128  128  132  134  135  128  138  135    0
ch:  84     122  149  136  131  137  134  128  121  135  123  122  119  128  124  128  118  121  123  122  112  126  126  114  131  128  131  125  119  123  132  129    0
ch:  85     129  138  136  132  126  125  128  130  127  137  134  128  119  127  130  122  122  124  126  136  123  129  131  119  126  121  108  137  126  137  134    0
ch:  86     135  138  129  134  132  124  127  142  135  132  138  120  118  134  117  129  131  128  132  131  118  125  104  123  118  119  118  126  123  136  130    0
ch:  87     135  139  108  137  134  119  129  139  135  119  123  131  124  124  127  126  128  132  135  134  128  135  123  121  134  119  132  127  133  137  135    0
ch:  88     128  134  143  134  132  121  137  121  133  124  131  123  131  105  121  128  117  126  121  123  119  121  120  120  121  117  115  119  122  125  136    0
ch:  89     140  138  131  138  134  140  135  140  133  134  124  132  126  116  123  133  135  131  121  136  119  132  118  142  132  131  130  133  133  137  146    0
ch:  90     137  135  120  120  133  139  137  122  131  133  133  126  124  125  117  129  121  123  120  120  117  109  126  118  125  122  121  122  135  125  134    0
ch:  91     136  122  143  135  133  126  130  118  125  137  119  128  130  128  125  129  134  120  124  119  127  133  122  123  134  128  136  133  133  130  123    0
ch:  92     122  132  126  148  138  132  132  120  135  141  121  133  120  138  131  134  129  138  132  136  117  122  132  129  126  123  118  119  125  138  132    0
ch:  93     130  133  133  123  135  134  137  132  131  127  134  135  126  134  131  141  122  122  117  121  121  126  132  137  136  132  128  132  130  142  139    0
ch:  94     133  120  138  132  140  133  124  129  127  134  129  124  125  125  126  138  120  124  130  127  122  121  112  122  121  120  116  115  130  134  130    0
ch:  95     135  142  150  135  131  136  125  121  129  136  141  144  134  130  137  133  137  119  127  117  126  134  132  145  137  131  133  147  128  137  142    0
ch:  96     151  131  133  137  137  128  120  150  133  119  122  134  120  123  133  120  119  116  122  116  115  117  114  113  122  119  118  130  130  133  134    0
ch:  97     121  149  117  130  134  140  133  140  129  138  132  128  134  134  134  116  132  120  129  136  135  133  121  128  121  133  136  129  128  118  132    0
ch:  98     134  133  137  139  131  132  131  131  133  129  121  135  121  123  118  125  122  113  116  116  118  121  113  127  112  120  123  108  133  134  137    0
ch:  99     134  142  129  127  136  138  134  135  127  119  122  137  121  118  125  137  131  134  134  132  123  122  124  129  130  138  125  139  143  138  136    0
ch: 100     129  123  126  133  126  140  135  137  122  135  132  132  132  122  121  133  123  122  125  132  120  118  116  118  117  117  119  123  122  123  134    0
ch: 101     130  138  123  123  135  134  134  137  139  123  127  123  135  129  130  134  122  129  117  132  123  132  137  134  124  133  132  117  133  125  137    0
ch: 102     124  132  133  131  136  124  129  133  130  119  121  123  108  135  133  119  114  114  118  120  117  121  109  121  128  118  123  117  114  132  133    0
ch: 103     138  137  137  133  146  139  145  118  121  133  127  132  129  125  120  132  140  126  131  119  135  136  134  138  134  128  125  122  137  140  139    0
ch: 104     148  122  132  122  123  129  134  136  126  131  121  131  128  121  124  118  120  125  122  121  130  132  116  125  119  135  127  126  122  120  124    0
ch: 105     127  126  126  135  134  126  140  120  138  134  120  121  122  118  135  119  117  121  137  131  118  121  120  131  134  121  120  130  131  134  127    0
ch: 106     130  118  134  131  124  132  133  125  125  125  131  121  118  119  122  131  132  133  122  121  129  117  119  106  129  108  127  122  118  136  130    0
ch: 107     147  120  124  138  120  138  133  134  135  131  135  132  133  120  121  122  122  137  133  122  120  124  124  121  128  128  130  131  125  139  136    0
ch: 108     138  134  137  131  120  144  130  133  134  130  119  127  124  112  129  124  122  118  120  125  120  106  132  121  123  117  120  122  129  132  121    0
ch: 109     134  134  130  128  136  131  137  132  140  117  128  123  132  134  130  118  129  130  131  119  115  122  120  131  128  125  148  137  125  126  138    0
ch: 110     139  135  134  133  122  139  131  139  120  134  120  131  123  123  121  126  123  128  123  117  125  125  118  135  111  123  114  135  127  134  131    0
ch: 111     122  132  138  127  124  134  117  128  123  134  136  134  122  131  121  134  120  133  117  119  129  131  122  117  124  131  131  134  130  133  131    0
ch: 112     146  138  118  137  134  141  124  124  128  121  129  133  120  120  117  116  131  117  121  115  120  119  126  107  120  122  121  116  118  148  134    0
ch: 113     133  135  124  121  132  136  133  126  133  134  135  124  123  120  133  121  134  139  131  137  123  134  120  117  125  141  123  133  121  133  137    0
ch: 114     120  138  137  138  143  107  133  132  123  117  124  116  127  117  122  113  123  109  121  111  112  117  104  108  122  117  117  122  126  128  136    0
ch: 115     131  140  134  129  136  123  133  135  136  124  129  118  140  119  135  132  133  131  125  128  132  132  123  119  132  127  116  128  126  148  141    0
ch: 116     135  129  129  140  134  119  130  133  134  129  133  119  122  120  126  110  123  125  122  132  122  125  118  118  114  124  118  122  116  131  137    0
ch: 117     135  128  130  145  132  132  124  131  119  133  134  129  127  132  131  120  122  122  126  119  130  125  123  136  123  118  129  122  120  130  125    0
ch: 118     134  137  133  128  130  136  124  134  109  136  133  134  134  131  121  121  118  130  117  108  118  118  116  123  122  112  120  118  118  136  133    0
ch: 119     135  134  147  135  136  131  129  133  123  136  129  113  134  131  124  118  133  122  120  148  132  124  121  135  131  134  123  130  140  136  137    0
ch: 120     129  143  133  136  122  130  134  135  134  121  119  134  118  133  119  113  122  124  122  118  116  117  115  121  118  130  117  119  132  135  131    0
ch: 121     134  126  134  129  135  135  130  129  134  117  132  132  120  121  124  133  130  121  119  129  132  136  128  135  133  125  130  124  120  133  130    0
ch: 122     138  132  137  132  127  127  134  132  129  134  127  122  138  120  109  125  126  120  121  117  128  113  120  123  129  122  126  133  113  132  123    0
ch: 123     131  135  123  135  123  134  120  125  131  132  135  127  119  137  131  131  135  121  137  132  120  121  122  125  140  121  126  131  122  133  134    0
ch: 124     138  133  123  136  128  126  120  133  131  122  134  125  119  114  131  120  128  130  117  114  135  120  119  118  117  123  117  124  145  135  127    0
ch: 125     134  119  135  133  139  135  138  132  105  125  129  124  133  132  133  121  124  130  117  119  125  128  123  125  134  127  136  120  131  136  145    0
ch: 126     129  125  122  134  132  135  123  130  129  121  125  130  123  111  122  120  114  119  118  123  124  114  121  110  130  118  118  120  124  133  117    0
ch: 127     131  145  142  130  132  149  135  136  133  146  137  133  137  147  132  134  134  138  144  136  130  140  134  150  138  139  140  140  139  138  139    0
