# TRIM CALIBRATION    FEB6_9_5    pulse_ampl_min=20    pulse_ampl_max=240    pulse_ampl_fast=20
#
ch:   0     124  135  131  133  128  141  133  122  130  122  122  129  115  125  126  120  120  116  117  120  117  117  119  123  116  130  122  116  117  129  121    0
ch:   1     138  130  134  135  134  134  134  114  141  134  140  117  134  130  125  131  123  121  120  137  131  116  133  121  129  120  121  135  124  140  123    0
ch:   2     120  131  136  120  132  132  122  137  134  118  119  119  118  122  132  124  118  121  114  119  113  122  118  117  120  112  118  120  118  118  123    0
ch:   3     136  132  130  138  136  132  143  127  132  132  148  128  123  141  135  132  123  121  130  135  131  121  129  128  123  129  134  134  131  146  135    0
ch:   4     131  146  118  122  131  122  124  110  132  142  132  135  117  118  125  119  117  120  116  120  116  129  112  128  107  119  121  110  122  125  123    0
ch:   5     139  133  138  138  139  136  132  144  135  137  136  137  135  129  118  123  138  135  121  117  136  136  132  135  121  123  136  124  124  129  133    0
ch:   6     130  120  133  132  136  131  146  121  130  128  115  122  127  124  122  107  122  128  130  110  118  120  122  116  122  122  117  116  117  133  123    0
ch:   7     137  151  131  138  134  118  136  131  137  135  135  123  122  120  131  130  123  132  124  134  130  131  130  134  130  137  133  146  122  134  131    0
ch:   8     135  133  123  131  127  135  139  129  126  133  131  125  133  121  125  131  126  112  106  119  114  116  115  114  107  113  118  107  121  131  121    0
ch:   9     136  122  135  138  135  133  138  136  134  133  122  132  132  128  125  131  133  131  121  119  137  131  123  121  120  126  134  129  139  133  130    0
ch:  10     140  138  135  131  131  120  122  133  123  127  120  117  118  118  117  117  133  122  111  125  108  130  115  105  121  121  122  117  120  117  116    0
ch:  11     137  130  151  132  136  135  126  133  133  122  133  131  134  135  126  128  121  120  117  127  121  122  130  126  119  144  131  137  132  123  138    0
ch:  12     133  131  134  123  130  121  124  132  120  122  134  134  124  118  119  120  118  117  121  120  130  103  114  133  118  125  119  124  121  134  120    0
ch:  13     146  137  137  130  139  136  135  136  128  135  134  123  133  134  134  134  127  135  127  137  128  130  124  131  130  131  134  134  132  129  145    0
ch:  14     133  133  120  135  134  133  135  123  123  130  116  126  118  128  116  120  118  120  107  123  118  120  118  119  109  120  117  119  128  123  121    0
ch:  15     130  133  137  131  135  140  135  132  133  133  132  129  121  139  123  133  131  134  114  134  138  130  127  123  112  130  131  135  137  127  135    0
ch:  16     133  133  144  128  135  123  135  127  121  134  108  121  132  129  132  117  120  103  120  114  117  114  105  119  105  115  126  128  107  116  123    0
ch:  17     137  140  137  147  131  120  134  129  134  137  126  123  126  137  120  122  114  131  126  145  120  133  133  115  136  130  131  134  138  135  139    0
ch:  18     136  136  141  126  135  146  142  130  134  118  133  122  117  118  123  123  122  118  132  117  120  113  116  111  126  122  115  121  120  117  129    0
ch:  19     135  132  129  136  135  138  138  134  134  131  131  124  122  134  131  133  127  133  134  133  117  133  128  146  132  132  121  132  137  131  134    0
ch:  20     129  136  132  137  142  121  129  123  119  121  125  132  130  126  119  132  131  116  138  122  120  121  121  122  120  113  130  132  127  122  122    0
ch:  21     135  147  133  122  136  136  138  122  135  137  135  127  126  133  124  124  128  117  130  126  129  116  131  117  122  120  134  129  131  135  131    0
ch:  22     138  139  136  130  137  151  134  125  133  131  134  120  123  119  119  127  130  121  121  119  117  112  119  102  104  116  118  121  123  127  120    0
ch:  23     136  119  138  131  133  134  148  131  138  128  148  131  139  135  132  136  114  134  121  128  133  131  118  131  137  120  120  128  129  127  137    0
ch:  24     131  132  126  132  135  142  134  126  135  122  128  121  123  120  124  122  119  125  117  115  119  110  132  108  114  134  134  127  130  122  130    0
ch:  25     149  138  131  141  138  134  135  139  135  141  138  134  137  133  134  121  130  126  120  131  138  121  128  129  130  129  118  133  131  136  138    0
ch:  26     130  132  125  135  131  134  133  122  145  134  122  126  124  121  113  119  129  134  134  116  113  124  121  116  122  127  117  137  117  134  123    0
ch:  27     136  139  128  135  133  131  138  138  135  146  120  126  121  132  121  137  121  118  131  122  111  121  131  129  130  127  122  130  139  122  124    0
ch:  28     133  137  131  124  132  133  135  122  122  123  121  124  114  130  129  111  116  118  134  120  113  116  116  127  117  128  124  124  116  122  120    0
ch:  29     123  134  137  132  138  133  131  132  132  133  122  122  138  135  137  131  128  119  128  137  123  126  135  109  123  129  137  129  133  138  132    0
ch:  30     142  139  119  133  122  137  133  131  130  134  121  122  121  116  124  119  117  122  126  123  119  123  116  115  114  115  117  134  125  132  133    0
ch:  31     137  139  139  125  137  132  133  138  132  134  131  121  134  127  130  122  122  135  133  132  126  126  122  138  122  127  125  135  127  148  135    0
ch:  32     129  134  137  138  131  135  140  130  121  121  135  120  117  127  132  119  117  107  115  128  119  122  107  123  121  122  109  117  122  124  126    0
ch:  33     137  137  138  137  123  135  140  123  138  144  132  133  121  137  122  131  127  133  118  136  134  123  122  136  135  122  134  120  132  122  133    0
ch:  34     134  124  131  127  135  132  134  122  138  128  124  123  122  136  106  132  128  124  106  115  104  119  115  125  119  118  119  134  115  121  132    0
ch:  35     128  143  132  135  144  130  120  130  129  140  146  136  135  121  126  118  131  129  125  122  132  118  133  119  148  126  121  117  122  137  135    0
ch:  36     133  133  148  120  122  131  136  128  122  118  118  132  121  132  117  122  120  120  122  119  119  104  121  118  118  122  117  116  119  134  127    0
ch:  37     132  133  140  133  133  128  151  126  123  137  124  136  128  131  127  130  127  114  128  128  127  121  133  128  121  120  132  129  135  118  135    0
ch:  38     143  134  133  129  124  131  135  134  131  118  134  135  118  131  116  119  116  132  131  121  122  118  107  123  121  122  125  122  121  127  134    0
ch:  39     132  130  133  134  124  125  133  149  132  125  122  125  126  133  134  119  123  115  122  129  133  135  121  132  137  123  121  122  147  140  137    0
ch:  40     136  147  129  137  134  129  121  136  124  131  137  127  118  121  120  122  113  124  120  119  134  127  112  125  119  131  132  129  123  130  132    0
ch:  41     138  131  136  128  122  132  134  130  132  122  136  133  131  130  124  139  124  122  128  117  118  124  124  122  119  136  137  128  132  140  135    0
ch:  42     132  124  133  122  131  138  134  128  131  119  131  137  121  127  118  117  116  103  122  121  131  119  115  123  112  120  112  123  119  121  120    0
ch:  43     143  124  137  138  157  132  134  149  132  132  132  134  117  133  126  131  133  128  136  117  124  123  122  118  115  119  131  133  135  130  123    0
ch:  44     138  133  133  131  124  147  134  136  123  125  130  117  111  123  134  120  132  128  123  129  111  132  117  121  133  107  116  122  129  119  131    0
ch:  45     138  128  137  128  123  136  137  131  137  136  130  133  126  128  124  118  121  118  124  123  133  135  119  129  121  131  122  140  138  140  137    0
ch:  46     143  129  133  138  125  132  135  127  128  127  133  121  128  131  119  120  123  128  116  114  119  107  119  118  123  125  124  118  118  132  139    0
ch:  47     135  130  147  136  150  131  133  138  138  118  119  132  129  135  132  132  129  131  132  134  131  130  137  120  120  133  132  122  137  132  137    0
ch:  48     135  123  136  133  119  132  128  118  123  126  135  132  124  121  130  120  109  118  132  109  125  127  131  117  116  115  134  121  125  117  123    0
ch:  49     147  138  120  134  137  133  123  129  135  125  144  132  130  119  127  134  126  123  119  125  129  135  138  134  136  116  132  139  133  121  127    0
ch:  50     131  131  121  131  127  140  137  137  139  136  134  135  124  121  117  121  118  126  129  106  125  134  121  121  118  122  106  106  119  122  117    0
ch:  51     147  144  133  140  140  120  136  137  130  134  128  134  132  131  125  134  124  133  131  131  120  133  123  135  120  134  134  126  127  132  134    0
ch:  52     133  132  138  146  136  137  126  131  131  137  123  123  116  136  122  131  132  128  124  135  118  114  123  122  133  116  122  113  119  136  128    0
ch:  53     130  123  134  137  133  126  127  142  124  128  127  134  138  130  132  124  121  128  122  118  133  108  129  135  134  136  131  145  122  123  135    0
ch:  54     125  138  130  128  128  129  133  134  138  135  140  123  133  132  120  116  130  120  126  122  118  116  111  117  122  123  117  135  123  132  134    0
ch:  55     137  137  120  135  137  140  138  147  141  136  139  138  132  134  121  126  136  121  124  123  119  117  117  120  134  130  131  128  132  139  128    0
ch:  56     136  132  147  136  135  133  134  119  129  123  121  120  121  119  127  122  128  127  121  122  114  117  114  120  121  116  121  116  105  132  130    0
ch:  57     144  129  123  134  122  126  137  150  135  130  132  134  132  129  119  145  134  124  130  117  119  116  122  126  134  136  120  137  136  142  146    0
ch:  58     145  137  123  137  137  123  117  132  132  134  134  133  124  123  118  130  120  120  124  117  116  108  121  103  120  131  122  130  122  119  135    0
ch:  59     142  131  131  137  136  135  135  143  136  134  133  131  121  118  131  134  120  122  131  120  133  121  121  125  132  120  133  123  136  137  133    0
ch:  60     149  134  138  133  131  140  120  137  148  134  133  119  126  120  125  132  117  111  135  108  126  124  126  128  120  119  135  133  135  120  122    0
ch:  61     129  136  148  133  152  128  133  134  134  134  124  133  137  120  145  118  131  134  127  123  134  141  128  125  123  135  131  122  135  135  129    0
ch:  62     128  131  135  130  140  131  131  143  138  140  122  138  130  130  121  118  112  127  119  122  132  124  123  115  137  117  111  121  123  136  136    0
ch:  63     136  140  138  133  135  129  128  135  134  134  139  122  129  133  116  138  122  132  121  122  121  123  131  124  122  123  129  134  133  122  145    0
ch:  64     133  136  136  122  131  138  135  119  117  136  124  122  124  116  122  125  116  132  136  129  121  122  101  119  115  117  129  124  121  122  124    0
ch:  65     133  129  136  129  130  127  127  138  138  133  135  132  138  133  129  127  133  130  134  131  122  126  121  122  105  136  123  148  135  148  138    0
ch:  66     146  138  132  133  131  134  122  120  135  137  123  133  109  122  115  134  122  119  125  122  135  115  117  118  109  120  121  132  116  133  126    0
ch:  67     132  124  136  140  148  131  140  135  140  132  133  132  127  139  138  124  131  137  136  119  133  132  127  130  131  135  133  136  127  129  130    0
ch:  68     133  135  129  129  137  145  139  137  136  125  132  133  126  121  132  131  138  119  117  117  138  124  135  120  121  115  120  130  138  133  126    0
ch:  69     134  136  137  134  148  133  147  134  144  137  144  126  132  146  128  126  128  123  121  127  122  130  134  131  135  122  131  135  132  130  140    0
ch:  70     143  129  122  129  145  134  137  142  132  132  122  121  122  134  120  128  122  111  128  115  120  117  119  125  123  119  126  121  119  123  119    0
ch:  71     137  134  126  137  138  138  125  122  140  136  139  148  124  133  133  136  130  132  143  121  131  131  129  116  126  134  131  137  136  136  134    0
ch:  72     132  131  130  133  130  134  134  129  135  135  131  137  123  119  108  121  117  117  121  122  119  115  118  116  132  117  123  118  126  109  123    0
ch:  73     140  134  123  135  149  141  129  137  140  145  132  128  132  126  137  131  124  129  135  130  132  118  134  122  138  126  127  134  135  143  138    0
ch:  74     139  126  141  132  135  121  121  131  132  130  126  132  133  120  126  123  134  106  121  119  135  118  104  124  120  107  115  139  130  126  128    0
ch:  75     133  146  137  130  136  134  136  135  122  134  121  134  123  138  121  137  124  124  132  134  134  123  134  131  122  144  137  128  135  134  135    0
ch:  76     133  132  137  123  122  133  134  130  132  128  124  124  135  119  121  120  123  131  123  127  126  105  118  119  120  118  121  118  121  122  135    0
ch:  77     149  127  136  137  132  138  137  133  134  145  124  134  134  135  133  131  134  121  132  118  121  123  128  122  126  133  119  126  135  128  137    0
ch:  78     135  133  137  134  131  139  129  133  137  129  123  137  129  123  138  122  128  117  123  120  117  116  127  120  120  119  116  120  124  120  121    0
ch:  79     141  147  133  134  130  121  134  141  133  129  127  120  122  132  136  123  138  123  137  122  134  128  112  128  122  123  121  134  118  127  138    0
ch:  80     138  137  131  123  134  133  126  137  136  131  118  130  129  135  120  121  130  121  125  132  117  131  118  122  127  105  117  134  117  131  115    0
ch:  81     134  134  145  132  136  145  130  136  134  136  129  125  130  145  134  128  121  131  150  130  120  135  123  134  125  132  143  137  131  127  132    0
ch:  82     133  151  138  149  134  123  138  135  132  129  132  121  123  134  128  125  108  114  112  110  113  133  118  119  129  121  121  120  121  125  128    0
ch:  83     135  137  124  132  134  134  134  136  133  134  145  124  126  132  137  131  138  130  127  129  135  134  135  129  123  120  133  123  131  141  134    0
ch:  84     138  137  149  123  124  132  122  139  122  127  148  122  117  122  131  127  132  121  120  123  118  116  130  122  106  117  132  112  117  124  134    0
ch:  85     150  122  144  129  129  133  136  123  134  116  120  125  131  134  128  125  134  133  126  127  123  134  123  124  122  135  126  120  127  132  123    0
ch:  86     132  147  150  149  138  120  119  124  135  120  134  121  129  136  128  120  137  124  121  116  121  113  131  128  132  116  132  122  133  121  122    0
ch:  87     138  137  138  139  120  151  149  128  134  132  136  134  133  135  134  122  130  119  137  137  136  137  126  129  131  137  127  137  129  130  135    0
ch:  88     138  134  121  122  134  134  134  127  133  118  137  122  119  119  120  121  117  105  131  113  118  123  124  122  116  115  122  106  121  133  135    0
ch:  89     132  134  147  135  156  130  134  138  128  129  135  131  135  134  115  135  111  120  127  125  120  128  134  122  120  138  131  134  126  137  120    0
ch:  90     134  141  132  142  132  137  137  124  126  134  122  122  134  133  119  116  136  126  120  116  121  123  118  119  118  119  121  120  133  120  121    0
ch:  91     135  131  144  135  134  153  136  134  149  137  123  138  128  134  129  133  122  122  135  129  134  118  120  121  128  125  116  132  133  138  130    0
ch:  92     124  130  127  132  140  137  130  126  126  131  132  123  126  127  126  120  117  106  125  122  132  128  135  115  123  118  124  119  133  124  121    0
ch:  93     138  125  134  149  136  137  136  137  120  147  134  124  135  136  131  131  130  122  139  129  132  125  126  125  132  120  135  124  129  136  140    0
ch:  94     123  134  136  132  129  122  136  132  121  130  119  135  120  123  121  126  120  107  120  119  123  124  117  121  130  132  116  117  131  130  122    0
ch:  95     135  134  132  137  126  135  133  134  133  134  128  138  120  123  129  136  122  120  112  127  122  133  140  122  118  135  131  135  130  130  134    0
ch:  96     136  133  123  135  126  138  122  136  132  111  125  119  123  116  133  138  122  104  125  121  121  135  112  116  117  133  116  123  107  121  118    0
ch:  97     137  135  153  134  135  134  136  134  135  134  139  130  135  121  135  119  121  135  128  120  121  120  135  134  116  123  124  118  137  136  148    0
ch:  98     124  125  130  134  136  139  137  123  123  130  126  122  126  136  121  125  127  122  120  110  122  127  122  119  113  106  121  120  121  135  127    0
ch:  99     144  137  144  140  153  134  132  132  138  132  122  137  133  146  130  134  134  119  120  136  122  128  127  124  133  129  132  132  127  137  137    0
ch: 100     145  130  132  130  129  139  133  132  141  123  128  132  136  133  121  117  124  134  140  121  122  118  132  137  117  124  130  127  121  135  133    0
ch: 101     135  131  124  139  131  136  137  134  133  136  134  133  124  138  131  139  133  134  123  136  134  129  135  121  120  126  124  148  120  131  150    0
ch: 102     133  136  134  123  121  121  132  128  134  128  130  134  131  123  117  118  128  121  121  115  128  120  116  118  118  115  134  126  123  131  120    0
ch: 103     125  139  136  145  127  126  137  122  149  134  136  127  138  121  144  123  134  126  113  131  129  128  122  128  133  137  122  137  135  134  134    0
ch: 104     135  147  121  133  137  143  142  131  131  124  135  132  135  125  127  118  133  117  120  132  122  116  130  116  112  130  122  121  118  119  128    0
ch: 105     138  132  148  148  134  134  131  131  144  150  135  134  135  121  121  141  132  123  148  121  120  116  134  121  132  133  122  134  138  123  148    0
ch: 106     133  136  134  133  134  136  129  124  128  122  119  123  132  135  136  133  120  114  130  133  107  127  120  121  118  122  130  107  118  126  122    0
ch: 107     129  125  122  148  134  137  132  137  132  126  147  128  126  119  123  124  143  138  117  133  117  135  135  123  124  133  128  138  123  133  135    0
ch: 108     134  137  138  142  130  136  121  135  135  134  131  125  126  135  130  132  118  123  121  120  117  118  130  123  117  120  121  120  123  127  132    0
ch: 109     136  136  122  129  138  131  136  145  132  137  135  140  147  127  116  128  123  120  136  126  120  118  118  121  122  138  138  133  139  121  148    0
ch: 110     151  137  137  132  125  117  123  126  131  132  122  121  129  129  120  132  120  122  119  122  133  100  117  119  121  126  112  132  124  122  137    0
ch: 111     131  122  133  135  135  122  125  123  142  133  142  135  139  131  135  133  134  124  130  121  133  121  127  117  129  129  132  140  120  139  129    0
ch: 112     138  130  122  131  139  136  133  120  128  117  131  121  110  131  139  125  121  119  113  130  112  105  132  109  127  128  119  119  120  135  133    0
ch: 113     149  145  144  148  135  136  138  141  132  121  135  129  122  138  132  125  123  129  145  127  132  122  119  131  137  122  125  135  130  140  139    0
ch: 114     134  137  130  136  137  145  132  121  137  120  134  119  122  134  116  122  128  120  129  126  117  126  113  119  131  118  131  131  129  130  144    0
ch: 115     125  134  135  136  134  128  137  132  121  137  144  146  134  134  121  132  131  122  132  136  137  135  118  129  132  121  136  132  145  149  139    0
ch: 116     131  134  148  114  134  137  144  123  124  124  131  136  138  127  117  132  129  120  117  117  119  110  118  118  122  120  120  121  122  114  118    0
ch: 117     138  137  134  138  152  138  131  131  124  135  136  120  123  132  132  118  124  119  130  128  117  121  125  118  132  132  135  133  137  138  123    0
ch: 118     150  133  133  131  134  117  128  141  124  136  123  127  131  119  134  125  113  119  122  118  108  117  123  119  135  132  114  119  119  131  138    0
ch: 119     134  134  132  122  126  136  134  132  138  123  134  134  140  135  136  132  134  133  127  141  127  133  131  136  123  133  128  120  118  124  131    0
ch: 120     133  135  136  134  135  122  129  135  133  132  122  106  127  125  131  120  107  133  121  120  108  118  112  106  121  126  111  131  111  111  134    0
ch: 121     127  141  137  135  128  133  132  134  139  135  132  125  118  122  127  132  120  132  145  133  122  120  118  117  134  125  120  136  134  134  137    0
ch: 122     137  134  136  136  117  129  134  122  134  132  140  123  126  114  128  124  118  115  127  121  131  117  116  134  119  120  123  119  117  121  129    0
ch: 123     126  146  147  136  122  123  137  134  136  137  129  129  122  132  123  121  147  128  143  124  118  116  123  121  123  137  136  136  135  131  132    0
ch: 124     123  132  123  136  121  120  127  124  127  134  124  107  122  123  120  120  122  134  131  117  119  116  116  121  126  119  123  126  116  127  122    0
ch: 125     148  141  130  142  134  134  132  135  123  128  132  127  119  121  132  134  123  125  122  118  136  124  117  129  113  128  132  137  135  132  135    0
ch: 126     121  133  130  137  146  132  121  132  139  135  125  123  133  121  119  119  121  109  116  120  122  116  105  123  119  117  118  128  122  124  121    0
ch: 127     128  150  141  143  136  133  133  124  141  137  134  132  137  141  136  125  135  150  149  133  143  135  146  136  133  137  126  132  123  156  147    0
